{
"document" : {
"data" : {
"NAME" : "VERSION_ALIASES_TABLE",
"COMMENT" : "Default Version Aliases.",
"AUTHOR" : "admin",
"CREATION_TIME" : 1480649901,
"COL_TYPES" : {
"VERSION_ALIAS_UID" : "STRING",
"TABLE_NAME" : "STRING",
"VERSION_ALIAS" : "STRING",
"VERSION" : "STRING",
"COMMENT_DESCRIPTION" : "STRING",
"AUTHOR" : "STRING",
"RECORD_INSERTION_TIME" : "TIMESTAMP WITH TIMEZONE"
},
"DATA_SET" : [

]
},
"metadata" : {

},
"search" : [

]
},
"comments" : [

],
"origin" : {
"source" : "template",
"name" : "notprovided",
"format" : "json",
"created" : "2020-07-21T14:27:48.189-0500",
"rawdata" : [

]
},
"version" : "4",
"entities" : [
{
"name" : "OTSROOT",
"assigned" : "2020-07-21T14:27:48.189-0500"
}
],
"configurations" : [
{
"name" : "notprovided",
"assigned" : "2020-07-21T14:27:48.189-0500"
},
{
"name" : "TableEditWizBackbone_v4",
"assigned" : "2020-07-21T14:27:48.243-0500"
},
{
"name" : "GroupAliasTreeEditWizBackbone_v0",
"assigned" : "2020-07-21T14:42:51.276-0500"
},
{
"name" : "GroupAliasTreeEditWizBackbone_v1",
"assigned" : "2020-07-21T14:44:17.394-0500"
},
{
"name" : "GroupAliasTreeEditWizBackbone_v2",
"assigned" : "2020-07-21T14:46:45.167-0500"
},
{
"name" : "GroupAliasTreeEditWizBackbone_v3",
"assigned" : "2020-07-21T14:51:17.506-0500"
},
{
"name" : "GroupAliasTreeEditWizBackbone_v4",
"assigned" : "2020-07-21T14:55:17.471-0500"
},
{
"name" : "GroupAliasTreeEditWizBackbone_v5",
"assigned" : "2020-07-21T14:55:57.885-0500"
},
{
"name" : "TableEditWizBackbone_v5",
"assigned" : "2020-07-21T14:57:51.356-0500"
},
{
"name" : "GroupAliasTreeEditWizBackbone_v6",
"assigned" : "2020-07-21T15:50:02.284-0500"
}
],
"changelog" : "notprovided",
"bookkeeping" : {
"isdeleted" : false,
"isreadonly" : false,
"updates" : [
{
"event" : "addConfiguration",
"timestamp" : "2020-07-21T14:27:48.189-0500",
"value" : {
"name" : "notprovided",
"assigned" : "2020-07-21T14:27:48.189-0500"
}
},
{
"event" : "setVersion",
"timestamp" : "2020-07-21T14:27:48.189-0500",
"value" : {
"name" : "4",
"assigned" : "2020-07-21T14:27:48.189-0500"
}
},
{
"event" : "setCollection",
"timestamp" : "2020-07-21T14:27:48.189-0500",
"value" : {
"name" : "VersionAliasesTable",
"assigned" : "2020-07-21T14:27:48.189-0500"
}
},
{
"event" : "addEntity",
"timestamp" : "2020-07-21T14:27:48.189-0500",
"value" : {
"name" : "OTSROOT",
"assigned" : "2020-07-21T14:27:48.189-0500"
}
},
{
"event" : "addConfiguration",
"timestamp" : "2020-07-21T14:27:48.243-0500",
"value" : {
"name" : "TableEditWizBackbone_v4",
"assigned" : "2020-07-21T14:27:48.243-0500"
}
},
{
"event" : "addConfiguration",
"timestamp" : "2020-07-21T14:42:51.276-0500",
"value" : {
"name" : "GroupAliasTreeEditWizBackbone_v0",
"assigned" : "2020-07-21T14:42:51.276-0500"
}
},
{
"event" : "addConfiguration",
"timestamp" : "2020-07-21T14:44:17.394-0500",
"value" : {
"name" : "GroupAliasTreeEditWizBackbone_v1",
"assigned" : "2020-07-21T14:44:17.394-0500"
}
},
{
"event" : "addConfiguration",
"timestamp" : "2020-07-21T14:46:45.167-0500",
"value" : {
"name" : "GroupAliasTreeEditWizBackbone_v2",
"assigned" : "2020-07-21T14:46:45.167-0500"
}
},
{
"event" : "addConfiguration",
"timestamp" : "2020-07-21T14:51:17.506-0500",
"value" : {
"name" : "GroupAliasTreeEditWizBackbone_v3",
"assigned" : "2020-07-21T14:51:17.506-0500"
}
},
{
"event" : "addConfiguration",
"timestamp" : "2020-07-21T14:55:17.471-0500",
"value" : {
"name" : "GroupAliasTreeEditWizBackbone_v4",
"assigned" : "2020-07-21T14:55:17.471-0500"
}
},
{
"event" : "addConfiguration",
"timestamp" : "2020-07-21T14:55:57.885-0500",
"value" : {
"name" : "GroupAliasTreeEditWizBackbone_v5",
"assigned" : "2020-07-21T14:55:57.885-0500"
}
},
{
"event" : "addConfiguration",
"timestamp" : "2020-07-21T14:57:51.356-0500",
"value" : {
"name" : "TableEditWizBackbone_v5",
"assigned" : "2020-07-21T14:57:51.356-0500"
}
},
{
"event" : "addConfiguration",
"timestamp" : "2020-07-21T15:50:02.284-0500",
"value" : {
"name" : "GroupAliasTreeEditWizBackbone_v6",
"assigned" : "2020-07-21T15:50:02.284-0500"
}
}
],
"created" : "2020-07-21T14:27:48.189-0500"
},
"_id" : {
"$oid" : "7d92bb02ccdb4734b72ccd77"
},
"collection" : "VersionAliasesTable",
"aliases" : {
"active" : [

],
"history" : [

]
},
"runs" : [

],
"attachments" : [

],
"configtype" : "notprovided"
}