{
"ouid" : [
"6a58a2c2da3d4eaa99b6ccc5",
"7d92bb02ccdb4734b72ccd77"
],
"version" : {
"3" : [
"6a58a2c2da3d4eaa99b6ccc5"
],
"4" : [
"7d92bb02ccdb4734b72ccd77"
]
},
"configurations.name" : {
"notprovided" : [
"6a58a2c2da3d4eaa99b6ccc5",
"7d92bb02ccdb4734b72ccd77"
],
"TableEditWizBackbone_v3" : [
"6a58a2c2da3d4eaa99b6ccc5"
],
"TableEditWizBackbone_v4" : [
"7d92bb02ccdb4734b72ccd77"
],
"GroupAliasTreeEditWizBackbone_v0" : [
"7d92bb02ccdb4734b72ccd77"
],
"GroupAliasTreeEditWizBackbone_v1" : [
"7d92bb02ccdb4734b72ccd77"
],
"GroupAliasTreeEditWizBackbone_v2" : [
"7d92bb02ccdb4734b72ccd77"
],
"GroupAliasTreeEditWizBackbone_v3" : [
"7d92bb02ccdb4734b72ccd77"
],
"GroupAliasTreeEditWizBackbone_v4" : [
"7d92bb02ccdb4734b72ccd77"
],
"GroupAliasTreeEditWizBackbone_v5" : [
"7d92bb02ccdb4734b72ccd77"
],
"TableEditWizBackbone_v5" : [
"7d92bb02ccdb4734b72ccd77"
],
"GroupAliasTreeEditWizBackbone_v6" : [
"7d92bb02ccdb4734b72ccd77"
]
},
"entities.name" : {
"OTSROOT" : [
"6a58a2c2da3d4eaa99b6ccc5",
"7d92bb02ccdb4734b72ccd77"
]
},
"aliases.active.name" : {

},
"runs.name" : {

},
"configurations.assigned" : {
"notprovided" : [
"2020-07-21T14:27:47.990-0500",
"2020-07-21T14:27:48.189-0500"
],
"TableEditWizBackbone_v3" : [
"2020-07-21T14:27:48.117-0500"
],
"TableEditWizBackbone_v4" : [
"2020-07-21T14:27:48.243-0500"
],
"GroupAliasTreeEditWizBackbone_v0" : [
"2020-07-21T14:42:51.276-0500"
],
"GroupAliasTreeEditWizBackbone_v1" : [
"2020-07-21T14:44:17.394-0500"
],
"GroupAliasTreeEditWizBackbone_v2" : [
"2020-07-21T14:46:45.167-0500"
],
"GroupAliasTreeEditWizBackbone_v3" : [
"2020-07-21T14:51:17.506-0500"
],
"GroupAliasTreeEditWizBackbone_v4" : [
"2020-07-21T14:55:17.471-0500"
],
"GroupAliasTreeEditWizBackbone_v5" : [
"2020-07-21T14:55:57.885-0500"
],
"TableEditWizBackbone_v5" : [
"2020-07-21T14:57:51.356-0500"
],
"GroupAliasTreeEditWizBackbone_v6" : [
"2020-07-21T15:50:02.284-0500"
]
}
}