{
"document" : {
"data" : {
"NAME" : "FE_MIDDLEWARE_INTERFACE_TABLE",
"COMMENT" : "No comment.",
"AUTHOR" : "admin",
"CREATION_TIME" : 1599605504,
"COL_TYPES" : {
"INTERFACE_ID" : "STRING",
"INTERFACE_IP_ADDRESS" : "STRING",
"INTERFACE_PORT" : "NUMBER",
"CALIBRATION_NAME" : "STRING",
"CONFIGURATION_DIR" : "STRING",
"CONFIGURATION_NAME" : "STRING",
"COMMENT_DESCRIPTION" : "STRING",
"AUTHOR" : "STRING",
"RECORD_INSERTION_TIME" : "TIMESTAMP WITH TIMEZONE"
},
"DATA_SET" : [
{
"INTERFACE_ID" : "OuterTrackerFEInterface0",
"INTERFACE_IP_ADDRESS" : "127.0.0.1",
"INTERFACE_PORT" : "5000",
"CALIBRATION_NAME" : "calibration",
"CONFIGURATION_DIR" : "${PH2ACF_BASE_DIR}/settings",
"CONFIGURATION_NAME" : "D19CDescription_2CBC3_Feynman.xml",
"COMMENT_DESCRIPTION" : "No Comment",
"AUTHOR" : "admin",
"RECORD_INSERTION_TIME" : "1599605500"
}
]
},
"metadata" : {

},
"search" : [

]
},
"comments" : [

],
"origin" : {
"source" : "template",
"name" : "notprovided",
"format" : "json",
"created" : "2020-09-08T17:51:44.311-0500",
"rawdata" : [

]
},
"version" : "1",
"entities" : [
{
"name" : "OTSROOT",
"assigned" : "2020-09-08T17:51:44.312-0500"
}
],
"configurations" : [
{
"name" : "notprovided",
"assigned" : "2020-09-08T17:51:44.311-0500"
},
{
"name" : "DefaultConfig_v2",
"assigned" : "2020-09-08T17:51:44.969-0500"
}
],
"changelog" : "notprovided",
"bookkeeping" : {
"isdeleted" : false,
"isreadonly" : false,
"updates" : [
{
"event" : "addConfiguration",
"timestamp" : "2020-09-08T17:51:44.312-0500",
"value" : {
"name" : "notprovided",
"assigned" : "2020-09-08T17:51:44.311-0500"
}
},
{
"event" : "setVersion",
"timestamp" : "2020-09-08T17:51:44.312-0500",
"value" : {
"name" : "1",
"assigned" : "2020-09-08T17:51:44.312-0500"
}
},
{
"event" : "setCollection",
"timestamp" : "2020-09-08T17:51:44.312-0500",
"value" : {
"name" : "FEMiddlewareInterfaceTable",
"assigned" : "2020-09-08T17:51:44.312-0500"
}
},
{
"event" : "addEntity",
"timestamp" : "2020-09-08T17:51:44.312-0500",
"value" : {
"name" : "OTSROOT",
"assigned" : "2020-09-08T17:51:44.312-0500"
}
},
{
"event" : "addConfiguration",
"timestamp" : "2020-09-08T17:51:44.969-0500",
"value" : {
"name" : "DefaultConfig_v2",
"assigned" : "2020-09-08T17:51:44.969-0500"
}
}
],
"created" : "2020-09-08T17:51:44.311-0500"
},
"_id" : {
"$oid" : "775c6dfc77fd4071b264e2a0"
},
"collection" : "FEMiddlewareInterfaceTable",
"aliases" : {
"active" : [

],
"history" : [

]
},
"runs" : [

],
"attachments" : [

],
"configtype" : "notprovided"
}