{
"document" : {
"data" : {
"NAME" : "FECBC_INTERFACE_CONFIGURATION",
"COMMENT" : "CBC configuration for mini module",
"AUTHOR" : "admin",
"CREATION_TIME" : 1499459982,
"COL_TYPES" : {
"INTERFACE_ID" : "VARCHAR2",
"STATUS" : "VARCHAR2",
"CONNECTION_FILE" : "VARCHAR2",
"DEVICE_ID" : "VARCHAR2",
"SAVE_DATA_FILE" : "VARCHAR2",
"DATA_FILE_PATH" : "VARCHAR2",
"DATA_FILE_NAME_PREFIX" : "VARCHAR2",
"HOST_IP_ADDRESS" : "VARCHAR2",
"HOST_PORT" : "NUMBER",
"STREAM_TO_IP_ADDRESS" : "VARCHAR2",
"STREAM_TO_PORT" : "NUMBER",
"COMMENT_DESCRIPTION" : "VARCHAR2",
"AUTHOR" : "VARCHAR2",
"RECORD_INSERTION_TIME" : "TIMESTAMP WITH TIMEZONE"
},
"DATA_SET" : [
{
"INTERFACE_ID" : "OTMiniModule0",
"STATUS" : "On",
"CONNECTION_FILE" : "${OTSDAQ_CMSOUTERTRACKER_DIR}/otsdaq-cmsoutertracker/Ph2_ACF/settings/D19CHWDescription.xml",
"DEVICE_ID" : "board0",
"SAVE_DATA_FILE" : "Yes",
"DATA_FILE_PATH" : "/home/daq1.1/Workshop/otsdaq_data/Data",
"DATA_FILE_NAME_PREFIX" : "Run",
"HOST_IP_ADDRESS" : "192.168.0.100",
"HOST_PORT" : "10000",
"STREAM_TO_IP_ADDRESS" : "127.0.0.1",
"STREAM_TO_PORT" : "50000",
"COMMENT_DESCRIPTION" : "No Comment",
"AUTHOR" : "admin",
"RECORD_INSERTION_TIME" : "1499459982"
}
]
},
"metadata" : {

},
"search" : [

]
},
"comments" : [

],
"origin" : {
"source" : "template",
"name" : "notprovided",
"format" : "json",
"created" : "Fri Jul 07 22:54:21 2017",
"rawdata" : [

]
},
"version" : "2",
"entities" : [
{
"name" : "OTSROOT",
"assigned" : "Fri Jul 07 22:54:21 2017"
}
],
"configurations" : [
{
"name" : "notprovided",
"assigned" : "Fri Jul 07 22:54:21 2017"
},
{
"name" : "OTMiniModuleConfiguration_v2",
"assigned" : "Fri Jul 07 22:54:21 2017"
}
],
"changelog" : "notprovided",
"bookkeeping" : {
"isdeleted" : false,
"isreadonly" : false,
"updates" : [
{
"event" : "addConfiguration",
"timestamp" : "Fri Jul 07 22:54:21 2017",
"value" : {
"name" : "notprovided",
"assigned" : "Fri Jul 07 22:54:21 2017"
}
},
{
"event" : "setVersion",
"timestamp" : "Fri Jul 07 22:54:21 2017",
"value" : {
"name" : "2",
"assigned" : "Fri Jul 07 22:54:21 2017"
}
},
{
"event" : "setCollection",
"timestamp" : "Fri Jul 07 22:54:21 2017",
"value" : {
"name" : "FECBCInterfaceConfiguration",
"assigned" : "Fri Jul 07 22:54:21 2017"
}
},
{
"event" : "addEntity",
"timestamp" : "Fri Jul 07 22:54:21 2017",
"value" : {
"name" : "OTSROOT",
"assigned" : "Fri Jul 07 22:54:21 2017"
}
},
{
"event" : "addConfiguration",
"timestamp" : "Fri Jul 07 22:54:21 2017",
"value" : {
"name" : "OTMiniModuleConfiguration_v2",
"assigned" : "Fri Jul 07 22:54:21 2017"
}
}
],
"created" : "Fri Jul 07 22:54:21 2017"
},
"_id" : {
"$oid" : "1a09069698274779bd067b1f"
},
"collection" : "FECBCInterfaceConfiguration",
"aliases" : {
"active" : [

],
"history" : [

]
},
"runs" : [

],
"attachments" : [

],
"configtype" : "notprovided"
}