{
"document" : {
"data" : {
"NAME" : "DATA_PROCESSOR_TABLE",
"COMMENT" : "No comment.",
"AUTHOR" : "admin",
"CREATION_TIME" : 1574289729,
"COL_TYPES" : {
"DATA_PROCESSOR_GROUP_ID" : "STRING",
"PROCESSOR_UID" : "STRING",
"PROCESSOR_TYPE" : "STRING",
"PROCESSOR_PLUGIN_NAME" : "STRING",
"LINK_TO_PROCESSOR_TABLE" : "STRING",
"LINK_TO_PROCESSOR_UID" : "STRING",
"STATUS" : "STRING",
"COMMENT_DESCRIPTION" : "STRING",
"AUTHOR" : "STRING",
"RECORD_INSERTION_TIME" : "TIMESTAMP WITH TIMEZONE"
},
"DATA_SET" : [
{
"DATA_PROCESSOR_GROUP_ID" : "OuterTrackerDataBuffer0",
"PROCESSOR_UID" : "OuterTrackerDataBuffer0Listener0",
"PROCESSOR_TYPE" : "Producer",
"PROCESSOR_PLUGIN_NAME" : "UDPDataListenerProducer",
"LINK_TO_PROCESSOR_TABLE" : "UDPDataListenerProducerTable",
"LINK_TO_PROCESSOR_UID" : "OuterTrackerDataBuffer0Listener0",
"STATUS" : "On",
"COMMENT_DESCRIPTION" : "",
"AUTHOR" : "admin",
"RECORD_INSERTION_TIME" : "1550771721"
},
{
"DATA_PROCESSOR_GROUP_ID" : "OuterTrackerDataBuffer0",
"PROCESSOR_UID" : "OuterTrackerDataBuffer0RawDataSaver0",
"PROCESSOR_TYPE" : "Consumer",
"PROCESSOR_PLUGIN_NAME" : "RawDataSaverConsumer",
"LINK_TO_PROCESSOR_TABLE" : "RawDataSaverConsumerTable",
"LINK_TO_PROCESSOR_UID" : "OuterTrackerDataBuffer0RawDataSaver0",
"STATUS" : "On",
"COMMENT_DESCRIPTION" : "",
"AUTHOR" : "admin",
"RECORD_INSERTION_TIME" : "1550866562"
},
{
"DATA_PROCESSOR_GROUP_ID" : "VisualDataBuffer",
"PROCESSOR_UID" : "VisualDataBufferListener",
"PROCESSOR_TYPE" : "Producer",
"PROCESSOR_PLUGIN_NAME" : "TCPDataListenerProducer",
"LINK_TO_PROCESSOR_TABLE" : "TCPDataListenerProducerTable",
"LINK_TO_PROCESSOR_UID" : "VisualDataBufferListener",
"STATUS" : "On",
"COMMENT_DESCRIPTION" : "",
"AUTHOR" : "admin",
"RECORD_INSERTION_TIME" : "1574288657"
},
{
"DATA_PROCESSOR_GROUP_ID" : "VisualDataBuffer",
"PROCESSOR_UID" : "VisualDataBufferOTDQMHistos",
"PROCESSOR_TYPE" : "Consumer",
"PROCESSOR_PLUGIN_NAME" : "DQMMiddlewareHistosConsumer",
"LINK_TO_PROCESSOR_TABLE" : "OTDQMHistosConsumerTable",
"LINK_TO_PROCESSOR_UID" : "VisualDataBufferOTDQMHistos",
"STATUS" : "Off",
"COMMENT_DESCRIPTION" : "",
"AUTHOR" : "admin",
"RECORD_INSERTION_TIME" : "1574289694"
},
{
"DATA_PROCESSOR_GROUP_ID" : "VisualDataBuffer",
"PROCESSOR_UID" : "VisualDataBufferDQMHistoMakerHistos",
"PROCESSOR_TYPE" : "Consumer",
"PROCESSOR_PLUGIN_NAME" : "DQMHistoMakerConsumer",
"LINK_TO_PROCESSOR_TABLE" : "DQMHistoMakerConsumerTable",
"LINK_TO_PROCESSOR_UID" : "VisualDataBufferHistoMakerHistos",
"STATUS" : "On",
"COMMENT_DESCRIPTION" : "",
"AUTHOR" : "admin",
"RECORD_INSERTION_TIME" : "1574289722"
}
]
},
"metadata" : {

},
"search" : [

]
},
"comments" : [

],
"origin" : {
"source" : "template",
"name" : "notprovided",
"format" : "json",
"created" : "2020-07-21T14:27:46.244-0500",
"rawdata" : [

]
},
"version" : "1",
"entities" : [
{
"name" : "OTSROOT",
"assigned" : "2020-07-21T14:27:46.244-0500"
}
],
"configurations" : [
{
"name" : "notprovided",
"assigned" : "2020-07-21T14:27:46.244-0500"
},
{
"name" : "DefaultConfig_v1",
"assigned" : "2020-07-21T14:27:46.797-0500"
},
{
"name" : "DefaultConfig_v2",
"assigned" : "2020-07-21T14:44:16.444-0500"
},
{
"name" : "DefaultConfig_v3",
"assigned" : "2020-07-21T14:57:50.323-0500"
},
{
"name" : "DefaultConfig_v4",
"assigned" : "2020-07-28T10:52:34.218-0500"
},
{
"name" : "DefaultConfig_v5",
"assigned" : "2020-08-24T11:59:56.754-0500"
},
{
"name" : "DefaultConfig_v6",
"assigned" : "2020-08-24T16:05:13.315-0500"
},
{
"name" : "DefaultConfig_v7",
"assigned" : "2020-08-26T10:33:56.701-0500"
},
{
"name" : "DefaultConfig_v8",
"assigned" : "2020-08-26T10:45:54.459-0500"
},
{
"name" : "DefaultConfig_v9",
"assigned" : "2020-08-26T14:49:52.644-0500"
},
{
"name" : "DefaultConfig_v10",
"assigned" : "2020-08-26T14:52:00.264-0500"
},
{
"name" : "DefaultConfig_v11",
"assigned" : "2020-08-26T15:00:03.734-0500"
},
{
"name" : "DefaultConfig_v12",
"assigned" : "2020-08-26T16:18:15.477-0500"
},
{
"name" : "DefaultConfig_v13",
"assigned" : "2020-08-28T21:40:22.819-0500"
},
{
"name" : "DefaultConfig_v14",
"assigned" : "2020-08-31T15:19:58.757-0500"
},
{
"name" : "DefaultConfig_v15",
"assigned" : "2020-09-03T10:43:22.232-0500"
},
{
"name" : "DefaultConfig_v16",
"assigned" : "2020-09-03T10:49:03.296-0500"
},
{
"name" : "DefaultConfig_v17",
"assigned" : "2020-09-08T17:07:21.504-0500"
},
{
"name" : "DefaultConfig_v18",
"assigned" : "2020-09-11T16:02:29.178-0500"
},
{
"name" : "DefaultConfig_v19",
"assigned" : "2020-09-14T17:47:19.341-0500"
},
{
"name" : "DefaultConfig_v20",
"assigned" : "2020-09-14T18:00:23.593-0500"
},
{
"name" : "DefaultConfig_v21",
"assigned" : "2020-09-15T15:14:57.040-0500"
},
{
"name" : "DefaultConfig_v22",
"assigned" : "2020-09-15T15:18:54.140-0500"
},
{
"name" : "DefaultConfig_v23",
"assigned" : "2020-09-15T15:27:51.047-0500"
},
{
"name" : "DefaultConfig_v24",
"assigned" : "2020-09-15T15:52:12.560-0500"
},
{
"name" : "DefaultConfig_v25",
"assigned" : "2020-09-21T11:41:58.224-0500"
},
{
"name" : "DefaultConfig_v26",
"assigned" : "2020-09-21T11:54:28.964-0500"
}
],
"changelog" : "notprovided",
"bookkeeping" : {
"isdeleted" : false,
"isreadonly" : false,
"updates" : [
{
"event" : "addConfiguration",
"timestamp" : "2020-07-21T14:27:46.244-0500",
"value" : {
"name" : "notprovided",
"assigned" : "2020-07-21T14:27:46.244-0500"
}
},
{
"event" : "setVersion",
"timestamp" : "2020-07-21T14:27:46.244-0500",
"value" : {
"name" : "1",
"assigned" : "2020-07-21T14:27:46.244-0500"
}
},
{
"event" : "setCollection",
"timestamp" : "2020-07-21T14:27:46.244-0500",
"value" : {
"name" : "DataProcessorTable",
"assigned" : "2020-07-21T14:27:46.244-0500"
}
},
{
"event" : "addEntity",
"timestamp" : "2020-07-21T14:27:46.244-0500",
"value" : {
"name" : "OTSROOT",
"assigned" : "2020-07-21T14:27:46.244-0500"
}
},
{
"event" : "addConfiguration",
"timestamp" : "2020-07-21T14:27:46.797-0500",
"value" : {
"name" : "DefaultConfig_v1",
"assigned" : "2020-07-21T14:27:46.797-0500"
}
},
{
"event" : "addConfiguration",
"timestamp" : "2020-07-21T14:44:16.444-0500",
"value" : {
"name" : "DefaultConfig_v2",
"assigned" : "2020-07-21T14:44:16.444-0500"
}
},
{
"event" : "addConfiguration",
"timestamp" : "2020-07-21T14:57:50.323-0500",
"value" : {
"name" : "DefaultConfig_v3",
"assigned" : "2020-07-21T14:57:50.323-0500"
}
},
{
"event" : "addConfiguration",
"timestamp" : "2020-07-28T10:52:34.218-0500",
"value" : {
"name" : "DefaultConfig_v4",
"assigned" : "2020-07-28T10:52:34.218-0500"
}
},
{
"event" : "addConfiguration",
"timestamp" : "2020-08-24T11:59:56.754-0500",
"value" : {
"name" : "DefaultConfig_v5",
"assigned" : "2020-08-24T11:59:56.754-0500"
}
},
{
"event" : "addConfiguration",
"timestamp" : "2020-08-24T16:05:13.315-0500",
"value" : {
"name" : "DefaultConfig_v6",
"assigned" : "2020-08-24T16:05:13.315-0500"
}
},
{
"event" : "addConfiguration",
"timestamp" : "2020-08-26T10:33:56.701-0500",
"value" : {
"name" : "DefaultConfig_v7",
"assigned" : "2020-08-26T10:33:56.701-0500"
}
},
{
"event" : "addConfiguration",
"timestamp" : "2020-08-26T10:45:54.459-0500",
"value" : {
"name" : "DefaultConfig_v8",
"assigned" : "2020-08-26T10:45:54.459-0500"
}
},
{
"event" : "addConfiguration",
"timestamp" : "2020-08-26T14:49:52.644-0500",
"value" : {
"name" : "DefaultConfig_v9",
"assigned" : "2020-08-26T14:49:52.644-0500"
}
},
{
"event" : "addConfiguration",
"timestamp" : "2020-08-26T14:52:00.264-0500",
"value" : {
"name" : "DefaultConfig_v10",
"assigned" : "2020-08-26T14:52:00.264-0500"
}
},
{
"event" : "addConfiguration",
"timestamp" : "2020-08-26T15:00:03.734-0500",
"value" : {
"name" : "DefaultConfig_v11",
"assigned" : "2020-08-26T15:00:03.734-0500"
}
},
{
"event" : "addConfiguration",
"timestamp" : "2020-08-26T16:18:15.477-0500",
"value" : {
"name" : "DefaultConfig_v12",
"assigned" : "2020-08-26T16:18:15.477-0500"
}
},
{
"event" : "addConfiguration",
"timestamp" : "2020-08-28T21:40:22.819-0500",
"value" : {
"name" : "DefaultConfig_v13",
"assigned" : "2020-08-28T21:40:22.819-0500"
}
},
{
"event" : "addConfiguration",
"timestamp" : "2020-08-31T15:19:58.758-0500",
"value" : {
"name" : "DefaultConfig_v14",
"assigned" : "2020-08-31T15:19:58.757-0500"
}
},
{
"event" : "addConfiguration",
"timestamp" : "2020-09-03T10:43:22.232-0500",
"value" : {
"name" : "DefaultConfig_v15",
"assigned" : "2020-09-03T10:43:22.232-0500"
}
},
{
"event" : "addConfiguration",
"timestamp" : "2020-09-03T10:49:03.296-0500",
"value" : {
"name" : "DefaultConfig_v16",
"assigned" : "2020-09-03T10:49:03.296-0500"
}
},
{
"event" : "addConfiguration",
"timestamp" : "2020-09-08T17:07:21.504-0500",
"value" : {
"name" : "DefaultConfig_v17",
"assigned" : "2020-09-08T17:07:21.504-0500"
}
},
{
"event" : "addConfiguration",
"timestamp" : "2020-09-11T16:02:29.178-0500",
"value" : {
"name" : "DefaultConfig_v18",
"assigned" : "2020-09-11T16:02:29.178-0500"
}
},
{
"event" : "addConfiguration",
"timestamp" : "2020-09-14T17:47:19.341-0500",
"value" : {
"name" : "DefaultConfig_v19",
"assigned" : "2020-09-14T17:47:19.341-0500"
}
},
{
"event" : "addConfiguration",
"timestamp" : "2020-09-14T18:00:23.593-0500",
"value" : {
"name" : "DefaultConfig_v20",
"assigned" : "2020-09-14T18:00:23.593-0500"
}
},
{
"event" : "addConfiguration",
"timestamp" : "2020-09-15T15:14:57.040-0500",
"value" : {
"name" : "DefaultConfig_v21",
"assigned" : "2020-09-15T15:14:57.040-0500"
}
},
{
"event" : "addConfiguration",
"timestamp" : "2020-09-15T15:18:54.140-0500",
"value" : {
"name" : "DefaultConfig_v22",
"assigned" : "2020-09-15T15:18:54.140-0500"
}
},
{
"event" : "addConfiguration",
"timestamp" : "2020-09-15T15:27:51.047-0500",
"value" : {
"name" : "DefaultConfig_v23",
"assigned" : "2020-09-15T15:27:51.047-0500"
}
},
{
"event" : "addConfiguration",
"timestamp" : "2020-09-15T15:52:12.560-0500",
"value" : {
"name" : "DefaultConfig_v24",
"assigned" : "2020-09-15T15:52:12.560-0500"
}
},
{
"event" : "addConfiguration",
"timestamp" : "2020-09-21T11:41:58.224-0500",
"value" : {
"name" : "DefaultConfig_v25",
"assigned" : "2020-09-21T11:41:58.224-0500"
}
},
{
"event" : "addConfiguration",
"timestamp" : "2020-09-21T11:54:28.964-0500",
"value" : {
"name" : "DefaultConfig_v26",
"assigned" : "2020-09-21T11:54:28.964-0500"
}
}
],
"created" : "2020-07-21T14:27:46.244-0500"
},
"_id" : {
"$oid" : "1274f151a4cb4e0a95f86158"
},
"collection" : "DataProcessorTable",
"aliases" : {
"active" : [

],
"history" : [

]
},
"runs" : [

],
"attachments" : [

],
"configtype" : "notprovided"
}