{
"ouid" : [
"1274f151a4cb4e0a95f86158",
"44a28dcec9cc40ea8859398f",
"4e7d0e6a7f73483098412399",
"4fb87d3e7fc34cffaa3a5ca1"
],
"version" : {
"1" : [
"1274f151a4cb4e0a95f86158"
],
"2" : [
"44a28dcec9cc40ea8859398f"
],
"3" : [
"4fb87d3e7fc34cffaa3a5ca1"
],
"4" : [
"4e7d0e6a7f73483098412399"
]
},
"configurations.name" : {
"notprovided" : [
"1274f151a4cb4e0a95f86158",
"44a28dcec9cc40ea8859398f",
"4e7d0e6a7f73483098412399",
"4fb87d3e7fc34cffaa3a5ca1"
],
"DefaultConfig_v1" : [
"1274f151a4cb4e0a95f86158"
],
"DefaultConfig_v2" : [
"1274f151a4cb4e0a95f86158"
],
"DefaultConfig_v3" : [
"1274f151a4cb4e0a95f86158"
],
"DefaultConfig_v4" : [
"1274f151a4cb4e0a95f86158"
],
"DefaultConfig_v5" : [
"1274f151a4cb4e0a95f86158"
],
"DefaultConfig_v6" : [
"1274f151a4cb4e0a95f86158"
],
"DefaultConfig_v7" : [
"1274f151a4cb4e0a95f86158"
],
"DefaultConfig_v8" : [
"1274f151a4cb4e0a95f86158"
],
"DefaultConfig_v9" : [
"1274f151a4cb4e0a95f86158"
],
"DefaultConfig_v10" : [
"1274f151a4cb4e0a95f86158"
],
"DefaultConfig_v11" : [
"1274f151a4cb4e0a95f86158"
],
"DefaultConfig_v12" : [
"1274f151a4cb4e0a95f86158"
],
"DefaultConfig_v13" : [
"1274f151a4cb4e0a95f86158"
],
"DefaultConfig_v14" : [
"1274f151a4cb4e0a95f86158"
],
"DefaultConfig_v15" : [
"1274f151a4cb4e0a95f86158"
],
"DefaultConfig_v16" : [
"1274f151a4cb4e0a95f86158"
],
"DefaultConfig_v17" : [
"1274f151a4cb4e0a95f86158"
],
"DefaultConfig_v18" : [
"1274f151a4cb4e0a95f86158"
],
"DefaultConfig_v19" : [
"1274f151a4cb4e0a95f86158"
],
"DefaultConfig_v20" : [
"1274f151a4cb4e0a95f86158"
],
"DefaultConfig_v21" : [
"1274f151a4cb4e0a95f86158"
],
"DefaultConfig_v22" : [
"1274f151a4cb4e0a95f86158"
],
"DefaultConfig_v23" : [
"1274f151a4cb4e0a95f86158"
],
"DefaultConfig_v24" : [
"1274f151a4cb4e0a95f86158"
],
"DefaultConfig_v25" : [
"1274f151a4cb4e0a95f86158"
],
"DefaultConfig_v26" : [
"1274f151a4cb4e0a95f86158"
],
"DefaultConfig_v27" : [
"4e7d0e6a7f73483098412399"
],
"DefaultConfig_v28" : [
"4e7d0e6a7f73483098412399"
],
"DefaultConfig_v29" : [
"4e7d0e6a7f73483098412399"
],
"DefaultConfig_v30" : [
"4e7d0e6a7f73483098412399"
],
"DefaultConfig_v31" : [
"4e7d0e6a7f73483098412399"
],
"DefaultConfig_v32" : [
"4e7d0e6a7f73483098412399"
],
"DefaultConfig_v33" : [
"4e7d0e6a7f73483098412399"
],
"DefaultConfig_v34" : [
"4e7d0e6a7f73483098412399"
]
},
"entities.name" : {
"OTSROOT" : [
"1274f151a4cb4e0a95f86158",
"44a28dcec9cc40ea8859398f",
"4e7d0e6a7f73483098412399",
"4fb87d3e7fc34cffaa3a5ca1"
]
},
"aliases.active.name" : {

},
"runs.name" : {

},
"configurations.assigned" : {
"notprovided" : [
"2020-07-21T14:27:46.244-0500",
"2020-10-06T14:34:24.698-0500",
"2020-10-06T14:42:39.161-0500",
"2020-10-06T14:43:23.939-0500"
],
"DefaultConfig_v1" : [
"2020-07-21T14:27:46.797-0500"
],
"DefaultConfig_v2" : [
"2020-07-21T14:44:16.444-0500"
],
"DefaultConfig_v3" : [
"2020-07-21T14:57:50.323-0500"
],
"DefaultConfig_v4" : [
"2020-07-28T10:52:34.218-0500"
],
"DefaultConfig_v5" : [
"2020-08-24T11:59:56.754-0500"
],
"DefaultConfig_v6" : [
"2020-08-24T16:05:13.315-0500"
],
"DefaultConfig_v7" : [
"2020-08-26T10:33:56.701-0500"
],
"DefaultConfig_v8" : [
"2020-08-26T10:45:54.459-0500"
],
"DefaultConfig_v9" : [
"2020-08-26T14:49:52.644-0500"
],
"DefaultConfig_v10" : [
"2020-08-26T14:52:00.264-0500"
],
"DefaultConfig_v11" : [
"2020-08-26T15:00:03.734-0500"
],
"DefaultConfig_v12" : [
"2020-08-26T16:18:15.477-0500"
],
"DefaultConfig_v13" : [
"2020-08-28T21:40:22.819-0500"
],
"DefaultConfig_v14" : [
"2020-08-31T15:19:58.757-0500"
],
"DefaultConfig_v15" : [
"2020-09-03T10:43:22.232-0500"
],
"DefaultConfig_v16" : [
"2020-09-03T10:49:03.296-0500"
],
"DefaultConfig_v17" : [
"2020-09-08T17:07:21.504-0500"
],
"DefaultConfig_v18" : [
"2020-09-11T16:02:29.178-0500"
],
"DefaultConfig_v19" : [
"2020-09-14T17:47:19.341-0500"
],
"DefaultConfig_v20" : [
"2020-09-14T18:00:23.593-0500"
],
"DefaultConfig_v21" : [
"2020-09-15T15:14:57.040-0500"
],
"DefaultConfig_v22" : [
"2020-09-15T15:18:54.140-0500"
],
"DefaultConfig_v23" : [
"2020-09-15T15:27:51.047-0500"
],
"DefaultConfig_v24" : [
"2020-09-15T15:52:12.560-0500"
],
"DefaultConfig_v25" : [
"2020-09-21T11:41:58.224-0500"
],
"DefaultConfig_v26" : [
"2020-09-21T11:54:28.964-0500"
],
"DefaultConfig_v27" : [
"2020-10-06T14:45:41.031-0500"
],
"DefaultConfig_v28" : [
"2020-10-06T15:04:19.563-0500"
],
"DefaultConfig_v29" : [
"2020-10-07T16:45:35.686-0500"
],
"DefaultConfig_v30" : [
"2020-10-07T17:03:29.840-0500"
],
"DefaultConfig_v31" : [
"2020-11-04T20:42:36.824-0600"
],
"DefaultConfig_v32" : [
"2020-11-11T11:26:54.406-0600"
],
"DefaultConfig_v33" : [
"2021-01-18T20:04:38.771-0600"
],
"DefaultConfig_v34" : [
"2021-01-18T20:05:19.238-0600"
]
}
}