{
"document" : {
"data" : {
"NAME" : "XDAQ_APPLICATION_TABLE",
"COMMENT" : "No comment.",
"AUTHOR" : "admin",
"CREATION_TIME" : 1575647651,
"COL_TYPES" : {
"APPLICATION_GROUP_ID" : "STRING",
"APPLICATION_UID" : "STRING",
"LINK_TO_SUPERVISOR_TABLE" : "STRING",
"LINK_TO_SUPERVISOR_UID" : "STRING",
"STATUS" : "STRING",
"CLASS" : "STRING",
"ID" : "NUMBER",
"INSTANCE" : "NUMBER",
"NETWORK" : "STRING",
"GROUP" : "STRING",
"MODULE" : "STRING",
"CONFIGURE_PRIORITY" : "NUMBER",
"START_PRIORITY" : "NUMBER",
"STOP_PRIORITY" : "NUMBER",
"LINK_TO_PROPERTY_TABLE" : "STRING",
"LINK_TO_PROPERTY_GROUP_ID" : "STRING",
"COMMENT_DESCRIPTION" : "STRING",
"AUTHOR" : "STRING",
"RECORD_INSERTION_TIME" : "TIMESTAMP WITH TIMEZONE"
},
"DATA_SET" : [
{
"APPLICATION_GROUP_ID" : "MainContextApps",
"APPLICATION_UID" : "Supervisor",
"LINK_TO_SUPERVISOR_TABLE" : "GatewaySupervisorTable",
"LINK_TO_SUPERVISOR_UID" : "Supervisor0",
"STATUS" : "On",
"CLASS" : "ots::Supervisor",
"ID" : "200",
"INSTANCE" : "1",
"NETWORK" : "local",
"GROUP" : "daq",
"MODULE" : "${OTSDAQ_LIB}/libGatewaySupervisor.so",
"CONFIGURE_PRIORITY" : "0",
"START_PRIORITY" : "0",
"STOP_PRIORITY" : "0",
"LINK_TO_PROPERTY_TABLE" : "NO_LINK",
"LINK_TO_PROPERTY_GROUP_ID" : "DEFAULT",
"COMMENT_DESCRIPTION" : "DEFAULT",
"AUTHOR" : "admin",
"RECORD_INSERTION_TIME" : "1550763938"
},
{
"APPLICATION_GROUP_ID" : "MainContextApps",
"APPLICATION_UID" : "ChatSupervisor",
"LINK_TO_SUPERVISOR_TABLE" : "NO_LINK",
"LINK_TO_SUPERVISOR_UID" : "ChatSupervisor0",
"STATUS" : "On",
"CLASS" : "ots::ChatSupervisor",
"ID" : "250",
"INSTANCE" : "1",
"NETWORK" : "local",
"GROUP" : "daq",
"MODULE" : "${OTSDAQ_UTILITIES_LIB}/libChat.so",
"CONFIGURE_PRIORITY" : "0",
"START_PRIORITY" : "0",
"STOP_PRIORITY" : "0",
"LINK_TO_PROPERTY_TABLE" : "NO_LINK",
"LINK_TO_PROPERTY_GROUP_ID" : "DEFAULT",
"COMMENT_DESCRIPTION" : "DEFAULT",
"AUTHOR" : "admin",
"RECORD_INSERTION_TIME" : "1534954896"
},
{
"APPLICATION_GROUP_ID" : "MainContextApps",
"APPLICATION_UID" : "ConsoleSupervisor",
"LINK_TO_SUPERVISOR_TABLE" : "NO_LINK",
"LINK_TO_SUPERVISOR_UID" : "ConsoleSupervisor0",
"STATUS" : "On",
"CLASS" : "ots::ConsoleSupervisor",
"ID" : "260",
"INSTANCE" : "1",
"NETWORK" : "local",
"GROUP" : "daq",
"MODULE" : "${OTSDAQ_UTILITIES_LIB}/libConsole.so",
"CONFIGURE_PRIORITY" : "0",
"START_PRIORITY" : "0",
"STOP_PRIORITY" : "0",
"LINK_TO_PROPERTY_TABLE" : "NO_LINK",
"LINK_TO_PROPERTY_GROUP_ID" : "DEFAULT",
"COMMENT_DESCRIPTION" : "DEFAULT",
"AUTHOR" : "admin",
"RECORD_INSERTION_TIME" : "1534954896"
},
{
"APPLICATION_GROUP_ID" : "MainContextApps",
"APPLICATION_UID" : "LogbookSupervisor",
"LINK_TO_SUPERVISOR_TABLE" : "NO_LINK",
"LINK_TO_SUPERVISOR_UID" : "LogbookSupervisor0",
"STATUS" : "On",
"CLASS" : "ots::LogbookSupervisor",
"ID" : "261",
"INSTANCE" : "1",
"NETWORK" : "local",
"GROUP" : "daq",
"MODULE" : "${OTSDAQ_UTILITIES_LIB}/libLogbook.so",
"CONFIGURE_PRIORITY" : "0",
"START_PRIORITY" : "0",
"STOP_PRIORITY" : "0",
"LINK_TO_PROPERTY_TABLE" : "NO_LINK",
"LINK_TO_PROPERTY_GROUP_ID" : "DEFAULT",
"COMMENT_DESCRIPTION" : "DEFAULT",
"AUTHOR" : "admin",
"RECORD_INSERTION_TIME" : "1534954896"
},
{
"APPLICATION_GROUP_ID" : "MainContextApps",
"APPLICATION_UID" : "VisualSupervisor",
"LINK_TO_SUPERVISOR_TABLE" : "DataManagerSupervisorTable",
"LINK_TO_SUPERVISOR_UID" : "VisualSupervisor0",
"STATUS" : "On",
"CLASS" : "ots::VisualSupervisor",
"ID" : "270",
"INSTANCE" : "1",
"NETWORK" : "local",
"GROUP" : "daq",
"MODULE" : "${OTSDAQ_UTILITIES_LIB}/libVisualization.so",
"CONFIGURE_PRIORITY" : "0",
"START_PRIORITY" : "0",
"STOP_PRIORITY" : "0",
"LINK_TO_PROPERTY_TABLE" : "NO_LINK",
"LINK_TO_PROPERTY_GROUP_ID" : "DEFAULT",
"COMMENT_DESCRIPTION" : "DEFAULT",
"AUTHOR" : "admin",
"RECORD_INSERTION_TIME" : "1550870916"
},
{
"APPLICATION_GROUP_ID" : "MainContextApps",
"APPLICATION_UID" : "ConfigurationGUISupervisor",
"LINK_TO_SUPERVISOR_TABLE" : "NO_LINK",
"LINK_TO_SUPERVISOR_UID" : "ConfigurationGUISupervisor0",
"STATUS" : "On",
"CLASS" : "ots::ConfigurationGUISupervisor",
"ID" : "281",
"INSTANCE" : "1",
"NETWORK" : "local",
"GROUP" : "daq",
"MODULE" : "${OTSDAQ_UTILITIES_LIB}/libConfigurationGUI.so",
"CONFIGURE_PRIORITY" : "0",
"START_PRIORITY" : "0",
"STOP_PRIORITY" : "0",
"LINK_TO_PROPERTY_TABLE" : "NO_LINK",
"LINK_TO_PROPERTY_GROUP_ID" : "DEFAULT",
"COMMENT_DESCRIPTION" : "DEFAULT",
"AUTHOR" : "admin",
"RECORD_INSERTION_TIME" : "1550780292"
},
{
"APPLICATION_GROUP_ID" : "MainContextApps",
"APPLICATION_UID" : "MacroMakerSupervisor",
"LINK_TO_SUPERVISOR_TABLE" : "NO_LINK",
"LINK_TO_SUPERVISOR_UID" : "MacroMakerSupervisor0",
"STATUS" : "On",
"CLASS" : "ots::MacroMakerSupervisor",
"ID" : "300",
"INSTANCE" : "1",
"NETWORK" : "local",
"GROUP" : "daq",
"MODULE" : "${OTSDAQ_UTILITIES_LIB}/libMacroMaker.so",
"CONFIGURE_PRIORITY" : "0",
"START_PRIORITY" : "0",
"STOP_PRIORITY" : "0",
"LINK_TO_PROPERTY_TABLE" : "NO_LINK",
"LINK_TO_PROPERTY_GROUP_ID" : "DEFAULT",
"COMMENT_DESCRIPTION" : "DEFAULT",
"AUTHOR" : "admin",
"RECORD_INSERTION_TIME" : "1574281226"
},
{
"APPLICATION_GROUP_ID" : "OuterTrackerContextApp",
"APPLICATION_UID" : "OuterTrackerSupervisor",
"LINK_TO_SUPERVISOR_TABLE" : "FESupervisorTable",
"LINK_TO_SUPERVISOR_UID" : "OuterTrackerFESupervisor0",
"STATUS" : "On",
"CLASS" : "ots::FESupervisor",
"ID" : "400",
"INSTANCE" : "1",
"NETWORK" : "local",
"GROUP" : "daq",
"MODULE" : "${OTSDAQ_LIB}/libCoreSupervisors.so",
"CONFIGURE_PRIORITY" : "0",
"START_PRIORITY" : "0",
"STOP_PRIORITY" : "0",
"LINK_TO_PROPERTY_TABLE" : "NO_LINK",
"LINK_TO_PROPERTY_GROUP_ID" : "DEFAULT",
"COMMENT_DESCRIPTION" : "OuterTracker Front End",
"AUTHOR" : "admin",
"RECORD_INSERTION_TIME" : "1574281226"
},
{
"APPLICATION_GROUP_ID" : "OuterTrackerContextApp",
"APPLICATION_UID" : "OuterTrackerDataManagerSupervisor",
"LINK_TO_SUPERVISOR_TABLE" : "DataManagerSupervisorTable",
"LINK_TO_SUPERVISOR_UID" : "OuterTrackerDataManagerSupervisor0",
"STATUS" : "Off",
"CLASS" : "ots::DataManagerSupervisor",
"ID" : "500",
"INSTANCE" : "1",
"NETWORK" : "local",
"GROUP" : "daq",
"MODULE" : "${OTSDAQ_LIB}/libCoreSupervisors.so",
"CONFIGURE_PRIORITY" : "0",
"START_PRIORITY" : "0",
"STOP_PRIORITY" : "0",
"LINK_TO_PROPERTY_TABLE" : "NO_LINK",
"LINK_TO_PROPERTY_GROUP_ID" : "DEFAULT",
"COMMENT_DESCRIPTION" : "OuterTracker Data Manager",
"AUTHOR" : "admin",
"RECORD_INSERTION_TIME" : "1574281226"
},
{
"APPLICATION_GROUP_ID" : "TestContextApps",
"APPLICATION_UID" : "ControlsDashboardSupervisor",
"LINK_TO_SUPERVISOR_TABLE" : "NO_LINK",
"LINK_TO_SUPERVISOR_UID" : "ControlsDashboardSupervisor0",
"STATUS" : "Off",
"CLASS" : "ots::ControlsDashboardSupervisor",
"ID" : "283",
"INSTANCE" : "1",
"NETWORK" : "local",
"GROUP" : "daq",
"MODULE" : "${OTSDAQ_UTILITIES_LIB}/libControlsDashboard.so",
"CONFIGURE_PRIORITY" : "0",
"START_PRIORITY" : "0",
"STOP_PRIORITY" : "0",
"LINK_TO_PROPERTY_TABLE" : "NO_LINK",
"LINK_TO_PROPERTY_GROUP_ID" : "DEFAULT",
"COMMENT_DESCRIPTION" : "Used for arbitrary controls guis",
"AUTHOR" : "admin",
"RECORD_INSERTION_TIME" : "1574285241"
},
{
"APPLICATION_GROUP_ID" : "TestContextApps",
"APPLICATION_UID" : "HistoMakerFESupervisor",
"LINK_TO_SUPERVISOR_TABLE" : "FESupervisorTable",
"LINK_TO_SUPERVISOR_UID" : "HistoMakerFESupervisor0",
"STATUS" : "Off",
"CLASS" : "ots::FESupervisor",
"ID" : "284",
"INSTANCE" : "1",
"NETWORK" : "local",
"GROUP" : "daq",
"MODULE" : "${OTSDAQ_LIB}/libCoreSupervisors.so",
"CONFIGURE_PRIORITY" : "0",
"START_PRIORITY" : "0",
"STOP_PRIORITY" : "0",
"LINK_TO_PROPERTY_TABLE" : "NO_LINK",
"LINK_TO_PROPERTY_GROUP_ID" : "DEFAULT",
"COMMENT_DESCRIPTION" : "Used for arbitrary controls guis",
"AUTHOR" : "admin",
"RECORD_INSERTION_TIME" : "1575647651"
}
]
},
"metadata" : {

},
"search" : [

]
},
"comments" : [

],
"origin" : {
"source" : "template",
"name" : "notprovided",
"format" : "json",
"created" : "2019-12-06T09:54:11.957-0600",
"rawdata" : [

]
},
"version" : "10",
"entities" : [
{
"name" : "OTSROOT",
"assigned" : "2019-12-06T09:54:11.958-0600"
}
],
"configurations" : [
{
"name" : "notprovided",
"assigned" : "2019-12-06T09:54:11.957-0600"
},
{
"name" : "DefaultContext_v13",
"assigned" : "2019-12-06T09:54:12.800-0600"
},
{
"name" : "DefaultContext_v15",
"assigned" : "2019-12-13T13:20:56.668-0600"
},
{
"name" : "DefaultContext_v16",
"assigned" : "2021-04-29T11:04:33.289-0500"
},
{
"name" : "DefaultContext_v17",
"assigned" : "2021-04-29T12:14:45.948-0500"
},
{
"name" : "DefaultContext_v18",
"assigned" : "2021-04-29T12:25:33.448-0500"
},
{
"name" : "DefaultContext_v19",
"assigned" : "2021-04-29T12:25:52.928-0500"
},
{
"name" : "DefaultContext_v20",
"assigned" : "2021-04-29T12:40:04.187-0500"
},
{
"name" : "DefaultContext_v21",
"assigned" : "2021-04-29T13:20:40.434-0500"
},
{
"name" : "DefaultContext_v22",
"assigned" : "2021-05-10T11:39:30.311-0500"
}
],
"changelog" : "notprovided",
"bookkeeping" : {
"isdeleted" : false,
"isreadonly" : false,
"updates" : [
{
"event" : "addConfiguration",
"timestamp" : "2019-12-06T09:54:11.957-0600",
"value" : {
"name" : "notprovided",
"assigned" : "2019-12-06T09:54:11.957-0600"
}
},
{
"event" : "setVersion",
"timestamp" : "2019-12-06T09:54:11.957-0600",
"value" : {
"name" : "10",
"assigned" : "2019-12-06T09:54:11.957-0600"
}
},
{
"event" : "setCollection",
"timestamp" : "2019-12-06T09:54:11.958-0600",
"value" : {
"name" : "XDAQApplicationTable",
"assigned" : "2019-12-06T09:54:11.958-0600"
}
},
{
"event" : "addEntity",
"timestamp" : "2019-12-06T09:54:11.958-0600",
"value" : {
"name" : "OTSROOT",
"assigned" : "2019-12-06T09:54:11.958-0600"
}
},
{
"event" : "addConfiguration",
"timestamp" : "2019-12-06T09:54:12.800-0600",
"value" : {
"name" : "DefaultContext_v13",
"assigned" : "2019-12-06T09:54:12.800-0600"
}
},
{
"event" : "addConfiguration",
"timestamp" : "2019-12-13T13:20:56.668-0600",
"value" : {
"name" : "DefaultContext_v15",
"assigned" : "2019-12-13T13:20:56.668-0600"
}
},
{
"event" : "addConfiguration",
"timestamp" : "2021-04-29T11:04:33.289-0500",
"value" : {
"name" : "DefaultContext_v16",
"assigned" : "2021-04-29T11:04:33.289-0500"
}
},
{
"event" : "addConfiguration",
"timestamp" : "2021-04-29T12:14:45.948-0500",
"value" : {
"name" : "DefaultContext_v17",
"assigned" : "2021-04-29T12:14:45.948-0500"
}
},
{
"event" : "addConfiguration",
"timestamp" : "2021-04-29T12:25:33.448-0500",
"value" : {
"name" : "DefaultContext_v18",
"assigned" : "2021-04-29T12:25:33.448-0500"
}
},
{
"event" : "addConfiguration",
"timestamp" : "2021-04-29T12:25:52.928-0500",
"value" : {
"name" : "DefaultContext_v19",
"assigned" : "2021-04-29T12:25:52.928-0500"
}
},
{
"event" : "addConfiguration",
"timestamp" : "2021-04-29T12:40:04.187-0500",
"value" : {
"name" : "DefaultContext_v20",
"assigned" : "2021-04-29T12:40:04.187-0500"
}
},
{
"event" : "addConfiguration",
"timestamp" : "2021-04-29T13:20:40.434-0500",
"value" : {
"name" : "DefaultContext_v21",
"assigned" : "2021-04-29T13:20:40.434-0500"
}
},
{
"event" : "addConfiguration",
"timestamp" : "2021-05-10T11:39:30.311-0500",
"value" : {
"name" : "DefaultContext_v22",
"assigned" : "2021-05-10T11:39:30.311-0500"
}
}
],
"created" : "2019-12-06T09:54:11.957-0600"
},
"_id" : {
"$oid" : "9c19daf5145b4baf9c10f674"
},
"collection" : "XDAQApplicationTable",
"aliases" : {
"active" : [

],
"history" : [

]
},
"runs" : [

],
"attachments" : [

],
"configtype" : "notprovided"
}