{
"ouid" : [
"12195b6808c74f32b5503ad3",
"9bc1fed4fff64ec59babeddd"
],
"version" : {
"3" : [
"12195b6808c74f32b5503ad3"
],
"4" : [
"9bc1fed4fff64ec59babeddd"
]
},
"configurations.name" : {
"notprovided" : [
"12195b6808c74f32b5503ad3",
"9bc1fed4fff64ec59babeddd"
],
"OTMiniModuleContext_v3" : [
"12195b6808c74f32b5503ad3"
],
"OTMiniModuleContext_v4" : [
"9bc1fed4fff64ec59babeddd"
]
},
"entities.name" : {
"OTSROOT" : [
"12195b6808c74f32b5503ad3",
"9bc1fed4fff64ec59babeddd"
]
},
"aliases.active.name" : {

},
"runs.name" : {

}
}