{
"ouid" : [
"2eace2c31a884ca1bb21bcd4"
],
"version" : {
"1" : [
"2eace2c31a884ca1bb21bcd4"
]
},
"configurations.name" : {
"notprovided" : [
"2eace2c31a884ca1bb21bcd4"
],
"DefaultConfig_v1" : [
"2eace2c31a884ca1bb21bcd4"
],
"DefaultConfig_v2" : [
"2eace2c31a884ca1bb21bcd4"
],
"DefaultConfig_v3" : [
"2eace2c31a884ca1bb21bcd4"
],
"DefaultConfig_v4" : [
"2eace2c31a884ca1bb21bcd4"
],
"DefaultConfig_v5" : [
"2eace2c31a884ca1bb21bcd4"
],
"DefaultConfig_v6" : [
"2eace2c31a884ca1bb21bcd4"
],
"DefaultConfig_v7" : [
"2eace2c31a884ca1bb21bcd4"
],
"DefaultConfig_v8" : [
"2eace2c31a884ca1bb21bcd4"
],
"DefaultConfig_v9" : [
"2eace2c31a884ca1bb21bcd4"
],
"DefaultConfig_v10" : [
"2eace2c31a884ca1bb21bcd4"
],
"DefaultConfig_v11" : [
"2eace2c31a884ca1bb21bcd4"
],
"DefaultConfig_v12" : [
"2eace2c31a884ca1bb21bcd4"
],
"DefaultConfig_v13" : [
"2eace2c31a884ca1bb21bcd4"
],
"DefaultConfig_v14" : [
"2eace2c31a884ca1bb21bcd4"
],
"DefaultConfig_v15" : [
"2eace2c31a884ca1bb21bcd4"
],
"DefaultConfig_v16" : [
"2eace2c31a884ca1bb21bcd4"
],
"DefaultConfig_v17" : [
"2eace2c31a884ca1bb21bcd4"
],
"DefaultConfig_v18" : [
"2eace2c31a884ca1bb21bcd4"
]
},
"entities.name" : {
"OTSROOT" : [
"2eace2c31a884ca1bb21bcd4"
]
},
"aliases.active.name" : {

},
"runs.name" : {

},
"configurations.assigned" : {
"notprovided" : [
"2019-02-22T16:11:42.778-0600"
],
"DefaultConfig_v1" : [
"2019-02-22T16:11:43.053-0600"
],
"DefaultConfig_v2" : [
"2019-07-22T11:27:30.355-0500"
],
"DefaultConfig_v3" : [
"2019-07-22T14:43:10.232-0500"
],
"DefaultConfig_v4" : [
"2019-07-22T14:47:01.404-0500"
],
"DefaultConfig_v5" : [
"2019-07-22T15:05:41.461-0500"
],
"DefaultConfig_v6" : [
"2019-07-23T09:00:31.938-0500"
],
"DefaultConfig_v7" : [
"2019-07-23T09:04:43.660-0500"
],
"DefaultConfig_v8" : [
"2019-07-23T09:48:11.756-0500"
],
"DefaultConfig_v9" : [
"2019-08-07T11:00:29.375-0500"
],
"DefaultConfig_v10" : [
"2019-11-20T15:25:38.543-0600"
],
"DefaultConfig_v11" : [
"2019-11-20T15:28:12.576-0600"
],
"DefaultConfig_v12" : [
"2019-11-20T15:58:29.876-0600"
],
"DefaultConfig_v13" : [
"2019-11-20T16:23:03.574-0600"
],
"DefaultConfig_v14" : [
"2019-11-20T16:24:45.704-0600"
],
"DefaultConfig_v15" : [
"2019-11-20T16:27:46.536-0600"
],
"DefaultConfig_v16" : [
"2019-11-20T16:42:11.094-0600"
],
"DefaultConfig_v17" : [
"2019-12-09T19:33:37.667-0600"
],
"DefaultConfig_v18" : [
"2019-12-10T14:21:51.766-0600"
]
}
}