{
"ouid" : [
"21b7d8b54ba0448fb2e29e14"
],
"version" : {
"3" : [
"21b7d8b54ba0448fb2e29e14"
]
},
"configurations.name" : {
"notprovided" : [
"21b7d8b54ba0448fb2e29e14"
],
"iterateDefaultGroup_v3" : [
"21b7d8b54ba0448fb2e29e14"
]
},
"entities.name" : {
"OTSROOT" : [
"21b7d8b54ba0448fb2e29e14"
]
},
"aliases.active.name" : {

},
"runs.name" : {

},
"configurations.assigned" : {
"notprovided" : [
"2020-09-08T15:08:32.340-0500"
],
"iterateDefaultGroup_v3" : [
"2020-09-08T15:08:32.885-0500"
]
}
}