{
"ouid" : [
"ae5d31c7409e47508bc1474e"
],
"version" : {
"2" : [
"ae5d31c7409e47508bc1474e"
]
},
"configurations.name" : {
"notprovided" : [
"ae5d31c7409e47508bc1474e"
],
"DefaultContext_v2" : [
"ae5d31c7409e47508bc1474e"
],
"DefaultContext_v3" : [
"ae5d31c7409e47508bc1474e"
],
"DefaultContext_v4" : [
"ae5d31c7409e47508bc1474e"
],
"DefaultContext_v5" : [
"ae5d31c7409e47508bc1474e"
],
"DefaultContext_v6" : [
"ae5d31c7409e47508bc1474e"
],
"DefaultContext_v7" : [
"ae5d31c7409e47508bc1474e"
],
"DefaultContext_v8" : [
"ae5d31c7409e47508bc1474e"
],
"DefaultContext_v9" : [
"ae5d31c7409e47508bc1474e"
],
"DefaultContext_v10" : [
"ae5d31c7409e47508bc1474e"
],
"DefaultContext_v11" : [
"ae5d31c7409e47508bc1474e"
],
"DefaultContext_v12" : [
"ae5d31c7409e47508bc1474e"
],
"DefaultContext_v13" : [
"ae5d31c7409e47508bc1474e"
],
"DefaultContext_v14" : [
"ae5d31c7409e47508bc1474e"
],
"DefaultContext_v15" : [
"ae5d31c7409e47508bc1474e"
]
},
"entities.name" : {
"OTSROOT" : [
"ae5d31c7409e47508bc1474e"
]
},
"aliases.active.name" : {

},
"runs.name" : {

},
"configurations.assigned" : {
"notprovided" : [
"2019-02-22T16:11:43.308-0600"
],
"DefaultContext_v2" : [
"2019-02-22T16:11:43.517-0600"
],
"DefaultContext_v3" : [
"2019-07-23T09:05:25.557-0500"
],
"DefaultContext_v4" : [
"2019-11-19T16:07:21.703-0600"
],
"DefaultContext_v5" : [
"2019-11-20T14:24:12.649-0600"
],
"DefaultContext_v6" : [
"2019-11-20T14:39:27.504-0600"
],
"DefaultContext_v7" : [
"2019-11-20T15:26:58.535-0600"
],
"DefaultContext_v8" : [
"2019-11-20T15:27:24.572-0600"
],
"DefaultContext_v9" : [
"2019-11-20T15:28:33.756-0600"
],
"DefaultContext_v10" : [
"2019-11-20T15:56:57.809-0600"
],
"DefaultContext_v11" : [
"2019-11-20T16:00:09.205-0600"
],
"DefaultContext_v12" : [
"2019-12-05T17:52:36.328-0600"
],
"DefaultContext_v13" : [
"2019-12-06T09:54:12.673-0600"
],
"DefaultContext_v14" : [
"2019-12-09T11:56:59.462-0600"
],
"DefaultContext_v15" : [
"2019-12-13T13:20:55.634-0600"
]
}
}