{
"document" : {
"data" : {
"NAME" : "TABLE_GROUP_METADATA",
"COMMENT" : "",
"AUTHOR" : "",
"CREATION_TIME" : 1550763300,
"COL_TYPES" : {
"UNUSED_UID" : "NUMBER",
"GROUP_ALIASES" : "STRING",
"COMMENT_DESCRIPTION" : "STRING",
"AUTHOR" : "STRING",
"GROUP_CREATION_TIME" : "TIMESTAMP WITH TIMEZONE"
},
"DATA_SET" : [
{
"UNUSED_UID" : "0",
"GROUP_ALIASES" : "",
"COMMENT_DESCRIPTION" : "No%20Comment",
"AUTHOR" : "admin",
"GROUP_CREATION_TIME" : "1619718003"
}
]
},
"metadata" : {

},
"search" : [

]
},
"comments" : [

],
"origin" : {
"source" : "template",
"name" : "notprovided",
"format" : "json",
"created" : "2021-04-29T12:40:03.825-0500",
"rawdata" : [

]
},
"version" : "87",
"entities" : [
{
"name" : "OTSROOT",
"assigned" : "2021-04-29T12:40:03.825-0500"
}
],
"configurations" : [
{
"name" : "notprovided",
"assigned" : "2021-04-29T12:40:03.825-0500"
},
{
"name" : "DefaultContext_v20",
"assigned" : "2021-04-29T12:40:04.111-0500"
}
],
"changelog" : "notprovided",
"bookkeeping" : {
"isdeleted" : false,
"isreadonly" : false,
"updates" : [
{
"event" : "addConfiguration",
"timestamp" : "2021-04-29T12:40:03.825-0500",
"value" : {
"name" : "notprovided",
"assigned" : "2021-04-29T12:40:03.825-0500"
}
},
{
"event" : "setVersion",
"timestamp" : "2021-04-29T12:40:03.825-0500",
"value" : {
"name" : "87",
"assigned" : "2021-04-29T12:40:03.825-0500"
}
},
{
"event" : "setCollection",
"timestamp" : "2021-04-29T12:40:03.825-0500",
"value" : {
"name" : "TableGroupMetadata",
"assigned" : "2021-04-29T12:40:03.825-0500"
}
},
{
"event" : "addEntity",
"timestamp" : "2021-04-29T12:40:03.826-0500",
"value" : {
"name" : "OTSROOT",
"assigned" : "2021-04-29T12:40:03.825-0500"
}
},
{
"event" : "addConfiguration",
"timestamp" : "2021-04-29T12:40:04.111-0500",
"value" : {
"name" : "DefaultContext_v20",
"assigned" : "2021-04-29T12:40:04.111-0500"
}
}
],
"created" : "2021-04-29T12:40:03.825-0500"
},
"_id" : {
"$oid" : "8dbf199d71414abcb7f2a737"
},
"collection" : "TableGroupMetadata",
"aliases" : {
"active" : [

],
"history" : [

]
},
"runs" : [

],
"attachments" : [

],
"configtype" : "notprovided"
}