{
"ouid" : [
"137c7b2fddcf4368b7b0000d",
"4a5a9bf9e9534782b6c74f17",
"67cdec252c4f4351b17271a5"
],
"version" : {
"1" : [
"4a5a9bf9e9534782b6c74f17"
],
"2" : [
"137c7b2fddcf4368b7b0000d"
],
"3" : [
"67cdec252c4f4351b17271a5"
]
},
"configurations.name" : {
"notprovided" : [
"137c7b2fddcf4368b7b0000d",
"4a5a9bf9e9534782b6c74f17",
"67cdec252c4f4351b17271a5"
],
"DefaultConfig_v1" : [
"4a5a9bf9e9534782b6c74f17"
],
"DefaultConfig_v2" : [
"137c7b2fddcf4368b7b0000d"
],
"DefaultConfig_v3" : [
"67cdec252c4f4351b17271a5"
],
"DefaultConfig_v4" : [
"67cdec252c4f4351b17271a5"
],
"DefaultConfig_v5" : [
"67cdec252c4f4351b17271a5"
],
"DefaultConfig_v6" : [
"67cdec252c4f4351b17271a5"
],
"DefaultConfig_v7" : [
"67cdec252c4f4351b17271a5"
],
"DefaultConfig_v8" : [
"67cdec252c4f4351b17271a5"
],
"DefaultConfig_v9" : [
"67cdec252c4f4351b17271a5"
],
"DefaultConfig_v10" : [
"67cdec252c4f4351b17271a5"
],
"DefaultConfig_v11" : [
"67cdec252c4f4351b17271a5"
],
"DefaultConfig_v12" : [
"67cdec252c4f4351b17271a5"
],
"DefaultConfig_v13" : [
"67cdec252c4f4351b17271a5"
],
"DefaultConfig_v14" : [
"67cdec252c4f4351b17271a5"
],
"DefaultConfig_v15" : [
"67cdec252c4f4351b17271a5"
],
"DefaultConfig_v16" : [
"67cdec252c4f4351b17271a5"
],
"DefaultConfig_v17" : [
"67cdec252c4f4351b17271a5"
],
"DefaultConfig_v18" : [
"67cdec252c4f4351b17271a5"
],
"DefaultConfig_v19" : [
"67cdec252c4f4351b17271a5"
],
"DefaultConfig_v20" : [
"67cdec252c4f4351b17271a5"
],
"DefaultConfig_v21" : [
"67cdec252c4f4351b17271a5"
],
"DefaultConfig_v22" : [
"67cdec252c4f4351b17271a5"
],
"DefaultConfig_v23" : [
"67cdec252c4f4351b17271a5"
],
"DefaultConfig_v24" : [
"67cdec252c4f4351b17271a5"
],
"DefaultConfig_v25" : [
"67cdec252c4f4351b17271a5"
],
"DefaultConfig_v26" : [
"67cdec252c4f4351b17271a5"
],
"DefaultConfig_v27" : [
"67cdec252c4f4351b17271a5"
],
"DefaultConfig_v28" : [
"67cdec252c4f4351b17271a5"
],
"DefaultConfig_v29" : [
"67cdec252c4f4351b17271a5"
],
"DefaultConfig_v30" : [
"67cdec252c4f4351b17271a5"
],
"DefaultConfig_v31" : [
"67cdec252c4f4351b17271a5"
],
"DefaultConfig_v32" : [
"67cdec252c4f4351b17271a5"
],
"DefaultConfig_v33" : [
"67cdec252c4f4351b17271a5"
],
"DefaultConfig_v34" : [
"67cdec252c4f4351b17271a5"
]
},
"entities.name" : {
"OTSROOT" : [
"137c7b2fddcf4368b7b0000d",
"4a5a9bf9e9534782b6c74f17",
"67cdec252c4f4351b17271a5"
]
},
"aliases.active.name" : {

},
"runs.name" : {

},
"configurations.assigned" : {
"notprovided" : [
"2020-07-21T14:27:46.363-0500",
"2020-07-21T14:44:15.964-0500",
"2020-07-21T14:57:49.804-0500"
],
"DefaultConfig_v1" : [
"2020-07-21T14:27:46.896-0500"
],
"DefaultConfig_v2" : [
"2020-07-21T14:44:16.565-0500"
],
"DefaultConfig_v3" : [
"2020-07-21T14:57:50.438-0500"
],
"DefaultConfig_v4" : [
"2020-07-28T10:52:34.331-0500"
],
"DefaultConfig_v5" : [
"2020-08-24T11:59:56.859-0500"
],
"DefaultConfig_v6" : [
"2020-08-24T16:05:13.422-0500"
],
"DefaultConfig_v7" : [
"2020-08-26T10:33:56.807-0500"
],
"DefaultConfig_v8" : [
"2020-08-26T10:45:54.567-0500"
],
"DefaultConfig_v9" : [
"2020-08-26T14:49:52.752-0500"
],
"DefaultConfig_v10" : [
"2020-08-26T14:52:00.373-0500"
],
"DefaultConfig_v11" : [
"2020-08-26T15:00:03.848-0500"
],
"DefaultConfig_v12" : [
"2020-08-26T16:18:15.587-0500"
],
"DefaultConfig_v13" : [
"2020-08-28T21:40:22.935-0500"
],
"DefaultConfig_v14" : [
"2020-08-31T15:19:58.869-0500"
],
"DefaultConfig_v15" : [
"2020-09-03T10:43:22.359-0500"
],
"DefaultConfig_v16" : [
"2020-09-03T10:49:03.411-0500"
],
"DefaultConfig_v17" : [
"2020-09-08T17:07:21.661-0500"
],
"DefaultConfig_v18" : [
"2020-09-11T16:02:29.289-0500"
],
"DefaultConfig_v19" : [
"2020-09-14T17:47:19.453-0500"
],
"DefaultConfig_v20" : [
"2020-09-14T18:00:23.706-0500"
],
"DefaultConfig_v21" : [
"2020-09-15T15:14:57.157-0500"
],
"DefaultConfig_v22" : [
"2020-09-15T15:18:54.258-0500"
],
"DefaultConfig_v23" : [
"2020-09-15T15:27:51.180-0500"
],
"DefaultConfig_v24" : [
"2020-09-15T15:52:12.677-0500"
],
"DefaultConfig_v25" : [
"2020-09-21T11:41:58.354-0500"
],
"DefaultConfig_v26" : [
"2020-09-21T11:54:29.082-0500"
],
"DefaultConfig_v27" : [
"2020-10-06T14:45:41.152-0500"
],
"DefaultConfig_v28" : [
"2020-10-06T15:04:19.684-0500"
],
"DefaultConfig_v29" : [
"2020-10-07T16:45:35.815-0500"
],
"DefaultConfig_v30" : [
"2020-10-07T17:03:29.966-0500"
],
"DefaultConfig_v31" : [
"2020-11-04T20:42:36.953-0600"
],
"DefaultConfig_v32" : [
"2020-11-11T11:26:54.543-0600"
],
"DefaultConfig_v33" : [
"2021-01-18T20:04:38.910-0600"
],
"DefaultConfig_v34" : [
"2021-01-18T20:05:19.372-0600"
]
}
}