11 Nov 2020 21:18:32.844 [140674884843712] INFO  gov.fnal.lenny01.p:2027 <> - xdaq version: 05.03.01, compiled on Sep  8 2020 at 11:26:57, 64bit
11 Nov 2020 21:18:32.845 [140674884843712] INFO  gov.fnal.lenny01.p:2027 <> - Loaded profile: /home/aquinter/Programming/otsdaq/srcs/otsdaq_cmsoutertracker/DataAndres/XDAQConfigurations/otsConfiguration_CMake.xml
11 Nov 2020 21:18:32.846 [140674884843712] INFO  gov.fnal.lenny01.p:2027 <> - b2innub version: 02.05.01, compiled on Sep  8 2020 at 11:29:48
11 Nov 2020 21:18:32.847 [140674884843712] INFO  gov.fnal.lenny01.p:2027 <> - executive version: 04.00.06, compiled on Sep  8 2020 at 11:29:14
11 Nov 2020 21:18:32.848 [140674884843712] INFO  gov.fnal.lenny01.p:2027 <> - b2inutils version: 04.04.05, compiled on Sep  8 2020 at 11:29:55
11 Nov 2020 21:18:32.850 [140674884843712] INFO  gov.fnal.lenny01.p:2027 <> - pthttp version: 04.05.07, compiled on Sep  8 2020 at 11:28:06
11 Nov 2020 21:18:32.851 [140674884843712] INFO  gov.fnal.lenny01.p:2027 <> - ptfifo version: 04.03.01, compiled on Sep  8 2020 at 11:28:50
11 Nov 2020 21:18:32.852 [140674884843712] INFO  gov.fnal.lenny01.p:2027 <> - xrelay version: 04.01.00, compiled on Sep  8 2020 at 11:29:41
11 Nov 2020 21:18:32.854 [140674884843712] INFO  gov.fnal.lenny01.p:2027 <> - hyperdaq version: 05.02.01, compiled on Sep  8 2020 at 11:29:38
11 Nov 2020 21:18:32.855 [140674884843712] DEBUG gov.fnal.lenny01.p:2027 <> - Create application descriptor for class: executive::Application id: 0
11 Nov 2020 21:18:32.867 [140674884843712] INFO  gov.fnal.lenny01.p:2027.executive::Application.lid(0) <> - Log URL not set (was already console)
11 Nov 2020 21:18:32.867 [140674884843712] INFO  gov.fnal.lenny01.p:2027.executive::Application.lid(0) <> - Changed Log level to INFO
11 Nov 2020 21:18:32.870 [140674884843712] INFO  gov.fnal.lenny01.p:2027.pt::http::PeerTransportHTTP.lid(1) <> - No security policies on this server
11 Nov 2020 21:18:33.001 [140674884843712] WARN  gov.fnal.lenny01.p:2027 <> - Could not perform version checking on module file://home/aquinter/Programming/otsdaq/build_slf7.x86_64/otsdaq_utilities/lib/libSlowControlsDashboard.so, version declaration missing.
otsConsole: {
	type: UDP
	threshold: DEBUG
	port: 30000
	host: "127.0.0.1"
}
console: {
	type: "OTS"
	threshold: "DEBUG"
	filename_delimit: "/srcs/"
	format_string: "|%L:%N:%f [%u]	%m"

}

file: ""

|Info:configureMessageFacility:configureMessageFacility.cc [316]	Message Facility Application . configured with: destinations:{console:{filename_delimit:"/srcs/" format_string:"|%L:%N:%f [%u]\t%m" threshold:"DEBUG" type:"OTS"} file:"" otsConsole:{host:"127.0.0.1" port:30000 threshold:"DEBUG" type:"UDP"}}
|Info:_TCPConnect:TCPConnect.cc [344]	Resolving host 127.0.0.1, on port 30000
11-11 15:18:33.021056                         UDP_mfPlugin    ERROR routePayload(...): Error sending message 2 to 127.0.0.1, errno=17 (File exists)
|Info:_TCPConnect:TCPConnect.cc [371]	Host resolved as 127.0.0.1
|Info:_TCPConnect:TCPConnect.cc [247]	Resolving ip lenny01.fnal.gov
|Warning:ConfigurationManager:otsdaq/otsdaq/ConfigurationInterface/ConfigurationManager.cc [1358]	Not loading group because it is not of type Context or Backbone (it is type 'Iterate').
|Warning:ConfigurationManager:otsdaq/otsdaq/ConfigurationInterface/ConfigurationManager.cc [1358]	Not loading group because it is not of type Context or Backbone (it is type 'Configuration').
|Warning:ConfigurationManager:otsdaq/otsdaq/ConfigurationInterface/ConfigurationManager.cc [1358]	Not loading group because it is not of type Context or Backbone (it is type 'Iterate').
|Warning:ConfigurationManager:otsdaq/otsdaq/ConfigurationInterface/ConfigurationManager.cc [1358]	Not loading group because it is not of type Context or Backbone (it is type 'Configuration').
11 Nov 2020 21:18:33.327 [140674884843712] ERROR gov.fnal.lenny01.p:2027.executive::Application.lid(0) <> - Caught exception: xdaq::exception::ConfigurationError 'Failed to instantiate application class 'ots::SlowControlsDashboardSupervisor', local identifier '283'' raised at instantiateApplications(/scratch/workspace/artdaq_demo-release-build/SLF7/e19-prof/build/xdaq/v14_12_0a/build/Linux64bit+3.10-2.17-e19-prof/xdaq-14.12.0/executive/src/common/Application.cc:1173);
	originated by xdaq::exception::ApplicationInstantiationFailed 'Failed to instantiate object for class ots::SlowControlsDashboardSupervisor in context http://lenny01.fnal.gov:2027, std exception in user function: ---- Configuration BEGIN
  UnknownPlugin
  ---- Configuration BEGIN
    Library specification "OtsSlowControlsInterface" does not correspond to any library in CET_PLUGIN_PATH of type "slowcontrols"
  ---- Configuration END
  Plugin OtsSlowControlsInterface with version Unknown was not registered.
  Perhaps your plugin type is misspelled or is not a plugin recognized by this
  system.
---- Configuration END
' raised at instantiateApplication(/scratch/workspace/artdaq_demo-release-build/SLF7/e19-prof/build/xdaq/v14_12_0a/build/Linux64bit+3.10-2.17-e19-prof/xdaq-14.12.0/xdaq/src/common/ApplicationRegistry.cc:260)
11 Nov 2020 21:18:33.327 [140674884843712] ERROR gov.fnal.lenny01.p:2027.executive::Application.lid(0) <> - Failed to configure executive
11 Nov 2020 21:18:33.327 [140674884843712] INFO  gov.fnal.lenny01.p:2027 <> - Ready.
Terminating...
