LogDebug:mfReceiveAndForward:otsdaq_utilities/otsdaq-utilities/Console/MF_ReceiveAndForward.cpp [142]	Starting...


LogDebug:mfReceiveAndForward:otsdaq_utilities/otsdaq-utilities/Console/MF_ReceiveAndForward.cpp [149]	port parameter file:/home/aquinter/otsdaq/srcs/otsdaq_cmsoutertracker/DataAndres/MessageFacilityConfigurations/QuietForwarder.cfg


LogDebug:mfReceiveAndForward:otsdaq_utilities/otsdaq-utilities/Console/MF_ReceiveAndForward.cpp [170]	Forwarding from: 30000 to: 127.0.0.1:30001


LogDebug:mfReceiveAndForward:otsdaq_utilities/otsdaq-utilities/Console/MF_ReceiveAndForward.cpp [212]	listener: bind.


listener: bind: Address already in use
LogDebug:mfReceiveAndForward:otsdaq_utilities/otsdaq-utilities/Console/MF_ReceiveAndForward.cpp [212]	listener: bind.


listener: bind: Address already in use
LogDebug:mfReceiveAndForward:otsdaq_utilities/otsdaq-utilities/Console/MF_ReceiveAndForward.cpp [222]	listener: failed to bind socket...


listener: failed to bind socket
