20 Jan 2021 17:16:43.507 [140211322628288] INFO  gov.fnal.lenny01.p:2030 <> - xdaq version: 05.03.01, compiled on Sep  8 2020 at 11:26:57, 64bit
20 Jan 2021 17:16:43.508 [140211322628288] INFO  gov.fnal.lenny01.p:2030 <> - Loaded profile: /home/aquinter/Programming/otsdaq/srcs/otsdaq_cmsoutertracker/DataAndres/XDAQConfigurations/otsConfiguration_CMake.xml
20 Jan 2021 17:16:43.509 [140211322628288] INFO  gov.fnal.lenny01.p:2030 <> - b2innub version: 02.05.01, compiled on Sep  8 2020 at 11:29:48
20 Jan 2021 17:16:43.510 [140211322628288] INFO  gov.fnal.lenny01.p:2030 <> - executive version: 04.00.06, compiled on Sep  8 2020 at 11:29:14
20 Jan 2021 17:16:43.511 [140211322628288] INFO  gov.fnal.lenny01.p:2030 <> - b2inutils version: 04.04.05, compiled on Sep  8 2020 at 11:29:55
20 Jan 2021 17:16:43.513 [140211322628288] INFO  gov.fnal.lenny01.p:2030 <> - pthttp version: 04.05.07, compiled on Sep  8 2020 at 11:28:06
20 Jan 2021 17:16:43.514 [140211322628288] INFO  gov.fnal.lenny01.p:2030 <> - ptfifo version: 04.03.01, compiled on Sep  8 2020 at 11:28:50
20 Jan 2021 17:16:43.515 [140211322628288] INFO  gov.fnal.lenny01.p:2030 <> - xrelay version: 04.01.00, compiled on Sep  8 2020 at 11:29:41
20 Jan 2021 17:16:43.516 [140211322628288] INFO  gov.fnal.lenny01.p:2030 <> - hyperdaq version: 05.02.01, compiled on Sep  8 2020 at 11:29:38
20 Jan 2021 17:16:43.517 [140211322628288] DEBUG gov.fnal.lenny01.p:2030 <> - Create application descriptor for class: executive::Application id: 0
20 Jan 2021 17:16:43.530 [140211322628288] INFO  gov.fnal.lenny01.p:2030.executive::Application.lid(0) <> - Log URL not set (was already console)
20 Jan 2021 17:16:43.530 [140211322628288] INFO  gov.fnal.lenny01.p:2030.executive::Application.lid(0) <> - Changed Log level to INFO
20 Jan 2021 17:16:43.533 [140211322628288] INFO  gov.fnal.lenny01.p:2030.pt::http::PeerTransportHTTP.lid(1) <> - No security policies on this server
otsConsole: {
	type: UDP
	threshold: DEBUG
	port: 30000
	host: "127.0.0.1"
}
console: {
	type: "OTS"
	threshold: "DEBUG"
	filename_delimit: "/srcs/"
	format_string: "|%L:%N:%f [%u]	%m"

}

file: ""

|Info:configureMessageFacility:configureMessageFacility.cc [316]	Message Facility Application . configured with: destinations:{console:{filename_delimit:"/srcs/" format_string:"|%L:%N:%f [%u]\t%m" threshold:"DEBUG" type:"OTS"} file:"" otsConsole:{host:"127.0.0.1" port:30000 threshold:"DEBUG" type:"UDP"}}
User [0] 	Name: admin               	Display Name: Administrator                 	Email: root@otsdaq.fnal.gov          	NAC:      	FailedCount: 0	Permissions: allUsers: 255
User [2] 	Name: andres              	Display Name: andres                        	Email: aquinter@fnal.gov             	NAC: 37776	FailedCount: 0	Permissions: allUsers: 255
User [3] 	Name: andrea              	Display Name: andreaj                       	Email: andrea.medina.ahumada@gmail.com	NAC:      	FailedCount: 0	Permissions: allUsers: 100, group: 100
|Error:WebUsers:otsdaq/otsdaq/WebUsersUtilities/WebUsers.cc [2688]	User 'andrea' is inactive.
|Error:WebUsers:otsdaq/otsdaq/WebUsersUtilities/WebUsers.cc [2689]	Failed to lock for user 'andrea.'
20 Jan 2021 17:16:43.739 [140211322628288] INFO  gov.fnal.lenny01.p:2030 <> - GatewaySupervisor_ version: 02.05.06, compiled on Dec  4 2020 at 12:49:09
20 Jan 2021 17:16:43.742 [140211322628288] INFO  gov.fnal.lenny01.p:2030 <> - Chat version: 02.05.06, compiled on Dec  4 2020 at 12:49:54
20 Jan 2021 17:16:43.746 [140211322628288] INFO  gov.fnal.lenny01.p:2030 <> - Console version: 02.05.06, compiled on Dec  4 2020 at 12:49:54
20 Jan 2021 17:16:43.748 [140211322628288] INFO  gov.fnal.lenny01.p:2030 <> - Logbook version: 02.05.06, compiled on Dec  4 2020 at 12:49:55
20 Jan 2021 17:16:44.441 [140211322628288] INFO  gov.fnal.lenny01.p:2030 <> - VisualizationV2 version: 02.05.06, compiled on Dec  4 2020 at 12:49:55
20 Jan 2021 17:16:44.456 [140211322628288] INFO  gov.fnal.lenny01.p:2030 <> - ConfigurationGUI version: 02.05.06, compiled on Dec  4 2020 at 12:49:54
20 Jan 2021 17:16:44.460 [140211322628288] INFO  gov.fnal.lenny01.p:2030 <> - MacroMaker version: 02.05.06, compiled on Dec  4 2020 at 12:49:56
20 Jan 2021 17:16:44.464 [140211322628288] WARN  gov.fnal.lenny01.p:2030 <> - Could not perform version checking on module file://home/aquinter/Programming/otsdaq/build_slf7.x86_64/otsdaq_utilities/lib/libSlowControlsDashboard.so, version declaration missing.
|Warning:ConfigurationManager:otsdaq/otsdaq/ConfigurationInterface/ConfigurationManager.cc [1358]	Not loading group because it is not of type Context or Backbone (it is type 'Iterate').
|Warning:ConfigurationManager:otsdaq/otsdaq/ConfigurationInterface/ConfigurationManager.cc [1358]	Not loading group because it is not of type Context or Backbone (it is type 'Configuration').
|Warning:ConfigurationManager:otsdaq/otsdaq/ConfigurationInterface/ConfigurationManager.cc [1358]	Not loading group because it is not of type Context or Backbone (it is type 'Iterate').
|Warning:ConfigurationManager:otsdaq/otsdaq/ConfigurationInterface/ConfigurationManager.cc [1358]	Not loading group because it is not of type Context or Backbone (it is type 'Configuration').
|Warning:ConfigurationManager:otsdaq/otsdaq/ConfigurationInterface/ConfigurationManager.cc [1358]	Not loading group because it is not of type Context or Backbone (it is type 'Iterate').
|Warning:ConfigurationManager:otsdaq/otsdaq/ConfigurationInterface/ConfigurationManager.cc [1358]	Not loading group because it is not of type Context or Backbone (it is type 'Configuration').
|Warning:ConfigurationManager:otsdaq/otsdaq/ConfigurationInterface/ConfigurationManager.cc [1358]	Not loading group because it is not of type Context or Backbone (it is type 'Iterate').
|Warning:ConfigurationManager:otsdaq/otsdaq/ConfigurationInterface/ConfigurationManager.cc [1358]	Not loading group because it is not of type Context or Backbone (it is type 'Configuration').
|Warning:ConfigurationManager:otsdaq/otsdaq/ConfigurationInterface/ConfigurationManager.cc [1358]	Not loading group because it is not of type Context or Backbone (it is type 'Iterate').
|Warning:ConfigurationManager:otsdaq/otsdaq/ConfigurationInterface/ConfigurationManager.cc [1358]	Not loading group because it is not of type Context or Backbone (it is type 'Configuration').
|Warning:ConfigurationManager:otsdaq/otsdaq/ConfigurationInterface/ConfigurationManager.cc [1358]	Not loading group because it is not of type Context or Backbone (it is type 'Iterate').
|Warning:ConfigurationManager:otsdaq/otsdaq/ConfigurationInterface/ConfigurationManager.cc [1358]	Not loading group because it is not of type Context or Backbone (it is type 'Configuration').
|Warning:ConfigurationManager:otsdaq/otsdaq/ConfigurationInterface/ConfigurationManager.cc [1358]	Not loading group because it is not of type Context or Backbone (it is type 'Iterate').
|Warning:ConfigurationManager:otsdaq/otsdaq/ConfigurationInterface/ConfigurationManager.cc [1358]	Not loading group because it is not of type Context or Backbone (it is type 'Configuration').
|Warning:ConfigurationManager:otsdaq/otsdaq/ConfigurationInterface/ConfigurationManager.cc [1358]	Not loading group because it is not of type Context or Backbone (it is type 'Iterate').
|Warning:ConfigurationManager:otsdaq/otsdaq/ConfigurationInterface/ConfigurationManager.cc [1358]	Not loading group because it is not of type Context or Backbone (it is type 'Configuration').
|Warning:ConfigurationManager:otsdaq/otsdaq/ConfigurationInterface/ConfigurationManager.cc [1358]	Not loading group because it is not of type Context or Backbone (it is type 'Iterate').
|Warning:ConfigurationManager:otsdaq/otsdaq/ConfigurationInterface/ConfigurationManager.cc [1358]	Not loading group because it is not of type Context or Backbone (it is type 'Configuration').
|Warning:ConfigurationManager:otsdaq/otsdaq/ConfigurationInterface/ConfigurationManager.cc [1358]	Not loading group because it is not of type Context or Backbone (it is type 'Iterate').
|Warning:ConfigurationManager:otsdaq/otsdaq/ConfigurationInterface/ConfigurationManager.cc [1358]	Not loading group because it is not of type Context or Backbone (it is type 'Configuration').
|Warning:ConfigurationManager:otsdaq/otsdaq/ConfigurationInterface/ConfigurationManager.cc [1358]	Not loading group because it is not of type Context or Backbone (it is type 'Iterate').
|Warning:ConfigurationManager:otsdaq/otsdaq/ConfigurationInterface/ConfigurationManager.cc [1358]	Not loading group because it is not of type Context or Backbone (it is type 'Configuration').
|Warning:ConfigurationManager:otsdaq/otsdaq/ConfigurationInterface/ConfigurationManager.cc [1358]	Not loading group because it is not of type Context or Backbone (it is type 'Iterate').
|Warning:ConfigurationManager:otsdaq/otsdaq/ConfigurationInterface/ConfigurationManager.cc [1358]	Not loading group because it is not of type Context or Backbone (it is type 'Configuration').
|Warning:ConfigurationManager:otsdaq/otsdaq/ConfigurationInterface/ConfigurationManager.cc [1358]	Not loading group because it is not of type Context or Backbone (it is type 'Iterate').
|Warning:ConfigurationManager:otsdaq/otsdaq/ConfigurationInterface/ConfigurationManager.cc [1358]	Not loading group because it is not of type Context or Backbone (it is type 'Configuration').
|Info:Console:otsdaq_utilities/otsdaq-utilities/Console/ConsoleSupervisor.cc [193]	INFO messages look like this.
|Warning:Console:otsdaq_utilities/otsdaq-utilities/Console/ConsoleSupervisor.cc [194]	WARNING messages look like this.
|Error:Console:otsdaq_utilities/otsdaq-utilities/Console/ConsoleSupervisor.cc [195]	ERROR messages look like this.
:Console:otsdaq_utilities/otsdaq-utilities/Console/ConsoleSupervisor.cc [236]	Missed packets from xdaq.exe! Sequence IDs 5 to 0.
:Console:otsdaq_utilities/otsdaq-utilities/Console/ConsoleSupervisor.cc [236]	Missed packets from xdaq.exe! Sequence IDs 2 to 4.
|Warning:ConfigurationManager:otsdaq/otsdaq/ConfigurationInterface/ConfigurationManager.cc [1358]	Not loading group because it is not of type Context or Backbone (it is type 'Iterate').
|Warning:ConfigurationManager:otsdaq/otsdaq/ConfigurationInterface/ConfigurationManager.cc [1358]	Not loading group because it is not of type Context or Backbone (it is type 'Configuration').
|Warning:ConfigurationManager:otsdaq/otsdaq/ConfigurationInterface/ConfigurationManager.cc [1358]	Not loading group because it is not of type Context or Backbone (it is type 'Iterate').
|Warning:ConfigurationManager:otsdaq/otsdaq/ConfigurationInterface/ConfigurationManager.cc [1358]	Not loading group because it is not of type Context or Backbone (it is type 'Configuration').
|Warning:ConfigurationManager:otsdaq/otsdaq/ConfigurationInterface/ConfigurationManager.cc [1358]	Not loading group because it is not of type Context or Backbone (it is type 'Iterate').
|Warning:ConfigurationManager:otsdaq/otsdaq/ConfigurationInterface/ConfigurationManager.cc [1358]	Not loading group because it is not of type Context or Backbone (it is type 'Configuration').
|Warning:ConfigurationManager:otsdaq/otsdaq/ConfigurationInterface/ConfigurationManager.cc [1358]	Not loading group because it is not of type Context or Backbone (it is type 'Iterate').
|Warning:ConfigurationManager:otsdaq/otsdaq/ConfigurationInterface/ConfigurationManager.cc [1358]	Not loading group because it is not of type Context or Backbone (it is type 'Configuration').
20 Jan 2021 17:16:46.882 [140211322628288] ERROR gov.fnal.lenny01.p:2030.executive::Application.lid(0) <> - Caught exception: xdaq::exception::ConfigurationError 'Failed to instantiate application class 'ots::SlowControlsDashboardSupervisor', local identifier '283'' raised at instantiateApplications(/scratch/workspace/artdaq_demo-release-build/SLF7/e19-prof/build/xdaq/v14_12_0a/build/Linux64bit+3.10-2.17-e19-prof/xdaq-14.12.0/executive/src/common/Application.cc:1173);
	originated by xdaq::exception::ApplicationInstantiationFailed 'Failed to instantiate object for class ots::SlowControlsDashboardSupervisor in context http://lenny01.fnal.gov:2030, std exception in user function: ---- Configuration BEGIN
  UnknownPlugin
  ---- Configuration BEGIN
    Library specification "OtsSlowControlsInterface" does not correspond to any library in CET_PLUGIN_PATH of type "slowcontrols"
  ---- Configuration END
  Plugin OtsSlowControlsInterface with version Unknown was not registered.
  Perhaps your plugin type is misspelled or is not a plugin recognized by this
  system.
---- Configuration END
' raised at instantiateApplication(/scratch/workspace/artdaq_demo-release-build/SLF7/e19-prof/build/xdaq/v14_12_0a/build/Linux64bit+3.10-2.17-e19-prof/xdaq-14.12.0/xdaq/src/common/ApplicationRegistry.cc:260)
20 Jan 2021 17:16:46.882 [140211322628288] ERROR gov.fnal.lenny01.p:2030.executive::Application.lid(0) <> - Failed to configure executive
20 Jan 2021 17:16:46.882 [140211322628288] INFO  gov.fnal.lenny01.p:2030 <> - Ready.
|Info:WebUsers:otsdaq/otsdaq/WebUsersUtilities/WebUsers.cc [1082]	Login successful for: andrea
|Info:WebUsers:otsdaq/otsdaq/WebUsersUtilities/WebUsers.cc [2693]	User 'andrea' has locked out the system!
|Info:ConfigurationManager:otsdaq/otsdaq/ConfigurationInterface/ConfigurationManager.cc [154]	Private constructor for write access called.
Terminating...
