{
"document" : {
"data" : {
"NAME" : "ARTDAQ_BUILDER_SOURCE_CONFIGURATION",
"COMMENT" : "",
"AUTHOR" : "admin",
"CREATION_TIME" : 1508427107,
"COL_TYPES" : {
"SOURCE_UID" : "VARCHAR2",
"SOURCE_MODULE_TYPE" : "VARCHAR2",
"SOURCE_WAITING_TIME" : "VARCHAR2",
"SOURCE_RESUME_AFTER_TIMEOUT" : "VARCHAR2",
"COMMENT_DESCRIPTION" : "VARCHAR2",
"AUTHOR" : "VARCHAR2",
"RECORD_INSERTION_TIME" : "TIMESTAMP WITH TIMEZONE"
},
"DATA_SET" : [
{
"SOURCE_UID" : "builder0source",
"SOURCE_MODULE_TYPE" : "FTBFInput",
"SOURCE_WAITING_TIME" : "2500000",
"SOURCE_RESUME_AFTER_TIMEOUT" : "True",
"COMMENT_DESCRIPTION" : "No Comment",
"AUTHOR" : "admin",
"RECORD_INSERTION_TIME" : "1508427104"
}
]
},
"metadata" : {

},
"search" : [

]
},
"comments" : [

],
"origin" : {
"source" : "template",
"name" : "notprovided",
"format" : "json",
"created" : "2017-11-08T15:56:02.658-0600",
"rawdata" : [

]
},
"version" : "0",
"entities" : [
{
"name" : "OTSROOT",
"assigned" : "2017-11-08T15:56:02.659-0600"
}
],
"configurations" : [
{
"name" : "notprovided",
"assigned" : "2017-11-08T15:56:02.659-0600"
},
{
"name" : "FTBFConfig_v0",
"assigned" : "2017-11-08T15:56:05.277-0600"
},
{
"name" : "FTBFConfig_v1",
"assigned" : "2017-11-09T09:56:29.756-0600"
},
{
"name" : "FTBFConfig_v2",
"assigned" : "2017-11-09T10:05:58.701-0600"
},
{
"name" : "FTBFConfig_v3",
"assigned" : "2017-11-09T10:37:10.274-0600"
},
{
"name" : "FTBFConfig_v4",
"assigned" : "2017-11-15T11:30:09.020-0600"
},
{
"name" : "FTBFConfig_v5",
"assigned" : "2017-11-15T11:54:55.791-0600"
},
{
"name" : "FTBFConfig_v6",
"assigned" : "2017-11-15T11:57:48.417-0600"
},
{
"name" : "FTBFConfig_v7",
"assigned" : "2017-11-15T12:42:30.820-0600"
},
{
"name" : "FTBFConfig_v8",
"assigned" : "2017-11-15T13:01:01.791-0600"
},
{
"name" : "FTBFConfig_v9",
"assigned" : "2017-11-15T13:02:55.161-0600"
},
{
"name" : "FTBFConfig_v10",
"assigned" : "2017-11-15T13:04:22.758-0600"
},
{
"name" : "FTBFConfig_v11",
"assigned" : "2017-11-15T13:07:50.233-0600"
},
{
"name" : "FTBFConfig_v12",
"assigned" : "2017-11-15T13:11:57.649-0600"
},
{
"name" : "FTBFConfig_v13",
"assigned" : "2017-11-15T13:13:51.614-0600"
},
{
"name" : "FTBFConfig_v14",
"assigned" : "2017-11-15T13:27:25.132-0600"
},
{
"name" : "FTBFConfig_v15",
"assigned" : "2017-11-15T13:35:45.566-0600"
},
{
"name" : "FTBFConfig_v16",
"assigned" : "2017-11-15T13:36:50.200-0600"
},
{
"name" : "FTBFConfig_v17",
"assigned" : "2017-11-15T15:33:28.730-0600"
},
{
"name" : "FTBFConfig_v18",
"assigned" : "2017-11-15T15:35:32.331-0600"
},
{
"name" : "FTBFConfig_v19",
"assigned" : "2017-11-15T15:38:01.174-0600"
},
{
"name" : "FTBFConfig_v20",
"assigned" : "2017-11-15T16:26:28.813-0600"
},
{
"name" : "FTBFConfig_v21",
"assigned" : "2017-11-16T09:22:29.962-0600"
},
{
"name" : "FTBFConfig_v22",
"assigned" : "2017-11-17T10:23:26.148-0600"
},
{
"name" : "FTBFConfig_v23",
"assigned" : "2017-11-17T17:26:43.666-0600"
},
{
"name" : "FTBFConfig_v24",
"assigned" : "2017-11-17T17:58:24.112-0600"
},
{
"name" : "FTBFConfig_v25",
"assigned" : "2017-11-17T18:24:43.791-0600"
},
{
"name" : "FTBFConfig_v26",
"assigned" : "2017-11-17T18:32:20.668-0600"
},
{
"name" : "FTBFConfig_v27",
"assigned" : "2017-11-17T18:43:27.794-0600"
},
{
"name" : "FTBFConfig_v28",
"assigned" : "2017-11-17T18:48:29.796-0600"
},
{
"name" : "FTBFConfig_v29",
"assigned" : "2017-11-20T14:48:29.021-0600"
},
{
"name" : "FTBFConfig_v30",
"assigned" : "2017-11-20T15:39:54.259-0600"
},
{
"name" : "FTBFConfig_v31",
"assigned" : "2017-11-20T16:41:00.250-0600"
},
{
"name" : "FTBFConfig_v32",
"assigned" : "2017-11-20T18:55:33.053-0600"
},
{
"name" : "FTBFConfig_v33",
"assigned" : "2017-11-20T18:57:28.351-0600"
},
{
"name" : "FTBFConfig_v34",
"assigned" : "2017-11-29T17:50:37.830-0600"
},
{
"name" : "FTBFConfig_v35",
"assigned" : "2017-11-29T18:00:30.688-0600"
},
{
"name" : "FTBFConfig_v36",
"assigned" : "2017-11-29T18:35:09.548-0600"
},
{
"name" : "FTBFConfig_v37",
"assigned" : "2017-12-01T09:36:15.744-0600"
},
{
"name" : "FTBFConfig_v38",
"assigned" : "2017-12-01T09:51:59.105-0600"
},
{
"name" : "FTBFConfig_v39",
"assigned" : "2017-12-01T11:51:56.333-0600"
},
{
"name" : "FTBFConfig_v40",
"assigned" : "2017-12-01T12:18:18.308-0600"
},
{
"name" : "FTBFConfig_v41",
"assigned" : "2017-12-01T12:21:00.430-0600"
},
{
"name" : "FTBFConfig_v42",
"assigned" : "2017-12-01T12:43:19.571-0600"
},
{
"name" : "FTBFConfig_v43",
"assigned" : "2017-12-01T12:57:56.782-0600"
},
{
"name" : "FTBFConfig_v44",
"assigned" : "2017-12-01T13:00:49.398-0600"
},
{
"name" : "FTBFConfig_v45",
"assigned" : "2017-12-01T13:25:46.415-0600"
},
{
"name" : "FTBFConfig_v46",
"assigned" : "2017-12-01T13:35:41.305-0600"
},
{
"name" : "FTBFConfig_v47",
"assigned" : "2017-12-01T14:00:49.698-0600"
},
{
"name" : "FTBFConfig_v48",
"assigned" : "2017-12-01T14:03:56.948-0600"
},
{
"name" : "FTBFConfig_v49",
"assigned" : "2017-12-01T15:31:57.144-0600"
},
{
"name" : "FTBFConfig_v51",
"assigned" : "2017-12-01T15:37:03.556-0600"
},
{
"name" : "FTBFConfig_v52",
"assigned" : "2017-12-01T15:37:28.089-0600"
},
{
"name" : "FTBFConfig_v53",
"assigned" : "2017-12-01T15:40:56.668-0600"
},
{
"name" : "FTBFConfig_v54",
"assigned" : "2017-12-01T15:52:46.978-0600"
},
{
"name" : "FTBFConfig_v55",
"assigned" : "2017-12-01T15:54:32.107-0600"
},
{
"name" : "FTBFConfig_v56",
"assigned" : "2017-12-01T15:55:31.631-0600"
},
{
"name" : "FTBFConfig_v57",
"assigned" : "2017-12-01T15:56:37.426-0600"
},
{
"name" : "FTBFConfig_v58",
"assigned" : "2017-12-01T15:57:35.506-0600"
},
{
"name" : "FTBFConfig_v59",
"assigned" : "2017-12-01T15:58:27.395-0600"
},
{
"name" : "FTBFConfig_v60",
"assigned" : "2017-12-01T15:59:28.584-0600"
},
{
"name" : "FTBFConfig_v61",
"assigned" : "2017-12-01T16:19:38.309-0600"
},
{
"name" : "FTBFConfig_v62",
"assigned" : "2017-12-01T16:22:00.860-0600"
},
{
"name" : "FTBFConfig_v63",
"assigned" : "2017-12-01T16:31:21.460-0600"
},
{
"name" : "FTBFConfig_v64",
"assigned" : "2017-12-01T17:06:28.279-0600"
},
{
"name" : "FTBFConfig_v65",
"assigned" : "2017-12-01T17:32:40.681-0600"
},
{
"name" : "FTBFConfig_v66",
"assigned" : "2017-12-01T20:38:47.082-0600"
},
{
"name" : "FTBFConfig_v67",
"assigned" : "2017-12-01T21:24:58.548-0600"
},
{
"name" : "FTBFConfig_v68",
"assigned" : "2017-12-01T21:42:58.199-0600"
},
{
"name" : "FTBFConfig_v69",
"assigned" : "2017-12-01T21:44:56.828-0600"
},
{
"name" : "FTBFConfig_v70",
"assigned" : "2017-12-01T21:59:16.038-0600"
},
{
"name" : "FTBFConfigNim_v0",
"assigned" : "2017-12-01T22:00:02.748-0600"
},
{
"name" : "FTBFConfigNim_v1",
"assigned" : "2017-12-01T22:13:04.477-0600"
},
{
"name" : "FTBFConfigNim_v2",
"assigned" : "2017-12-01T22:15:51.691-0600"
},
{
"name" : "FTBFConfigNim_v3",
"assigned" : "2017-12-01T22:16:59.751-0600"
},
{
"name" : "FTBFConfigNim_v4",
"assigned" : "2017-12-01T22:19:02.754-0600"
},
{
"name" : "FTBFConfigNim_v5",
"assigned" : "2017-12-01T22:21:53.458-0600"
},
{
"name" : "FTBFConfigNim_v6",
"assigned" : "2017-12-01T22:23:09.612-0600"
},
{
"name" : "FTBFConfigNim_v7",
"assigned" : "2017-12-01T22:25:13.391-0600"
},
{
"name" : "FTBFConfigNim_v8",
"assigned" : "2017-12-01T22:27:00.964-0600"
},
{
"name" : "FTBFConfigNim_v9",
"assigned" : "2017-12-01T22:29:25.209-0600"
},
{
"name" : "FTBFConfigNim_v10",
"assigned" : "2017-12-01T22:52:30.302-0600"
},
{
"name" : "FTBFConfigNim_v11",
"assigned" : "2017-12-01T22:57:25.060-0600"
},
{
"name" : "FTBFConfigNim_v12",
"assigned" : "2017-12-01T23:00:03.358-0600"
},
{
"name" : "FTBFConfigNim_v13",
"assigned" : "2017-12-01T23:52:31.467-0600"
},
{
"name" : "FTBFConfigNim_v14",
"assigned" : "2017-12-01T23:58:05.862-0600"
},
{
"name" : "FTBFConfigNim_v15",
"assigned" : "2017-12-02T00:00:30.143-0600"
},
{
"name" : "FTBFConfigNim_v16",
"assigned" : "2017-12-02T00:13:05.256-0600"
},
{
"name" : "FTBFConfigNim_v17",
"assigned" : "2017-12-02T00:28:24.233-0600"
},
{
"name" : "FTBFConfigNim_v18",
"assigned" : "2017-12-02T00:29:30.267-0600"
},
{
"name" : "FTBFConfigNim_v19",
"assigned" : "2017-12-02T00:31:07.006-0600"
},
{
"name" : "FTBFConfigNim_v20",
"assigned" : "2017-12-02T00:57:23.245-0600"
},
{
"name" : "FTBFConfigNim_v21",
"assigned" : "2017-12-02T10:57:57.792-0600"
},
{
"name" : "FTBFConfigNim_v22",
"assigned" : "2017-12-02T11:08:13.954-0600"
},
{
"name" : "FTBFConfigNim_v23",
"assigned" : "2017-12-02T11:12:35.513-0600"
},
{
"name" : "FTBFConfigNim_v24",
"assigned" : "2017-12-02T11:18:38.329-0600"
},
{
"name" : "FTBFConfigNim_v25",
"assigned" : "2017-12-02T11:27:01.563-0600"
},
{
"name" : "FTBFConfigNim_v26",
"assigned" : "2017-12-02T11:38:32.601-0600"
},
{
"name" : "FTBFConfigNim_v27",
"assigned" : "2017-12-02T11:49:03.727-0600"
},
{
"name" : "FTBFConfigNim_v28",
"assigned" : "2017-12-02T11:55:05.189-0600"
},
{
"name" : "FTBFConfigNim_v29",
"assigned" : "2017-12-02T12:06:22.009-0600"
},
{
"name" : "FTBFConfig_v71",
"assigned" : "2017-12-02T12:24:10.648-0600"
},
{
"name" : "FTBFConfig_v72",
"assigned" : "2017-12-02T12:43:31.435-0600"
},
{
"name" : "FTBFConfig_v73",
"assigned" : "2017-12-02T13:55:31.017-0600"
},
{
"name" : "FTBFConfig_v74",
"assigned" : "2017-12-02T14:09:03.302-0600"
},
{
"name" : "FTBFConfig_v75",
"assigned" : "2017-12-02T14:12:14.144-0600"
},
{
"name" : "FTBFConfig_v76",
"assigned" : "2017-12-02T19:05:49.258-0600"
},
{
"name" : "FTBFConfig_v77",
"assigned" : "2017-12-02T19:12:09.071-0600"
},
{
"name" : "FTBFConfig_v78",
"assigned" : "2017-12-03T14:03:44.252-0600"
},
{
"name" : "FTBFConfig_v79",
"assigned" : "2017-12-03T14:09:02.426-0600"
},
{
"name" : "FTBFConfig_v80",
"assigned" : "2017-12-03T14:11:06.188-0600"
},
{
"name" : "FTBFConfig_v81",
"assigned" : "2017-12-03T14:22:29.213-0600"
},
{
"name" : "FTBFConfig_v82",
"assigned" : "2017-12-03T14:40:33.973-0600"
},
{
"name" : "FTBFConfig_v83",
"assigned" : "2017-12-03T14:45:01.277-0600"
},
{
"name" : "FTBFConfig_v84",
"assigned" : "2017-12-04T14:51:26.720-0600"
},
{
"name" : "FTBFConfig_v85",
"assigned" : "2017-12-04T14:55:39.863-0600"
},
{
"name" : "FTBFConfig_v86",
"assigned" : "2017-12-04T16:51:02.843-0600"
},
{
"name" : "FTBFConfig_v87",
"assigned" : "2017-12-04T16:56:43.460-0600"
},
{
"name" : "FTBFConfig_v88",
"assigned" : "2017-12-04T17:01:08.155-0600"
},
{
"name" : "FTBFConfig_v89",
"assigned" : "2017-12-04T17:03:53.244-0600"
},
{
"name" : "FTBFConfig_v90",
"assigned" : "2017-12-04T17:07:12.864-0600"
},
{
"name" : "FTBFConfig_v91",
"assigned" : "2017-12-04T17:09:21.978-0600"
},
{
"name" : "FTBFConfig_v92",
"assigned" : "2017-12-04T17:11:34.436-0600"
},
{
"name" : "FTBFConfig_v93",
"assigned" : "2017-12-04T21:05:17.051-0600"
},
{
"name" : "FTBFConfig_v94",
"assigned" : "2017-12-04T21:17:07.898-0600"
},
{
"name" : "FTBFConfig_v95",
"assigned" : "2017-12-04T21:41:13.631-0600"
},
{
"name" : "FTBFConfig_v96",
"assigned" : "2017-12-04T22:38:58.238-0600"
},
{
"name" : "FTBFConfig_v97",
"assigned" : "2017-12-04T23:01:08.751-0600"
},
{
"name" : "FTBFConfig_v98",
"assigned" : "2017-12-07T11:07:42.769-0600"
},
{
"name" : "FTBFConfig_v99",
"assigned" : "2017-12-07T11:49:55.446-0600"
},
{
"name" : "FTBFConfig_v100",
"assigned" : "2017-12-07T11:58:22.161-0600"
},
{
"name" : "FTBFConfig_v101",
"assigned" : "2017-12-08T13:30:44.237-0600"
},
{
"name" : "FTBFConfig_v102",
"assigned" : "2017-12-08T13:32:31.132-0600"
},
{
"name" : "FTBFConfig_v103",
"assigned" : "2017-12-12T11:03:00.903-0600"
},
{
"name" : "FTBFConfig_v104",
"assigned" : "2017-12-12T13:50:55.190-0600"
},
{
"name" : "FTBFConfig_v105",
"assigned" : "2017-12-12T15:25:01.169-0600"
},
{
"name" : "FTBFConfig_v106",
"assigned" : "2017-12-13T10:24:19.648-0600"
},
{
"name" : "FTBFConfig_v107",
"assigned" : "2017-12-13T10:26:58.408-0600"
},
{
"name" : "FTBFConfig_v108",
"assigned" : "2018-02-01T21:14:21.722-0600"
},
{
"name" : "FTBFConfig_v109",
"assigned" : "2018-02-01T21:20:58.815-0600"
},
{
"name" : "FTBFConfig_v110",
"assigned" : "2018-02-02T11:25:29.762-0600"
},
{
"name" : "FTBFConfig_v111",
"assigned" : "2018-02-02T11:37:08.593-0600"
},
{
"name" : "FTBFConfig_v112",
"assigned" : "2018-02-02T11:47:11.038-0600"
},
{
"name" : "FTBFConfig_v113",
"assigned" : "2018-02-02T11:53:32.285-0600"
},
{
"name" : "FTBFConfig_v114",
"assigned" : "2018-02-02T12:00:48.344-0600"
},
{
"name" : "FTBFConfig_v115",
"assigned" : "2018-02-02T12:27:09.842-0600"
},
{
"name" : "FTBFConfig_v116",
"assigned" : "2018-02-02T14:28:49.363-0600"
},
{
"name" : "FTBFConfig_v117",
"assigned" : "2018-02-02T14:30:15.678-0600"
},
{
"name" : "FTBFConfig_v118",
"assigned" : "2018-02-02T14:33:56.879-0600"
},
{
"name" : "FTBFConfig_v119",
"assigned" : "2018-02-02T14:36:23.493-0600"
},
{
"name" : "FTBFConfig_v120",
"assigned" : "2018-02-02T14:38:36.848-0600"
},
{
"name" : "FTBFConfig_v121",
"assigned" : "2018-02-02T14:41:46.162-0600"
},
{
"name" : "FTBFConfig_v122",
"assigned" : "2018-02-02T14:50:20.170-0600"
},
{
"name" : "FTBFConfig_v123",
"assigned" : "2018-02-02T14:52:53.018-0600"
},
{
"name" : "FTBFConfig_v124",
"assigned" : "2018-02-02T14:59:46.339-0600"
},
{
"name" : "FTBFConfig_v125",
"assigned" : "2018-02-02T15:04:04.435-0600"
},
{
"name" : "FTBFConfig_v126",
"assigned" : "2018-02-02T15:50:07.635-0600"
},
{
"name" : "FTBFConfig_v127",
"assigned" : "2018-02-02T15:51:27.100-0600"
},
{
"name" : "FTBFConfig_v128",
"assigned" : "2018-02-02T15:52:32.262-0600"
},
{
"name" : "FTBFConfig_v129",
"assigned" : "2018-02-02T16:02:41.136-0600"
},
{
"name" : "FTBFConfig_v130",
"assigned" : "2018-02-02T16:08:40.652-0600"
},
{
"name" : "FTBFConfig_v131",
"assigned" : "2018-02-02T16:11:26.439-0600"
},
{
"name" : "FTBFConfig_v132",
"assigned" : "2018-02-02T16:12:54.291-0600"
},
{
"name" : "FTBFConfig_v133",
"assigned" : "2018-02-02T16:14:24.854-0600"
},
{
"name" : "FTBFConfig_v134",
"assigned" : "2018-02-02T16:26:17.772-0600"
},
{
"name" : "FTBFConfig_v135",
"assigned" : "2018-02-02T16:27:04.883-0600"
},
{
"name" : "FTBFConfig_v136",
"assigned" : "2018-02-02T16:29:26.192-0600"
},
{
"name" : "FTBFConfig_v137",
"assigned" : "2018-02-02T16:31:36.698-0600"
},
{
"name" : "FTBFConfig_v138",
"assigned" : "2018-02-02T16:34:09.428-0600"
},
{
"name" : "FTBFConfig_v139",
"assigned" : "2018-02-02T17:39:25.456-0600"
},
{
"name" : "FTBFConfig_v140",
"assigned" : "2018-02-02T17:42:47.623-0600"
},
{
"name" : "FTBFConfig_v141",
"assigned" : "2018-02-02T17:47:32.788-0600"
},
{
"name" : "FTBFConfig_v142",
"assigned" : "2018-02-02T17:53:56.775-0600"
}
],
"changelog" : "notprovided",
"bookkeeping" : {
"isdeleted" : false,
"isreadonly" : false,
"updates" : [
{
"event" : "addConfiguration",
"timestamp" : "2017-11-08T15:56:02.659-0600",
"value" : {
"name" : "notprovided",
"assigned" : "2017-11-08T15:56:02.659-0600"
}
},
{
"event" : "setVersion",
"timestamp" : "2017-11-08T15:56:02.659-0600",
"value" : {
"name" : "0",
"assigned" : "2017-11-08T15:56:02.659-0600"
}
},
{
"event" : "setCollection",
"timestamp" : "2017-11-08T15:56:02.659-0600",
"value" : {
"name" : "ARTDAQBuilderSourceConfiguration",
"assigned" : "2017-11-08T15:56:02.659-0600"
}
},
{
"event" : "addEntity",
"timestamp" : "2017-11-08T15:56:02.659-0600",
"value" : {
"name" : "OTSROOT",
"assigned" : "2017-11-08T15:56:02.659-0600"
}
},
{
"event" : "addConfiguration",
"timestamp" : "2017-11-08T15:56:05.277-0600",
"value" : {
"name" : "FTBFConfig_v0",
"assigned" : "2017-11-08T15:56:05.277-0600"
}
},
{
"event" : "addConfiguration",
"timestamp" : "2017-11-09T09:56:29.756-0600",
"value" : {
"name" : "FTBFConfig_v1",
"assigned" : "2017-11-09T09:56:29.756-0600"
}
},
{
"event" : "addConfiguration",
"timestamp" : "2017-11-09T10:05:58.701-0600",
"value" : {
"name" : "FTBFConfig_v2",
"assigned" : "2017-11-09T10:05:58.701-0600"
}
},
{
"event" : "addConfiguration",
"timestamp" : "2017-11-09T10:37:10.274-0600",
"value" : {
"name" : "FTBFConfig_v3",
"assigned" : "2017-11-09T10:37:10.274-0600"
}
},
{
"event" : "addConfiguration",
"timestamp" : "2017-11-15T11:30:09.020-0600",
"value" : {
"name" : "FTBFConfig_v4",
"assigned" : "2017-11-15T11:30:09.020-0600"
}
},
{
"event" : "addConfiguration",
"timestamp" : "2017-11-15T11:54:55.791-0600",
"value" : {
"name" : "FTBFConfig_v5",
"assigned" : "2017-11-15T11:54:55.791-0600"
}
},
{
"event" : "addConfiguration",
"timestamp" : "2017-11-15T11:57:48.417-0600",
"value" : {
"name" : "FTBFConfig_v6",
"assigned" : "2017-11-15T11:57:48.417-0600"
}
},
{
"event" : "addConfiguration",
"timestamp" : "2017-11-15T12:42:30.821-0600",
"value" : {
"name" : "FTBFConfig_v7",
"assigned" : "2017-11-15T12:42:30.820-0600"
}
},
{
"event" : "addConfiguration",
"timestamp" : "2017-11-15T13:01:01.791-0600",
"value" : {
"name" : "FTBFConfig_v8",
"assigned" : "2017-11-15T13:01:01.791-0600"
}
},
{
"event" : "addConfiguration",
"timestamp" : "2017-11-15T13:02:55.161-0600",
"value" : {
"name" : "FTBFConfig_v9",
"assigned" : "2017-11-15T13:02:55.161-0600"
}
},
{
"event" : "addConfiguration",
"timestamp" : "2017-11-15T13:04:22.758-0600",
"value" : {
"name" : "FTBFConfig_v10",
"assigned" : "2017-11-15T13:04:22.758-0600"
}
},
{
"event" : "addConfiguration",
"timestamp" : "2017-11-15T13:07:50.233-0600",
"value" : {
"name" : "FTBFConfig_v11",
"assigned" : "2017-11-15T13:07:50.233-0600"
}
},
{
"event" : "addConfiguration",
"timestamp" : "2017-11-15T13:11:57.649-0600",
"value" : {
"name" : "FTBFConfig_v12",
"assigned" : "2017-11-15T13:11:57.649-0600"
}
},
{
"event" : "addConfiguration",
"timestamp" : "2017-11-15T13:13:51.614-0600",
"value" : {
"name" : "FTBFConfig_v13",
"assigned" : "2017-11-15T13:13:51.614-0600"
}
},
{
"event" : "addConfiguration",
"timestamp" : "2017-11-15T13:27:25.132-0600",
"value" : {
"name" : "FTBFConfig_v14",
"assigned" : "2017-11-15T13:27:25.132-0600"
}
},
{
"event" : "addConfiguration",
"timestamp" : "2017-11-15T13:35:45.566-0600",
"value" : {
"name" : "FTBFConfig_v15",
"assigned" : "2017-11-15T13:35:45.566-0600"
}
},
{
"event" : "addConfiguration",
"timestamp" : "2017-11-15T13:36:50.200-0600",
"value" : {
"name" : "FTBFConfig_v16",
"assigned" : "2017-11-15T13:36:50.200-0600"
}
},
{
"event" : "addConfiguration",
"timestamp" : "2017-11-15T15:33:28.730-0600",
"value" : {
"name" : "FTBFConfig_v17",
"assigned" : "2017-11-15T15:33:28.730-0600"
}
},
{
"event" : "addConfiguration",
"timestamp" : "2017-11-15T15:35:32.331-0600",
"value" : {
"name" : "FTBFConfig_v18",
"assigned" : "2017-11-15T15:35:32.331-0600"
}
},
{
"event" : "addConfiguration",
"timestamp" : "2017-11-15T15:38:01.174-0600",
"value" : {
"name" : "FTBFConfig_v19",
"assigned" : "2017-11-15T15:38:01.174-0600"
}
},
{
"event" : "addConfiguration",
"timestamp" : "2017-11-15T16:26:28.814-0600",
"value" : {
"name" : "FTBFConfig_v20",
"assigned" : "2017-11-15T16:26:28.813-0600"
}
},
{
"event" : "addConfiguration",
"timestamp" : "2017-11-16T09:22:29.962-0600",
"value" : {
"name" : "FTBFConfig_v21",
"assigned" : "2017-11-16T09:22:29.962-0600"
}
},
{
"event" : "addConfiguration",
"timestamp" : "2017-11-17T10:23:26.148-0600",
"value" : {
"name" : "FTBFConfig_v22",
"assigned" : "2017-11-17T10:23:26.148-0600"
}
},
{
"event" : "addConfiguration",
"timestamp" : "2017-11-17T17:26:43.666-0600",
"value" : {
"name" : "FTBFConfig_v23",
"assigned" : "2017-11-17T17:26:43.666-0600"
}
},
{
"event" : "addConfiguration",
"timestamp" : "2017-11-17T17:58:24.112-0600",
"value" : {
"name" : "FTBFConfig_v24",
"assigned" : "2017-11-17T17:58:24.112-0600"
}
},
{
"event" : "addConfiguration",
"timestamp" : "2017-11-17T18:24:43.791-0600",
"value" : {
"name" : "FTBFConfig_v25",
"assigned" : "2017-11-17T18:24:43.791-0600"
}
},
{
"event" : "addConfiguration",
"timestamp" : "2017-11-17T18:32:20.668-0600",
"value" : {
"name" : "FTBFConfig_v26",
"assigned" : "2017-11-17T18:32:20.668-0600"
}
},
{
"event" : "addConfiguration",
"timestamp" : "2017-11-17T18:43:27.794-0600",
"value" : {
"name" : "FTBFConfig_v27",
"assigned" : "2017-11-17T18:43:27.794-0600"
}
},
{
"event" : "addConfiguration",
"timestamp" : "2017-11-17T18:48:29.796-0600",
"value" : {
"name" : "FTBFConfig_v28",
"assigned" : "2017-11-17T18:48:29.796-0600"
}
},
{
"event" : "addConfiguration",
"timestamp" : "2017-11-20T14:48:29.021-0600",
"value" : {
"name" : "FTBFConfig_v29",
"assigned" : "2017-11-20T14:48:29.021-0600"
}
},
{
"event" : "addConfiguration",
"timestamp" : "2017-11-20T15:39:54.259-0600",
"value" : {
"name" : "FTBFConfig_v30",
"assigned" : "2017-11-20T15:39:54.259-0600"
}
},
{
"event" : "addConfiguration",
"timestamp" : "2017-11-20T16:41:00.250-0600",
"value" : {
"name" : "FTBFConfig_v31",
"assigned" : "2017-11-20T16:41:00.250-0600"
}
},
{
"event" : "addConfiguration",
"timestamp" : "2017-11-20T18:55:33.053-0600",
"value" : {
"name" : "FTBFConfig_v32",
"assigned" : "2017-11-20T18:55:33.053-0600"
}
},
{
"event" : "addConfiguration",
"timestamp" : "2017-11-20T18:57:28.351-0600",
"value" : {
"name" : "FTBFConfig_v33",
"assigned" : "2017-11-20T18:57:28.351-0600"
}
},
{
"event" : "addConfiguration",
"timestamp" : "2017-11-29T17:50:37.830-0600",
"value" : {
"name" : "FTBFConfig_v34",
"assigned" : "2017-11-29T17:50:37.830-0600"
}
},
{
"event" : "addConfiguration",
"timestamp" : "2017-11-29T18:00:30.688-0600",
"value" : {
"name" : "FTBFConfig_v35",
"assigned" : "2017-11-29T18:00:30.688-0600"
}
},
{
"event" : "addConfiguration",
"timestamp" : "2017-11-29T18:35:09.548-0600",
"value" : {
"name" : "FTBFConfig_v36",
"assigned" : "2017-11-29T18:35:09.548-0600"
}
},
{
"event" : "addConfiguration",
"timestamp" : "2017-12-01T09:36:15.744-0600",
"value" : {
"name" : "FTBFConfig_v37",
"assigned" : "2017-12-01T09:36:15.744-0600"
}
},
{
"event" : "addConfiguration",
"timestamp" : "2017-12-01T09:51:59.105-0600",
"value" : {
"name" : "FTBFConfig_v38",
"assigned" : "2017-12-01T09:51:59.105-0600"
}
},
{
"event" : "addConfiguration",
"timestamp" : "2017-12-01T11:51:56.333-0600",
"value" : {
"name" : "FTBFConfig_v39",
"assigned" : "2017-12-01T11:51:56.333-0600"
}
},
{
"event" : "addConfiguration",
"timestamp" : "2017-12-01T12:18:18.308-0600",
"value" : {
"name" : "FTBFConfig_v40",
"assigned" : "2017-12-01T12:18:18.308-0600"
}
},
{
"event" : "addConfiguration",
"timestamp" : "2017-12-01T12:21:00.430-0600",
"value" : {
"name" : "FTBFConfig_v41",
"assigned" : "2017-12-01T12:21:00.430-0600"
}
},
{
"event" : "addConfiguration",
"timestamp" : "2017-12-01T12:43:19.572-0600",
"value" : {
"name" : "FTBFConfig_v42",
"assigned" : "2017-12-01T12:43:19.571-0600"
}
},
{
"event" : "addConfiguration",
"timestamp" : "2017-12-01T12:57:56.782-0600",
"value" : {
"name" : "FTBFConfig_v43",
"assigned" : "2017-12-01T12:57:56.782-0600"
}
},
{
"event" : "addConfiguration",
"timestamp" : "2017-12-01T13:00:49.398-0600",
"value" : {
"name" : "FTBFConfig_v44",
"assigned" : "2017-12-01T13:00:49.398-0600"
}
},
{
"event" : "addConfiguration",
"timestamp" : "2017-12-01T13:25:46.415-0600",
"value" : {
"name" : "FTBFConfig_v45",
"assigned" : "2017-12-01T13:25:46.415-0600"
}
},
{
"event" : "addConfiguration",
"timestamp" : "2017-12-01T13:35:41.305-0600",
"value" : {
"name" : "FTBFConfig_v46",
"assigned" : "2017-12-01T13:35:41.305-0600"
}
},
{
"event" : "addConfiguration",
"timestamp" : "2017-12-01T14:00:49.698-0600",
"value" : {
"name" : "FTBFConfig_v47",
"assigned" : "2017-12-01T14:00:49.698-0600"
}
},
{
"event" : "addConfiguration",
"timestamp" : "2017-12-01T14:03:56.948-0600",
"value" : {
"name" : "FTBFConfig_v48",
"assigned" : "2017-12-01T14:03:56.948-0600"
}
},
{
"event" : "addConfiguration",
"timestamp" : "2017-12-01T15:31:57.144-0600",
"value" : {
"name" : "FTBFConfig_v49",
"assigned" : "2017-12-01T15:31:57.144-0600"
}
},
{
"event" : "addConfiguration",
"timestamp" : "2017-12-01T15:37:03.556-0600",
"value" : {
"name" : "FTBFConfig_v51",
"assigned" : "2017-12-01T15:37:03.556-0600"
}
},
{
"event" : "addConfiguration",
"timestamp" : "2017-12-01T15:37:28.089-0600",
"value" : {
"name" : "FTBFConfig_v52",
"assigned" : "2017-12-01T15:37:28.089-0600"
}
},
{
"event" : "addConfiguration",
"timestamp" : "2017-12-01T15:40:56.668-0600",
"value" : {
"name" : "FTBFConfig_v53",
"assigned" : "2017-12-01T15:40:56.668-0600"
}
},
{
"event" : "addConfiguration",
"timestamp" : "2017-12-01T15:52:46.979-0600",
"value" : {
"name" : "FTBFConfig_v54",
"assigned" : "2017-12-01T15:52:46.978-0600"
}
},
{
"event" : "addConfiguration",
"timestamp" : "2017-12-01T15:54:32.107-0600",
"value" : {
"name" : "FTBFConfig_v55",
"assigned" : "2017-12-01T15:54:32.107-0600"
}
},
{
"event" : "addConfiguration",
"timestamp" : "2017-12-01T15:55:31.631-0600",
"value" : {
"name" : "FTBFConfig_v56",
"assigned" : "2017-12-01T15:55:31.631-0600"
}
},
{
"event" : "addConfiguration",
"timestamp" : "2017-12-01T15:56:37.426-0600",
"value" : {
"name" : "FTBFConfig_v57",
"assigned" : "2017-12-01T15:56:37.426-0600"
}
},
{
"event" : "addConfiguration",
"timestamp" : "2017-12-01T15:57:35.506-0600",
"value" : {
"name" : "FTBFConfig_v58",
"assigned" : "2017-12-01T15:57:35.506-0600"
}
},
{
"event" : "addConfiguration",
"timestamp" : "2017-12-01T15:58:27.395-0600",
"value" : {
"name" : "FTBFConfig_v59",
"assigned" : "2017-12-01T15:58:27.395-0600"
}
},
{
"event" : "addConfiguration",
"timestamp" : "2017-12-01T15:59:28.584-0600",
"value" : {
"name" : "FTBFConfig_v60",
"assigned" : "2017-12-01T15:59:28.584-0600"
}
},
{
"event" : "addConfiguration",
"timestamp" : "2017-12-01T16:19:38.309-0600",
"value" : {
"name" : "FTBFConfig_v61",
"assigned" : "2017-12-01T16:19:38.309-0600"
}
},
{
"event" : "addConfiguration",
"timestamp" : "2017-12-01T16:22:00.860-0600",
"value" : {
"name" : "FTBFConfig_v62",
"assigned" : "2017-12-01T16:22:00.860-0600"
}
},
{
"event" : "addConfiguration",
"timestamp" : "2017-12-01T16:31:21.460-0600",
"value" : {
"name" : "FTBFConfig_v63",
"assigned" : "2017-12-01T16:31:21.460-0600"
}
},
{
"event" : "addConfiguration",
"timestamp" : "2017-12-01T17:06:28.279-0600",
"value" : {
"name" : "FTBFConfig_v64",
"assigned" : "2017-12-01T17:06:28.279-0600"
}
},
{
"event" : "addConfiguration",
"timestamp" : "2017-12-01T17:32:40.681-0600",
"value" : {
"name" : "FTBFConfig_v65",
"assigned" : "2017-12-01T17:32:40.681-0600"
}
},
{
"event" : "addConfiguration",
"timestamp" : "2017-12-01T20:38:47.082-0600",
"value" : {
"name" : "FTBFConfig_v66",
"assigned" : "2017-12-01T20:38:47.082-0600"
}
},
{
"event" : "addConfiguration",
"timestamp" : "2017-12-01T21:24:58.548-0600",
"value" : {
"name" : "FTBFConfig_v67",
"assigned" : "2017-12-01T21:24:58.548-0600"
}
},
{
"event" : "addConfiguration",
"timestamp" : "2017-12-01T21:42:58.199-0600",
"value" : {
"name" : "FTBFConfig_v68",
"assigned" : "2017-12-01T21:42:58.199-0600"
}
},
{
"event" : "addConfiguration",
"timestamp" : "2017-12-01T21:44:56.828-0600",
"value" : {
"name" : "FTBFConfig_v69",
"assigned" : "2017-12-01T21:44:56.828-0600"
}
},
{
"event" : "addConfiguration",
"timestamp" : "2017-12-01T21:59:16.038-0600",
"value" : {
"name" : "FTBFConfig_v70",
"assigned" : "2017-12-01T21:59:16.038-0600"
}
},
{
"event" : "addConfiguration",
"timestamp" : "2017-12-01T22:00:02.748-0600",
"value" : {
"name" : "FTBFConfigNim_v0",
"assigned" : "2017-12-01T22:00:02.748-0600"
}
},
{
"event" : "addConfiguration",
"timestamp" : "2017-12-01T22:13:04.478-0600",
"value" : {
"name" : "FTBFConfigNim_v1",
"assigned" : "2017-12-01T22:13:04.477-0600"
}
},
{
"event" : "addConfiguration",
"timestamp" : "2017-12-01T22:15:51.691-0600",
"value" : {
"name" : "FTBFConfigNim_v2",
"assigned" : "2017-12-01T22:15:51.691-0600"
}
},
{
"event" : "addConfiguration",
"timestamp" : "2017-12-01T22:16:59.751-0600",
"value" : {
"name" : "FTBFConfigNim_v3",
"assigned" : "2017-12-01T22:16:59.751-0600"
}
},
{
"event" : "addConfiguration",
"timestamp" : "2017-12-01T22:19:02.754-0600",
"value" : {
"name" : "FTBFConfigNim_v4",
"assigned" : "2017-12-01T22:19:02.754-0600"
}
},
{
"event" : "addConfiguration",
"timestamp" : "2017-12-01T22:21:53.458-0600",
"value" : {
"name" : "FTBFConfigNim_v5",
"assigned" : "2017-12-01T22:21:53.458-0600"
}
},
{
"event" : "addConfiguration",
"timestamp" : "2017-12-01T22:23:09.612-0600",
"value" : {
"name" : "FTBFConfigNim_v6",
"assigned" : "2017-12-01T22:23:09.612-0600"
}
},
{
"event" : "addConfiguration",
"timestamp" : "2017-12-01T22:25:13.391-0600",
"value" : {
"name" : "FTBFConfigNim_v7",
"assigned" : "2017-12-01T22:25:13.391-0600"
}
},
{
"event" : "addConfiguration",
"timestamp" : "2017-12-01T22:27:00.965-0600",
"value" : {
"name" : "FTBFConfigNim_v8",
"assigned" : "2017-12-01T22:27:00.964-0600"
}
},
{
"event" : "addConfiguration",
"timestamp" : "2017-12-01T22:29:25.209-0600",
"value" : {
"name" : "FTBFConfigNim_v9",
"assigned" : "2017-12-01T22:29:25.209-0600"
}
},
{
"event" : "addConfiguration",
"timestamp" : "2017-12-01T22:52:30.302-0600",
"value" : {
"name" : "FTBFConfigNim_v10",
"assigned" : "2017-12-01T22:52:30.302-0600"
}
},
{
"event" : "addConfiguration",
"timestamp" : "2017-12-01T22:57:25.061-0600",
"value" : {
"name" : "FTBFConfigNim_v11",
"assigned" : "2017-12-01T22:57:25.060-0600"
}
},
{
"event" : "addConfiguration",
"timestamp" : "2017-12-01T23:00:03.358-0600",
"value" : {
"name" : "FTBFConfigNim_v12",
"assigned" : "2017-12-01T23:00:03.358-0600"
}
},
{
"event" : "addConfiguration",
"timestamp" : "2017-12-01T23:52:31.467-0600",
"value" : {
"name" : "FTBFConfigNim_v13",
"assigned" : "2017-12-01T23:52:31.467-0600"
}
},
{
"event" : "addConfiguration",
"timestamp" : "2017-12-01T23:58:05.863-0600",
"value" : {
"name" : "FTBFConfigNim_v14",
"assigned" : "2017-12-01T23:58:05.862-0600"
}
},
{
"event" : "addConfiguration",
"timestamp" : "2017-12-02T00:00:30.143-0600",
"value" : {
"name" : "FTBFConfigNim_v15",
"assigned" : "2017-12-02T00:00:30.143-0600"
}
},
{
"event" : "addConfiguration",
"timestamp" : "2017-12-02T00:13:05.256-0600",
"value" : {
"name" : "FTBFConfigNim_v16",
"assigned" : "2017-12-02T00:13:05.256-0600"
}
},
{
"event" : "addConfiguration",
"timestamp" : "2017-12-02T00:28:24.233-0600",
"value" : {
"name" : "FTBFConfigNim_v17",
"assigned" : "2017-12-02T00:28:24.233-0600"
}
},
{
"event" : "addConfiguration",
"timestamp" : "2017-12-02T00:29:30.267-0600",
"value" : {
"name" : "FTBFConfigNim_v18",
"assigned" : "2017-12-02T00:29:30.267-0600"
}
},
{
"event" : "addConfiguration",
"timestamp" : "2017-12-02T00:31:07.006-0600",
"value" : {
"name" : "FTBFConfigNim_v19",
"assigned" : "2017-12-02T00:31:07.006-0600"
}
},
{
"event" : "addConfiguration",
"timestamp" : "2017-12-02T00:57:23.245-0600",
"value" : {
"name" : "FTBFConfigNim_v20",
"assigned" : "2017-12-02T00:57:23.245-0600"
}
},
{
"event" : "addConfiguration",
"timestamp" : "2017-12-02T10:57:57.792-0600",
"value" : {
"name" : "FTBFConfigNim_v21",
"assigned" : "2017-12-02T10:57:57.792-0600"
}
},
{
"event" : "addConfiguration",
"timestamp" : "2017-12-02T11:08:13.954-0600",
"value" : {
"name" : "FTBFConfigNim_v22",
"assigned" : "2017-12-02T11:08:13.954-0600"
}
},
{
"event" : "addConfiguration",
"timestamp" : "2017-12-02T11:12:35.514-0600",
"value" : {
"name" : "FTBFConfigNim_v23",
"assigned" : "2017-12-02T11:12:35.513-0600"
}
},
{
"event" : "addConfiguration",
"timestamp" : "2017-12-02T11:18:38.329-0600",
"value" : {
"name" : "FTBFConfigNim_v24",
"assigned" : "2017-12-02T11:18:38.329-0600"
}
},
{
"event" : "addConfiguration",
"timestamp" : "2017-12-02T11:27:01.563-0600",
"value" : {
"name" : "FTBFConfigNim_v25",
"assigned" : "2017-12-02T11:27:01.563-0600"
}
},
{
"event" : "addConfiguration",
"timestamp" : "2017-12-02T11:38:32.601-0600",
"value" : {
"name" : "FTBFConfigNim_v26",
"assigned" : "2017-12-02T11:38:32.601-0600"
}
},
{
"event" : "addConfiguration",
"timestamp" : "2017-12-02T11:49:03.727-0600",
"value" : {
"name" : "FTBFConfigNim_v27",
"assigned" : "2017-12-02T11:49:03.727-0600"
}
},
{
"event" : "addConfiguration",
"timestamp" : "2017-12-02T11:55:05.189-0600",
"value" : {
"name" : "FTBFConfigNim_v28",
"assigned" : "2017-12-02T11:55:05.189-0600"
}
},
{
"event" : "addConfiguration",
"timestamp" : "2017-12-02T12:06:22.009-0600",
"value" : {
"name" : "FTBFConfigNim_v29",
"assigned" : "2017-12-02T12:06:22.009-0600"
}
},
{
"event" : "addConfiguration",
"timestamp" : "2017-12-02T12:24:10.648-0600",
"value" : {
"name" : "FTBFConfig_v71",
"assigned" : "2017-12-02T12:24:10.648-0600"
}
},
{
"event" : "addConfiguration",
"timestamp" : "2017-12-02T12:43:31.435-0600",
"value" : {
"name" : "FTBFConfig_v72",
"assigned" : "2017-12-02T12:43:31.435-0600"
}
},
{
"event" : "addConfiguration",
"timestamp" : "2017-12-02T13:55:31.017-0600",
"value" : {
"name" : "FTBFConfig_v73",
"assigned" : "2017-12-02T13:55:31.017-0600"
}
},
{
"event" : "addConfiguration",
"timestamp" : "2017-12-02T14:09:03.302-0600",
"value" : {
"name" : "FTBFConfig_v74",
"assigned" : "2017-12-02T14:09:03.302-0600"
}
},
{
"event" : "addConfiguration",
"timestamp" : "2017-12-02T14:12:14.144-0600",
"value" : {
"name" : "FTBFConfig_v75",
"assigned" : "2017-12-02T14:12:14.144-0600"
}
},
{
"event" : "addConfiguration",
"timestamp" : "2017-12-02T19:05:49.258-0600",
"value" : {
"name" : "FTBFConfig_v76",
"assigned" : "2017-12-02T19:05:49.258-0600"
}
},
{
"event" : "addConfiguration",
"timestamp" : "2017-12-02T19:12:09.071-0600",
"value" : {
"name" : "FTBFConfig_v77",
"assigned" : "2017-12-02T19:12:09.071-0600"
}
},
{
"event" : "addConfiguration",
"timestamp" : "2017-12-03T14:03:44.252-0600",
"value" : {
"name" : "FTBFConfig_v78",
"assigned" : "2017-12-03T14:03:44.252-0600"
}
},
{
"event" : "addConfiguration",
"timestamp" : "2017-12-03T14:09:02.426-0600",
"value" : {
"name" : "FTBFConfig_v79",
"assigned" : "2017-12-03T14:09:02.426-0600"
}
},
{
"event" : "addConfiguration",
"timestamp" : "2017-12-03T14:11:06.188-0600",
"value" : {
"name" : "FTBFConfig_v80",
"assigned" : "2017-12-03T14:11:06.188-0600"
}
},
{
"event" : "addConfiguration",
"timestamp" : "2017-12-03T14:22:29.213-0600",
"value" : {
"name" : "FTBFConfig_v81",
"assigned" : "2017-12-03T14:22:29.213-0600"
}
},
{
"event" : "addConfiguration",
"timestamp" : "2017-12-03T14:40:33.973-0600",
"value" : {
"name" : "FTBFConfig_v82",
"assigned" : "2017-12-03T14:40:33.973-0600"
}
},
{
"event" : "addConfiguration",
"timestamp" : "2017-12-03T14:45:01.277-0600",
"value" : {
"name" : "FTBFConfig_v83",
"assigned" : "2017-12-03T14:45:01.277-0600"
}
},
{
"event" : "addConfiguration",
"timestamp" : "2017-12-04T14:51:26.720-0600",
"value" : {
"name" : "FTBFConfig_v84",
"assigned" : "2017-12-04T14:51:26.720-0600"
}
},
{
"event" : "addConfiguration",
"timestamp" : "2017-12-04T14:55:39.863-0600",
"value" : {
"name" : "FTBFConfig_v85",
"assigned" : "2017-12-04T14:55:39.863-0600"
}
},
{
"event" : "addConfiguration",
"timestamp" : "2017-12-04T16:51:02.843-0600",
"value" : {
"name" : "FTBFConfig_v86",
"assigned" : "2017-12-04T16:51:02.843-0600"
}
},
{
"event" : "addConfiguration",
"timestamp" : "2017-12-04T16:56:43.460-0600",
"value" : {
"name" : "FTBFConfig_v87",
"assigned" : "2017-12-04T16:56:43.460-0600"
}
},
{
"event" : "addConfiguration",
"timestamp" : "2017-12-04T17:01:08.155-0600",
"value" : {
"name" : "FTBFConfig_v88",
"assigned" : "2017-12-04T17:01:08.155-0600"
}
},
{
"event" : "addConfiguration",
"timestamp" : "2017-12-04T17:03:53.244-0600",
"value" : {
"name" : "FTBFConfig_v89",
"assigned" : "2017-12-04T17:03:53.244-0600"
}
},
{
"event" : "addConfiguration",
"timestamp" : "2017-12-04T17:07:12.864-0600",
"value" : {
"name" : "FTBFConfig_v90",
"assigned" : "2017-12-04T17:07:12.864-0600"
}
},
{
"event" : "addConfiguration",
"timestamp" : "2017-12-04T17:09:21.978-0600",
"value" : {
"name" : "FTBFConfig_v91",
"assigned" : "2017-12-04T17:09:21.978-0600"
}
},
{
"event" : "addConfiguration",
"timestamp" : "2017-12-04T17:11:34.436-0600",
"value" : {
"name" : "FTBFConfig_v92",
"assigned" : "2017-12-04T17:11:34.436-0600"
}
},
{
"event" : "addConfiguration",
"timestamp" : "2017-12-04T21:05:17.052-0600",
"value" : {
"name" : "FTBFConfig_v93",
"assigned" : "2017-12-04T21:05:17.051-0600"
}
},
{
"event" : "addConfiguration",
"timestamp" : "2017-12-04T21:17:07.899-0600",
"value" : {
"name" : "FTBFConfig_v94",
"assigned" : "2017-12-04T21:17:07.898-0600"
}
},
{
"event" : "addConfiguration",
"timestamp" : "2017-12-04T21:41:13.631-0600",
"value" : {
"name" : "FTBFConfig_v95",
"assigned" : "2017-12-04T21:41:13.631-0600"
}
},
{
"event" : "addConfiguration",
"timestamp" : "2017-12-04T22:38:58.238-0600",
"value" : {
"name" : "FTBFConfig_v96",
"assigned" : "2017-12-04T22:38:58.238-0600"
}
},
{
"event" : "addConfiguration",
"timestamp" : "2017-12-04T23:01:08.752-0600",
"value" : {
"name" : "FTBFConfig_v97",
"assigned" : "2017-12-04T23:01:08.751-0600"
}
},
{
"event" : "addConfiguration",
"timestamp" : "2017-12-07T11:07:42.769-0600",
"value" : {
"name" : "FTBFConfig_v98",
"assigned" : "2017-12-07T11:07:42.769-0600"
}
},
{
"event" : "addConfiguration",
"timestamp" : "2017-12-07T11:49:55.446-0600",
"value" : {
"name" : "FTBFConfig_v99",
"assigned" : "2017-12-07T11:49:55.446-0600"
}
},
{
"event" : "addConfiguration",
"timestamp" : "2017-12-07T11:58:22.162-0600",
"value" : {
"name" : "FTBFConfig_v100",
"assigned" : "2017-12-07T11:58:22.161-0600"
}
},
{
"event" : "addConfiguration",
"timestamp" : "2017-12-08T13:30:44.237-0600",
"value" : {
"name" : "FTBFConfig_v101",
"assigned" : "2017-12-08T13:30:44.237-0600"
}
},
{
"event" : "addConfiguration",
"timestamp" : "2017-12-08T13:32:31.133-0600",
"value" : {
"name" : "FTBFConfig_v102",
"assigned" : "2017-12-08T13:32:31.132-0600"
}
},
{
"event" : "addConfiguration",
"timestamp" : "2017-12-12T11:03:00.903-0600",
"value" : {
"name" : "FTBFConfig_v103",
"assigned" : "2017-12-12T11:03:00.903-0600"
}
},
{
"event" : "addConfiguration",
"timestamp" : "2017-12-12T13:50:55.190-0600",
"value" : {
"name" : "FTBFConfig_v104",
"assigned" : "2017-12-12T13:50:55.190-0600"
}
},
{
"event" : "addConfiguration",
"timestamp" : "2017-12-12T15:25:01.170-0600",
"value" : {
"name" : "FTBFConfig_v105",
"assigned" : "2017-12-12T15:25:01.169-0600"
}
},
{
"event" : "addConfiguration",
"timestamp" : "2017-12-13T10:24:19.648-0600",
"value" : {
"name" : "FTBFConfig_v106",
"assigned" : "2017-12-13T10:24:19.648-0600"
}
},
{
"event" : "addConfiguration",
"timestamp" : "2017-12-13T10:26:58.408-0600",
"value" : {
"name" : "FTBFConfig_v107",
"assigned" : "2017-12-13T10:26:58.408-0600"
}
},
{
"event" : "addConfiguration",
"timestamp" : "2018-02-01T21:14:21.722-0600",
"value" : {
"name" : "FTBFConfig_v108",
"assigned" : "2018-02-01T21:14:21.722-0600"
}
},
{
"event" : "addConfiguration",
"timestamp" : "2018-02-01T21:20:58.815-0600",
"value" : {
"name" : "FTBFConfig_v109",
"assigned" : "2018-02-01T21:20:58.815-0600"
}
},
{
"event" : "addConfiguration",
"timestamp" : "2018-02-02T11:25:29.762-0600",
"value" : {
"name" : "FTBFConfig_v110",
"assigned" : "2018-02-02T11:25:29.762-0600"
}
},
{
"event" : "addConfiguration",
"timestamp" : "2018-02-02T11:37:08.593-0600",
"value" : {
"name" : "FTBFConfig_v111",
"assigned" : "2018-02-02T11:37:08.593-0600"
}
},
{
"event" : "addConfiguration",
"timestamp" : "2018-02-02T11:47:11.038-0600",
"value" : {
"name" : "FTBFConfig_v112",
"assigned" : "2018-02-02T11:47:11.038-0600"
}
},
{
"event" : "addConfiguration",
"timestamp" : "2018-02-02T11:53:32.285-0600",
"value" : {
"name" : "FTBFConfig_v113",
"assigned" : "2018-02-02T11:53:32.285-0600"
}
},
{
"event" : "addConfiguration",
"timestamp" : "2018-02-02T12:00:48.345-0600",
"value" : {
"name" : "FTBFConfig_v114",
"assigned" : "2018-02-02T12:00:48.344-0600"
}
},
{
"event" : "addConfiguration",
"timestamp" : "2018-02-02T12:27:09.842-0600",
"value" : {
"name" : "FTBFConfig_v115",
"assigned" : "2018-02-02T12:27:09.842-0600"
}
},
{
"event" : "addConfiguration",
"timestamp" : "2018-02-02T14:28:49.363-0600",
"value" : {
"name" : "FTBFConfig_v116",
"assigned" : "2018-02-02T14:28:49.363-0600"
}
},
{
"event" : "addConfiguration",
"timestamp" : "2018-02-02T14:30:15.678-0600",
"value" : {
"name" : "FTBFConfig_v117",
"assigned" : "2018-02-02T14:30:15.678-0600"
}
},
{
"event" : "addConfiguration",
"timestamp" : "2018-02-02T14:33:56.880-0600",
"value" : {
"name" : "FTBFConfig_v118",
"assigned" : "2018-02-02T14:33:56.879-0600"
}
},
{
"event" : "addConfiguration",
"timestamp" : "2018-02-02T14:36:23.493-0600",
"value" : {
"name" : "FTBFConfig_v119",
"assigned" : "2018-02-02T14:36:23.493-0600"
}
},
{
"event" : "addConfiguration",
"timestamp" : "2018-02-02T14:38:36.849-0600",
"value" : {
"name" : "FTBFConfig_v120",
"assigned" : "2018-02-02T14:38:36.848-0600"
}
},
{
"event" : "addConfiguration",
"timestamp" : "2018-02-02T14:41:46.162-0600",
"value" : {
"name" : "FTBFConfig_v121",
"assigned" : "2018-02-02T14:41:46.162-0600"
}
},
{
"event" : "addConfiguration",
"timestamp" : "2018-02-02T14:50:20.170-0600",
"value" : {
"name" : "FTBFConfig_v122",
"assigned" : "2018-02-02T14:50:20.170-0600"
}
},
{
"event" : "addConfiguration",
"timestamp" : "2018-02-02T14:52:53.018-0600",
"value" : {
"name" : "FTBFConfig_v123",
"assigned" : "2018-02-02T14:52:53.018-0600"
}
},
{
"event" : "addConfiguration",
"timestamp" : "2018-02-02T14:59:46.339-0600",
"value" : {
"name" : "FTBFConfig_v124",
"assigned" : "2018-02-02T14:59:46.339-0600"
}
},
{
"event" : "addConfiguration",
"timestamp" : "2018-02-02T15:04:04.435-0600",
"value" : {
"name" : "FTBFConfig_v125",
"assigned" : "2018-02-02T15:04:04.435-0600"
}
},
{
"event" : "addConfiguration",
"timestamp" : "2018-02-02T15:50:07.635-0600",
"value" : {
"name" : "FTBFConfig_v126",
"assigned" : "2018-02-02T15:50:07.635-0600"
}
},
{
"event" : "addConfiguration",
"timestamp" : "2018-02-02T15:51:27.100-0600",
"value" : {
"name" : "FTBFConfig_v127",
"assigned" : "2018-02-02T15:51:27.100-0600"
}
},
{
"event" : "addConfiguration",
"timestamp" : "2018-02-02T15:52:32.263-0600",
"value" : {
"name" : "FTBFConfig_v128",
"assigned" : "2018-02-02T15:52:32.262-0600"
}
},
{
"event" : "addConfiguration",
"timestamp" : "2018-02-02T16:02:41.137-0600",
"value" : {
"name" : "FTBFConfig_v129",
"assigned" : "2018-02-02T16:02:41.136-0600"
}
},
{
"event" : "addConfiguration",
"timestamp" : "2018-02-02T16:08:40.652-0600",
"value" : {
"name" : "FTBFConfig_v130",
"assigned" : "2018-02-02T16:08:40.652-0600"
}
},
{
"event" : "addConfiguration",
"timestamp" : "2018-02-02T16:11:26.439-0600",
"value" : {
"name" : "FTBFConfig_v131",
"assigned" : "2018-02-02T16:11:26.439-0600"
}
},
{
"event" : "addConfiguration",
"timestamp" : "2018-02-02T16:12:54.292-0600",
"value" : {
"name" : "FTBFConfig_v132",
"assigned" : "2018-02-02T16:12:54.291-0600"
}
},
{
"event" : "addConfiguration",
"timestamp" : "2018-02-02T16:14:24.854-0600",
"value" : {
"name" : "FTBFConfig_v133",
"assigned" : "2018-02-02T16:14:24.854-0600"
}
},
{
"event" : "addConfiguration",
"timestamp" : "2018-02-02T16:26:17.772-0600",
"value" : {
"name" : "FTBFConfig_v134",
"assigned" : "2018-02-02T16:26:17.772-0600"
}
},
{
"event" : "addConfiguration",
"timestamp" : "2018-02-02T16:27:04.883-0600",
"value" : {
"name" : "FTBFConfig_v135",
"assigned" : "2018-02-02T16:27:04.883-0600"
}
},
{
"event" : "addConfiguration",
"timestamp" : "2018-02-02T16:29:26.193-0600",
"value" : {
"name" : "FTBFConfig_v136",
"assigned" : "2018-02-02T16:29:26.192-0600"
}
},
{
"event" : "addConfiguration",
"timestamp" : "2018-02-02T16:31:36.698-0600",
"value" : {
"name" : "FTBFConfig_v137",
"assigned" : "2018-02-02T16:31:36.698-0600"
}
},
{
"event" : "addConfiguration",
"timestamp" : "2018-02-02T16:34:09.428-0600",
"value" : {
"name" : "FTBFConfig_v138",
"assigned" : "2018-02-02T16:34:09.428-0600"
}
},
{
"event" : "addConfiguration",
"timestamp" : "2018-02-02T17:39:25.457-0600",
"value" : {
"name" : "FTBFConfig_v139",
"assigned" : "2018-02-02T17:39:25.456-0600"
}
},
{
"event" : "addConfiguration",
"timestamp" : "2018-02-02T17:42:47.623-0600",
"value" : {
"name" : "FTBFConfig_v140",
"assigned" : "2018-02-02T17:42:47.623-0600"
}
},
{
"event" : "addConfiguration",
"timestamp" : "2018-02-02T17:47:32.788-0600",
"value" : {
"name" : "FTBFConfig_v141",
"assigned" : "2018-02-02T17:47:32.788-0600"
}
},
{
"event" : "addConfiguration",
"timestamp" : "2018-02-02T17:53:56.775-0600",
"value" : {
"name" : "FTBFConfig_v142",
"assigned" : "2018-02-02T17:53:56.775-0600"
}
}
],
"created" : "2017-11-08T15:56:02.658-0600"
},
"_id" : {
"$oid" : "250e6c240fd64ec785036965"
},
"collection" : "ARTDAQBuilderSourceConfiguration",
"aliases" : {
"active" : [

],
"history" : [

]
},
"runs" : [

],
"attachments" : [

],
"configtype" : "notprovided"
}