{
"ouid" : [
"b44252a0c1ae4ac5a02b759b",
"fa93a52a3d04461d843aee1f"
],
"version" : {
"1" : [
"b44252a0c1ae4ac5a02b759b"
],
"2" : [
"fa93a52a3d04461d843aee1f"
]
},
"configurations.name" : {
"notprovided" : [
"b44252a0c1ae4ac5a02b759b",
"fa93a52a3d04461d843aee1f"
],
"DefaultConfig_v1" : [
"b44252a0c1ae4ac5a02b759b"
],
"DefaultConfig_v2" : [
"b44252a0c1ae4ac5a02b759b"
],
"DefaultConfig_v3" : [
"b44252a0c1ae4ac5a02b759b"
],
"DefaultConfig_v4" : [
"b44252a0c1ae4ac5a02b759b"
],
"DefaultConfig_v5" : [
"fa93a52a3d04461d843aee1f"
],
"DefaultConfig_v6" : [
"fa93a52a3d04461d843aee1f"
],
"DefaultConfig_v7" : [
"fa93a52a3d04461d843aee1f"
],
"DefaultConfig_v8" : [
"fa93a52a3d04461d843aee1f"
],
"DefaultConfig_v9" : [
"fa93a52a3d04461d843aee1f"
],
"DefaultConfig_v10" : [
"fa93a52a3d04461d843aee1f"
],
"DefaultConfig_v11" : [
"fa93a52a3d04461d843aee1f"
],
"DefaultConfig_v12" : [
"fa93a52a3d04461d843aee1f"
],
"DefaultConfig_v13" : [
"fa93a52a3d04461d843aee1f"
],
"DefaultConfig_v14" : [
"fa93a52a3d04461d843aee1f"
],
"DefaultConfig_v15" : [
"fa93a52a3d04461d843aee1f"
],
"DefaultConfig_v16" : [
"fa93a52a3d04461d843aee1f"
],
"DefaultConfig_v17" : [
"fa93a52a3d04461d843aee1f"
],
"DefaultConfig_v18" : [
"fa93a52a3d04461d843aee1f"
],
"DefaultConfig_v19" : [
"fa93a52a3d04461d843aee1f"
],
"DefaultConfig_v20" : [
"fa93a52a3d04461d843aee1f"
],
"DefaultConfig_v21" : [
"fa93a52a3d04461d843aee1f"
],
"DefaultConfig_v22" : [
"fa93a52a3d04461d843aee1f"
],
"DefaultConfig_v23" : [
"fa93a52a3d04461d843aee1f"
],
"DefaultConfig_v24" : [
"fa93a52a3d04461d843aee1f"
],
"DefaultConfig_v25" : [
"fa93a52a3d04461d843aee1f"
],
"DefaultConfig_v26" : [
"fa93a52a3d04461d843aee1f"
],
"DefaultConfig_v27" : [
"fa93a52a3d04461d843aee1f"
],
"DefaultConfig_v28" : [
"fa93a52a3d04461d843aee1f"
],
"DefaultConfig_v29" : [
"fa93a52a3d04461d843aee1f"
],
"DefaultConfig_v30" : [
"fa93a52a3d04461d843aee1f"
],
"DefaultConfig_v31" : [
"fa93a52a3d04461d843aee1f"
],
"DefaultConfig_v32" : [
"fa93a52a3d04461d843aee1f"
],
"DefaultConfig_v33" : [
"fa93a52a3d04461d843aee1f"
],
"DefaultConfig_v34" : [
"fa93a52a3d04461d843aee1f"
]
},
"entities.name" : {
"OTSROOT" : [
"b44252a0c1ae4ac5a02b759b",
"fa93a52a3d04461d843aee1f"
]
},
"aliases.active.name" : {

},
"runs.name" : {

},
"configurations.assigned" : {
"notprovided" : [
"2020-07-21T14:27:46.280-0500",
"2020-08-24T11:59:56.076-0500"
],
"DefaultConfig_v1" : [
"2020-07-21T14:27:46.833-0500"
],
"DefaultConfig_v2" : [
"2020-07-21T14:44:16.488-0500"
],
"DefaultConfig_v3" : [
"2020-07-21T14:57:50.360-0500"
],
"DefaultConfig_v4" : [
"2020-07-28T10:52:34.258-0500"
],
"DefaultConfig_v5" : [
"2020-08-24T11:59:56.789-0500"
],
"DefaultConfig_v6" : [
"2020-08-24T16:05:13.351-0500"
],
"DefaultConfig_v7" : [
"2020-08-26T10:33:56.737-0500"
],
"DefaultConfig_v8" : [
"2020-08-26T10:45:54.495-0500"
],
"DefaultConfig_v9" : [
"2020-08-26T14:49:52.680-0500"
],
"DefaultConfig_v10" : [
"2020-08-26T14:52:00.301-0500"
],
"DefaultConfig_v11" : [
"2020-08-26T15:00:03.772-0500"
],
"DefaultConfig_v12" : [
"2020-08-26T16:18:15.514-0500"
],
"DefaultConfig_v13" : [
"2020-08-28T21:40:22.856-0500"
],
"DefaultConfig_v14" : [
"2020-08-31T15:19:58.795-0500"
],
"DefaultConfig_v15" : [
"2020-09-03T10:43:22.283-0500"
],
"DefaultConfig_v16" : [
"2020-09-03T10:49:03.334-0500"
],
"DefaultConfig_v17" : [
"2020-09-08T17:07:21.551-0500"
],
"DefaultConfig_v18" : [
"2020-09-11T16:02:29.216-0500"
],
"DefaultConfig_v19" : [
"2020-09-14T17:47:19.378-0500"
],
"DefaultConfig_v20" : [
"2020-09-14T18:00:23.631-0500"
],
"DefaultConfig_v21" : [
"2020-09-15T15:14:57.079-0500"
],
"DefaultConfig_v22" : [
"2020-09-15T15:18:54.180-0500"
],
"DefaultConfig_v23" : [
"2020-09-15T15:27:51.090-0500"
],
"DefaultConfig_v24" : [
"2020-09-15T15:52:12.600-0500"
],
"DefaultConfig_v25" : [
"2020-09-21T11:41:58.267-0500"
],
"DefaultConfig_v26" : [
"2020-09-21T11:54:29.003-0500"
],
"DefaultConfig_v27" : [
"2020-10-06T14:45:41.070-0500"
],
"DefaultConfig_v28" : [
"2020-10-06T15:04:19.602-0500"
],
"DefaultConfig_v29" : [
"2020-10-07T16:45:35.727-0500"
],
"DefaultConfig_v30" : [
"2020-10-07T17:03:29.881-0500"
],
"DefaultConfig_v31" : [
"2020-11-04T20:42:36.861-0600"
],
"DefaultConfig_v32" : [
"2020-11-11T11:26:54.458-0600"
],
"DefaultConfig_v33" : [
"2021-01-18T20:04:38.814-0600"
],
"DefaultConfig_v34" : [
"2021-01-18T20:05:19.278-0600"
]
}
}