11 Nov 2020 20:04:52.785 [140092441782464] INFO  it.infn.mib.quark.p:2020 <> - xdaq version: 05.03.01, compiled on Sep  8 2020 at 11:26:57, 64bit
11 Nov 2020 20:04:52.786 [140092441782464] INFO  it.infn.mib.quark.p:2020 <> - Loaded profile: /home/menasce/otsdaq/srcs/otsdaq_cmsoutertracker/DataDario/XDAQConfigurations/otsConfiguration_CMake.xml
11 Nov 2020 20:04:52.787 [140092441782464] INFO  it.infn.mib.quark.p:2020 <> - b2innub version: 02.05.01, compiled on Sep  8 2020 at 11:29:48
11 Nov 2020 20:04:52.788 [140092441782464] INFO  it.infn.mib.quark.p:2020 <> - executive version: 04.00.06, compiled on Sep  8 2020 at 11:29:14
11 Nov 2020 20:04:52.789 [140092441782464] INFO  it.infn.mib.quark.p:2020 <> - b2inutils version: 04.04.05, compiled on Sep  8 2020 at 11:29:55
11 Nov 2020 20:04:52.791 [140092441782464] INFO  it.infn.mib.quark.p:2020 <> - pthttp version: 04.05.07, compiled on Sep  8 2020 at 11:28:06
11 Nov 2020 20:04:52.791 [140092441782464] INFO  it.infn.mib.quark.p:2020 <> - ptfifo version: 04.03.01, compiled on Sep  8 2020 at 11:28:50
11 Nov 2020 20:04:52.792 [140092441782464] INFO  it.infn.mib.quark.p:2020 <> - xrelay version: 04.01.00, compiled on Sep  8 2020 at 11:29:41
11 Nov 2020 20:04:52.794 [140092441782464] INFO  it.infn.mib.quark.p:2020 <> - hyperdaq version: 05.02.01, compiled on Sep  8 2020 at 11:29:38
11 Nov 2020 20:04:52.794 [140092441782464] DEBUG it.infn.mib.quark.p:2020 <> - Create application descriptor for class: executive::Application id: 0
11 Nov 2020 20:04:52.806 [140092441782464] INFO  it.infn.mib.quark.p:2020.executive::Application.lid(0) <> - Log URL not set (was already console)
11 Nov 2020 20:04:52.806 [140092441782464] INFO  it.infn.mib.quark.p:2020.executive::Application.lid(0) <> - Changed Log level to INFO
11 Nov 2020 20:04:52.810 [140092441782464] INFO  it.infn.mib.quark.p:2020.pt::http::PeerTransportHTTP.lid(1) <> - No security policies on this server
11 Nov 2020 20:04:52.987 [140092441782464] INFO  it.infn.mib.quark.p:2020 <> - CoreSupervisors version: 02.05.06, compiled on Nov 10 2020 at 20:22:19
11-11 21:04:52.993673                    MessageFacility.h dbg Configuring message facility with /home/menasce/otsdaq/srcs/otsdaq_cmsoutertracker/DataDario/MessageFacilityConfigurations/MessageFacilityGen.fcl
otsConsole: {
	type: UDP
	threshold: DEBUG
	port: 30000
	host: "127.0.0.1"
}
console: {
	type: "OTS"
	threshold: "DEBUG"
	filename_delimit: "/srcs/"
	format_string: "|%L:%N:%f [%u]	%m"

}

file: ""

|Debug:configureMessageFacility:configureMessageFacility.cc [315]	4: Message Facility Config input is: TRACE:{TRACE_LIMIT_MS:[10,500,1500] TRACE_MSGMAX:0} destinations:{console:{filename_delimit:"/srcs/" format_string:"|%L:%N:%f [%u]\t%m" threshold:"DEBUG" type:"OTS"} file:"" otsConsole:{host:"127.0.0.1" port:30000 threshold:"DEBUG" type:"UDP"}}
|Info:_TCPConnect:TCPConnect.cc [344]	Resolving host 127.0.0.1, on port 30000
|Info:_TCPConnect:TCPConnect.cc [371]	Host resolved as 127.0.0.1
|Info:_TCPConnect:TCPConnect.cc [247]	Resolving ip quark.mib.infn.it
|Info:configureMessageFacility:configureMessageFacility.cc [316]	Message Facility Application . configured with: destinations:{console:{filename_delimit:"/srcs/" format_string:"|%L:%N:%f [%u]\t%m" threshold:"DEBUG" type:"OTS"} file:"" otsConsole:{host:"127.0.0.1" port:30000 threshold:"DEBUG" type:"UDP"}}
|Debug:CorePropertySupervisorBase.cc:otsdaq/otsdaq/CoreSupervisors/CorePropertySupervisorBase.cc [24]	FESupervisor:UNINITIALIZED_supervisorApplicationUID	<> application->getApplicationContext()->getContextDescriptor()->getURL() = http://quark.mib.infn.it:2020
|Debug:CorePropertySupervisorBase.cc:otsdaq/otsdaq/CoreSupervisors/CorePropertySupervisorBase.cc [25]	FESupervisor:UNINITIALIZED_supervisorApplicationUID	<> application->getApplicationDescriptor()->getLocalId() = 400
|Debug:CorePropertySupervisorBase.cc:otsdaq/otsdaq/CoreSupervisors/CorePropertySupervisorBase.cc [26]	FESupervisor:UNINITIALIZED_supervisorApplicationUID	<> supervisorClass_ = ots::FESupervisor
|Debug:CorePropertySupervisorBase.cc:otsdaq/otsdaq/CoreSupervisors/CorePropertySupervisorBase.cc [27]	FESupervisor:UNINITIALIZED_supervisorApplicationUID	<> supervisorClassNoNamespace_ = FESupervisor
|Debug:AllSupervisorInfo.cc:otsdaq/otsdaq/SupervisorInfo/AllSupervisorInfo.cc [48]	Initializing info based on XDAQ context...
|Debug:SupervisorDescriptorInfoBase.cc:otsdaq/otsdaq/SupervisorInfo/SupervisorDescriptorInfoBase.cc [33]	Init
|Debug:AllSupervisorInfo.cc:otsdaq/otsdaq/SupervisorInfo/AllSupervisorInfo.cc [107]	Initializing info for Normal mode XDAQ context...
|Debug:TableBase:otsdaq/otsdaq/TableCore/TableBase.cc [90]	TableBase-TableGroupMetadata	<> Special table 'TableGroupMetadata' constructed. 1
|Debug:ConfigurationManager:otsdaq/otsdaq/ConfigurationInterface/ConfigurationManager.cc [179]	username_ = READONLY_USER
|Debug:ConfigurationManager:otsdaq/otsdaq/ConfigurationInterface/ConfigurationManager.cc [225]	ACTIVE_GROUPS_FILENAME = /home/menasce/otsdaq/srcs/otsdaq_cmsoutertracker/DataDario/ServiceData/ActiveTableGroups.cfg
|Debug:ConfigurationManager:otsdaq/otsdaq/ConfigurationInterface/ConfigurationManager.cc [226]	ARTDAQ_DATABASE_URI = filesystemdb:///home/menasce/otsdaq/srcs/otsdaq_cmsoutertracker/databases/filesystemdb/dario_db
|Debug:ConfigurationManager:otsdaq/otsdaq/ConfigurationInterface/ConfigurationManager.cc [1365]	------------------------------------- init start    	 [for all plug-ins in Context group 'DefaultContext(7)']
|Debug:MessageFacilityTable_table.cc:otsdaq/otsdaq/TablePlugins/MessageFacilityTable_table.cc [111]	Forwarding to Web GUI with UDP forward MesageFacility table.
|Debug:MessageFacilityTable_table.cc:otsdaq/otsdaq/TablePlugins/MessageFacilityTable_table.cc [233]	Opened.. /home/menasce/otsdaq/srcs/otsdaq_cmsoutertracker/DataDario/MessageFacilityConfigurations/MessageFacilityGen.fcl
|Debug:MessageFacilityTable_table.cc:otsdaq/otsdaq/TablePlugins/MessageFacilityTable_table.cc [244]	Opened for artdaq.. /home/menasce/otsdaq/srcs/otsdaq_cmsoutertracker/DataDario/MessageFacilityConfigurations/ARTDAQInterfaceMessageFacilityGen.fcl
|Debug:XDAQContextTable_table.cc:otsdaq/otsdaq/TablePlugins/XDAQContextTable_table.cc [253]	Fixing deprecated Supervisor class from ots::Supervisor to ots::GatewaySupervisor
|Debug:ConfigurationManager:otsdaq/otsdaq/ConfigurationInterface/ConfigurationManager.cc [1531]	------------------------------------- init complete 	 [for all plug-ins in Context group 'DefaultContext(7)']
|Debug:ConfigurationManager:otsdaq/otsdaq/ConfigurationInterface/ConfigurationManager.cc [1365]	------------------------------------- init start    	 [for all plug-ins in Backbone group 'GroupAliasTreeEditWizBackbone(27)']
|Debug:ConfigurationManager:otsdaq/otsdaq/ConfigurationInterface/ConfigurationManager.cc [1531]	------------------------------------- init complete 	 [for all plug-ins in Backbone group 'GroupAliasTreeEditWizBackbone(27)']
|Warning:ConfigurationManager:otsdaq/otsdaq/ConfigurationInterface/ConfigurationManager.cc [1358]	Not loading group because it is not of type Context or Backbone (it is type 'Iterate').
|Warning:ConfigurationManager:otsdaq/otsdaq/ConfigurationInterface/ConfigurationManager.cc [1358]	Not loading group because it is not of type Context or Backbone (it is type 'Configuration').
|Debug:AllSupervisorInfo.cc:otsdaq/otsdaq/SupervisorInfo/AllSupervisorInfo.cc [288]	TRACE app for hostname 'quark.mib.infn.it' is CLASS:LID = ots::GatewaySupervisor:200
|Debug:AllSupervisorInfo.cc:otsdaq/otsdaq/SupervisorInfo/AllSupervisorInfo.cc [298]	TRACE app count = 1
|Debug:AllSupervisorInfo.cc:otsdaq/otsdaq/SupervisorInfo/AllSupervisorInfo.cc [304]	Supervisor Info initialization complete!
|Debug:ConfigurationManager:otsdaq/otsdaq/ConfigurationInterface/ConfigurationManager.cc [442]	Destroying Backbone Key: 27
|Debug:ConfigurationManager:otsdaq/otsdaq/ConfigurationInterface/ConfigurationManager.cc [460]	Destroying Context Key: 7
|Debug:CorePropertySupervisorBase.cc:otsdaq/otsdaq/CoreSupervisors/CorePropertySupervisorBase.cc [68]	FESupervisor:UNINITIALIZED_supervisorApplicationUID	<> Getting configuration specific info for supervisor 'OuterTrackerSupervisor' of class ots::FESupervisor.
|Debug:TableBase:otsdaq/otsdaq/TableCore/TableBase.cc [90]	TableBase-TableGroupMetadata	<> Special table 'TableGroupMetadata' constructed. 1
|Debug:ConfigurationManager:otsdaq/otsdaq/ConfigurationInterface/ConfigurationManager.cc [179]	username_ = READONLY_USER
|Debug:ConfigurationManager:otsdaq/otsdaq/ConfigurationInterface/ConfigurationManager.cc [225]	ACTIVE_GROUPS_FILENAME = /home/menasce/otsdaq/srcs/otsdaq_cmsoutertracker/DataDario/ServiceData/ActiveTableGroups.cfg
|Debug:ConfigurationManager:otsdaq/otsdaq/ConfigurationInterface/ConfigurationManager.cc [226]	ARTDAQ_DATABASE_URI = filesystemdb:///home/menasce/otsdaq/srcs/otsdaq_cmsoutertracker/databases/filesystemdb/dario_db
|Debug:ConfigurationManager:otsdaq/otsdaq/ConfigurationInterface/ConfigurationManager.cc [1365]	------------------------------------- init start    	 [for all plug-ins in Context group 'DefaultContext(7)']
|Debug:MessageFacilityTable_table.cc:otsdaq/otsdaq/TablePlugins/MessageFacilityTable_table.cc [111]	Forwarding to Web GUI with UDP forward MesageFacility table.
|Debug:MessageFacilityTable_table.cc:otsdaq/otsdaq/TablePlugins/MessageFacilityTable_table.cc [233]	Opened.. /home/menasce/otsdaq/srcs/otsdaq_cmsoutertracker/DataDario/MessageFacilityConfigurations/MessageFacilityGen.fcl
|Debug:MessageFacilityTable_table.cc:otsdaq/otsdaq/TablePlugins/MessageFacilityTable_table.cc [244]	Opened for artdaq.. /home/menasce/otsdaq/srcs/otsdaq_cmsoutertracker/DataDario/MessageFacilityConfigurations/ARTDAQInterfaceMessageFacilityGen.fcl
|Debug:XDAQContextTable_table.cc:otsdaq/otsdaq/TablePlugins/XDAQContextTable_table.cc [253]	Fixing deprecated Supervisor class from ots::Supervisor to ots::GatewaySupervisor
|Debug:ConfigurationManager:otsdaq/otsdaq/ConfigurationInterface/ConfigurationManager.cc [1531]	------------------------------------- init complete 	 [for all plug-ins in Context group 'DefaultContext(7)']
|Debug:ConfigurationManager:otsdaq/otsdaq/ConfigurationInterface/ConfigurationManager.cc [1365]	------------------------------------- init start    	 [for all plug-ins in Backbone group 'GroupAliasTreeEditWizBackbone(27)']
|Debug:ConfigurationManager:otsdaq/otsdaq/ConfigurationInterface/ConfigurationManager.cc [1531]	------------------------------------- init complete 	 [for all plug-ins in Backbone group 'GroupAliasTreeEditWizBackbone(27)']
|Warning:ConfigurationManager:otsdaq/otsdaq/ConfigurationInterface/ConfigurationManager.cc [1358]	Not loading group because it is not of type Context or Backbone (it is type 'Iterate').
|Warning:ConfigurationManager:otsdaq/otsdaq/ConfigurationInterface/ConfigurationManager.cc [1358]	Not loading group because it is not of type Context or Backbone (it is type 'Configuration').
|Debug:CorePropertySupervisorBase.cc:otsdaq/otsdaq/CoreSupervisors/CorePropertySupervisorBase.cc [106]	FESupervisor:OuterTrackerSupervisor	<> CorePropertySupervisorBase::supervisorContextUID_ = OuterTrackerContext
|Debug:CorePropertySupervisorBase.cc:otsdaq/otsdaq/CoreSupervisors/CorePropertySupervisorBase.cc [107]	FESupervisor:OuterTrackerSupervisor	<> CorePropertySupervisorBase::supervisorApplicationUID_ = OuterTrackerSupervisor
|Debug:CorePropertySupervisorBase.cc:otsdaq/otsdaq/CoreSupervisors/CorePropertySupervisorBase.cc [108]	FESupervisor:OuterTrackerSupervisor	<> CorePropertySupervisorBase::supervisorConfigurationPath_ = /OuterTrackerContext/LinkToApplicationTable/OuterTrackerSupervisor/LinkToSupervisorTable
|Debug:CorePropertySupervisorBase.cc:otsdaq/otsdaq/CoreSupervisors/CorePropertySupervisorBase.cc [164]	hostname = quark.mib.infn.it
|Debug:CorePropertySupervisorBase.cc:otsdaq/otsdaq/CoreSupervisors/CorePropertySupervisorBase.cc [178]	Marked alive: /home/menasce/otsdaq/srcs/otsdaq_cmsoutertracker/DataDario/Logs/otsdaq_is_alive-quark.mib.infn.it-2020.dat
|Debug:FSM:otsdaq/otsdaq/FiniteStateMachine/FiniteStateMachine.cc [19]	FSM-FESupervisor:OuterTrackerSupervisor	<> Constructing FiniteStateMachine
|Debug:FSM:otsdaq/otsdaq/FiniteStateMachine/RunControlStateMachine.cc [101]	FSM-FESupervisor:OuterTrackerSupervisor	<> Resetting RunControlStateMachine with name 'FESupervisor:OuterTrackerSupervisor'...
|Debug:WorkLoopManager.cc:otsdaq/otsdaq/WorkLoopManager/WorkLoopManager.cc [19]	Request name: StateMachine jobName: StateMachine
|Debug:CoreSupervisorBase.cc:otsdaq/otsdaq/CoreSupervisors/CoreSupervisorBase.cc [26]	FESupervisor:OuterTrackerSupervisor	<> Constructor.
|Debug:CoreSupervisorBase.cc:otsdaq/otsdaq/CoreSupervisors/CoreSupervisorBase.cc [41]	FESupervisor:OuterTrackerSupervisor	<> Constructed.
|Debug:FESupervisor.cc:otsdaq/otsdaq/CoreSupervisors/FESupervisor.cc [40]	FESupervisor:OuterTrackerSupervisor	<> Constructing...
|Debug:Configurable.cc:otsdaq/otsdaq/Configurable/Configurable.cc [16]	OuterTrackerFESupervisor0	<>  Configurable class constructed. 
|Debug:FEVInterfacesManager.cc:otsdaq/otsdaq/FECore/FEVInterfacesManager.cc [23]	OuterTrackerFESupervisor0	<> Constructed.
|Debug:FESupervisor.cc:otsdaq/otsdaq/CoreSupervisors/FESupervisor.cc [843]	FESupervisor:OuterTrackerSupervisor	<> State Machine 0 WAS of type FEVInterfacesManager
|Debug:FESupervisor.cc:otsdaq/otsdaq/CoreSupervisors/FESupervisor.cc [853]	FESupervisor:OuterTrackerSupervisor	<> theFEInterfacesManager pointer = 0x126d780
|Debug:FESupervisor.cc:otsdaq/otsdaq/CoreSupervisors/FESupervisor.cc [68]	FESupervisor:OuterTrackerSupervisor	<> Constructed.
11 Nov 2020 20:04:53.290 [140092441782464] INFO  it.infn.mib.quark.p:2020 <> - Ready.
|Debug:FSM:otsdaq/otsdaq/FiniteStateMachine/RunControlStateMachine.cc [144]	FSM-FESupervisor:OuterTrackerSupervisor	<> Received... 	Command: Initialize Par 0 Name: commandId Value: 2, Par 0 Name: xmlns:xdaq Value: urn:xdaq-soap:3.0,
|Debug:FSM:otsdaq/otsdaq/FiniteStateMachine/RunControlStateMachine.cc [155]	FSM-FESupervisor:OuterTrackerSupervisor	<> Defaulting iteration index to 0.
|Debug:FSM:otsdaq/otsdaq/FiniteStateMachine/RunControlStateMachine.cc [165]	FSM-FESupervisor:OuterTrackerSupervisor	<> Defaulting subIterationIndex_ index to 0.
|Debug:FSM:otsdaq/otsdaq/FiniteStateMachine/RunControlStateMachine.cc [201]	FSM-FESupervisor:OuterTrackerSupervisor	<> Starting state for FESupervisor:OuterTrackerSupervisor is Initial and attempting to Initialize
|Debug:FSM:otsdaq/otsdaq/FiniteStateMachine/RunControlStateMachine.cc [299]	FSM-FESupervisor:OuterTrackerSupervisor	<> command = Initialize
|Debug:FSM:otsdaq/otsdaq/FiniteStateMachine/RunControlStateMachine.cc [300]	FSM-FESupervisor:OuterTrackerSupervisor	<> currentState = Initial
|Debug:FSM:otsdaq/otsdaq/FiniteStateMachine/FiniteStateMachine.cc [146]	FSM-FESupervisor:OuterTrackerSupervisor	<> transition = Initialize
|Debug:CoreSupervisorBase.cc:otsdaq/otsdaq/CoreSupervisors/CoreSupervisorBase.cc [671]	FESupervisor:OuterTrackerSupervisor	<> transitionInitializing
|Debug:CoreSupervisorBase.cc:otsdaq/otsdaq/CoreSupervisors/CoreSupervisorBase.cc [399]	FESupervisor:OuterTrackerSupervisor	<> CoreSupervisorBase::stateHalted
|Debug:FSM:otsdaq/otsdaq/FiniteStateMachine/RunControlStateMachine.cc [409]	FSM-FESupervisor:OuterTrackerSupervisor	<> Ending state for FESupervisor:OuterTrackerSupervisor is Halted
|Debug:FSM:otsdaq/otsdaq/FiniteStateMachine/RunControlStateMachine.cc [410]	FSM-FESupervisor:OuterTrackerSupervisor	<> result = InitializeDone
