{
"ouid" : [
"944fcc2232d343f08b71b2e2",
"97afe3e900b14438a51883c4"
],
"version" : {
"0" : [
"97afe3e900b14438a51883c4"
],
"1" : [
"944fcc2232d343f08b71b2e2"
]
},
"configurations.name" : {
"notprovided" : [
"944fcc2232d343f08b71b2e2",
"97afe3e900b14438a51883c4"
],
"DefaultConfig_v10" : [
"97afe3e900b14438a51883c4"
],
"DefaultConfig_v11" : [
"97afe3e900b14438a51883c4"
],
"DefaultConfig_v12" : [
"97afe3e900b14438a51883c4"
],
"DefaultConfig_v13" : [
"97afe3e900b14438a51883c4"
],
"DefaultConfig_v14" : [
"97afe3e900b14438a51883c4"
],
"DefaultConfig_v15" : [
"944fcc2232d343f08b71b2e2"
],
"DefaultConfig_v16" : [
"944fcc2232d343f08b71b2e2"
],
"DefaultConfig_v17" : [
"944fcc2232d343f08b71b2e2"
],
"DefaultConfig_v18" : [
"944fcc2232d343f08b71b2e2"
],
"DefaultConfig_v19" : [
"944fcc2232d343f08b71b2e2"
],
"DefaultConfig_v20" : [
"944fcc2232d343f08b71b2e2"
],
"DefaultConfig_v21" : [
"944fcc2232d343f08b71b2e2"
],
"DefaultConfig_v22" : [
"944fcc2232d343f08b71b2e2"
],
"DefaultConfig_v23" : [
"944fcc2232d343f08b71b2e2"
],
"DefaultConfig_v24" : [
"944fcc2232d343f08b71b2e2"
],
"DefaultConfig_v25" : [
"944fcc2232d343f08b71b2e2"
],
"DefaultConfig_v26" : [
"944fcc2232d343f08b71b2e2"
],
"DefaultConfig_v27" : [
"944fcc2232d343f08b71b2e2"
],
"DefaultConfig_v28" : [
"944fcc2232d343f08b71b2e2"
],
"DefaultConfig_v29" : [
"944fcc2232d343f08b71b2e2"
],
"DefaultConfig_v30" : [
"944fcc2232d343f08b71b2e2"
],
"DefaultConfig_v31" : [
"944fcc2232d343f08b71b2e2"
],
"DefaultConfig_v32" : [
"944fcc2232d343f08b71b2e2"
],
"DefaultConfig_v33" : [
"944fcc2232d343f08b71b2e2"
],
"DefaultConfig_v34" : [
"944fcc2232d343f08b71b2e2"
],
"DefaultConfig_v35" : [
"944fcc2232d343f08b71b2e2"
],
"DefaultConfig_v36" : [
"944fcc2232d343f08b71b2e2"
],
"DefaultConfig_v37" : [
"944fcc2232d343f08b71b2e2"
]
},
"entities.name" : {
"OTSROOT" : [
"944fcc2232d343f08b71b2e2",
"97afe3e900b14438a51883c4"
]
},
"aliases.active.name" : {

},
"runs.name" : {

},
"configurations.assigned" : {
"notprovided" : [
"2019-11-20T15:14:19.457-0600",
"2019-11-20T16:27:20.967-0600"
],
"DefaultConfig_v10" : [
"2019-11-20T15:25:38.431-0600"
],
"DefaultConfig_v11" : [
"2019-11-20T15:28:12.454-0600"
],
"DefaultConfig_v12" : [
"2019-11-20T15:58:29.746-0600"
],
"DefaultConfig_v13" : [
"2019-11-20T16:23:03.458-0600"
],
"DefaultConfig_v14" : [
"2019-11-20T16:24:45.579-0600"
],
"DefaultConfig_v15" : [
"2019-11-20T16:27:46.421-0600"
],
"DefaultConfig_v16" : [
"2019-11-20T16:42:10.959-0600"
],
"DefaultConfig_v17" : [
"2019-12-09T19:33:37.529-0600"
],
"DefaultConfig_v18" : [
"2019-12-10T14:21:50.737-0600"
],
"DefaultConfig_v19" : [
"2021-04-29T11:28:51.747-0500"
],
"DefaultConfig_v20" : [
"2021-04-29T11:36:29.762-0500"
],
"DefaultConfig_v21" : [
"2021-04-29T11:56:50.106-0500"
],
"DefaultConfig_v22" : [
"2021-04-29T12:03:11.756-0500"
],
"DefaultConfig_v23" : [
"2021-04-29T12:06:21.591-0500"
],
"DefaultConfig_v24" : [
"2021-04-29T13:06:39.230-0500"
],
"DefaultConfig_v25" : [
"2021-04-30T09:33:57.052-0500"
],
"DefaultConfig_v26" : [
"2021-04-30T09:34:32.629-0500"
],
"DefaultConfig_v27" : [
"2021-04-30T09:36:19.378-0500"
],
"DefaultConfig_v28" : [
"2021-04-30T11:59:05.967-0500"
],
"DefaultConfig_v29" : [
"2021-04-30T12:10:52.478-0500"
],
"DefaultConfig_v30" : [
"2021-04-30T12:11:38.780-0500"
],
"DefaultConfig_v31" : [
"2021-05-06T17:42:15.310-0500"
],
"DefaultConfig_v32" : [
"2021-05-10T10:42:47.112-0500"
],
"DefaultConfig_v33" : [
"2021-05-10T11:08:52.893-0500"
],
"DefaultConfig_v34" : [
"2021-05-12T15:51:22.978-0500"
],
"DefaultConfig_v35" : [
"2021-05-12T16:11:01.162-0500"
],
"DefaultConfig_v36" : [
"2021-05-14T15:34:24.546-0500"
],
"DefaultConfig_v37" : [
"2021-05-14T16:41:01.183-0500"
]
}
}