{
"document" : {
"data" : {
"NAME" : "GATEWAY_SUPERVISOR_TABLE",
"COMMENT" : "No comment.",
"AUTHOR" : "admin",
"CREATION_TIME" : 1595361356,
"COL_TYPES" : {
"SUPERVISOR_UID" : "STRING",
"NUMBER_OF_STATE_MACHINE_BROADCAST_THREADS" : "NUMBER",
"LINK_TO_STATE_MACHINE_TABLE" : "STRING",
"STATE_MACHINE_GROUP_ID" : "STRING",
"ENABLE_APPLICATION_STATUS_MONITORING" : "STRING",
"ENABLE_STATE_CHANGES_OVER_UDP" : "STRING",
"IP_ADDRESS_FOR_STATE_CHANGES_OVER_UDP" : "STRING",
"PORT_FOR_STATE_CHANGES_OVER_UDP" : "NUMBER",
"ENABLE_ACK_FOR_STATE_CHANGES_OVER_UDP" : "STRING",
"COMMENT_DESCRIPTION" : "STRING",
"AUTHOR" : "STRING",
"RECORD_INSERTION_TIME" : "TIMESTAMP WITH TIMEZONE"
},
"DATA_SET" : [
{
"SUPERVISOR_UID" : "Supervisor0",
"NUMBER_OF_STATE_MACHINE_BROADCAST_THREADS" : "0",
"LINK_TO_STATE_MACHINE_TABLE" : "StateMachineTable",
"STATE_MACHINE_GROUP_ID" : "Supervisor0_FSMs",
"ENABLE_APPLICATION_STATUS_MONITORING" : "Yes",
"ENABLE_STATE_CHANGES_OVER_UDP" : "No",
"IP_ADDRESS_FOR_STATE_CHANGES_OVER_UDP" : "DEFAULT",
"PORT_FOR_STATE_CHANGES_OVER_UDP" : "0",
"ENABLE_ACK_FOR_STATE_CHANGES_OVER_UDP" : "No",
"COMMENT_DESCRIPTION" : "Link to a group of state machines.",
"AUTHOR" : "admin",
"RECORD_INSERTION_TIME" : "1595361353"
}
]
},
"metadata" : {

},
"search" : [

]
},
"comments" : [

],
"origin" : {
"source" : "template",
"name" : "notprovided",
"format" : "json",
"created" : "2020-07-21T14:55:56.341-0500",
"rawdata" : [

]
},
"version" : "3",
"entities" : [
{
"name" : "OTSROOT",
"assigned" : "2020-07-21T14:55:56.342-0500"
}
],
"configurations" : [
{
"name" : "notprovided",
"assigned" : "2020-07-21T14:55:56.341-0500"
},
{
"name" : "DefaultContext_v7",
"assigned" : "2020-07-21T14:55:56.902-0500"
},
{
"name" : "DefaultContext_v8",
"assigned" : "2020-07-21T15:50:01.258-0500"
}
],
"changelog" : "notprovided",
"bookkeeping" : {
"isdeleted" : false,
"isreadonly" : false,
"updates" : [
{
"event" : "addConfiguration",
"timestamp" : "2020-07-21T14:55:56.341-0500",
"value" : {
"name" : "notprovided",
"assigned" : "2020-07-21T14:55:56.341-0500"
}
},
{
"event" : "setVersion",
"timestamp" : "2020-07-21T14:55:56.342-0500",
"value" : {
"name" : "3",
"assigned" : "2020-07-21T14:55:56.342-0500"
}
},
{
"event" : "setCollection",
"timestamp" : "2020-07-21T14:55:56.342-0500",
"value" : {
"name" : "GatewaySupervisorTable",
"assigned" : "2020-07-21T14:55:56.342-0500"
}
},
{
"event" : "addEntity",
"timestamp" : "2020-07-21T14:55:56.342-0500",
"value" : {
"name" : "OTSROOT",
"assigned" : "2020-07-21T14:55:56.342-0500"
}
},
{
"event" : "addConfiguration",
"timestamp" : "2020-07-21T14:55:56.902-0500",
"value" : {
"name" : "DefaultContext_v7",
"assigned" : "2020-07-21T14:55:56.902-0500"
}
},
{
"event" : "addConfiguration",
"timestamp" : "2020-07-21T15:50:01.259-0500",
"value" : {
"name" : "DefaultContext_v8",
"assigned" : "2020-07-21T15:50:01.258-0500"
}
}
],
"created" : "2020-07-21T14:55:56.341-0500"
},
"_id" : {
"$oid" : "cca0dd94f1bf49569a63876b"
},
"collection" : "GatewaySupervisorTable",
"aliases" : {
"active" : [

],
"history" : [

]
},
"runs" : [

],
"attachments" : [

],
"configtype" : "notprovided"
}