{
"ouid" : [
"117c2d4a79444c499d6d3f92",
"1ad926ff33b34c5e82a4ec7c",
"42e376de078b442bbe155e9f",
"715ed3a572b94f8f88139186",
"897e505f4ec041209126face"
],
"version" : {
"2" : [
"117c2d4a79444c499d6d3f92"
],
"3" : [
"1ad926ff33b34c5e82a4ec7c"
],
"4" : [
"715ed3a572b94f8f88139186"
],
"5" : [
"42e376de078b442bbe155e9f"
],
"6" : [
"897e505f4ec041209126face"
]
},
"configurations.name" : {
"notprovided" : [
"117c2d4a79444c499d6d3f92",
"1ad926ff33b34c5e82a4ec7c",
"42e376de078b442bbe155e9f",
"715ed3a572b94f8f88139186",
"897e505f4ec041209126face"
],
"DefaultContext_v2" : [
"117c2d4a79444c499d6d3f92"
],
"DefaultContext_v3" : [
"117c2d4a79444c499d6d3f92"
],
"DefaultContext_v4" : [
"1ad926ff33b34c5e82a4ec7c"
],
"DefaultContext_v5" : [
"715ed3a572b94f8f88139186"
],
"DefaultContext_v6" : [
"42e376de078b442bbe155e9f"
],
"DefaultContext_v7" : [
"42e376de078b442bbe155e9f"
],
"DefaultContext_v8" : [
"897e505f4ec041209126face"
],
"DefaultContext_v9" : [
"897e505f4ec041209126face"
],
"DefaultContext_v10" : [
"42e376de078b442bbe155e9f"
]
},
"entities.name" : {
"OTSROOT" : [
"117c2d4a79444c499d6d3f92",
"1ad926ff33b34c5e82a4ec7c",
"42e376de078b442bbe155e9f",
"715ed3a572b94f8f88139186",
"897e505f4ec041209126face"
]
},
"aliases.active.name" : {

},
"runs.name" : {

},
"configurations.assigned" : {
"notprovided" : [
"2020-07-21T14:27:47.191-0500",
"2020-07-21T14:46:43.765-0500",
"2020-07-21T14:51:15.860-0500",
"2020-07-21T14:55:16.675-0500",
"2020-07-21T15:50:00.612-0500"
],
"DefaultContext_v2" : [
"2020-07-21T14:27:47.611-0500"
],
"DefaultContext_v3" : [
"2020-07-21T14:42:50.325-0500"
],
"DefaultContext_v4" : [
"2020-07-21T14:46:44.201-0500"
],
"DefaultContext_v5" : [
"2020-07-21T14:51:16.485-0500"
],
"DefaultContext_v6" : [
"2020-07-21T14:55:16.806-0500"
],
"DefaultContext_v7" : [
"2020-07-21T14:55:56.823-0500"
],
"DefaultContext_v8" : [
"2020-07-21T15:50:01.156-0500"
],
"DefaultContext_v9" : [
"2020-09-09T19:38:00.634+0200"
],
"DefaultContext_v10" : [
"2020-09-11T17:53:13.271+0200"
]
}
}