{
"document" : {
"data" : {
"NAME" : "VERSION_ALIASES_CONFIGURATION",
"COMMENT" : "Default Version Aliases.",
"AUTHOR" : "admin",
"CREATION_TIME" : 1480649901,
"COL_TYPES" : {
"VERSION_ALIAS_UID" : "VARCHAR2",
"CONFIGURATION_NAME" : "VARCHAR2",
"VERSION_ALIAS" : "VARCHAR2",
"VERSION" : "VARCHAR2",
"COMMENT_DESCRIPTION" : "VARCHAR2",
"AUTHOR" : "VARCHAR2",
"RECORD_INSERTION_TIME" : "TIMESTAMP WITH TIMEZONE"
},
"DATA_SET" : [

]
},
"metadata" : {

},
"search" : [

]
},
"comments" : [

],
"origin" : {
"source" : "template",
"name" : "notprovided",
"format" : "json",
"created" : "2017-11-08T15:56:08.665-0600",
"rawdata" : [

]
},
"version" : "2",
"entities" : [
{
"name" : "OTSROOT",
"assigned" : "2017-11-08T15:56:08.666-0600"
}
],
"configurations" : [
{
"name" : "notprovided",
"assigned" : "2017-11-08T15:56:08.666-0600"
},
{
"name" : "TableEditWizBackbone_v2",
"assigned" : "2017-11-08T15:56:08.754-0600"
}
],
"changelog" : "notprovided",
"bookkeeping" : {
"isdeleted" : false,
"isreadonly" : false,
"updates" : [
{
"event" : "addConfiguration",
"timestamp" : "2017-11-08T15:56:08.666-0600",
"value" : {
"name" : "notprovided",
"assigned" : "2017-11-08T15:56:08.666-0600"
}
},
{
"event" : "setVersion",
"timestamp" : "2017-11-08T15:56:08.666-0600",
"value" : {
"name" : "2",
"assigned" : "2017-11-08T15:56:08.666-0600"
}
},
{
"event" : "setCollection",
"timestamp" : "2017-11-08T15:56:08.666-0600",
"value" : {
"name" : "VersionAliasesConfiguration",
"assigned" : "2017-11-08T15:56:08.666-0600"
}
},
{
"event" : "addEntity",
"timestamp" : "2017-11-08T15:56:08.666-0600",
"value" : {
"name" : "OTSROOT",
"assigned" : "2017-11-08T15:56:08.666-0600"
}
},
{
"event" : "addConfiguration",
"timestamp" : "2017-11-08T15:56:08.754-0600",
"value" : {
"name" : "TableEditWizBackbone_v2",
"assigned" : "2017-11-08T15:56:08.754-0600"
}
}
],
"created" : "2017-11-08T15:56:08.665-0600"
},
"_id" : {
"$oid" : "83d6f1af5148468f840821e4"
},
"collection" : "VersionAliasesConfiguration",
"aliases" : {
"active" : [

],
"history" : [

]
},
"runs" : [

],
"attachments" : [

],
"configtype" : "notprovided"
}