{
"ouid" : [
"04159a89241f4dfd86da00ad",
"13cd5ac102be4fc6b5665610",
"4923d994832d4be7beccc376",
"9e10d2467c4e4a079cfe644d",
"a1fe944a57b54586a3f4ae71"
],
"version" : {
"0" : [
"04159a89241f4dfd86da00ad"
],
"1" : [
"13cd5ac102be4fc6b5665610"
],
"2" : [
"9e10d2467c4e4a079cfe644d"
],
"3" : [
"4923d994832d4be7beccc376"
],
"4" : [
"a1fe944a57b54586a3f4ae71"
]
},
"configurations.name" : {
"notprovided" : [
"04159a89241f4dfd86da00ad",
"13cd5ac102be4fc6b5665610",
"4923d994832d4be7beccc376",
"9e10d2467c4e4a079cfe644d",
"a1fe944a57b54586a3f4ae71"
],
"iterateDefaultGroup_v0" : [
"04159a89241f4dfd86da00ad"
],
"iterateDefaultGroup_v1" : [
"04159a89241f4dfd86da00ad"
],
"iterateDefaultGroup_v2" : [
"13cd5ac102be4fc6b5665610"
],
"iterateDefaultGroup_v3" : [
"13cd5ac102be4fc6b5665610"
],
"iterateDefaultGroup_v4" : [
"9e10d2467c4e4a079cfe644d"
],
"iterateDefaultGroup_v5" : [
"9e10d2467c4e4a079cfe644d"
],
"iterateDefaultGroup_v6" : [
"9e10d2467c4e4a079cfe644d"
],
"iterateDefaultGroup_v7" : [
"9e10d2467c4e4a079cfe644d"
],
"iterateDefaultGroup_v8" : [
"9e10d2467c4e4a079cfe644d"
],
"iterateDefaultGroup_v9" : [
"9e10d2467c4e4a079cfe644d"
],
"iterateDefaultGroup_v10" : [
"4923d994832d4be7beccc376"
],
"iterateDefaultGroup_v11" : [
"a1fe944a57b54586a3f4ae71"
],
"iterateDefaultGroup_v12" : [
"a1fe944a57b54586a3f4ae71"
]
},
"entities.name" : {
"OTSROOT" : [
"04159a89241f4dfd86da00ad",
"13cd5ac102be4fc6b5665610",
"4923d994832d4be7beccc376",
"9e10d2467c4e4a079cfe644d",
"a1fe944a57b54586a3f4ae71"
]
},
"aliases.active.name" : {

},
"runs.name" : {

},
"configurations.assigned" : {
"notprovided" : [
"2020-07-21T14:47:39.161-0500",
"2020-07-21T15:28:03.658-0500",
"2020-07-21T15:45:03.034-0500",
"2020-07-28T13:15:24.401-0500",
"2020-07-28T13:20:56.016-0500"
],
"iterateDefaultGroup_v0" : [
"2020-07-21T14:47:39.681-0500"
],
"iterateDefaultGroup_v1" : [
"2020-07-21T15:25:08.069-0500"
],
"iterateDefaultGroup_v2" : [
"2020-07-21T15:28:04.450-0500"
],
"iterateDefaultGroup_v3" : [
"2020-07-21T15:42:20.797-0500"
],
"iterateDefaultGroup_v4" : [
"2020-07-21T15:45:03.800-0500"
],
"iterateDefaultGroup_v5" : [
"2020-07-21T15:57:33.785-0500"
],
"iterateDefaultGroup_v6" : [
"2020-07-28T10:52:35.265-0500"
],
"iterateDefaultGroup_v7" : [
"2020-07-28T13:01:36.960-0500"
],
"iterateDefaultGroup_v8" : [
"2020-07-28T13:03:27.170-0500"
],
"iterateDefaultGroup_v9" : [
"2020-07-28T13:12:58.148-0500"
],
"iterateDefaultGroup_v10" : [
"2020-07-28T13:15:25.379-0500"
],
"iterateDefaultGroup_v11" : [
"2020-07-28T13:20:57.316-0500"
],
"iterateDefaultGroup_v12" : [
"2020-07-28T13:27:37.892-0500"
]
}
}