{
"document" : {
"data" : {
"NAME" : "THE_SUPERVISOR_CONFIGURATION",
"COMMENT" : "State Machine group link.",
"AUTHOR" : "admin",
"CREATION_TIME" : 1483025278,
"COL_TYPES" : {
"SUPERVISOR_UID" : "VARCHAR2",
"LINK_TO_STATE_MACHINE_TABLE" : "VARCHAR2",
"STATE_MACHINE_GROUP_ID" : "VARCHAR2",
"COMMENT_DESCRIPTION" : "VARCHAR2",
"AUTHOR" : "VARCHAR2",
"RECORD_INSERTION_TIME" : "TIMESTAMP WITH TIMEZONE"
},
"DATA_SET" : [
{
"SUPERVISOR_UID" : "Supervisor0",
"LINK_TO_STATE_MACHINE_TABLE" : "StateMachineConfiguration",
"STATE_MACHINE_GROUP_ID" : "Supervisor0_FSMs",
"COMMENT_DESCRIPTION" : "Link to a group of state machines.",
"AUTHOR" : "admin",
"RECORD_INSERTION_TIME" : "1483025278"
}
]
},
"metadata" : {

},
"search" : [

]
},
"comments" : [

],
"origin" : {
"source" : "template",
"name" : "notprovided",
"format" : "json",
"created" : "2017-11-08T15:56:08.040-0600",
"rawdata" : [

]
},
"version" : "1",
"entities" : [
{
"name" : "OTSROOT",
"assigned" : "2017-11-08T15:56:08.041-0600"
}
],
"configurations" : [
{
"name" : "notprovided",
"assigned" : "2017-11-08T15:56:08.041-0600"
},
{
"name" : "FTBFContext_v1",
"assigned" : "2017-11-08T15:56:08.395-0600"
},
{
"name" : "FTBFContext_v2",
"assigned" : "2017-11-09T10:39:03.829-0600"
},
{
"name" : "FTBFContext_v3",
"assigned" : "2017-11-10T10:18:38.274-0600"
},
{
"name" : "FTBFContext_v4",
"assigned" : "2017-11-10T10:28:46.822-0600"
},
{
"name" : "FTBFContext_v5",
"assigned" : "2017-11-10T10:40:33.253-0600"
},
{
"name" : "FTBFContext_v6",
"assigned" : "2017-11-10T10:52:05.648-0600"
},
{
"name" : "FTBFContext_v7",
"assigned" : "2017-11-10T11:21:01.539-0600"
},
{
"name" : "FTBFContext_v8",
"assigned" : "2017-11-10T11:44:49.780-0600"
},
{
"name" : "FTBFContext_v9",
"assigned" : "2017-11-10T12:15:26.081-0600"
},
{
"name" : "FTBFContext_v10",
"assigned" : "2017-11-10T12:16:54.607-0600"
},
{
"name" : "FTBFContext_v11",
"assigned" : "2017-11-10T12:22:19.833-0600"
},
{
"name" : "FTBFContext_v12",
"assigned" : "2017-11-10T12:35:32.338-0600"
},
{
"name" : "FTBFContext_v13",
"assigned" : "2017-11-10T12:37:10.421-0600"
},
{
"name" : "FTBFContext_v14",
"assigned" : "2017-11-10T12:38:14.923-0600"
},
{
"name" : "FTBFContext_v15",
"assigned" : "2017-11-10T17:04:41.295-0600"
},
{
"name" : "FTBFContext_v16",
"assigned" : "2017-11-13T10:55:06.215-0600"
},
{
"name" : "FTBFContext_v17",
"assigned" : "2017-11-13T14:51:54.009-0600"
},
{
"name" : "FTBFContext_v18",
"assigned" : "2017-11-13T15:21:32.932-0600"
},
{
"name" : "FTBFContext_v19",
"assigned" : "2017-11-14T11:21:18.219-0600"
},
{
"name" : "FTBFContext_v20",
"assigned" : "2017-11-14T16:15:29.160-0600"
},
{
"name" : "FTBFContext_v21",
"assigned" : "2017-11-15T12:29:36.716-0600"
},
{
"name" : "FTBFContext_v22",
"assigned" : "2017-11-15T12:31:22.617-0600"
},
{
"name" : "FTBFContext_v23",
"assigned" : "2017-11-15T12:39:05.960-0600"
},
{
"name" : "FTBFContext_v24",
"assigned" : "2017-11-15T12:55:32.817-0600"
},
{
"name" : "FTBFContext_v25",
"assigned" : "2017-11-15T12:57:46.618-0600"
},
{
"name" : "FTBFContext_v26",
"assigned" : "2017-11-15T12:59:19.670-0600"
},
{
"name" : "FTBFContext_v27",
"assigned" : "2017-11-15T16:19:29.945-0600"
},
{
"name" : "FTBFContext_v28",
"assigned" : "2017-11-16T09:27:10.747-0600"
},
{
"name" : "FTBFContext_v29",
"assigned" : "2017-11-17T17:24:36.135-0600"
},
{
"name" : "FTBFContext_v30",
"assigned" : "2017-11-20T14:44:40.827-0600"
},
{
"name" : "FTBFContext_v31",
"assigned" : "2017-11-28T10:58:43.466-0600"
},
{
"name" : "FTBFContext_v32",
"assigned" : "2017-11-28T11:47:17.648-0600"
},
{
"name" : "FTBFContext_v33",
"assigned" : "2017-11-28T12:09:40.454-0600"
},
{
"name" : "FTBFContext_v34",
"assigned" : "2017-11-28T12:18:07.947-0600"
},
{
"name" : "FTBFContext_v35",
"assigned" : "2017-11-28T16:52:28.232-0600"
},
{
"name" : "FTBFContext_v36",
"assigned" : "2017-11-28T17:27:49.755-0600"
},
{
"name" : "FTBFContext_v37",
"assigned" : "2017-11-29T11:25:53.386-0600"
},
{
"name" : "FTBFContext_v38",
"assigned" : "2017-11-29T16:45:18.538-0600"
},
{
"name" : "FTBFContext_v39",
"assigned" : "2017-11-30T09:28:22.830-0600"
},
{
"name" : "FTBFContext_v40",
"assigned" : "2017-11-30T10:12:19.548-0600"
},
{
"name" : "FTBFContext_v41",
"assigned" : "2017-12-01T15:35:09.610-0600"
},
{
"name" : "FTBFContext_v42",
"assigned" : "2017-12-01T15:41:38.102-0600"
},
{
"name" : "FTBFContext_v43",
"assigned" : "2017-12-01T15:49:46.922-0600"
},
{
"name" : "FTBFContext_v44",
"assigned" : "2017-12-01T17:07:56.672-0600"
},
{
"name" : "FTBFContext_v45",
"assigned" : "2017-12-01T17:10:14.050-0600"
},
{
"name" : "FTBFContext_v46",
"assigned" : "2017-12-01T18:00:43.671-0600"
},
{
"name" : "FTBFContext_v47",
"assigned" : "2017-12-01T19:52:09.291-0600"
},
{
"name" : "FTBFContext_v48",
"assigned" : "2017-12-02T14:47:39.831-0600"
},
{
"name" : "FTBFContext_v49",
"assigned" : "2017-12-02T14:48:22.984-0600"
},
{
"name" : "FTBFContext_v50",
"assigned" : "2017-12-02T18:54:54.689-0600"
},
{
"name" : "FTBFContext_v51",
"assigned" : "2017-12-02T19:09:30.038-0600"
},
{
"name" : "FTBFContext_v52",
"assigned" : "2017-12-03T12:01:07.691-0600"
},
{
"name" : "FTBFContext_v53",
"assigned" : "2017-12-04T16:40:50.562-0600"
},
{
"name" : "FTBFContext_v54",
"assigned" : "2018-02-03T03:00:36.495-0600"
}
],
"changelog" : "notprovided",
"bookkeeping" : {
"isdeleted" : false,
"isreadonly" : false,
"updates" : [
{
"event" : "addConfiguration",
"timestamp" : "2017-11-08T15:56:08.041-0600",
"value" : {
"name" : "notprovided",
"assigned" : "2017-11-08T15:56:08.041-0600"
}
},
{
"event" : "setVersion",
"timestamp" : "2017-11-08T15:56:08.041-0600",
"value" : {
"name" : "1",
"assigned" : "2017-11-08T15:56:08.041-0600"
}
},
{
"event" : "setCollection",
"timestamp" : "2017-11-08T15:56:08.041-0600",
"value" : {
"name" : "TheSupervisorConfiguration",
"assigned" : "2017-11-08T15:56:08.041-0600"
}
},
{
"event" : "addEntity",
"timestamp" : "2017-11-08T15:56:08.041-0600",
"value" : {
"name" : "OTSROOT",
"assigned" : "2017-11-08T15:56:08.041-0600"
}
},
{
"event" : "addConfiguration",
"timestamp" : "2017-11-08T15:56:08.395-0600",
"value" : {
"name" : "FTBFContext_v1",
"assigned" : "2017-11-08T15:56:08.395-0600"
}
},
{
"event" : "addConfiguration",
"timestamp" : "2017-11-09T10:39:03.829-0600",
"value" : {
"name" : "FTBFContext_v2",
"assigned" : "2017-11-09T10:39:03.829-0600"
}
},
{
"event" : "addConfiguration",
"timestamp" : "2017-11-10T10:18:38.274-0600",
"value" : {
"name" : "FTBFContext_v3",
"assigned" : "2017-11-10T10:18:38.274-0600"
}
},
{
"event" : "addConfiguration",
"timestamp" : "2017-11-10T10:28:46.822-0600",
"value" : {
"name" : "FTBFContext_v4",
"assigned" : "2017-11-10T10:28:46.822-0600"
}
},
{
"event" : "addConfiguration",
"timestamp" : "2017-11-10T10:40:33.253-0600",
"value" : {
"name" : "FTBFContext_v5",
"assigned" : "2017-11-10T10:40:33.253-0600"
}
},
{
"event" : "addConfiguration",
"timestamp" : "2017-11-10T10:52:05.648-0600",
"value" : {
"name" : "FTBFContext_v6",
"assigned" : "2017-11-10T10:52:05.648-0600"
}
},
{
"event" : "addConfiguration",
"timestamp" : "2017-11-10T11:21:01.540-0600",
"value" : {
"name" : "FTBFContext_v7",
"assigned" : "2017-11-10T11:21:01.539-0600"
}
},
{
"event" : "addConfiguration",
"timestamp" : "2017-11-10T11:44:49.780-0600",
"value" : {
"name" : "FTBFContext_v8",
"assigned" : "2017-11-10T11:44:49.780-0600"
}
},
{
"event" : "addConfiguration",
"timestamp" : "2017-11-10T12:15:26.081-0600",
"value" : {
"name" : "FTBFContext_v9",
"assigned" : "2017-11-10T12:15:26.081-0600"
}
},
{
"event" : "addConfiguration",
"timestamp" : "2017-11-10T12:16:54.607-0600",
"value" : {
"name" : "FTBFContext_v10",
"assigned" : "2017-11-10T12:16:54.607-0600"
}
},
{
"event" : "addConfiguration",
"timestamp" : "2017-11-10T12:22:19.833-0600",
"value" : {
"name" : "FTBFContext_v11",
"assigned" : "2017-11-10T12:22:19.833-0600"
}
},
{
"event" : "addConfiguration",
"timestamp" : "2017-11-10T12:35:32.338-0600",
"value" : {
"name" : "FTBFContext_v12",
"assigned" : "2017-11-10T12:35:32.338-0600"
}
},
{
"event" : "addConfiguration",
"timestamp" : "2017-11-10T12:37:10.421-0600",
"value" : {
"name" : "FTBFContext_v13",
"assigned" : "2017-11-10T12:37:10.421-0600"
}
},
{
"event" : "addConfiguration",
"timestamp" : "2017-11-10T12:38:14.923-0600",
"value" : {
"name" : "FTBFContext_v14",
"assigned" : "2017-11-10T12:38:14.923-0600"
}
},
{
"event" : "addConfiguration",
"timestamp" : "2017-11-10T17:04:41.296-0600",
"value" : {
"name" : "FTBFContext_v15",
"assigned" : "2017-11-10T17:04:41.295-0600"
}
},
{
"event" : "addConfiguration",
"timestamp" : "2017-11-13T10:55:06.215-0600",
"value" : {
"name" : "FTBFContext_v16",
"assigned" : "2017-11-13T10:55:06.215-0600"
}
},
{
"event" : "addConfiguration",
"timestamp" : "2017-11-13T14:51:54.009-0600",
"value" : {
"name" : "FTBFContext_v17",
"assigned" : "2017-11-13T14:51:54.009-0600"
}
},
{
"event" : "addConfiguration",
"timestamp" : "2017-11-13T15:21:32.932-0600",
"value" : {
"name" : "FTBFContext_v18",
"assigned" : "2017-11-13T15:21:32.932-0600"
}
},
{
"event" : "addConfiguration",
"timestamp" : "2017-11-14T11:21:18.219-0600",
"value" : {
"name" : "FTBFContext_v19",
"assigned" : "2017-11-14T11:21:18.219-0600"
}
},
{
"event" : "addConfiguration",
"timestamp" : "2017-11-14T16:15:29.160-0600",
"value" : {
"name" : "FTBFContext_v20",
"assigned" : "2017-11-14T16:15:29.160-0600"
}
},
{
"event" : "addConfiguration",
"timestamp" : "2017-11-15T12:29:36.716-0600",
"value" : {
"name" : "FTBFContext_v21",
"assigned" : "2017-11-15T12:29:36.716-0600"
}
},
{
"event" : "addConfiguration",
"timestamp" : "2017-11-15T12:31:22.617-0600",
"value" : {
"name" : "FTBFContext_v22",
"assigned" : "2017-11-15T12:31:22.617-0600"
}
},
{
"event" : "addConfiguration",
"timestamp" : "2017-11-15T12:39:05.960-0600",
"value" : {
"name" : "FTBFContext_v23",
"assigned" : "2017-11-15T12:39:05.960-0600"
}
},
{
"event" : "addConfiguration",
"timestamp" : "2017-11-15T12:55:32.817-0600",
"value" : {
"name" : "FTBFContext_v24",
"assigned" : "2017-11-15T12:55:32.817-0600"
}
},
{
"event" : "addConfiguration",
"timestamp" : "2017-11-15T12:57:46.618-0600",
"value" : {
"name" : "FTBFContext_v25",
"assigned" : "2017-11-15T12:57:46.618-0600"
}
},
{
"event" : "addConfiguration",
"timestamp" : "2017-11-15T12:59:19.670-0600",
"value" : {
"name" : "FTBFContext_v26",
"assigned" : "2017-11-15T12:59:19.670-0600"
}
},
{
"event" : "addConfiguration",
"timestamp" : "2017-11-15T16:19:29.945-0600",
"value" : {
"name" : "FTBFContext_v27",
"assigned" : "2017-11-15T16:19:29.945-0600"
}
},
{
"event" : "addConfiguration",
"timestamp" : "2017-11-16T09:27:10.747-0600",
"value" : {
"name" : "FTBFContext_v28",
"assigned" : "2017-11-16T09:27:10.747-0600"
}
},
{
"event" : "addConfiguration",
"timestamp" : "2017-11-17T17:24:36.135-0600",
"value" : {
"name" : "FTBFContext_v29",
"assigned" : "2017-11-17T17:24:36.135-0600"
}
},
{
"event" : "addConfiguration",
"timestamp" : "2017-11-20T14:44:40.827-0600",
"value" : {
"name" : "FTBFContext_v30",
"assigned" : "2017-11-20T14:44:40.827-0600"
}
},
{
"event" : "addConfiguration",
"timestamp" : "2017-11-28T10:58:43.466-0600",
"value" : {
"name" : "FTBFContext_v31",
"assigned" : "2017-11-28T10:58:43.466-0600"
}
},
{
"event" : "addConfiguration",
"timestamp" : "2017-11-28T11:47:17.648-0600",
"value" : {
"name" : "FTBFContext_v32",
"assigned" : "2017-11-28T11:47:17.648-0600"
}
},
{
"event" : "addConfiguration",
"timestamp" : "2017-11-28T12:09:40.454-0600",
"value" : {
"name" : "FTBFContext_v33",
"assigned" : "2017-11-28T12:09:40.454-0600"
}
},
{
"event" : "addConfiguration",
"timestamp" : "2017-11-28T12:18:07.947-0600",
"value" : {
"name" : "FTBFContext_v34",
"assigned" : "2017-11-28T12:18:07.947-0600"
}
},
{
"event" : "addConfiguration",
"timestamp" : "2017-11-28T16:52:28.232-0600",
"value" : {
"name" : "FTBFContext_v35",
"assigned" : "2017-11-28T16:52:28.232-0600"
}
},
{
"event" : "addConfiguration",
"timestamp" : "2017-11-28T17:27:49.755-0600",
"value" : {
"name" : "FTBFContext_v36",
"assigned" : "2017-11-28T17:27:49.755-0600"
}
},
{
"event" : "addConfiguration",
"timestamp" : "2017-11-29T11:25:53.386-0600",
"value" : {
"name" : "FTBFContext_v37",
"assigned" : "2017-11-29T11:25:53.386-0600"
}
},
{
"event" : "addConfiguration",
"timestamp" : "2017-11-29T16:45:18.538-0600",
"value" : {
"name" : "FTBFContext_v38",
"assigned" : "2017-11-29T16:45:18.538-0600"
}
},
{
"event" : "addConfiguration",
"timestamp" : "2017-11-30T09:28:22.831-0600",
"value" : {
"name" : "FTBFContext_v39",
"assigned" : "2017-11-30T09:28:22.830-0600"
}
},
{
"event" : "addConfiguration",
"timestamp" : "2017-11-30T10:12:19.548-0600",
"value" : {
"name" : "FTBFContext_v40",
"assigned" : "2017-11-30T10:12:19.548-0600"
}
},
{
"event" : "addConfiguration",
"timestamp" : "2017-12-01T15:35:09.611-0600",
"value" : {
"name" : "FTBFContext_v41",
"assigned" : "2017-12-01T15:35:09.610-0600"
}
},
{
"event" : "addConfiguration",
"timestamp" : "2017-12-01T15:41:38.102-0600",
"value" : {
"name" : "FTBFContext_v42",
"assigned" : "2017-12-01T15:41:38.102-0600"
}
},
{
"event" : "addConfiguration",
"timestamp" : "2017-12-01T15:49:46.922-0600",
"value" : {
"name" : "FTBFContext_v43",
"assigned" : "2017-12-01T15:49:46.922-0600"
}
},
{
"event" : "addConfiguration",
"timestamp" : "2017-12-01T17:07:56.672-0600",
"value" : {
"name" : "FTBFContext_v44",
"assigned" : "2017-12-01T17:07:56.672-0600"
}
},
{
"event" : "addConfiguration",
"timestamp" : "2017-12-01T17:10:14.050-0600",
"value" : {
"name" : "FTBFContext_v45",
"assigned" : "2017-12-01T17:10:14.050-0600"
}
},
{
"event" : "addConfiguration",
"timestamp" : "2017-12-01T18:00:43.671-0600",
"value" : {
"name" : "FTBFContext_v46",
"assigned" : "2017-12-01T18:00:43.671-0600"
}
},
{
"event" : "addConfiguration",
"timestamp" : "2017-12-01T19:52:09.291-0600",
"value" : {
"name" : "FTBFContext_v47",
"assigned" : "2017-12-01T19:52:09.291-0600"
}
},
{
"event" : "addConfiguration",
"timestamp" : "2017-12-02T14:47:39.831-0600",
"value" : {
"name" : "FTBFContext_v48",
"assigned" : "2017-12-02T14:47:39.831-0600"
}
},
{
"event" : "addConfiguration",
"timestamp" : "2017-12-02T14:48:22.984-0600",
"value" : {
"name" : "FTBFContext_v49",
"assigned" : "2017-12-02T14:48:22.984-0600"
}
},
{
"event" : "addConfiguration",
"timestamp" : "2017-12-02T18:54:54.689-0600",
"value" : {
"name" : "FTBFContext_v50",
"assigned" : "2017-12-02T18:54:54.689-0600"
}
},
{
"event" : "addConfiguration",
"timestamp" : "2017-12-02T19:09:30.039-0600",
"value" : {
"name" : "FTBFContext_v51",
"assigned" : "2017-12-02T19:09:30.038-0600"
}
},
{
"event" : "addConfiguration",
"timestamp" : "2017-12-03T12:01:07.691-0600",
"value" : {
"name" : "FTBFContext_v52",
"assigned" : "2017-12-03T12:01:07.691-0600"
}
},
{
"event" : "addConfiguration",
"timestamp" : "2017-12-04T16:40:50.562-0600",
"value" : {
"name" : "FTBFContext_v53",
"assigned" : "2017-12-04T16:40:50.562-0600"
}
},
{
"event" : "addConfiguration",
"timestamp" : "2018-02-03T03:00:36.495-0600",
"value" : {
"name" : "FTBFContext_v54",
"assigned" : "2018-02-03T03:00:36.495-0600"
}
}
],
"created" : "2017-11-08T15:56:08.040-0600"
},
"_id" : {
"$oid" : "14fdb9bdb5fb464ebeb734f6"
},
"collection" : "TheSupervisorConfiguration",
"aliases" : {
"active" : [

],
"history" : [

]
},
"runs" : [

],
"attachments" : [

],
"configtype" : "notprovided"
}