{
"ouid" : [
"1d8e0e498b364ca0a031b92c",
"a55fc28d82a14e0db5255e7d"
],
"version" : {
"0" : [
"1d8e0e498b364ca0a031b92c"
],
"1" : [
"a55fc28d82a14e0db5255e7d"
]
},
"configurations.name" : {
"notprovided" : [
"1d8e0e498b364ca0a031b92c",
"a55fc28d82a14e0db5255e7d"
],
"iterateDefaultGroup_v0" : [
"1d8e0e498b364ca0a031b92c"
],
"iterateDefaultGroup_v1" : [
"a55fc28d82a14e0db5255e7d"
],
"iterateDefaultGroup_v2" : [
"a55fc28d82a14e0db5255e7d"
],
"iterateDefaultGroup_v3" : [
"a55fc28d82a14e0db5255e7d"
],
"iterateDefaultGroup_v4" : [
"a55fc28d82a14e0db5255e7d"
],
"iterateDefaultGroup_v5" : [
"a55fc28d82a14e0db5255e7d"
],
"iterateDefaultGroup_v6" : [
"a55fc28d82a14e0db5255e7d"
],
"iterateDefaultGroup_v7" : [
"a55fc28d82a14e0db5255e7d"
],
"iterateDefaultGroup_v8" : [
"a55fc28d82a14e0db5255e7d"
],
"iterateDefaultGroup_v9" : [
"a55fc28d82a14e0db5255e7d"
],
"iterateDefaultGroup_v10" : [
"a55fc28d82a14e0db5255e7d"
],
"iterateDefaultGroup_v11" : [
"a55fc28d82a14e0db5255e7d"
],
"iterateDefaultGroup_v12" : [
"a55fc28d82a14e0db5255e7d"
]
},
"entities.name" : {
"OTSROOT" : [
"1d8e0e498b364ca0a031b92c",
"a55fc28d82a14e0db5255e7d"
]
},
"aliases.active.name" : {

},
"runs.name" : {

},
"configurations.assigned" : {
"notprovided" : [
"2020-07-21T14:47:39.114-0500",
"2020-07-21T15:25:07.263-0500"
],
"iterateDefaultGroup_v0" : [
"2020-07-21T14:47:39.609-0500"
],
"iterateDefaultGroup_v1" : [
"2020-07-21T15:25:07.996-0500"
],
"iterateDefaultGroup_v2" : [
"2020-07-21T15:28:04.368-0500"
],
"iterateDefaultGroup_v3" : [
"2020-07-21T15:42:20.680-0500"
],
"iterateDefaultGroup_v4" : [
"2020-07-21T15:45:03.720-0500"
],
"iterateDefaultGroup_v5" : [
"2020-07-21T15:57:33.707-0500"
],
"iterateDefaultGroup_v6" : [
"2020-07-28T10:52:35.191-0500"
],
"iterateDefaultGroup_v7" : [
"2020-07-28T13:01:36.876-0500"
],
"iterateDefaultGroup_v8" : [
"2020-07-28T13:03:27.089-0500"
],
"iterateDefaultGroup_v9" : [
"2020-07-28T13:12:58.075-0500"
],
"iterateDefaultGroup_v10" : [
"2020-07-28T13:15:25.300-0500"
],
"iterateDefaultGroup_v11" : [
"2020-07-28T13:20:57.225-0500"
],
"iterateDefaultGroup_v12" : [
"2020-07-28T13:27:37.817-0500"
]
}
}