{
"document" : {
"data" : {
"NAME" : "UDP_DATA_STREAMER_CONSUMER_CONFIGURATION",
"COMMENT" : "No comment.",
"AUTHOR" : "uplegger",
"CREATION_TIME" : 1510768494,
"COL_TYPES" : {
"PROCESSOR_UID" : "VARCHAR2",
"HOST_IP_ADDRESS" : "VARCHAR2",
"HOST_PORT" : "NUMBER",
"STREAM_TO_IP_ADDRESS" : "VARCHAR2",
"STREAM_TO_PORT" : "NUMBER",
"COMMENT_DESCRIPTION" : "VARCHAR2",
"AUTHOR" : "VARCHAR2",
"RECORD_INSERTION_TIME" : "TIMESTAMP WITH TIMEZONE"
},
"DATA_SET" : [
{
"PROCESSOR_UID" : "UDPStreamer0",
"HOST_IP_ADDRESS" : "127.0.0.1",
"HOST_PORT" : "4100",
"STREAM_TO_IP_ADDRESS" : "127.0.0.1",
"STREAM_TO_PORT" : "4101",
"COMMENT_DESCRIPTION" : "No Comment",
"AUTHOR" : "uplegger",
"RECORD_INSERTION_TIME" : "1510768494"
},
{
"PROCESSOR_UID" : "UDPStreamer1",
"HOST_IP_ADDRESS" : "127.0.0.1",
"HOST_PORT" : "3000",
"STREAM_TO_IP_ADDRESS" : "127.0.0.1",
"STREAM_TO_PORT" : "3001",
"COMMENT_DESCRIPTION" : "No Comment",
"AUTHOR" : "DEFAULT",
"RECORD_INSERTION_TIME" : "0"
},
{
"PROCESSOR_UID" : "FSSR0_DB0_DataStreamer0",
"HOST_IP_ADDRESS" : "192.168.133.1",
"HOST_PORT" : "48000",
"STREAM_TO_IP_ADDRESS" : "192.168.133.1",
"STREAM_TO_PORT" : "50000",
"COMMENT_DESCRIPTION" : "Streaming to Visualizer",
"AUTHOR" : "admin",
"RECORD_INSERTION_TIME" : "1509723650"
},
{
"PROCESSOR_UID" : "FSSR1_DB0_DataStreamer0",
"HOST_IP_ADDRESS" : "192.168.133.1",
"HOST_PORT" : "48001",
"STREAM_TO_IP_ADDRESS" : "192.168.133.1",
"STREAM_TO_PORT" : "50000",
"COMMENT_DESCRIPTION" : "Streaming to Visualizer",
"AUTHOR" : "admin",
"RECORD_INSERTION_TIME" : "1509723650"
},
{
"PROCESSOR_UID" : "FSSR2_DB0_DataStreamer0",
"HOST_IP_ADDRESS" : "192.168.133.1",
"HOST_PORT" : "48002",
"STREAM_TO_IP_ADDRESS" : "192.168.133.1",
"STREAM_TO_PORT" : "50000",
"COMMENT_DESCRIPTION" : "Streaming to Visualizer",
"AUTHOR" : "admin",
"RECORD_INSERTION_TIME" : "1509723650"
},
{
"PROCESSOR_UID" : "FSSR3_DB0_DataStreamer0",
"HOST_IP_ADDRESS" : "192.168.133.1",
"HOST_PORT" : "48003",
"STREAM_TO_IP_ADDRESS" : "192.168.133.1",
"STREAM_TO_PORT" : "50000",
"COMMENT_DESCRIPTION" : "Streaming to Visualizer",
"AUTHOR" : "admin",
"RECORD_INSERTION_TIME" : "1509723650"
},
{
"PROCESSOR_UID" : "FSSR2_DB0_DataStreamer1",
"HOST_IP_ADDRESS" : "192.168.133.1",
"HOST_PORT" : "48012",
"STREAM_TO_IP_ADDRESS" : "192.168.133.1",
"STREAM_TO_PORT" : "49002",
"COMMENT_DESCRIPTION" : "Streaming to Artdaq",
"AUTHOR" : "uplegger",
"RECORD_INSERTION_TIME" : "1510768416"
}
]
},
"metadata" : {

},
"search" : [

]
},
"comments" : [

],
"origin" : {
"source" : "template",
"name" : "notprovided",
"format" : "json",
"created" : "2017-11-15T11:54:54.161-0600",
"rawdata" : [

]
},
"version" : "1",
"entities" : [
{
"name" : "OTSROOT",
"assigned" : "2017-11-15T11:54:54.164-0600"
}
],
"configurations" : [
{
"name" : "notprovided",
"assigned" : "2017-11-15T11:54:54.162-0600"
},
{
"name" : "FTBFConfig_v5",
"assigned" : "2017-11-15T11:54:58.940-0600"
},
{
"name" : "FTBFConfig_v6",
"assigned" : "2017-11-15T11:57:51.549-0600"
},
{
"name" : "FTBFConfig_v7",
"assigned" : "2017-11-15T12:42:34.009-0600"
},
{
"name" : "FTBFConfig_v8",
"assigned" : "2017-11-15T13:01:05.074-0600"
},
{
"name" : "FTBFConfig_v9",
"assigned" : "2017-11-15T13:02:58.480-0600"
},
{
"name" : "FTBFConfig_v10",
"assigned" : "2017-11-15T13:04:26.032-0600"
},
{
"name" : "FTBFConfig_v11",
"assigned" : "2017-11-15T13:07:53.587-0600"
},
{
"name" : "FTBFConfig_v12",
"assigned" : "2017-11-15T13:12:01.046-0600"
},
{
"name" : "FTBFConfig_v13",
"assigned" : "2017-11-15T13:13:55.048-0600"
},
{
"name" : "FTBFConfig_v14",
"assigned" : "2017-11-15T13:27:37.078-0600"
},
{
"name" : "FTBFConfig_v15",
"assigned" : "2017-11-15T13:35:49.059-0600"
},
{
"name" : "FTBFConfig_v16",
"assigned" : "2017-11-15T13:36:53.644-0600"
},
{
"name" : "FTBFConfig_v17",
"assigned" : "2017-11-15T15:33:32.229-0600"
},
{
"name" : "FTBFConfig_v18",
"assigned" : "2017-11-15T15:35:35.873-0600"
},
{
"name" : "FTBFConfig_v19",
"assigned" : "2017-11-15T15:38:04.724-0600"
},
{
"name" : "FTBFConfig_v20",
"assigned" : "2017-11-15T16:26:32.794-0600"
}
],
"changelog" : "notprovided",
"bookkeeping" : {
"isdeleted" : false,
"isreadonly" : false,
"updates" : [
{
"event" : "addConfiguration",
"timestamp" : "2017-11-15T11:54:54.162-0600",
"value" : {
"name" : "notprovided",
"assigned" : "2017-11-15T11:54:54.162-0600"
}
},
{
"event" : "setVersion",
"timestamp" : "2017-11-15T11:54:54.163-0600",
"value" : {
"name" : "1",
"assigned" : "2017-11-15T11:54:54.163-0600"
}
},
{
"event" : "setCollection",
"timestamp" : "2017-11-15T11:54:54.163-0600",
"value" : {
"name" : "UDPDataStreamerConsumerConfiguration",
"assigned" : "2017-11-15T11:54:54.163-0600"
}
},
{
"event" : "addEntity",
"timestamp" : "2017-11-15T11:54:54.164-0600",
"value" : {
"name" : "OTSROOT",
"assigned" : "2017-11-15T11:54:54.164-0600"
}
},
{
"event" : "addConfiguration",
"timestamp" : "2017-11-15T11:54:58.940-0600",
"value" : {
"name" : "FTBFConfig_v5",
"assigned" : "2017-11-15T11:54:58.940-0600"
}
},
{
"event" : "addConfiguration",
"timestamp" : "2017-11-15T11:57:51.549-0600",
"value" : {
"name" : "FTBFConfig_v6",
"assigned" : "2017-11-15T11:57:51.549-0600"
}
},
{
"event" : "addConfiguration",
"timestamp" : "2017-11-15T12:42:34.009-0600",
"value" : {
"name" : "FTBFConfig_v7",
"assigned" : "2017-11-15T12:42:34.009-0600"
}
},
{
"event" : "addConfiguration",
"timestamp" : "2017-11-15T13:01:05.074-0600",
"value" : {
"name" : "FTBFConfig_v8",
"assigned" : "2017-11-15T13:01:05.074-0600"
}
},
{
"event" : "addConfiguration",
"timestamp" : "2017-11-15T13:02:58.480-0600",
"value" : {
"name" : "FTBFConfig_v9",
"assigned" : "2017-11-15T13:02:58.480-0600"
}
},
{
"event" : "addConfiguration",
"timestamp" : "2017-11-15T13:04:26.032-0600",
"value" : {
"name" : "FTBFConfig_v10",
"assigned" : "2017-11-15T13:04:26.032-0600"
}
},
{
"event" : "addConfiguration",
"timestamp" : "2017-11-15T13:07:53.587-0600",
"value" : {
"name" : "FTBFConfig_v11",
"assigned" : "2017-11-15T13:07:53.587-0600"
}
},
{
"event" : "addConfiguration",
"timestamp" : "2017-11-15T13:12:01.046-0600",
"value" : {
"name" : "FTBFConfig_v12",
"assigned" : "2017-11-15T13:12:01.046-0600"
}
},
{
"event" : "addConfiguration",
"timestamp" : "2017-11-15T13:13:55.048-0600",
"value" : {
"name" : "FTBFConfig_v13",
"assigned" : "2017-11-15T13:13:55.048-0600"
}
},
{
"event" : "addConfiguration",
"timestamp" : "2017-11-15T13:27:37.078-0600",
"value" : {
"name" : "FTBFConfig_v14",
"assigned" : "2017-11-15T13:27:37.078-0600"
}
},
{
"event" : "addConfiguration",
"timestamp" : "2017-11-15T13:35:49.059-0600",
"value" : {
"name" : "FTBFConfig_v15",
"assigned" : "2017-11-15T13:35:49.059-0600"
}
},
{
"event" : "addConfiguration",
"timestamp" : "2017-11-15T13:36:53.644-0600",
"value" : {
"name" : "FTBFConfig_v16",
"assigned" : "2017-11-15T13:36:53.644-0600"
}
},
{
"event" : "addConfiguration",
"timestamp" : "2017-11-15T15:33:32.230-0600",
"value" : {
"name" : "FTBFConfig_v17",
"assigned" : "2017-11-15T15:33:32.229-0600"
}
},
{
"event" : "addConfiguration",
"timestamp" : "2017-11-15T15:35:35.873-0600",
"value" : {
"name" : "FTBFConfig_v18",
"assigned" : "2017-11-15T15:35:35.873-0600"
}
},
{
"event" : "addConfiguration",
"timestamp" : "2017-11-15T15:38:04.724-0600",
"value" : {
"name" : "FTBFConfig_v19",
"assigned" : "2017-11-15T15:38:04.724-0600"
}
},
{
"event" : "addConfiguration",
"timestamp" : "2017-11-15T16:26:32.794-0600",
"value" : {
"name" : "FTBFConfig_v20",
"assigned" : "2017-11-15T16:26:32.794-0600"
}
}
],
"created" : "2017-11-15T11:54:54.161-0600"
},
"_id" : {
"$oid" : "4de04c2ffa254f8991896e02"
},
"collection" : "UDPDataStreamerConsumerConfiguration",
"aliases" : {
"active" : [

],
"history" : [

]
},
"runs" : [

],
"attachments" : [

],
"configtype" : "notprovided"
}