{
"document" : {
"data" : {
"NAME" : "TABLE_GROUP_METADATA",
"COMMENT" : "",
"AUTHOR" : "",
"CREATION_TIME" : 1550763300,
"COL_TYPES" : {
"UNUSED_UID" : "NUMBER",
"GROUP_ALIASES" : "STRING",
"COMMENT_DESCRIPTION" : "STRING",
"AUTHOR" : "STRING",
"GROUP_CREATION_TIME" : "TIMESTAMP WITH TIMEZONE"
},
"DATA_SET" : [
{
"UNUSED_UID" : "0",
"GROUP_ALIASES" : "",
"COMMENT_DESCRIPTION" : "",
"AUTHOR" : "admin",
"GROUP_CREATION_TIME" : "1602013542"
}
]
},
"metadata" : {

},
"search" : [

]
},
"comments" : [

],
"origin" : {
"source" : "template",
"name" : "notprovided",
"format" : "json",
"created" : "2020-10-06T14:45:42.951-0500",
"rawdata" : [

]
},
"version" : "92",
"entities" : [
{
"name" : "OTSROOT",
"assigned" : "2020-10-06T14:45:42.952-0500"
}
],
"configurations" : [
{
"name" : "notprovided",
"assigned" : "2020-10-06T14:45:42.952-0500"
},
{
"name" : "TableEditWizBackbone_v29",
"assigned" : "2020-10-06T14:45:43.022-0500"
}
],
"changelog" : "notprovided",
"bookkeeping" : {
"isdeleted" : false,
"isreadonly" : false,
"updates" : [
{
"event" : "addConfiguration",
"timestamp" : "2020-10-06T14:45:42.952-0500",
"value" : {
"name" : "notprovided",
"assigned" : "2020-10-06T14:45:42.952-0500"
}
},
{
"event" : "setVersion",
"timestamp" : "2020-10-06T14:45:42.952-0500",
"value" : {
"name" : "92",
"assigned" : "2020-10-06T14:45:42.952-0500"
}
},
{
"event" : "setCollection",
"timestamp" : "2020-10-06T14:45:42.952-0500",
"value" : {
"name" : "TableGroupMetadata",
"assigned" : "2020-10-06T14:45:42.952-0500"
}
},
{
"event" : "addEntity",
"timestamp" : "2020-10-06T14:45:42.952-0500",
"value" : {
"name" : "OTSROOT",
"assigned" : "2020-10-06T14:45:42.952-0500"
}
},
{
"event" : "addConfiguration",
"timestamp" : "2020-10-06T14:45:43.022-0500",
"value" : {
"name" : "TableEditWizBackbone_v29",
"assigned" : "2020-10-06T14:45:43.022-0500"
}
}
],
"created" : "2020-10-06T14:45:42.951-0500"
},
"_id" : {
"$oid" : "46b232b465f240cd8bb93fe8"
},
"collection" : "TableGroupMetadata",
"aliases" : {
"active" : [

],
"history" : [

]
},
"runs" : [

],
"attachments" : [

],
"configtype" : "notprovided"
}