{
"ouid" : [
"006b5c0dcc6c4ef981eb0d36",
"01213ea8bb7e44708a14976b",
"04ccc19ebf9f44a1af18dc9c",
"04d866a0c50b4ae8ab935add",
"04fd5234f47d4635818319cc",
"07c6b25bb1c74e1eb5534fe0",
"09ffc0780e904e9685a83bc0",
"0ac59b2bed0e4422b04bc7cb",
"0b833048076443018457ba52",
"0c29a923c9f445999d966dfb",
"0e87a6801e5f425f944b986e",
"102efa4faf834ac9975a5b72",
"107ea6c431444c5399a9282b",
"137e98d1413248a195e38adb",
"13b6f68c09134ece9381d1db",
"13bf46f256fa4da285909b80",
"160a204c625a448dabed9c6e",
"18a75fd5bc32499fb817b5c7",
"1c42486bf1ab40f486388095",
"1d55ce52d1234e39b5c16dca",
"200daa83558542e19a6f458e",
"2072b4995d3d4c2a9117ec02",
"235f2ea4d73a406693f89a61",
"25ea71133c1146fe8635bea1",
"2892a3bb90cf401a85df8d62",
"295118593e64477a87110ab6",
"2ba28200357848c3b6f192b3",
"30ffd8fb35d24a2abbda151d",
"3119b79b9d8f4104bac16a00",
"31e8a76801b5434cafea2b6e",
"388b6fb8442a4a538322866e",
"39ca274ed2204dc99439471b",
"39d6cfdcaa194cf19a02c9e9",
"3a071e580d7b4e5ab79502bc",
"3a13ab53b6f04931ba5ea77a",
"3ae1046352f0456b89a4a148",
"3c536ca39ae14648b4587e75",
"4036d0cb5d61437db0a6f69f",
"418ef36760c14e18bd0bbf1d",
"4195482235934e38a0fdc3c9",
"46b232b465f240cd8bb93fe8",
"4730a5d8c4b94661a1a5e3cf",
"47be93e5078b42d7bb610bf1",
"4bc42c0acc604c7a94eedb39",
"4c8bb2c867124bc58b4d0ed3",
"4e0cae9556814f479a432fe8",
"516b0517980343e2a5b30e3b",
"519dc957b2df4ae68dfe8d91",
"53f387afab6747d895e8c93e",
"56a47afe9cbe4519b776c695",
"5813775c155b45d8a8cae59c",
"5afad43f6f114483b703577d",
"603bd9ff5b2541ee8dfad314",
"61f23003b0a14ffd919edb49",
"6beb26d5e4fb406484bffd22",
"6cc112a55c0a4a4a824ee086",
"6d916207156742a5ad1db93f",
"7030f1f9766f49bb89157407",
"71125e31aa9d4ee3921633ee",
"74a69b821a954629b0c270a8",
"76b0b68a18ac4d2b8cb060a3",
"7841ae2fd0504b919436430e",
"7f1c31ccd20c46f9a4b8b826",
"8163227a6d4d479ca8e9dd61",
"82165e37659d4ba5986c60e4",
"8342dd7b709b4f189b5a22f0",
"836148fc8d52476d9128866f",
"83d29007ee6d47c2877f5d06",
"84b9b4b4102f401ebc0ddeb2",
"8ac29648a89a4a4da1e002f9",
"8ef34331746a4697a0c26999",
"90370c5734bd4656948cde75",
"90c34c43fbdb49fe9792bcff",
"93193a456ce746289bacd792",
"93ffaf32364a40b39131c279",
"944603ae9cf54eacb2ab4572",
"955adedf03a54850b139cfb2",
"9882b097964f476c8e9c5317",
"98babd2954954df8b5f367a7",
"99486de2269140e8a3de92cd",
"9ab0935d9ff240f7bfaacef7",
"9d8e9d0f2d4640f8bb01c27a",
"9e943c13f5b443eca87958be",
"9f92f49d06094224bf6e8bf1",
"a5885d27f2cf46ab80cff97a",
"a5de921ab4704125a1fc3e35",
"a706e9f8fea646fd9027c946",
"b16ccfd0a0c14b0a9de534d6",
"b1903a60139e4984969b5875",
"b3a9619c8fde428f97dada84",
"b5c941ffd52849a9b6cb805c",
"b747665f88e74ca9aa253a37",
"b8bf35a4adec4f02aafc8c1f",
"ba6dc1c34c3c4903bd208e18",
"ba74ddb02de24ddc89563cd7",
"bdb911f79e224d0ba68bb468",
"beac21373b9847c5bc752292",
"bee192c6430342ad9d0bc98e",
"bfb9b3c6b6614325b5395933",
"c04fc3f84f8541d9991be40f",
"c1431cc6c960432595299c0b",
"c529523dd75d4413b0906685",
"c644d63d961d4e59a9b8aa3a",
"c66e6698f43f4284b4d3b5b9",
"cb0e1a65509a410286b16674",
"cd7d55f6fc2b4279859b6361",
"ce3179bd79974b80a88191bf",
"ce6e2913116847409c1ae17c",
"d0001a5c10e84bfa8f4cf6ff",
"d24e799a0f3e4ec7aa3c2ff7",
"d35bfc67c1b94454a6a56a4b",
"d4f191b4d9324a8ebdae69b0",
"d557fdb3bb184dd99ea218e8",
"d6151dbf60544550a77185d6",
"d6dfd0d90ca44e2787920e31",
"d82650c9ab5140ee86815160",
"d8acf1e7c3974043b3972ac9",
"dafedf1e9b75451d873183fa",
"dd13620caca5466892ca5bc5",
"df59cad5a6ec4820a522ec1a",
"e00d87f80bd2477dba03fbe2",
"e1decedee37d4b868b5b90a9",
"e22fbfb856be439faf08f9e2",
"e3ede45399f24a0aa759be9f",
"e409d979a645461f8ff9d872",
"e48f898085af4125bf39ca09",
"e6b7e46ed6c34b6e8f7f6da5",
"e8d444398b454e6bab1fab0f",
"ed62c9f9dd99456c8b0957b0",
"efaf74cff63543539683d7f4",
"f19a77d1b1c84897b7710068",
"f216800d9a614bb5931ca13e",
"f26a13c32f824272b2f6fa57",
"f6e6e96eb13f4b9c879c2173",
"f7119058541c49389980249f",
"f953a8d05cfe42ffa9848e46",
"fccee8a9ef29400785e9a5ee",
"fcf17fc18f914797bff43b62",
"fd084412b3ef47a5a102ea81",
"ffd134111b8d4fd4870736ad"
],
"version" : {
"0" : [
"4bc42c0acc604c7a94eedb39"
],
"1" : [
"30ffd8fb35d24a2abbda151d"
],
"2" : [
"e1decedee37d4b868b5b90a9"
],
"3" : [
"25ea71133c1146fe8635bea1"
],
"4" : [
"39ca274ed2204dc99439471b"
],
"5" : [
"cd7d55f6fc2b4279859b6361"
],
"6" : [
"c1431cc6c960432595299c0b"
],
"7" : [
"006b5c0dcc6c4ef981eb0d36"
],
"8" : [
"c644d63d961d4e59a9b8aa3a"
],
"9" : [
"90370c5734bd4656948cde75"
],
"10" : [
"efaf74cff63543539683d7f4"
],
"11" : [
"93ffaf32364a40b39131c279"
],
"12" : [
"31e8a76801b5434cafea2b6e"
],
"13" : [
"fd084412b3ef47a5a102ea81"
],
"14" : [
"a5de921ab4704125a1fc3e35"
],
"15" : [
"9e943c13f5b443eca87958be"
],
"16" : [
"418ef36760c14e18bd0bbf1d"
],
"17" : [
"c04fc3f84f8541d9991be40f"
],
"18" : [
"f19a77d1b1c84897b7710068"
],
"19" : [
"bdb911f79e224d0ba68bb468"
],
"20" : [
"13b6f68c09134ece9381d1db"
],
"21" : [
"603bd9ff5b2541ee8dfad314"
],
"22" : [
"1c42486bf1ab40f486388095"
],
"23" : [
"e3ede45399f24a0aa759be9f"
],
"24" : [
"d82650c9ab5140ee86815160"
],
"25" : [
"61f23003b0a14ffd919edb49"
],
"26" : [
"d6151dbf60544550a77185d6"
],
"27" : [
"beac21373b9847c5bc752292"
],
"28" : [
"6beb26d5e4fb406484bffd22"
],
"29" : [
"f7119058541c49389980249f"
],
"30" : [
"4730a5d8c4b94661a1a5e3cf"
],
"31" : [
"9d8e9d0f2d4640f8bb01c27a"
],
"32" : [
"2ba28200357848c3b6f192b3"
],
"33" : [
"04ccc19ebf9f44a1af18dc9c"
],
"34" : [
"516b0517980343e2a5b30e3b"
],
"35" : [
"b16ccfd0a0c14b0a9de534d6"
],
"36" : [
"f6e6e96eb13f4b9c879c2173"
],
"37" : [
"102efa4faf834ac9975a5b72"
],
"38" : [
"09ffc0780e904e9685a83bc0"
],
"39" : [
"836148fc8d52476d9128866f"
],
"40" : [
"01213ea8bb7e44708a14976b"
],
"41" : [
"944603ae9cf54eacb2ab4572"
],
"42" : [
"1d55ce52d1234e39b5c16dca"
],
"43" : [
"f216800d9a614bb5931ca13e"
],
"44" : [
"04d866a0c50b4ae8ab935add"
],
"45" : [
"295118593e64477a87110ab6"
],
"46" : [
"e8d444398b454e6bab1fab0f"
],
"47" : [
"ce3179bd79974b80a88191bf"
],
"48" : [
"4195482235934e38a0fdc3c9"
],
"49" : [
"c66e6698f43f4284b4d3b5b9"
],
"50" : [
"3119b79b9d8f4104bac16a00"
],
"51" : [
"dafedf1e9b75451d873183fa"
],
"52" : [
"b3a9619c8fde428f97dada84"
],
"53" : [
"388b6fb8442a4a538322866e"
],
"54" : [
"b747665f88e74ca9aa253a37"
],
"55" : [
"3a071e580d7b4e5ab79502bc"
],
"56" : [
"ba6dc1c34c3c4903bd208e18"
],
"57" : [
"235f2ea4d73a406693f89a61"
],
"58" : [
"e48f898085af4125bf39ca09"
],
"59" : [
"13bf46f256fa4da285909b80"
],
"60" : [
"d8acf1e7c3974043b3972ac9"
],
"61" : [
"e6b7e46ed6c34b6e8f7f6da5"
],
"62" : [
"3ae1046352f0456b89a4a148"
],
"63" : [
"8ac29648a89a4a4da1e002f9"
],
"64" : [
"ce6e2913116847409c1ae17c"
],
"65" : [
"99486de2269140e8a3de92cd"
],
"66" : [
"dd13620caca5466892ca5bc5"
],
"67" : [
"b1903a60139e4984969b5875"
],
"68" : [
"e409d979a645461f8ff9d872"
],
"69" : [
"0b833048076443018457ba52"
],
"70" : [
"ed62c9f9dd99456c8b0957b0"
],
"71" : [
"3a13ab53b6f04931ba5ea77a"
],
"72" : [
"8163227a6d4d479ca8e9dd61"
],
"73" : [
"98babd2954954df8b5f367a7"
],
"74" : [
"6d916207156742a5ad1db93f"
],
"75" : [
"4e0cae9556814f479a432fe8"
],
"76" : [
"cb0e1a65509a410286b16674"
],
"77" : [
"9f92f49d06094224bf6e8bf1"
],
"78" : [
"9ab0935d9ff240f7bfaacef7"
],
"79" : [
"6cc112a55c0a4a4a824ee086"
],
"80" : [
"39d6cfdcaa194cf19a02c9e9"
],
"81" : [
"3c536ca39ae14648b4587e75"
],
"82" : [
"5813775c155b45d8a8cae59c"
],
"83" : [
"955adedf03a54850b139cfb2"
],
"84" : [
"bee192c6430342ad9d0bc98e"
],
"85" : [
"4c8bb2c867124bc58b4d0ed3"
],
"86" : [
"0ac59b2bed0e4422b04bc7cb"
],
"87" : [
"53f387afab6747d895e8c93e"
],
"88" : [
"93193a456ce746289bacd792"
],
"89" : [
"ba74ddb02de24ddc89563cd7"
],
"90" : [
"160a204c625a448dabed9c6e"
],
"91" : [
"04fd5234f47d4635818319cc"
],
"92" : [
"46b232b465f240cd8bb93fe8"
],
"93" : [
"d24e799a0f3e4ec7aa3c2ff7"
],
"94" : [
"d0001a5c10e84bfa8f4cf6ff"
],
"95" : [
"e00d87f80bd2477dba03fbe2"
],
"96" : [
"0c29a923c9f445999d966dfb"
],
"97" : [
"8ef34331746a4697a0c26999"
],
"98" : [
"4036d0cb5d61437db0a6f69f"
],
"99" : [
"5afad43f6f114483b703577d"
],
"100" : [
"8342dd7b709b4f189b5a22f0"
],
"101" : [
"07c6b25bb1c74e1eb5534fe0"
],
"102" : [
"107ea6c431444c5399a9282b"
],
"103" : [
"f26a13c32f824272b2f6fa57"
],
"104" : [
"b5c941ffd52849a9b6cb805c"
],
"105" : [
"200daa83558542e19a6f458e"
],
"106" : [
"0e87a6801e5f425f944b986e"
],
"107" : [
"c529523dd75d4413b0906685"
],
"108" : [
"a706e9f8fea646fd9027c946"
],
"109" : [
"fcf17fc18f914797bff43b62"
],
"110" : [
"2072b4995d3d4c2a9117ec02"
],
"111" : [
"71125e31aa9d4ee3921633ee"
],
"112" : [
"90c34c43fbdb49fe9792bcff"
],
"113" : [
"7030f1f9766f49bb89157407"
],
"114" : [
"2892a3bb90cf401a85df8d62"
],
"115" : [
"56a47afe9cbe4519b776c695"
],
"116" : [
"b8bf35a4adec4f02aafc8c1f"
],
"117" : [
"df59cad5a6ec4820a522ec1a"
],
"118" : [
"9882b097964f476c8e9c5317"
],
"119" : [
"d35bfc67c1b94454a6a56a4b"
],
"120" : [
"7841ae2fd0504b919436430e"
],
"121" : [
"7f1c31ccd20c46f9a4b8b826"
],
"122" : [
"d4f191b4d9324a8ebdae69b0"
],
"123" : [
"84b9b4b4102f401ebc0ddeb2"
],
"124" : [
"f953a8d05cfe42ffa9848e46"
],
"125" : [
"bfb9b3c6b6614325b5395933"
],
"126" : [
"82165e37659d4ba5986c60e4"
],
"127" : [
"83d29007ee6d47c2877f5d06"
],
"128" : [
"74a69b821a954629b0c270a8"
],
"129" : [
"d6dfd0d90ca44e2787920e31"
],
"130" : [
"ffd134111b8d4fd4870736ad"
],
"131" : [
"a5885d27f2cf46ab80cff97a"
],
"132" : [
"47be93e5078b42d7bb610bf1"
],
"133" : [
"137e98d1413248a195e38adb"
],
"134" : [
"519dc957b2df4ae68dfe8d91"
],
"135" : [
"e22fbfb856be439faf08f9e2"
],
"136" : [
"d557fdb3bb184dd99ea218e8"
],
"137" : [
"76b0b68a18ac4d2b8cb060a3"
],
"138" : [
"18a75fd5bc32499fb817b5c7"
],
"139" : [
"fccee8a9ef29400785e9a5ee"
]
},
"configurations.name" : {
"notprovided" : [
"006b5c0dcc6c4ef981eb0d36",
"01213ea8bb7e44708a14976b",
"04ccc19ebf9f44a1af18dc9c",
"04d866a0c50b4ae8ab935add",
"04fd5234f47d4635818319cc",
"07c6b25bb1c74e1eb5534fe0",
"09ffc0780e904e9685a83bc0",
"0ac59b2bed0e4422b04bc7cb",
"0b833048076443018457ba52",
"0c29a923c9f445999d966dfb",
"0e87a6801e5f425f944b986e",
"102efa4faf834ac9975a5b72",
"107ea6c431444c5399a9282b",
"137e98d1413248a195e38adb",
"13b6f68c09134ece9381d1db",
"13bf46f256fa4da285909b80",
"160a204c625a448dabed9c6e",
"18a75fd5bc32499fb817b5c7",
"1c42486bf1ab40f486388095",
"1d55ce52d1234e39b5c16dca",
"200daa83558542e19a6f458e",
"2072b4995d3d4c2a9117ec02",
"235f2ea4d73a406693f89a61",
"25ea71133c1146fe8635bea1",
"2892a3bb90cf401a85df8d62",
"295118593e64477a87110ab6",
"2ba28200357848c3b6f192b3",
"30ffd8fb35d24a2abbda151d",
"3119b79b9d8f4104bac16a00",
"31e8a76801b5434cafea2b6e",
"388b6fb8442a4a538322866e",
"39ca274ed2204dc99439471b",
"39d6cfdcaa194cf19a02c9e9",
"3a071e580d7b4e5ab79502bc",
"3a13ab53b6f04931ba5ea77a",
"3ae1046352f0456b89a4a148",
"3c536ca39ae14648b4587e75",
"4036d0cb5d61437db0a6f69f",
"418ef36760c14e18bd0bbf1d",
"4195482235934e38a0fdc3c9",
"46b232b465f240cd8bb93fe8",
"4730a5d8c4b94661a1a5e3cf",
"47be93e5078b42d7bb610bf1",
"4bc42c0acc604c7a94eedb39",
"4c8bb2c867124bc58b4d0ed3",
"4e0cae9556814f479a432fe8",
"516b0517980343e2a5b30e3b",
"519dc957b2df4ae68dfe8d91",
"53f387afab6747d895e8c93e",
"56a47afe9cbe4519b776c695",
"5813775c155b45d8a8cae59c",
"5afad43f6f114483b703577d",
"603bd9ff5b2541ee8dfad314",
"61f23003b0a14ffd919edb49",
"6beb26d5e4fb406484bffd22",
"6cc112a55c0a4a4a824ee086",
"6d916207156742a5ad1db93f",
"7030f1f9766f49bb89157407",
"71125e31aa9d4ee3921633ee",
"74a69b821a954629b0c270a8",
"76b0b68a18ac4d2b8cb060a3",
"7841ae2fd0504b919436430e",
"7f1c31ccd20c46f9a4b8b826",
"8163227a6d4d479ca8e9dd61",
"82165e37659d4ba5986c60e4",
"8342dd7b709b4f189b5a22f0",
"836148fc8d52476d9128866f",
"83d29007ee6d47c2877f5d06",
"84b9b4b4102f401ebc0ddeb2",
"8ac29648a89a4a4da1e002f9",
"8ef34331746a4697a0c26999",
"90370c5734bd4656948cde75",
"90c34c43fbdb49fe9792bcff",
"93193a456ce746289bacd792",
"93ffaf32364a40b39131c279",
"944603ae9cf54eacb2ab4572",
"955adedf03a54850b139cfb2",
"9882b097964f476c8e9c5317",
"98babd2954954df8b5f367a7",
"99486de2269140e8a3de92cd",
"9ab0935d9ff240f7bfaacef7",
"9d8e9d0f2d4640f8bb01c27a",
"9e943c13f5b443eca87958be",
"9f92f49d06094224bf6e8bf1",
"a5885d27f2cf46ab80cff97a",
"a5de921ab4704125a1fc3e35",
"a706e9f8fea646fd9027c946",
"b16ccfd0a0c14b0a9de534d6",
"b1903a60139e4984969b5875",
"b3a9619c8fde428f97dada84",
"b5c941ffd52849a9b6cb805c",
"b747665f88e74ca9aa253a37",
"b8bf35a4adec4f02aafc8c1f",
"ba6dc1c34c3c4903bd208e18",
"ba74ddb02de24ddc89563cd7",
"bdb911f79e224d0ba68bb468",
"beac21373b9847c5bc752292",
"bee192c6430342ad9d0bc98e",
"bfb9b3c6b6614325b5395933",
"c04fc3f84f8541d9991be40f",
"c1431cc6c960432595299c0b",
"c529523dd75d4413b0906685",
"c644d63d961d4e59a9b8aa3a",
"c66e6698f43f4284b4d3b5b9",
"cb0e1a65509a410286b16674",
"cd7d55f6fc2b4279859b6361",
"ce3179bd79974b80a88191bf",
"ce6e2913116847409c1ae17c",
"d0001a5c10e84bfa8f4cf6ff",
"d24e799a0f3e4ec7aa3c2ff7",
"d35bfc67c1b94454a6a56a4b",
"d4f191b4d9324a8ebdae69b0",
"d557fdb3bb184dd99ea218e8",
"d6151dbf60544550a77185d6",
"d6dfd0d90ca44e2787920e31",
"d82650c9ab5140ee86815160",
"d8acf1e7c3974043b3972ac9",
"dafedf1e9b75451d873183fa",
"dd13620caca5466892ca5bc5",
"df59cad5a6ec4820a522ec1a",
"e00d87f80bd2477dba03fbe2",
"e1decedee37d4b868b5b90a9",
"e22fbfb856be439faf08f9e2",
"e3ede45399f24a0aa759be9f",
"e409d979a645461f8ff9d872",
"e48f898085af4125bf39ca09",
"e6b7e46ed6c34b6e8f7f6da5",
"e8d444398b454e6bab1fab0f",
"ed62c9f9dd99456c8b0957b0",
"efaf74cff63543539683d7f4",
"f19a77d1b1c84897b7710068",
"f216800d9a614bb5931ca13e",
"f26a13c32f824272b2f6fa57",
"f6e6e96eb13f4b9c879c2173",
"f7119058541c49389980249f",
"f953a8d05cfe42ffa9848e46",
"fccee8a9ef29400785e9a5ee",
"fcf17fc18f914797bff43b62",
"fd084412b3ef47a5a102ea81",
"ffd134111b8d4fd4870736ad"
],
"DefaultConfig_v1" : [
"30ffd8fb35d24a2abbda151d"
],
"DefaultContext_v2" : [
"e1decedee37d4b868b5b90a9"
],
"TableEditWizBackbone_v3" : [
"25ea71133c1146fe8635bea1"
],
"DefaultContext_v3" : [
"39ca274ed2204dc99439471b"
],
"GroupAliasTreeEditWizBackbone_v0" : [
"cd7d55f6fc2b4279859b6361"
],
"DefaultConfig_v2" : [
"c1431cc6c960432595299c0b"
],
"GroupAliasTreeEditWizBackbone_v1" : [
"006b5c0dcc6c4ef981eb0d36"
],
"DefaultContext_v4" : [
"c644d63d961d4e59a9b8aa3a"
],
"GroupAliasTreeEditWizBackbone_v2" : [
"90370c5734bd4656948cde75"
],
"iterateDefaultGroup_v0" : [
"efaf74cff63543539683d7f4"
],
"DefaultContext_v5" : [
"93ffaf32364a40b39131c279"
],
"GroupAliasTreeEditWizBackbone_v3" : [
"31e8a76801b5434cafea2b6e"
],
"DefaultContext_v6" : [
"fd084412b3ef47a5a102ea81"
],
"GroupAliasTreeEditWizBackbone_v4" : [
"a5de921ab4704125a1fc3e35"
],
"DefaultContext_v7" : [
"9e943c13f5b443eca87958be"
],
"GroupAliasTreeEditWizBackbone_v5" : [
"418ef36760c14e18bd0bbf1d"
],
"DefaultConfig_v3" : [
"c04fc3f84f8541d9991be40f"
],
"TableEditWizBackbone_v5" : [
"f19a77d1b1c84897b7710068"
],
"iterateDefaultGroup_v1" : [
"bdb911f79e224d0ba68bb468"
],
"iterateDefaultGroup_v2" : [
"13b6f68c09134ece9381d1db"
],
"iterateDefaultGroup_v3" : [
"603bd9ff5b2541ee8dfad314"
],
"iterateDefaultGroup_v4" : [
"1c42486bf1ab40f486388095"
],
"DefaultContext_v8" : [
"e3ede45399f24a0aa759be9f"
],
"GroupAliasTreeEditWizBackbone_v6" : [
"d82650c9ab5140ee86815160"
],
"iterateDefaultGroup_v5" : [
"61f23003b0a14ffd919edb49"
],
"DefaultConfig_v4" : [
"d6151dbf60544550a77185d6"
],
"iterateDefaultGroup_v6" : [
"beac21373b9847c5bc752292"
],
"iterateDefaultGroup_v7" : [
"6beb26d5e4fb406484bffd22"
],
"iterateDefaultGroup_v8" : [
"f7119058541c49389980249f"
],
"iterateDefaultGroup_v9" : [
"4730a5d8c4b94661a1a5e3cf"
],
"iterateDefaultGroup_v10" : [
"9d8e9d0f2d4640f8bb01c27a"
],
"iterateDefaultGroup_v11" : [
"2ba28200357848c3b6f192b3"
],
"iterateDefaultGroup_v12" : [
"04ccc19ebf9f44a1af18dc9c"
],
"DefaultContext_v9" : [
"516b0517980343e2a5b30e3b"
],
"GroupAliasTreeEditWizBackbone_v7" : [
"b16ccfd0a0c14b0a9de534d6"
],
"DefaultContext_v10" : [
"f6e6e96eb13f4b9c879c2173"
],
"GroupAliasTreeEditWizBackbone_v8" : [
"102efa4faf834ac9975a5b72"
],
"DefaultContext_v11" : [
"09ffc0780e904e9685a83bc0"
],
"GroupAliasTreeEditWizBackbone_v9" : [
"836148fc8d52476d9128866f"
],
"DefaultConfig_v5" : [
"01213ea8bb7e44708a14976b"
],
"GroupAliasTreeEditWizBackbone_v10" : [
"944603ae9cf54eacb2ab4572"
],
"DefaultConfig_v6" : [
"1d55ce52d1234e39b5c16dca"
],
"GroupAliasTreeEditWizBackbone_v11" : [
"f216800d9a614bb5931ca13e"
],
"DefaultContext_v12" : [
"04d866a0c50b4ae8ab935add"
],
"TableEditWizBackbone_v6" : [
"295118593e64477a87110ab6"
],
"DefaultConfig_v7" : [
"e8d444398b454e6bab1fab0f"
],
"TableEditWizBackbone_v7" : [
"ce3179bd79974b80a88191bf"
],
"DefaultConfig_v8" : [
"4195482235934e38a0fdc3c9"
],
"TableEditWizBackbone_v8" : [
"c66e6698f43f4284b4d3b5b9"
],
"DefaultContext_v13" : [
"3119b79b9d8f4104bac16a00"
],
"GroupAliasTreeEditWizBackbone_v12" : [
"dafedf1e9b75451d873183fa"
],
"DefaultConfig_v9" : [
"b3a9619c8fde428f97dada84"
],
"TableEditWizBackbone_v9" : [
"388b6fb8442a4a538322866e"
],
"DefaultConfig_v10" : [
"b747665f88e74ca9aa253a37"
],
"TableEditWizBackbone_v10" : [
"3a071e580d7b4e5ab79502bc"
],
"DefaultConfig_v11" : [
"ba6dc1c34c3c4903bd208e18"
],
"TableEditWizBackbone_v11" : [
"235f2ea4d73a406693f89a61"
],
"DefaultContext_v14" : [
"e48f898085af4125bf39ca09"
],
"TableEditWizBackbone_v12" : [
"13bf46f256fa4da285909b80"
],
"DefaultConfig_v12" : [
"d8acf1e7c3974043b3972ac9"
],
"TableEditWizBackbone_v13" : [
"e6b7e46ed6c34b6e8f7f6da5"
],
"DefaultConfig_v13" : [
"3ae1046352f0456b89a4a148"
],
"TableEditWizBackbone_v14" : [
"8ac29648a89a4a4da1e002f9"
],
"DefaultConfig_v14" : [
"ce6e2913116847409c1ae17c"
],
"TableEditWizBackbone_v15" : [
"99486de2269140e8a3de92cd"
],
"DefaultConfig_v15" : [
"dd13620caca5466892ca5bc5"
],
"TableEditWizBackbone_v16" : [
"b1903a60139e4984969b5875"
],
"DefaultConfig_v16" : [
"e409d979a645461f8ff9d872"
],
"TableEditWizBackbone_v17" : [
"0b833048076443018457ba52"
],
"DefaultConfig_v17" : [
"ed62c9f9dd99456c8b0957b0"
],
"TableEditWizBackbone_v18" : [
"3a13ab53b6f04931ba5ea77a"
],
"DefaultConfig_v18" : [
"8163227a6d4d479ca8e9dd61"
],
"TableEditWizBackbone_v19" : [
"98babd2954954df8b5f367a7"
],
"DefaultConfig_v19" : [
"6d916207156742a5ad1db93f"
],
"TableEditWizBackbone_v20" : [
"4e0cae9556814f479a432fe8"
],
"DefaultConfig_v20" : [
"cb0e1a65509a410286b16674"
],
"TableEditWizBackbone_v21" : [
"9f92f49d06094224bf6e8bf1"
],
"DefaultConfig_v21" : [
"9ab0935d9ff240f7bfaacef7"
],
"TableEditWizBackbone_v22" : [
"6cc112a55c0a4a4a824ee086"
],
"DefaultConfig_v22" : [
"39d6cfdcaa194cf19a02c9e9"
],
"TableEditWizBackbone_v23" : [
"3c536ca39ae14648b4587e75"
],
"DefaultConfig_v23" : [
"5813775c155b45d8a8cae59c"
],
"TableEditWizBackbone_v24" : [
"955adedf03a54850b139cfb2"
],
"DefaultConfig_v24" : [
"bee192c6430342ad9d0bc98e"
],
"TableEditWizBackbone_v25" : [
"4c8bb2c867124bc58b4d0ed3"
],
"DefaultConfig_v25" : [
"0ac59b2bed0e4422b04bc7cb"
],
"TableEditWizBackbone_v26" : [
"53f387afab6747d895e8c93e"
],
"DefaultConfig_v26" : [
"93193a456ce746289bacd792"
],
"TableEditWizBackbone_v27" : [
"ba74ddb02de24ddc89563cd7"
],
"TableEditWizBackbone_v28" : [
"160a204c625a448dabed9c6e"
],
"DefaultConfig_v27" : [
"04fd5234f47d4635818319cc"
],
"TableEditWizBackbone_v29" : [
"46b232b465f240cd8bb93fe8"
],
"DefaultConfig_v28" : [
"d24e799a0f3e4ec7aa3c2ff7"
],
"TableEditWizBackbone_v30" : [
"d0001a5c10e84bfa8f4cf6ff"
],
"DefaultConfig_v29" : [
"e00d87f80bd2477dba03fbe2"
],
"TableEditWizBackbone_v31" : [
"0c29a923c9f445999d966dfb"
],
"DefaultConfig_v30" : [
"8ef34331746a4697a0c26999"
],
"GroupAliasTreeEditWizBackbone_v13" : [
"4036d0cb5d61437db0a6f69f"
],
"DefaultConfig_v31" : [
"5afad43f6f114483b703577d"
],
"TableEditWizBackbone_v32" : [
"8342dd7b709b4f189b5a22f0"
],
"DefaultContext_v15" : [
"07c6b25bb1c74e1eb5534fe0"
],
"TableEditWizBackbone_v33" : [
"107ea6c431444c5399a9282b"
],
"DefaultContext_v16" : [
"f26a13c32f824272b2f6fa57"
],
"TableEditWizBackbone_v34" : [
"b5c941ffd52849a9b6cb805c"
],
"DefaultContext_v17" : [
"200daa83558542e19a6f458e"
],
"TableEditWizBackbone_v35" : [
"0e87a6801e5f425f944b986e"
],
"DefaultContext_v18" : [
"c529523dd75d4413b0906685"
],
"TableEditWizBackbone_v36" : [
"a706e9f8fea646fd9027c946"
],
"DefaultContext_v19" : [
"fcf17fc18f914797bff43b62"
],
"TableEditWizBackbone_v37" : [
"2072b4995d3d4c2a9117ec02"
],
"DefaultContext_v20" : [
"71125e31aa9d4ee3921633ee"
],
"TableEditWizBackbone_v38" : [
"90c34c43fbdb49fe9792bcff"
],
"DefaultContext_v21" : [
"7030f1f9766f49bb89157407"
],
"DefaultContext_v22" : [
"2892a3bb90cf401a85df8d62"
],
"TableEditWizBackbone_v39" : [
"56a47afe9cbe4519b776c695"
],
"DefaultConfig_v32" : [
"b8bf35a4adec4f02aafc8c1f"
],
"DefaultContext_v23" : [
"df59cad5a6ec4820a522ec1a"
],
"TableEditWizBackbone_v40" : [
"9882b097964f476c8e9c5317"
],
"DefaultContext_v24" : [
"d35bfc67c1b94454a6a56a4b"
],
"TableEditWizBackbone_v41" : [
"7841ae2fd0504b919436430e"
],
"GroupAliasSaveWizBackbone_v0" : [
"7f1c31ccd20c46f9a4b8b826"
],
"DefaultContext_v25" : [
"d4f191b4d9324a8ebdae69b0"
],
"TableEditWizBackbone_v42" : [
"84b9b4b4102f401ebc0ddeb2"
],
"DefaultContext_v26" : [
"f953a8d05cfe42ffa9848e46"
],
"TableEditWizBackbone_v43" : [
"bfb9b3c6b6614325b5395933"
],
"DefaultContext_v27" : [
"82165e37659d4ba5986c60e4"
],
"TableEditWizBackbone_v44" : [
"83d29007ee6d47c2877f5d06"
],
"DefaultContext_v28" : [
"74a69b821a954629b0c270a8"
],
"TableEditWizBackbone_v45" : [
"d6dfd0d90ca44e2787920e31"
],
"DefaultContext_v29" : [
"ffd134111b8d4fd4870736ad"
],
"TableEditWizBackbone_v46" : [
"a5885d27f2cf46ab80cff97a"
],
"DefaultContext_v30" : [
"47be93e5078b42d7bb610bf1"
],
"TableEditWizBackbone_v47" : [
"137e98d1413248a195e38adb"
],
"DefaultContext_v31" : [
"519dc957b2df4ae68dfe8d91"
],
"TableEditWizBackbone_v48" : [
"e22fbfb856be439faf08f9e2"
],
"DefaultConfig_v33" : [
"d557fdb3bb184dd99ea218e8"
],
"TableEditWizBackbone_v49" : [
"76b0b68a18ac4d2b8cb060a3"
],
"DefaultConfig_v34" : [
"18a75fd5bc32499fb817b5c7"
],
"TableEditWizBackbone_v50" : [
"fccee8a9ef29400785e9a5ee"
]
},
"entities.name" : {
"OTSROOT" : [
"006b5c0dcc6c4ef981eb0d36",
"01213ea8bb7e44708a14976b",
"04ccc19ebf9f44a1af18dc9c",
"04d866a0c50b4ae8ab935add",
"04fd5234f47d4635818319cc",
"07c6b25bb1c74e1eb5534fe0",
"09ffc0780e904e9685a83bc0",
"0ac59b2bed0e4422b04bc7cb",
"0b833048076443018457ba52",
"0c29a923c9f445999d966dfb",
"0e87a6801e5f425f944b986e",
"102efa4faf834ac9975a5b72",
"107ea6c431444c5399a9282b",
"137e98d1413248a195e38adb",
"13b6f68c09134ece9381d1db",
"13bf46f256fa4da285909b80",
"160a204c625a448dabed9c6e",
"18a75fd5bc32499fb817b5c7",
"1c42486bf1ab40f486388095",
"1d55ce52d1234e39b5c16dca",
"200daa83558542e19a6f458e",
"2072b4995d3d4c2a9117ec02",
"235f2ea4d73a406693f89a61",
"25ea71133c1146fe8635bea1",
"2892a3bb90cf401a85df8d62",
"295118593e64477a87110ab6",
"2ba28200357848c3b6f192b3",
"30ffd8fb35d24a2abbda151d",
"3119b79b9d8f4104bac16a00",
"31e8a76801b5434cafea2b6e",
"388b6fb8442a4a538322866e",
"39ca274ed2204dc99439471b",
"39d6cfdcaa194cf19a02c9e9",
"3a071e580d7b4e5ab79502bc",
"3a13ab53b6f04931ba5ea77a",
"3ae1046352f0456b89a4a148",
"3c536ca39ae14648b4587e75",
"4036d0cb5d61437db0a6f69f",
"418ef36760c14e18bd0bbf1d",
"4195482235934e38a0fdc3c9",
"46b232b465f240cd8bb93fe8",
"4730a5d8c4b94661a1a5e3cf",
"47be93e5078b42d7bb610bf1",
"4bc42c0acc604c7a94eedb39",
"4c8bb2c867124bc58b4d0ed3",
"4e0cae9556814f479a432fe8",
"516b0517980343e2a5b30e3b",
"519dc957b2df4ae68dfe8d91",
"53f387afab6747d895e8c93e",
"56a47afe9cbe4519b776c695",
"5813775c155b45d8a8cae59c",
"5afad43f6f114483b703577d",
"603bd9ff5b2541ee8dfad314",
"61f23003b0a14ffd919edb49",
"6beb26d5e4fb406484bffd22",
"6cc112a55c0a4a4a824ee086",
"6d916207156742a5ad1db93f",
"7030f1f9766f49bb89157407",
"71125e31aa9d4ee3921633ee",
"74a69b821a954629b0c270a8",
"76b0b68a18ac4d2b8cb060a3",
"7841ae2fd0504b919436430e",
"7f1c31ccd20c46f9a4b8b826",
"8163227a6d4d479ca8e9dd61",
"82165e37659d4ba5986c60e4",
"8342dd7b709b4f189b5a22f0",
"836148fc8d52476d9128866f",
"83d29007ee6d47c2877f5d06",
"84b9b4b4102f401ebc0ddeb2",
"8ac29648a89a4a4da1e002f9",
"8ef34331746a4697a0c26999",
"90370c5734bd4656948cde75",
"90c34c43fbdb49fe9792bcff",
"93193a456ce746289bacd792",
"93ffaf32364a40b39131c279",
"944603ae9cf54eacb2ab4572",
"955adedf03a54850b139cfb2",
"9882b097964f476c8e9c5317",
"98babd2954954df8b5f367a7",
"99486de2269140e8a3de92cd",
"9ab0935d9ff240f7bfaacef7",
"9d8e9d0f2d4640f8bb01c27a",
"9e943c13f5b443eca87958be",
"9f92f49d06094224bf6e8bf1",
"a5885d27f2cf46ab80cff97a",
"a5de921ab4704125a1fc3e35",
"a706e9f8fea646fd9027c946",
"b16ccfd0a0c14b0a9de534d6",
"b1903a60139e4984969b5875",
"b3a9619c8fde428f97dada84",
"b5c941ffd52849a9b6cb805c",
"b747665f88e74ca9aa253a37",
"b8bf35a4adec4f02aafc8c1f",
"ba6dc1c34c3c4903bd208e18",
"ba74ddb02de24ddc89563cd7",
"bdb911f79e224d0ba68bb468",
"beac21373b9847c5bc752292",
"bee192c6430342ad9d0bc98e",
"bfb9b3c6b6614325b5395933",
"c04fc3f84f8541d9991be40f",
"c1431cc6c960432595299c0b",
"c529523dd75d4413b0906685",
"c644d63d961d4e59a9b8aa3a",
"c66e6698f43f4284b4d3b5b9",
"cb0e1a65509a410286b16674",
"cd7d55f6fc2b4279859b6361",
"ce3179bd79974b80a88191bf",
"ce6e2913116847409c1ae17c",
"d0001a5c10e84bfa8f4cf6ff",
"d24e799a0f3e4ec7aa3c2ff7",
"d35bfc67c1b94454a6a56a4b",
"d4f191b4d9324a8ebdae69b0",
"d557fdb3bb184dd99ea218e8",
"d6151dbf60544550a77185d6",
"d6dfd0d90ca44e2787920e31",
"d82650c9ab5140ee86815160",
"d8acf1e7c3974043b3972ac9",
"dafedf1e9b75451d873183fa",
"dd13620caca5466892ca5bc5",
"df59cad5a6ec4820a522ec1a",
"e00d87f80bd2477dba03fbe2",
"e1decedee37d4b868b5b90a9",
"e22fbfb856be439faf08f9e2",
"e3ede45399f24a0aa759be9f",
"e409d979a645461f8ff9d872",
"e48f898085af4125bf39ca09",
"e6b7e46ed6c34b6e8f7f6da5",
"e8d444398b454e6bab1fab0f",
"ed62c9f9dd99456c8b0957b0",
"efaf74cff63543539683d7f4",
"f19a77d1b1c84897b7710068",
"f216800d9a614bb5931ca13e",
"f26a13c32f824272b2f6fa57",
"f6e6e96eb13f4b9c879c2173",
"f7119058541c49389980249f",
"f953a8d05cfe42ffa9848e46",
"fccee8a9ef29400785e9a5ee",
"fcf17fc18f914797bff43b62",
"fd084412b3ef47a5a102ea81",
"ffd134111b8d4fd4870736ad"
]
},
"aliases.active.name" : {

},
"runs.name" : {

},
"configurations.assigned" : {
"notprovided" : [
"2020-07-21T14:27:46.023-0500",
"2020-07-21T14:27:46.668-0500",
"2020-07-21T14:27:47.583-0500",
"2020-07-21T14:27:48.033-0500",
"2020-07-21T14:42:50.289-0500",
"2020-07-21T14:42:51.165-0500",
"2020-07-21T14:44:16.305-0500",
"2020-07-21T14:44:17.280-0500",
"2020-07-21T14:46:44.163-0500",
"2020-07-21T14:46:45.057-0500",
"2020-07-21T14:47:39.448-0500",
"2020-07-21T14:51:16.405-0500",
"2020-07-21T14:51:17.399-0500",
"2020-07-21T14:55:16.772-0500",
"2020-07-21T14:55:17.334-0500",
"2020-07-21T14:55:56.794-0500",
"2020-07-21T14:55:57.760-0500",
"2020-07-21T14:57:50.164-0500",
"2020-07-21T14:57:51.255-0500",
"2020-07-21T15:25:07.857-0500",
"2020-07-21T15:28:04.227-0500",
"2020-07-21T15:42:20.473-0500",
"2020-07-21T15:45:03.544-0500",
"2020-07-21T15:50:01.121-0500",
"2020-07-21T15:50:02.157-0500",
"2020-07-21T15:57:33.550-0500",
"2020-07-28T10:52:34.073-0500",
"2020-07-28T10:52:35.045-0500",
"2020-07-28T13:01:36.731-0500",
"2020-07-28T13:03:26.940-0500",
"2020-07-28T13:12:57.906-0500",
"2020-07-28T13:15:25.156-0500",
"2020-07-28T13:20:57.074-0500",
"2020-07-28T13:27:37.655-0500",
"2020-08-20T13:46:48.474-0500",
"2020-08-20T13:46:49.506-0500",
"2020-08-20T13:52:00.617-0500",
"2020-08-20T13:52:01.685-0500",
"2020-08-20T14:43:54.878-0500",
"2020-08-20T14:43:56.041-0500",
"2020-08-24T11:59:56.620-0500",
"2020-08-24T11:59:57.882-0500",
"2020-08-24T16:05:13.179-0500",
"2020-08-24T16:05:14.452-0500",
"2020-08-26T10:29:24.485-0500",
"2020-08-26T10:29:25.474-0500",
"2020-08-26T10:33:56.566-0500",
"2020-08-26T10:33:57.701-0500",
"2020-08-26T10:45:54.250-0500",
"2020-08-26T10:45:55.580-0500",
"2020-08-26T11:10:54.077-0500",
"2020-08-26T11:10:55.289-0500",
"2020-08-26T14:49:52.438-0500",
"2020-08-26T14:49:53.748-0500",
"2020-08-26T14:52:00.056-0500",
"2020-08-26T14:52:01.364-0500",
"2020-08-26T15:00:03.514-0500",
"2020-08-26T15:00:04.887-0500",
"2020-08-26T16:17:12.597-0500",
"2020-08-26T16:17:13.742-0500",
"2020-08-26T16:18:15.263-0500",
"2020-08-26T16:18:16.962-0500",
"2020-08-28T21:40:22.609-0500",
"2020-08-28T21:40:24.018-0500",
"2020-08-31T15:19:58.545-0500",
"2020-08-31T15:20:00.108-0500",
"2020-09-03T10:43:21.987-0500",
"2020-09-03T10:43:23.810-0500",
"2020-09-03T10:49:03.072-0500",
"2020-09-03T10:49:04.581-0500",
"2020-09-08T17:07:21.273-0500",
"2020-09-08T17:07:22.907-0500",
"2020-09-11T16:02:28.958-0500",
"2020-09-11T16:02:30.736-0500",
"2020-09-14T17:47:19.122-0500",
"2020-09-14T17:47:20.713-0500",
"2020-09-14T18:00:23.379-0500",
"2020-09-14T18:00:25.030-0500",
"2020-09-15T15:14:56.822-0500",
"2020-09-15T15:14:58.650-0500",
"2020-09-15T15:18:53.885-0500",
"2020-09-15T15:18:55.758-0500",
"2020-09-15T15:27:50.786-0500",
"2020-09-15T15:27:52.719-0500",
"2020-09-15T15:52:12.330-0500",
"2020-09-15T15:52:14.193-0500",
"2020-09-21T11:41:57.989-0500",
"2020-09-21T11:41:59.998-0500",
"2020-09-21T11:54:28.704-0500",
"2020-09-21T11:54:30.801-0500",
"2020-10-06T14:24:23.753-0500",
"2020-10-06T14:45:40.720-0500",
"2020-10-06T14:45:42.952-0500",
"2020-10-06T15:04:19.250-0500",
"2020-10-06T15:04:21.492-0500",
"2020-10-07T16:45:35.362-0500",
"2020-10-07T16:45:37.728-0500",
"2020-10-07T17:03:29.520-0500",
"2020-10-07T17:03:31.885-0500",
"2020-11-04T20:42:36.453-0600",
"2020-11-04T20:42:38.625-0600",
"2020-11-10T13:18:45.869-0600",
"2020-11-10T13:18:47.769-0600",
"2020-11-10T13:35:41.623-0600",
"2020-11-10T13:35:43.056-0600",
"2020-11-10T13:38:41.623-0600",
"2020-11-10T13:38:42.984-0600",
"2020-11-10T13:39:23.440-0600",
"2020-11-10T13:39:24.823-0600",
"2020-11-10T13:41:30.336-0600",
"2020-11-10T13:41:31.818-0600",
"2020-11-10T15:30:52.496-0600",
"2020-11-10T15:30:53.965-0600",
"2020-11-10T15:36:56.736-0600",
"2020-11-11T11:00:26.901-0600",
"2020-11-11T11:00:28.291-0600",
"2020-11-11T11:26:54.028-0600",
"2020-11-11T11:54:28.266-0600",
"2020-11-11T11:54:29.697-0600",
"2020-11-11T11:57:37.216-0600",
"2020-11-11T11:57:38.617-0600",
"2020-11-11T12:11:53.506-0600",
"2020-11-11T15:51:20.838-0600",
"2020-11-11T15:51:22.283-0600",
"2020-11-11T15:51:47.853-0600",
"2020-11-11T15:51:49.367-0600",
"2020-11-13T11:04:50.541-0600",
"2020-11-13T11:04:52.024-0600",
"2020-11-13T11:24:26.502-0600",
"2020-11-13T11:24:27.924-0600",
"2020-11-13T14:27:41.494-0600",
"2020-11-13T14:27:42.970-0600",
"2020-11-23T16:30:53.963-0600",
"2020-11-23T16:30:55.553-0600",
"2020-12-21T11:05:56.833-0600",
"2020-12-21T11:05:58.509-0600",
"2021-01-18T20:04:38.403-0600",
"2021-01-18T20:04:40.763-0600",
"2021-01-18T20:05:18.847-0600",
"2021-01-18T20:05:21.249-0600"
],
"DefaultConfig_v1" : [
"2020-07-21T14:27:47.078-0500"
],
"DefaultContext_v2" : [
"2020-07-21T14:27:47.806-0500"
],
"TableEditWizBackbone_v3" : [
"2020-07-21T14:27:48.084-0500"
],
"DefaultContext_v3" : [
"2020-07-21T14:42:50.585-0500"
],
"GroupAliasTreeEditWizBackbone_v0" : [
"2020-07-21T14:42:51.241-0500"
],
"DefaultConfig_v2" : [
"2020-07-21T14:44:16.796-0500"
],
"GroupAliasTreeEditWizBackbone_v1" : [
"2020-07-21T14:44:17.353-0500"
],
"DefaultContext_v4" : [
"2020-07-21T14:46:44.457-0500"
],
"GroupAliasTreeEditWizBackbone_v2" : [
"2020-07-21T14:46:45.129-0500"
],
"iterateDefaultGroup_v0" : [
"2020-07-21T14:47:40.022-0500"
],
"DefaultContext_v5" : [
"2020-07-21T14:51:16.720-0500"
],
"GroupAliasTreeEditWizBackbone_v3" : [
"2020-07-21T14:51:17.467-0500"
],
"DefaultContext_v6" : [
"2020-07-21T14:55:17.063-0500"
],
"GroupAliasTreeEditWizBackbone_v4" : [
"2020-07-21T14:55:17.422-0500"
],
"DefaultContext_v7" : [
"2020-07-21T14:55:57.064-0500"
],
"GroupAliasTreeEditWizBackbone_v5" : [
"2020-07-21T14:55:57.841-0500"
],
"DefaultConfig_v3" : [
"2020-07-21T14:57:50.690-0500"
],
"TableEditWizBackbone_v5" : [
"2020-07-21T14:57:51.317-0500"
],
"iterateDefaultGroup_v1" : [
"2020-07-21T15:25:08.427-0500"
],
"iterateDefaultGroup_v2" : [
"2020-07-21T15:28:04.820-0500"
],
"iterateDefaultGroup_v3" : [
"2020-07-21T15:42:21.235-0500"
],
"iterateDefaultGroup_v4" : [
"2020-07-21T15:45:04.166-0500"
],
"DefaultContext_v8" : [
"2020-07-21T15:50:01.432-0500"
],
"GroupAliasTreeEditWizBackbone_v6" : [
"2020-07-21T15:50:02.240-0500"
],
"iterateDefaultGroup_v5" : [
"2020-07-21T15:57:34.133-0500"
],
"DefaultConfig_v4" : [
"2020-07-28T10:52:34.633-0500"
],
"iterateDefaultGroup_v6" : [
"2020-07-28T10:52:35.618-0500"
],
"iterateDefaultGroup_v7" : [
"2020-07-28T13:01:37.325-0500"
],
"iterateDefaultGroup_v8" : [
"2020-07-28T13:03:27.505-0500"
],
"iterateDefaultGroup_v9" : [
"2020-07-28T13:12:58.494-0500"
],
"iterateDefaultGroup_v10" : [
"2020-07-28T13:15:25.736-0500"
],
"iterateDefaultGroup_v11" : [
"2020-07-28T13:20:57.687-0500"
],
"iterateDefaultGroup_v12" : [
"2020-07-28T13:27:38.261-0500"
],
"DefaultContext_v9" : [
"2020-08-20T13:46:48.721-0500"
],
"GroupAliasTreeEditWizBackbone_v7" : [
"2020-08-20T13:46:49.570-0500"
],
"DefaultContext_v10" : [
"2020-08-20T13:52:00.873-0500"
],
"GroupAliasTreeEditWizBackbone_v8" : [
"2020-08-20T13:52:01.751-0500"
],
"DefaultContext_v11" : [
"2020-08-20T14:43:55.152-0500"
],
"GroupAliasTreeEditWizBackbone_v9" : [
"2020-08-20T14:43:56.108-0500"
],
"DefaultConfig_v5" : [
"2020-08-24T11:59:57.070-0500"
],
"GroupAliasTreeEditWizBackbone_v10" : [
"2020-08-24T11:59:57.947-0500"
],
"DefaultConfig_v6" : [
"2020-08-24T16:05:13.637-0500"
],
"GroupAliasTreeEditWizBackbone_v11" : [
"2020-08-24T16:05:14.518-0500"
],
"DefaultContext_v12" : [
"2020-08-26T10:29:24.745-0500"
],
"TableEditWizBackbone_v6" : [
"2020-08-26T10:29:25.542-0500"
],
"DefaultConfig_v7" : [
"2020-08-26T10:33:57.021-0500"
],
"TableEditWizBackbone_v7" : [
"2020-08-26T10:33:57.765-0500"
],
"DefaultConfig_v8" : [
"2020-08-26T10:45:54.820-0500"
],
"TableEditWizBackbone_v8" : [
"2020-08-26T10:45:55.647-0500"
],
"DefaultContext_v13" : [
"2020-08-26T11:10:54.346-0500"
],
"GroupAliasTreeEditWizBackbone_v12" : [
"2020-08-26T11:10:55.360-0500"
],
"DefaultConfig_v9" : [
"2020-08-26T14:49:53.004-0500"
],
"TableEditWizBackbone_v9" : [
"2020-08-26T14:49:53.815-0500"
],
"DefaultConfig_v10" : [
"2020-08-26T14:52:00.629-0500"
],
"TableEditWizBackbone_v10" : [
"2020-08-26T14:52:01.429-0500"
],
"DefaultConfig_v11" : [
"2020-08-26T15:00:04.116-0500"
],
"TableEditWizBackbone_v11" : [
"2020-08-26T15:00:04.980-0500"
],
"DefaultContext_v14" : [
"2020-08-26T16:17:12.855-0500"
],
"TableEditWizBackbone_v12" : [
"2020-08-26T16:17:13.808-0500"
],
"DefaultConfig_v12" : [
"2020-08-26T16:18:15.845-0500"
],
"TableEditWizBackbone_v13" : [
"2020-08-26T16:18:17.028-0500"
],
"DefaultConfig_v13" : [
"2020-08-28T21:40:23.211-0500"
],
"TableEditWizBackbone_v14" : [
"2020-08-28T21:40:24.083-0500"
],
"DefaultConfig_v14" : [
"2020-08-31T15:19:59.129-0500"
],
"TableEditWizBackbone_v15" : [
"2020-08-31T15:20:00.174-0500"
],
"DefaultConfig_v15" : [
"2020-09-03T10:43:22.672-0500"
],
"TableEditWizBackbone_v16" : [
"2020-09-03T10:43:23.911-0500"
],
"DefaultConfig_v16" : [
"2020-09-03T10:49:03.694-0500"
],
"TableEditWizBackbone_v17" : [
"2020-09-03T10:49:04.652-0500"
],
"DefaultConfig_v17" : [
"2020-09-08T17:07:21.993-0500"
],
"TableEditWizBackbone_v18" : [
"2020-09-08T17:07:22.976-0500"
],
"DefaultConfig_v18" : [
"2020-09-11T16:02:29.552-0500"
],
"TableEditWizBackbone_v19" : [
"2020-09-11T16:02:30.801-0500"
],
"DefaultConfig_v19" : [
"2020-09-14T17:47:19.769-0500"
],
"TableEditWizBackbone_v20" : [
"2020-09-14T17:47:20.789-0500"
],
"DefaultConfig_v20" : [
"2020-09-14T18:00:24.081-0500"
],
"TableEditWizBackbone_v21" : [
"2020-09-14T18:00:25.099-0500"
],
"DefaultConfig_v21" : [
"2020-09-15T15:14:57.574-0500"
],
"TableEditWizBackbone_v22" : [
"2020-09-15T15:14:58.717-0500"
],
"DefaultConfig_v22" : [
"2020-09-15T15:18:54.694-0500"
],
"TableEditWizBackbone_v23" : [
"2020-09-15T15:18:55.826-0500"
],
"DefaultConfig_v23" : [
"2020-09-15T15:27:51.627-0500"
],
"TableEditWizBackbone_v24" : [
"2020-09-15T15:27:52.816-0500"
],
"DefaultConfig_v24" : [
"2020-09-15T15:52:13.104-0500"
],
"TableEditWizBackbone_v25" : [
"2020-09-15T15:52:14.262-0500"
],
"DefaultConfig_v25" : [
"2020-09-21T11:41:58.817-0500"
],
"TableEditWizBackbone_v26" : [
"2020-09-21T11:42:00.071-0500"
],
"DefaultConfig_v26" : [
"2020-09-21T11:54:29.655-0500"
],
"TableEditWizBackbone_v27" : [
"2020-09-21T11:54:30.869-0500"
],
"TableEditWizBackbone_v28" : [
"2020-10-06T14:24:23.827-0500"
],
"DefaultConfig_v27" : [
"2020-10-06T14:45:41.751-0500"
],
"TableEditWizBackbone_v29" : [
"2020-10-06T14:45:43.022-0500"
],
"DefaultConfig_v28" : [
"2020-10-06T15:04:20.292-0500"
],
"TableEditWizBackbone_v30" : [
"2020-10-06T15:04:21.563-0500"
],
"DefaultConfig_v29" : [
"2020-10-07T16:45:36.443-0500"
],
"TableEditWizBackbone_v31" : [
"2020-10-07T16:45:37.804-0500"
],
"DefaultConfig_v30" : [
"2020-10-07T17:03:30.583-0500"
],
"GroupAliasTreeEditWizBackbone_v13" : [
"2020-10-07T17:03:31.956-0500"
],
"DefaultConfig_v31" : [
"2020-11-04T20:42:37.588-0600"
],
"TableEditWizBackbone_v32" : [
"2020-11-04T20:42:38.701-0600"
],
"DefaultContext_v15" : [
"2020-11-10T13:18:46.215-0600"
],
"TableEditWizBackbone_v33" : [
"2020-11-10T13:18:47.847-0600"
],
"DefaultContext_v16" : [
"2020-11-10T13:35:41.952-0600"
],
"TableEditWizBackbone_v34" : [
"2020-11-10T13:35:43.135-0600"
],
"DefaultContext_v17" : [
"2020-11-10T13:38:41.914-0600"
],
"TableEditWizBackbone_v35" : [
"2020-11-10T13:38:43.059-0600"
],
"DefaultContext_v18" : [
"2020-11-10T13:39:23.752-0600"
],
"TableEditWizBackbone_v36" : [
"2020-11-10T13:39:24.904-0600"
],
"DefaultContext_v19" : [
"2020-11-10T13:41:30.654-0600"
],
"TableEditWizBackbone_v37" : [
"2020-11-10T13:41:31.892-0600"
],
"DefaultContext_v20" : [
"2020-11-10T15:30:52.853-0600"
],
"TableEditWizBackbone_v38" : [
"2020-11-10T15:30:54.060-0600"
],
"DefaultContext_v21" : [
"2020-11-10T15:36:57.106-0600"
],
"DefaultContext_v22" : [
"2020-11-11T11:00:27.244-0600"
],
"TableEditWizBackbone_v39" : [
"2020-11-11T11:00:28.374-0600"
],
"DefaultConfig_v32" : [
"2020-11-11T11:26:55.249-0600"
],
"DefaultContext_v23" : [
"2020-11-11T11:54:28.617-0600"
],
"TableEditWizBackbone_v40" : [
"2020-11-11T11:54:29.788-0600"
],
"DefaultContext_v24" : [
"2020-11-11T11:57:37.563-0600"
],
"TableEditWizBackbone_v41" : [
"2020-11-11T11:57:38.701-0600"
],
"GroupAliasSaveWizBackbone_v0" : [
"2020-11-11T12:11:53.605-0600"
],
"DefaultContext_v25" : [
"2020-11-11T15:51:21.171-0600"
],
"TableEditWizBackbone_v42" : [
"2020-11-11T15:51:22.357-0600"
],
"DefaultContext_v26" : [
"2020-11-11T15:51:48.177-0600"
],
"TableEditWizBackbone_v43" : [
"2020-11-11T15:51:49.441-0600"
],
"DefaultContext_v27" : [
"2020-11-13T11:04:50.888-0600"
],
"TableEditWizBackbone_v44" : [
"2020-11-13T11:04:52.099-0600"
],
"DefaultContext_v28" : [
"2020-11-13T11:24:26.826-0600"
],
"TableEditWizBackbone_v45" : [
"2020-11-13T11:24:27.993-0600"
],
"DefaultContext_v29" : [
"2020-11-13T14:27:41.827-0600"
],
"TableEditWizBackbone_v46" : [
"2020-11-13T14:27:43.047-0600"
],
"DefaultContext_v30" : [
"2020-11-23T16:30:54.352-0600"
],
"TableEditWizBackbone_v47" : [
"2020-11-23T16:30:55.636-0600"
],
"DefaultContext_v31" : [
"2020-12-21T11:05:57.207-0600"
],
"TableEditWizBackbone_v48" : [
"2020-12-21T11:05:58.590-0600"
],
"DefaultConfig_v33" : [
"2021-01-18T20:04:39.606-0600"
],
"TableEditWizBackbone_v49" : [
"2021-01-18T20:04:40.838-0600"
],
"DefaultConfig_v34" : [
"2021-01-18T20:05:20.074-0600"
],
"TableEditWizBackbone_v50" : [
"2021-01-18T20:05:21.343-0600"
]
}
}