{
"ouid" : [
"2eace2c31a884ca1bb21bcd4"
],
"version" : {
"1" : [
"2eace2c31a884ca1bb21bcd4"
]
},
"configurations.name" : {
"notprovided" : [
"2eace2c31a884ca1bb21bcd4"
],
"DefaultConfig_v1" : [
"2eace2c31a884ca1bb21bcd4"
],
"DefaultConfig_v2" : [
"2eace2c31a884ca1bb21bcd4"
],
"DefaultConfig_v3" : [
"2eace2c31a884ca1bb21bcd4"
],
"DefaultConfig_v4" : [
"2eace2c31a884ca1bb21bcd4"
],
"DefaultConfig_v5" : [
"2eace2c31a884ca1bb21bcd4"
],
"DefaultConfig_v6" : [
"2eace2c31a884ca1bb21bcd4"
],
"DefaultConfig_v7" : [
"2eace2c31a884ca1bb21bcd4"
],
"DefaultConfig_v8" : [
"2eace2c31a884ca1bb21bcd4"
],
"DefaultConfig_v9" : [
"2eace2c31a884ca1bb21bcd4"
],
"DefaultConfig_v10" : [
"2eace2c31a884ca1bb21bcd4"
],
"DefaultConfig_v11" : [
"2eace2c31a884ca1bb21bcd4"
],
"DefaultConfig_v12" : [
"2eace2c31a884ca1bb21bcd4"
],
"DefaultConfig_v13" : [
"2eace2c31a884ca1bb21bcd4"
],
"DefaultConfig_v14" : [
"2eace2c31a884ca1bb21bcd4"
],
"DefaultConfig_v15" : [
"2eace2c31a884ca1bb21bcd4"
],
"DefaultConfig_v16" : [
"2eace2c31a884ca1bb21bcd4"
],
"DefaultConfig_v17" : [
"2eace2c31a884ca1bb21bcd4"
],
"DefaultConfig_v18" : [
"2eace2c31a884ca1bb21bcd4"
],
"DefaultConfig_v19" : [
"2eace2c31a884ca1bb21bcd4"
],
"DefaultConfig_v20" : [
"2eace2c31a884ca1bb21bcd4"
],
"DefaultConfig_v21" : [
"2eace2c31a884ca1bb21bcd4"
],
"DefaultConfig_v22" : [
"2eace2c31a884ca1bb21bcd4"
],
"DefaultConfig_v23" : [
"2eace2c31a884ca1bb21bcd4"
],
"DefaultConfig_v24" : [
"2eace2c31a884ca1bb21bcd4"
],
"DefaultConfig_v25" : [
"2eace2c31a884ca1bb21bcd4"
],
"DefaultConfig_v26" : [
"2eace2c31a884ca1bb21bcd4"
],
"DefaultConfig_v27" : [
"2eace2c31a884ca1bb21bcd4"
],
"DefaultConfig_v28" : [
"2eace2c31a884ca1bb21bcd4"
],
"DefaultConfig_v29" : [
"2eace2c31a884ca1bb21bcd4"
],
"DefaultConfig_v30" : [
"2eace2c31a884ca1bb21bcd4"
],
"DefaultConfig_v31" : [
"2eace2c31a884ca1bb21bcd4"
],
"DefaultConfig_v32" : [
"2eace2c31a884ca1bb21bcd4"
],
"DefaultConfig_v33" : [
"2eace2c31a884ca1bb21bcd4"
],
"DefaultConfig_v34" : [
"2eace2c31a884ca1bb21bcd4"
],
"DefaultConfig_v35" : [
"2eace2c31a884ca1bb21bcd4"
],
"DefaultConfig_v36" : [
"2eace2c31a884ca1bb21bcd4"
],
"DefaultConfig_v37" : [
"2eace2c31a884ca1bb21bcd4"
]
},
"entities.name" : {
"OTSROOT" : [
"2eace2c31a884ca1bb21bcd4"
]
},
"aliases.active.name" : {

},
"runs.name" : {

},
"configurations.assigned" : {
"notprovided" : [
"2019-02-22T16:11:42.778-0600"
],
"DefaultConfig_v1" : [
"2019-02-22T16:11:43.053-0600"
],
"DefaultConfig_v2" : [
"2019-07-22T11:27:30.355-0500"
],
"DefaultConfig_v3" : [
"2019-07-22T14:43:10.232-0500"
],
"DefaultConfig_v4" : [
"2019-07-22T14:47:01.404-0500"
],
"DefaultConfig_v5" : [
"2019-07-22T15:05:41.461-0500"
],
"DefaultConfig_v6" : [
"2019-07-23T09:00:31.938-0500"
],
"DefaultConfig_v7" : [
"2019-07-23T09:04:43.660-0500"
],
"DefaultConfig_v8" : [
"2019-07-23T09:48:11.756-0500"
],
"DefaultConfig_v9" : [
"2019-08-07T11:00:29.375-0500"
],
"DefaultConfig_v10" : [
"2019-11-20T15:25:38.543-0600"
],
"DefaultConfig_v11" : [
"2019-11-20T15:28:12.576-0600"
],
"DefaultConfig_v12" : [
"2019-11-20T15:58:29.876-0600"
],
"DefaultConfig_v13" : [
"2019-11-20T16:23:03.574-0600"
],
"DefaultConfig_v14" : [
"2019-11-20T16:24:45.704-0600"
],
"DefaultConfig_v15" : [
"2019-11-20T16:27:46.536-0600"
],
"DefaultConfig_v16" : [
"2019-11-20T16:42:11.094-0600"
],
"DefaultConfig_v17" : [
"2019-12-09T19:33:37.667-0600"
],
"DefaultConfig_v18" : [
"2019-12-10T14:21:51.766-0600"
],
"DefaultConfig_v19" : [
"2021-04-29T11:28:51.874-0500"
],
"DefaultConfig_v20" : [
"2021-04-29T11:36:29.888-0500"
],
"DefaultConfig_v21" : [
"2021-04-29T11:56:50.229-0500"
],
"DefaultConfig_v22" : [
"2021-04-29T12:03:11.883-0500"
],
"DefaultConfig_v23" : [
"2021-04-29T12:06:21.711-0500"
],
"DefaultConfig_v24" : [
"2021-04-29T13:06:39.364-0500"
],
"DefaultConfig_v25" : [
"2021-04-30T09:33:57.171-0500"
],
"DefaultConfig_v26" : [
"2021-04-30T09:34:32.758-0500"
],
"DefaultConfig_v27" : [
"2021-04-30T09:36:19.514-0500"
],
"DefaultConfig_v28" : [
"2021-04-30T11:59:06.130-0500"
],
"DefaultConfig_v29" : [
"2021-04-30T12:10:52.604-0500"
],
"DefaultConfig_v30" : [
"2021-04-30T12:11:38.912-0500"
],
"DefaultConfig_v31" : [
"2021-05-06T17:42:15.434-0500"
],
"DefaultConfig_v32" : [
"2021-05-10T10:42:47.258-0500"
],
"DefaultConfig_v33" : [
"2021-05-10T11:08:53.050-0500"
],
"DefaultConfig_v34" : [
"2021-05-12T15:51:23.130-0500"
],
"DefaultConfig_v35" : [
"2021-05-12T16:11:01.322-0500"
],
"DefaultConfig_v36" : [
"2021-05-14T15:34:24.687-0500"
],
"DefaultConfig_v37" : [
"2021-05-14T16:41:01.325-0500"
]
}
}