{
"document" : {
"data" : {
"NAME" : "ROHDE_SCHWARZ_POWER_SUPPLY_TABLE",
"COMMENT" : "No comment.",
"AUTHOR" : "admin",
"CREATION_TIME" : 1600706001,
"COL_TYPES" : {
"POWER_SUPPLY_UID" : "STRING",
"STATUS" : "STRING",
"MODEL" : "STRING",
"CONNECTION" : "STRING",
"IP_ADDRESS" : "STRING",
"PORT" : "NUMBER",
"LINK_TO_POWER_SUPPLY_CHANNEL_TABLE" : "STRING",
"LINK_TO_POWER_SUPPLY_GROUP_UID" : "STRING",
"COMMENT_DESCRIPTION" : "STRING",
"AUTHOR" : "STRING",
"RECORD_INSERTION_TIME" : "TIMESTAMP WITH TIMEZONE"
},
"DATA_SET" : [
{
"POWER_SUPPLY_UID" : "TestStandModule",
"STATUS" : "Off",
"MODEL" : "RohdeSchwarz",
"CONNECTION" : "Ethernet",
"IP_ADDRESS" : "192.168.0.0",
"PORT" : "10001",
"LINK_TO_POWER_SUPPLY_CHANNEL_TABLE" : "RohdeSchwarzPowerSupplyChannelTable",
"LINK_TO_POWER_SUPPLY_GROUP_UID" : "TestStandModule",
"COMMENT_DESCRIPTION" : "No Comment",
"AUTHOR" : "admin",
"RECORD_INSERTION_TIME" : "1600706001"
}
]
},
"metadata" : {

},
"search" : [

]
},
"comments" : [

],
"origin" : {
"source" : "template",
"name" : "notprovided",
"format" : "json",
"created" : "2020-09-21T11:33:21.167-0500",
"rawdata" : [

]
},
"version" : "3",
"entities" : [
{
"name" : "OTSROOT",
"assigned" : "2020-09-21T11:33:21.167-0500"
}
],
"configurations" : [
{
"name" : "notprovided",
"assigned" : "2020-09-21T11:33:21.167-0500"
},
{
"name" : "DefaultConfig_v25",
"assigned" : "2020-09-21T11:41:58.738-0500"
},
{
"name" : "DefaultConfig_v26",
"assigned" : "2020-09-21T11:54:29.578-0500"
},
{
"name" : "DefaultConfig_v27",
"assigned" : "2020-10-06T14:45:41.668-0500"
},
{
"name" : "DefaultConfig_v28",
"assigned" : "2020-10-06T15:04:20.207-0500"
},
{
"name" : "DefaultConfig_v29",
"assigned" : "2020-10-07T16:45:36.360-0500"
},
{
"name" : "DefaultConfig_v30",
"assigned" : "2020-10-07T17:03:30.503-0500"
},
{
"name" : "DefaultConfig_v31",
"assigned" : "2020-11-04T20:42:37.500-0600"
},
{
"name" : "DefaultConfig_v32",
"assigned" : "2020-11-11T11:26:55.120-0600"
},
{
"name" : "DefaultConfig_v33",
"assigned" : "2021-01-18T20:04:39.507-0600"
},
{
"name" : "DefaultConfig_v34",
"assigned" : "2021-01-18T20:05:19.984-0600"
}
],
"changelog" : "notprovided",
"bookkeeping" : {
"isdeleted" : false,
"isreadonly" : false,
"updates" : [
{
"event" : "addConfiguration",
"timestamp" : "2020-09-21T11:33:21.167-0500",
"value" : {
"name" : "notprovided",
"assigned" : "2020-09-21T11:33:21.167-0500"
}
},
{
"event" : "setVersion",
"timestamp" : "2020-09-21T11:33:21.167-0500",
"value" : {
"name" : "3",
"assigned" : "2020-09-21T11:33:21.167-0500"
}
},
{
"event" : "setCollection",
"timestamp" : "2020-09-21T11:33:21.167-0500",
"value" : {
"name" : "RohdeSchwarzPowerSupplyTable",
"assigned" : "2020-09-21T11:33:21.167-0500"
}
},
{
"event" : "addEntity",
"timestamp" : "2020-09-21T11:33:21.167-0500",
"value" : {
"name" : "OTSROOT",
"assigned" : "2020-09-21T11:33:21.167-0500"
}
},
{
"event" : "addConfiguration",
"timestamp" : "2020-09-21T11:41:58.738-0500",
"value" : {
"name" : "DefaultConfig_v25",
"assigned" : "2020-09-21T11:41:58.738-0500"
}
},
{
"event" : "addConfiguration",
"timestamp" : "2020-09-21T11:54:29.578-0500",
"value" : {
"name" : "DefaultConfig_v26",
"assigned" : "2020-09-21T11:54:29.578-0500"
}
},
{
"event" : "addConfiguration",
"timestamp" : "2020-10-06T14:45:41.668-0500",
"value" : {
"name" : "DefaultConfig_v27",
"assigned" : "2020-10-06T14:45:41.668-0500"
}
},
{
"event" : "addConfiguration",
"timestamp" : "2020-10-06T15:04:20.207-0500",
"value" : {
"name" : "DefaultConfig_v28",
"assigned" : "2020-10-06T15:04:20.207-0500"
}
},
{
"event" : "addConfiguration",
"timestamp" : "2020-10-07T16:45:36.360-0500",
"value" : {
"name" : "DefaultConfig_v29",
"assigned" : "2020-10-07T16:45:36.360-0500"
}
},
{
"event" : "addConfiguration",
"timestamp" : "2020-10-07T17:03:30.503-0500",
"value" : {
"name" : "DefaultConfig_v30",
"assigned" : "2020-10-07T17:03:30.503-0500"
}
},
{
"event" : "addConfiguration",
"timestamp" : "2020-11-04T20:42:37.500-0600",
"value" : {
"name" : "DefaultConfig_v31",
"assigned" : "2020-11-04T20:42:37.500-0600"
}
},
{
"event" : "addConfiguration",
"timestamp" : "2020-11-11T11:26:55.120-0600",
"value" : {
"name" : "DefaultConfig_v32",
"assigned" : "2020-11-11T11:26:55.120-0600"
}
},
{
"event" : "addConfiguration",
"timestamp" : "2021-01-18T20:04:39.507-0600",
"value" : {
"name" : "DefaultConfig_v33",
"assigned" : "2021-01-18T20:04:39.507-0600"
}
},
{
"event" : "addConfiguration",
"timestamp" : "2021-01-18T20:05:19.984-0600",
"value" : {
"name" : "DefaultConfig_v34",
"assigned" : "2021-01-18T20:05:19.984-0600"
}
}
],
"created" : "2020-09-21T11:33:21.167-0500"
},
"_id" : {
"$oid" : "b2cc1d5db84641abb2510a89"
},
"collection" : "RohdeSchwarzPowerSupplyTable",
"aliases" : {
"active" : [

],
"history" : [

]
},
"runs" : [

],
"attachments" : [

],
"configtype" : "notprovided"
}