{
"document" : {
"data" : {
"NAME" : "",
"COMMENT" : "",
"AUTHOR" : "",
"CREATION_TIME" : 1550763300,
"COL_TYPES" : {
"UNUSED_UID" : "NUMBER",
"GROUP_ALIASES" : "VARCHAR2",
"COMMENT_DESCRIPTION" : "VARCHAR2",
"AUTHOR" : "VARCHAR2",
"GROUP_CREATION_TIME" : "TIMESTAMP WITH TIMEZONE"
},
"DATA_SET" : [
{
"UNUSED_UID" : "0",
"GROUP_ALIASES" : "",
"COMMENT_DESCRIPTION" : "Default%20Outer%20Tracker%20Table",
"AUTHOR" : "admin",
"GROUP_CREATION_TIME" : "1563893291"
}
]
},
"metadata" : {

},
"search" : [

]
},
"comments" : [

],
"origin" : {
"source" : "template",
"name" : "notprovided",
"format" : "json",
"created" : "2019-07-23T09:48:11.508-0500",
"rawdata" : [

]
},
"version" : "18",
"entities" : [
{
"name" : "OTSROOT",
"assigned" : "2019-07-23T09:48:11.509-0500"
}
],
"configurations" : [
{
"name" : "notprovided",
"assigned" : "2019-07-23T09:48:11.509-0500"
},
{
"name" : "DefaultConfig_v8",
"assigned" : "2019-07-23T09:48:11.920-0500"
}
],
"changelog" : "notprovided",
"bookkeeping" : {
"isdeleted" : false,
"isreadonly" : false,
"updates" : [
{
"event" : "addConfiguration",
"timestamp" : "2019-07-23T09:48:11.509-0500",
"value" : {
"name" : "notprovided",
"assigned" : "2019-07-23T09:48:11.509-0500"
}
},
{
"event" : "setVersion",
"timestamp" : "2019-07-23T09:48:11.509-0500",
"value" : {
"name" : "18",
"assigned" : "2019-07-23T09:48:11.509-0500"
}
},
{
"event" : "setCollection",
"timestamp" : "2019-07-23T09:48:11.509-0500",
"value" : {
"name" : "TableGroupMetadata",
"assigned" : "2019-07-23T09:48:11.509-0500"
}
},
{
"event" : "addEntity",
"timestamp" : "2019-07-23T09:48:11.509-0500",
"value" : {
"name" : "OTSROOT",
"assigned" : "2019-07-23T09:48:11.509-0500"
}
},
{
"event" : "addConfiguration",
"timestamp" : "2019-07-23T09:48:11.921-0500",
"value" : {
"name" : "DefaultConfig_v8",
"assigned" : "2019-07-23T09:48:11.920-0500"
}
}
],
"created" : "2019-07-23T09:48:11.508-0500"
},
"_id" : {
"$oid" : "bf80f03db0f8415387042f11"
},
"collection" : "TableGroupMetadata",
"aliases" : {
"active" : [

],
"history" : [

]
},
"runs" : [

],
"attachments" : [

],
"configtype" : "notprovided"
}