{
"ouid" : [
"371fc7f3e26f46cdb91fb11b",
"fede27fdf9e94d5e969cf6ab"
],
"version" : {
"3" : [
"fede27fdf9e94d5e969cf6ab"
],
"4" : [
"371fc7f3e26f46cdb91fb11b"
]
},
"configurations.name" : {
"notprovided" : [
"371fc7f3e26f46cdb91fb11b",
"fede27fdf9e94d5e969cf6ab"
],
"OTMiniModuleContext_v3" : [
"fede27fdf9e94d5e969cf6ab"
],
"OTMiniModuleContext_v4" : [
"371fc7f3e26f46cdb91fb11b"
]
},
"entities.name" : {
"OTSROOT" : [
"371fc7f3e26f46cdb91fb11b",
"fede27fdf9e94d5e969cf6ab"
]
},
"aliases.active.name" : {

},
"runs.name" : {

}
}