{
"document" : {
"data" : {
"NAME" : "FE_SUPERVISOR_TABLE",
"COMMENT" : "Front-end Supervisor records.",
"AUTHOR" : "admin",
"CREATION_TIME" : 1574284214,
"COL_TYPES" : {
"SUPERVISOR_UID" : "STRING",
"LINK_TO_FE_INTERFACE_TABLE" : "STRING",
"LINK_TO_FE_INTERFACE_GROUP_ID" : "STRING",
"COMMENT_DESCRIPTION" : "STRING",
"AUTHOR" : "STRING",
"RECORD_INSERTION_TIME" : "TIMESTAMP WITH TIMEZONE"
},
"DATA_SET" : [
{
"SUPERVISOR_UID" : "OuterTrackerFESupervisor0",
"LINK_TO_FE_INTERFACE_TABLE" : "FEInterfaceTable",
"LINK_TO_FE_INTERFACE_GROUP_ID" : "OuterTrackerFESupervisor0",
"COMMENT_DESCRIPTION" : "No Comment",
"AUTHOR" : "admin",
"RECORD_INSERTION_TIME" : "1550767758"
},
{
"SUPERVISOR_UID" : "HistoMakerFESupervisor0",
"LINK_TO_FE_INTERFACE_TABLE" : "FEInterfaceTable",
"LINK_TO_FE_INTERFACE_GROUP_ID" : "HistoMakerFESupervisor0",
"COMMENT_DESCRIPTION" : "No Comment",
"AUTHOR" : "admin",
"RECORD_INSERTION_TIME" : "1574284213"
}
]
},
"metadata" : {

},
"search" : [

]
},
"comments" : [

],
"origin" : {
"source" : "template",
"name" : "notprovided",
"format" : "json",
"created" : "2019-11-20T15:10:14.004-0600",
"rawdata" : [

]
},
"version" : "2",
"entities" : [
{
"name" : "OTSROOT",
"assigned" : "2019-11-20T15:10:14.005-0600"
}
],
"configurations" : [
{
"name" : "notprovided",
"assigned" : "2019-11-20T15:10:14.005-0600"
},
{
"name" : "DefaultConfig_v10",
"assigned" : "2019-11-20T15:25:38.583-0600"
},
{
"name" : "DefaultConfig_v11",
"assigned" : "2019-11-20T15:28:12.617-0600"
},
{
"name" : "DefaultConfig_v12",
"assigned" : "2019-11-20T15:58:29.920-0600"
},
{
"name" : "DefaultConfig_v13",
"assigned" : "2019-11-20T16:23:03.611-0600"
},
{
"name" : "DefaultConfig_v14",
"assigned" : "2019-11-20T16:24:45.749-0600"
},
{
"name" : "DefaultConfig_v15",
"assigned" : "2019-11-20T16:27:46.582-0600"
},
{
"name" : "DefaultConfig_v16",
"assigned" : "2019-11-20T16:42:11.136-0600"
},
{
"name" : "DefaultConfig_v17",
"assigned" : "2019-12-09T19:33:37.705-0600"
},
{
"name" : "DefaultConfig_v18",
"assigned" : "2019-12-10T14:21:52.132-0600"
},
{
"name" : "DefaultConfig_v19",
"assigned" : "2021-04-29T11:28:51.919-0500"
},
{
"name" : "DefaultConfig_v20",
"assigned" : "2021-04-29T11:36:29.931-0500"
},
{
"name" : "DefaultConfig_v21",
"assigned" : "2021-04-29T11:56:50.272-0500"
},
{
"name" : "DefaultConfig_v22",
"assigned" : "2021-04-29T12:03:11.917-0500"
}
],
"changelog" : "notprovided",
"bookkeeping" : {
"isdeleted" : false,
"isreadonly" : false,
"updates" : [
{
"event" : "addConfiguration",
"timestamp" : "2019-11-20T15:10:14.005-0600",
"value" : {
"name" : "notprovided",
"assigned" : "2019-11-20T15:10:14.005-0600"
}
},
{
"event" : "setVersion",
"timestamp" : "2019-11-20T15:10:14.005-0600",
"value" : {
"name" : "2",
"assigned" : "2019-11-20T15:10:14.005-0600"
}
},
{
"event" : "setCollection",
"timestamp" : "2019-11-20T15:10:14.005-0600",
"value" : {
"name" : "FESupervisorTable",
"assigned" : "2019-11-20T15:10:14.005-0600"
}
},
{
"event" : "addEntity",
"timestamp" : "2019-11-20T15:10:14.005-0600",
"value" : {
"name" : "OTSROOT",
"assigned" : "2019-11-20T15:10:14.005-0600"
}
},
{
"event" : "addConfiguration",
"timestamp" : "2019-11-20T15:25:38.583-0600",
"value" : {
"name" : "DefaultConfig_v10",
"assigned" : "2019-11-20T15:25:38.583-0600"
}
},
{
"event" : "addConfiguration",
"timestamp" : "2019-11-20T15:28:12.617-0600",
"value" : {
"name" : "DefaultConfig_v11",
"assigned" : "2019-11-20T15:28:12.617-0600"
}
},
{
"event" : "addConfiguration",
"timestamp" : "2019-11-20T15:58:29.920-0600",
"value" : {
"name" : "DefaultConfig_v12",
"assigned" : "2019-11-20T15:58:29.920-0600"
}
},
{
"event" : "addConfiguration",
"timestamp" : "2019-11-20T16:23:03.611-0600",
"value" : {
"name" : "DefaultConfig_v13",
"assigned" : "2019-11-20T16:23:03.611-0600"
}
},
{
"event" : "addConfiguration",
"timestamp" : "2019-11-20T16:24:45.749-0600",
"value" : {
"name" : "DefaultConfig_v14",
"assigned" : "2019-11-20T16:24:45.749-0600"
}
},
{
"event" : "addConfiguration",
"timestamp" : "2019-11-20T16:27:46.582-0600",
"value" : {
"name" : "DefaultConfig_v15",
"assigned" : "2019-11-20T16:27:46.582-0600"
}
},
{
"event" : "addConfiguration",
"timestamp" : "2019-11-20T16:42:11.136-0600",
"value" : {
"name" : "DefaultConfig_v16",
"assigned" : "2019-11-20T16:42:11.136-0600"
}
},
{
"event" : "addConfiguration",
"timestamp" : "2019-12-09T19:33:37.705-0600",
"value" : {
"name" : "DefaultConfig_v17",
"assigned" : "2019-12-09T19:33:37.705-0600"
}
},
{
"event" : "addConfiguration",
"timestamp" : "2019-12-10T14:21:52.132-0600",
"value" : {
"name" : "DefaultConfig_v18",
"assigned" : "2019-12-10T14:21:52.132-0600"
}
},
{
"event" : "addConfiguration",
"timestamp" : "2021-04-29T11:28:51.919-0500",
"value" : {
"name" : "DefaultConfig_v19",
"assigned" : "2021-04-29T11:28:51.919-0500"
}
},
{
"event" : "addConfiguration",
"timestamp" : "2021-04-29T11:36:29.931-0500",
"value" : {
"name" : "DefaultConfig_v20",
"assigned" : "2021-04-29T11:36:29.931-0500"
}
},
{
"event" : "addConfiguration",
"timestamp" : "2021-04-29T11:56:50.272-0500",
"value" : {
"name" : "DefaultConfig_v21",
"assigned" : "2021-04-29T11:56:50.272-0500"
}
},
{
"event" : "addConfiguration",
"timestamp" : "2021-04-29T12:03:11.917-0500",
"value" : {
"name" : "DefaultConfig_v22",
"assigned" : "2021-04-29T12:03:11.917-0500"
}
}
],
"created" : "2019-11-20T15:10:14.004-0600"
},
"_id" : {
"$oid" : "1f39a54366964b0fb3f8e6ce"
},
"collection" : "FESupervisorTable",
"aliases" : {
"active" : [

],
"history" : [

]
},
"runs" : [

],
"attachments" : [

],
"configtype" : "notprovided"
}