{
"document" : {
"data" : {
"NAME" : "VERSION_ALIASES_TABLE",
"COMMENT" : "Default Version Aliases.",
"AUTHOR" : "admin",
"CREATION_TIME" : 1480649901,
"COL_TYPES" : {
"VERSION_ALIAS_UID" : "VARCHAR2",
"TABLE_NAME" : "VARCHAR2",
"VERSION_ALIAS" : "VARCHAR2",
"VERSION" : "VARCHAR2",
"COMMENT_DESCRIPTION" : "VARCHAR2",
"AUTHOR" : "VARCHAR2",
"RECORD_INSERTION_TIME" : "TIMESTAMP WITH TIMEZONE"
},
"DATA_SET" : [

]
},
"metadata" : {

},
"search" : [

]
},
"comments" : [

],
"origin" : {
"source" : "template",
"name" : "notprovided",
"format" : "json",
"created" : "2019-02-22T16:11:43.653-0600",
"rawdata" : [

]
},
"version" : "3",
"entities" : [
{
"name" : "OTSROOT",
"assigned" : "2019-02-22T16:11:43.653-0600"
}
],
"tables" : [
{
"name" : "notprovided",
"assigned" : "2019-02-22T16:11:43.653-0600"
},
{
"name" : "GroupAliasTreeEditWizBackbone_v3",
"assigned" : "2019-02-22T16:11:43.735-0600"
}
],
"changelog" : "notprovided",
"bookkeeping" : {
"isdeleted" : false,
"isreadonly" : false,
"updates" : [
{
"event" : "addTable",
"timestamp" : "2019-02-22T16:11:43.653-0600",
"value" : {
"name" : "notprovided",
"assigned" : "2019-02-22T16:11:43.653-0600"
}
},
{
"event" : "setVersion",
"timestamp" : "2019-02-22T16:11:43.653-0600",
"value" : {
"name" : "3",
"assigned" : "2019-02-22T16:11:43.653-0600"
}
},
{
"event" : "setCollection",
"timestamp" : "2019-02-22T16:11:43.653-0600",
"value" : {
"name" : "VersionAliasesTable",
"assigned" : "2019-02-22T16:11:43.653-0600"
}
},
{
"event" : "addEntity",
"timestamp" : "2019-02-22T16:11:43.653-0600",
"value" : {
"name" : "OTSROOT",
"assigned" : "2019-02-22T16:11:43.653-0600"
}
},
{
"event" : "addTable",
"timestamp" : "2019-02-22T16:11:43.735-0600",
"value" : {
"name" : "GroupAliasTreeEditWizBackbone_v3",
"assigned" : "2019-02-22T16:11:43.735-0600"
}
}
],
"created" : "2019-02-22T16:11:43.653-0600"
},
"_id" : {
"$oid" : "bc6df9fb27a04b2584a5f122"
},
"collection" : "VersionAliasesTable",
"aliases" : {
"active" : [

],
"history" : [

]
},
"runs" : [

],
"attachments" : [

],
"configtype" : "notprovided"
}