{
"ouid" : [
"9afb76684e904d62bcea4251"
],
"version" : {
"3" : [
"9afb76684e904d62bcea4251"
]
},
"configurations.name" : {
"notprovided" : [
"9afb76684e904d62bcea4251"
],
"iterateDefaultGroup_v3" : [
"9afb76684e904d62bcea4251"
]
},
"entities.name" : {
"OTSROOT" : [
"9afb76684e904d62bcea4251"
]
},
"aliases.active.name" : {

},
"runs.name" : {

},
"configurations.assigned" : {
"notprovided" : [
"2020-09-08T15:08:32.258-0500"
],
"iterateDefaultGroup_v3" : [
"2020-09-08T15:08:32.818-0500"
]
}
}