{
"document" : {
"data" : {
"NAME" : "FSSR_INTERFACE_CONFIGURATION",
"COMMENT" : "New FSSR Interface table",
"AUTHOR" : "uplegger",
"CREATION_TIME" : 1511211048,
"COL_TYPES" : {
"INTERFACE_ID" : "VARCHAR2",
"STATUS" : "VARCHAR2",
"FIRMWARE_VERSION" : "NUMBER",
"FIRMWARE_TYPE" : "VARCHAR2",
"HARDWARE_TYPE" : "VARCHAR2",
"INTERFACE_IP_ADDRESS" : "VARCHAR2",
"INTERFACE_PORT" : "NUMBER",
"HOST_IP_ADDRESS" : "VARCHAR2",
"HOST_PORT" : "NUMBER",
"STREAM_TO_IP_ADDRESS" : "VARCHAR2",
"STREAM_TO_PORT" : "NUMBER",
"CLOCK_SELECT" : "VARCHAR2",
"CLOCK_SPEED_M_HZ" : "NUMBER",
"CHANNEL_STATUS0" : "VARCHAR2",
"CHANNEL_STATUS1" : "VARCHAR2",
"CHANNEL_STATUS2" : "VARCHAR2",
"CHANNEL_STATUS3" : "VARCHAR2",
"CHANNEL_STATUS4" : "VARCHAR2",
"CHANNEL_STATUS5" : "VARCHAR2",
"COMMENT_DESCRIPTION" : "VARCHAR2",
"AUTHOR" : "VARCHAR2",
"RECORD_INSERTION_TIME" : "TIMESTAMP WITH TIMEZONE"
},
"DATA_SET" : [
{
"INTERFACE_ID" : "PurdueFSSR0",
"STATUS" : "Off",
"FIRMWARE_VERSION" : "1",
"FIRMWARE_TYPE" : "PurdueFSSRFirmware",
"HARDWARE_TYPE" : "PurdueHardware",
"INTERFACE_IP_ADDRESS" : "192.168.133.20",
"INTERFACE_PORT" : "47000",
"HOST_IP_ADDRESS" : "192.168.133.1",
"HOST_PORT" : "10000",
"STREAM_TO_IP_ADDRESS" : "192.168.133.1",
"STREAM_TO_PORT" : "47000",
"CLOCK_SELECT" : "External",
"CLOCK_SPEED_M_HZ" : "13.5",
"CHANNEL_STATUS0" : "On",
"CHANNEL_STATUS1" : "Off",
"CHANNEL_STATUS2" : "Off",
"CHANNEL_STATUS3" : "Off",
"CHANNEL_STATUS4" : "Off",
"CHANNEL_STATUS5" : "Off",
"COMMENT_DESCRIPTION" : "No Comment",
"AUTHOR" : "uplegger",
"RECORD_INSERTION_TIME" : "1511211048"
},
{
"INTERFACE_ID" : "OtsUDPFSSR0",
"STATUS" : "On",
"FIRMWARE_VERSION" : "2",
"FIRMWARE_TYPE" : "OtsUDPFSSRFirmware",
"HARDWARE_TYPE" : "OtsUDPHardware",
"INTERFACE_IP_ADDRESS" : "192.168.133.20",
"INTERFACE_PORT" : "2001",
"HOST_IP_ADDRESS" : "192.168.133.1",
"HOST_PORT" : "10000",
"STREAM_TO_IP_ADDRESS" : "192.168.133.1",
"STREAM_TO_PORT" : "47000",
"CLOCK_SELECT" : "External",
"CLOCK_SPEED_M_HZ" : "13.5",
"CHANNEL_STATUS0" : "On",
"CHANNEL_STATUS1" : "On",
"CHANNEL_STATUS2" : "On",
"CHANNEL_STATUS3" : "On",
"CHANNEL_STATUS4" : "Off",
"CHANNEL_STATUS5" : "Off",
"COMMENT_DESCRIPTION" : "No Comment",
"AUTHOR" : "uplegger",
"RECORD_INSERTION_TIME" : "1511211048"
},
{
"INTERFACE_ID" : "OtsUDPFSSR1",
"STATUS" : "On",
"FIRMWARE_VERSION" : "2",
"FIRMWARE_TYPE" : "OtsUDPFSSRFirmware",
"HARDWARE_TYPE" : "OtsUDPHardware",
"INTERFACE_IP_ADDRESS" : "192.168.133.36",
"INTERFACE_PORT" : "2001",
"HOST_IP_ADDRESS" : "192.168.133.1",
"HOST_PORT" : "10001",
"STREAM_TO_IP_ADDRESS" : "192.168.133.1",
"STREAM_TO_PORT" : "47001",
"CLOCK_SELECT" : "External",
"CLOCK_SPEED_M_HZ" : "13.5",
"CHANNEL_STATUS0" : "On",
"CHANNEL_STATUS1" : "On",
"CHANNEL_STATUS2" : "On",
"CHANNEL_STATUS3" : "On",
"CHANNEL_STATUS4" : "Off",
"CHANNEL_STATUS5" : "Off",
"COMMENT_DESCRIPTION" : "No Comment",
"AUTHOR" : "uplegger",
"RECORD_INSERTION_TIME" : "1511211048"
},
{
"INTERFACE_ID" : "OtsUDPFSSR2",
"STATUS" : "On",
"FIRMWARE_VERSION" : "2",
"FIRMWARE_TYPE" : "OtsUDPFSSRFirmware",
"HARDWARE_TYPE" : "OtsUDPHardware",
"INTERFACE_IP_ADDRESS" : "192.168.133.132",
"INTERFACE_PORT" : "2001",
"HOST_IP_ADDRESS" : "192.168.133.1",
"HOST_PORT" : "10002",
"STREAM_TO_IP_ADDRESS" : "192.168.133.1",
"STREAM_TO_PORT" : "47002",
"CLOCK_SELECT" : "External",
"CLOCK_SPEED_M_HZ" : "13.5",
"CHANNEL_STATUS0" : "On",
"CHANNEL_STATUS1" : "On",
"CHANNEL_STATUS2" : "On",
"CHANNEL_STATUS3" : "On",
"CHANNEL_STATUS4" : "On",
"CHANNEL_STATUS5" : "On",
"COMMENT_DESCRIPTION" : "No Comment",
"AUTHOR" : "uplegger",
"RECORD_INSERTION_TIME" : "1511211048"
}
]
},
"metadata" : {

},
"search" : [

]
},
"comments" : [

],
"origin" : {
"source" : "template",
"name" : "notprovided",
"format" : "json",
"created" : "2017-11-20T14:50:48.953-0600",
"rawdata" : [

]
},
"version" : "2",
"entities" : [
{
"name" : "OTSROOT",
"assigned" : "2017-11-20T14:50:48.956-0600"
}
],
"configurations" : [
{
"name" : "notprovided",
"assigned" : "2017-11-20T14:50:48.955-0600"
},
{
"name" : "FTBFConfig_v30",
"assigned" : "2017-11-20T15:39:57.675-0600"
},
{
"name" : "FTBFConfig_v31",
"assigned" : "2017-11-20T16:41:03.716-0600"
},
{
"name" : "FTBFConfig_v32",
"assigned" : "2017-11-20T18:55:36.662-0600"
},
{
"name" : "FTBFConfig_v33",
"assigned" : "2017-11-20T18:57:31.989-0600"
},
{
"name" : "FTBFConfig_v34",
"assigned" : "2017-11-29T17:50:41.447-0600"
},
{
"name" : "FTBFConfig_v35",
"assigned" : "2017-11-29T18:00:34.499-0600"
},
{
"name" : "FTBFConfig_v36",
"assigned" : "2017-11-29T18:35:13.116-0600"
},
{
"name" : "FTBFConfig_v37",
"assigned" : "2017-12-01T09:36:20.045-0600"
},
{
"name" : "FTBFConfig_v38",
"assigned" : "2017-12-01T09:52:02.959-0600"
},
{
"name" : "FTBFConfig_v39",
"assigned" : "2017-12-01T11:52:00.232-0600"
},
{
"name" : "FTBFConfig_v40",
"assigned" : "2017-12-01T12:18:22.368-0600"
},
{
"name" : "FTBFConfig_v41",
"assigned" : "2017-12-01T12:21:04.335-0600"
},
{
"name" : "FTBFConfig_v42",
"assigned" : "2017-12-01T12:43:23.829-0600"
},
{
"name" : "FTBFConfig_v43",
"assigned" : "2017-12-01T12:58:01.813-0600"
},
{
"name" : "FTBFConfig_v44",
"assigned" : "2017-12-01T13:00:54.280-0600"
},
{
"name" : "FTBFConfig_v45",
"assigned" : "2017-12-01T13:25:50.889-0600"
},
{
"name" : "FTBFConfig_v46",
"assigned" : "2017-12-01T13:35:45.732-0600"
},
{
"name" : "FTBFConfig_v47",
"assigned" : "2017-12-01T14:00:53.833-0600"
},
{
"name" : "FTBFConfig_v48",
"assigned" : "2017-12-01T14:04:01.188-0600"
},
{
"name" : "FTBFConfig_v49",
"assigned" : "2017-12-01T15:32:01.375-0600"
},
{
"name" : "FTBFConfig_v52",
"assigned" : "2017-12-01T15:37:34.645-0600"
},
{
"name" : "FTBFConfig_v53",
"assigned" : "2017-12-01T15:41:00.908-0600"
},
{
"name" : "FTBFConfig_v54",
"assigned" : "2017-12-01T15:52:51.205-0600"
},
{
"name" : "FTBFConfig_v55",
"assigned" : "2017-12-01T15:54:36.425-0600"
},
{
"name" : "FTBFConfig_v56",
"assigned" : "2017-12-01T15:55:35.991-0600"
},
{
"name" : "FTBFConfig_v57",
"assigned" : "2017-12-01T15:56:41.831-0600"
},
{
"name" : "FTBFConfig_v58",
"assigned" : "2017-12-01T15:57:39.955-0600"
},
{
"name" : "FTBFConfig_v59",
"assigned" : "2017-12-01T15:58:31.795-0600"
},
{
"name" : "FTBFConfig_v60",
"assigned" : "2017-12-01T15:59:33.056-0600"
},
{
"name" : "FTBFConfig_v61",
"assigned" : "2017-12-01T16:19:42.918-0600"
},
{
"name" : "FTBFConfig_v62",
"assigned" : "2017-12-01T16:22:05.350-0600"
},
{
"name" : "FTBFConfig_v63",
"assigned" : "2017-12-01T16:31:26.012-0600"
},
{
"name" : "FTBFConfig_v64",
"assigned" : "2017-12-01T17:06:33.382-0600"
},
{
"name" : "FTBFConfig_v65",
"assigned" : "2017-12-01T17:32:45.572-0600"
},
{
"name" : "FTBFConfig_v66",
"assigned" : "2017-12-01T20:38:51.955-0600"
},
{
"name" : "FTBFConfig_v67",
"assigned" : "2017-12-01T21:25:03.274-0600"
},
{
"name" : "FTBFConfig_v68",
"assigned" : "2017-12-01T21:43:02.995-0600"
},
{
"name" : "FTBFConfig_v69",
"assigned" : "2017-12-01T21:45:01.588-0600"
},
{
"name" : "FTBFConfig_v70",
"assigned" : "2017-12-01T21:59:20.897-0600"
},
{
"name" : "FTBFConfigNim_v0",
"assigned" : "2017-12-01T22:00:07.618-0600"
},
{
"name" : "FTBFConfigNim_v1",
"assigned" : "2017-12-01T22:13:09.444-0600"
},
{
"name" : "FTBFConfigNim_v2",
"assigned" : "2017-12-01T22:15:56.632-0600"
},
{
"name" : "FTBFConfigNim_v3",
"assigned" : "2017-12-01T22:17:05.217-0600"
},
{
"name" : "FTBFConfigNim_v4",
"assigned" : "2017-12-01T22:19:07.745-0600"
},
{
"name" : "FTBFConfigNim_v5",
"assigned" : "2017-12-01T22:21:58.530-0600"
},
{
"name" : "FTBFConfigNim_v6",
"assigned" : "2017-12-01T22:23:17.046-0600"
},
{
"name" : "FTBFConfigNim_v7",
"assigned" : "2017-12-01T22:25:18.530-0600"
},
{
"name" : "FTBFConfigNim_v8",
"assigned" : "2017-12-01T22:27:06.223-0600"
},
{
"name" : "FTBFConfigNim_v9",
"assigned" : "2017-12-01T22:29:30.436-0600"
},
{
"name" : "FTBFConfigNim_v10",
"assigned" : "2017-12-01T22:52:35.877-0600"
},
{
"name" : "FTBFConfigNim_v11",
"assigned" : "2017-12-01T22:57:30.366-0600"
},
{
"name" : "FTBFConfigNim_v12",
"assigned" : "2017-12-01T23:00:08.565-0600"
},
{
"name" : "FTBFConfigNim_v13",
"assigned" : "2017-12-01T23:52:36.723-0600"
},
{
"name" : "FTBFConfigNim_v14",
"assigned" : "2017-12-01T23:58:11.198-0600"
},
{
"name" : "FTBFConfigNim_v15",
"assigned" : "2017-12-02T00:00:35.409-0600"
},
{
"name" : "FTBFConfigNim_v16",
"assigned" : "2017-12-02T00:13:10.649-0600"
},
{
"name" : "FTBFConfigNim_v17",
"assigned" : "2017-12-02T00:28:29.545-0600"
},
{
"name" : "FTBFConfigNim_v18",
"assigned" : "2017-12-02T00:29:35.634-0600"
},
{
"name" : "FTBFConfigNim_v19",
"assigned" : "2017-12-02T00:31:14.501-0600"
},
{
"name" : "FTBFConfigNim_v20",
"assigned" : "2017-12-02T00:57:28.685-0600"
},
{
"name" : "FTBFConfigNim_v21",
"assigned" : "2017-12-02T10:58:03.252-0600"
},
{
"name" : "FTBFConfigNim_v22",
"assigned" : "2017-12-02T11:08:19.423-0600"
},
{
"name" : "FTBFConfigNim_v23",
"assigned" : "2017-12-02T11:12:41.062-0600"
},
{
"name" : "FTBFConfigNim_v24",
"assigned" : "2017-12-02T11:18:43.945-0600"
},
{
"name" : "FTBFConfigNim_v25",
"assigned" : "2017-12-02T11:27:07.151-0600"
},
{
"name" : "FTBFConfigNim_v26",
"assigned" : "2017-12-02T11:38:38.211-0600"
},
{
"name" : "FTBFConfigNim_v27",
"assigned" : "2017-12-02T11:49:09.440-0600"
},
{
"name" : "FTBFConfigNim_v28",
"assigned" : "2017-12-02T11:55:10.955-0600"
},
{
"name" : "FTBFConfigNim_v29",
"assigned" : "2017-12-02T12:06:27.765-0600"
},
{
"name" : "FTBFConfig_v71",
"assigned" : "2017-12-02T12:24:16.400-0600"
},
{
"name" : "FTBFConfig_v72",
"assigned" : "2017-12-02T12:43:37.324-0600"
},
{
"name" : "FTBFConfig_v73",
"assigned" : "2017-12-02T13:55:37.014-0600"
},
{
"name" : "FTBFConfig_v75",
"assigned" : "2017-12-02T14:12:20.207-0600"
},
{
"name" : "FTBFConfig_v76",
"assigned" : "2017-12-02T19:05:55.217-0600"
},
{
"name" : "FTBFConfig_v77",
"assigned" : "2017-12-02T19:12:15.046-0600"
},
{
"name" : "FTBFConfig_v78",
"assigned" : "2017-12-03T14:03:50.200-0600"
},
{
"name" : "FTBFConfig_v79",
"assigned" : "2017-12-03T14:09:08.495-0600"
},
{
"name" : "FTBFConfig_v80",
"assigned" : "2017-12-03T14:11:12.289-0600"
},
{
"name" : "FTBFConfig_v81",
"assigned" : "2017-12-03T14:22:35.294-0600"
},
{
"name" : "FTBFConfig_v82",
"assigned" : "2017-12-03T14:40:40.120-0600"
},
{
"name" : "FTBFConfig_v83",
"assigned" : "2017-12-03T14:45:07.492-0600"
},
{
"name" : "FTBFConfig_v84",
"assigned" : "2017-12-04T14:51:32.732-0600"
},
{
"name" : "FTBFConfig_v85",
"assigned" : "2017-12-04T14:55:45.963-0600"
},
{
"name" : "FTBFConfig_v86",
"assigned" : "2017-12-04T16:51:09.026-0600"
},
{
"name" : "FTBFConfig_v87",
"assigned" : "2017-12-04T16:56:49.660-0600"
},
{
"name" : "FTBFConfig_v88",
"assigned" : "2017-12-04T17:01:14.434-0600"
},
{
"name" : "FTBFConfig_v89",
"assigned" : "2017-12-04T17:03:59.554-0600"
},
{
"name" : "FTBFConfig_v90",
"assigned" : "2017-12-04T17:07:19.221-0600"
},
{
"name" : "FTBFConfig_v91",
"assigned" : "2017-12-04T17:09:28.374-0600"
},
{
"name" : "FTBFConfig_v92",
"assigned" : "2017-12-04T17:11:40.890-0600"
},
{
"name" : "FTBFConfig_v93",
"assigned" : "2017-12-04T21:05:23.403-0600"
},
{
"name" : "FTBFConfig_v94",
"assigned" : "2017-12-04T21:17:14.430-0600"
},
{
"name" : "FTBFConfig_v95",
"assigned" : "2017-12-04T21:41:20.033-0600"
},
{
"name" : "FTBFConfig_v96",
"assigned" : "2017-12-04T22:39:04.707-0600"
},
{
"name" : "FTBFConfig_v97",
"assigned" : "2017-12-04T23:01:15.231-0600"
},
{
"name" : "FTBFConfig_v98",
"assigned" : "2017-12-07T11:07:49.217-0600"
},
{
"name" : "FTBFConfig_v99",
"assigned" : "2017-12-07T11:50:01.880-0600"
},
{
"name" : "FTBFConfig_v100",
"assigned" : "2017-12-07T11:58:28.626-0600"
},
{
"name" : "FTBFConfig_v101",
"assigned" : "2017-12-08T13:30:50.810-0600"
},
{
"name" : "FTBFConfig_v102",
"assigned" : "2017-12-08T13:32:37.704-0600"
},
{
"name" : "FTBFConfig_v103",
"assigned" : "2017-12-12T11:03:07.516-0600"
},
{
"name" : "FTBFConfig_v104",
"assigned" : "2017-12-12T13:51:02.111-0600"
},
{
"name" : "FTBFConfig_v105",
"assigned" : "2017-12-12T15:25:08.074-0600"
},
{
"name" : "FTBFConfig_v106",
"assigned" : "2017-12-13T10:24:26.377-0600"
},
{
"name" : "FTBFConfig_v107",
"assigned" : "2017-12-13T10:27:05.057-0600"
},
{
"name" : "FTBFConfig_v108",
"assigned" : "2018-02-01T21:14:28.833-0600"
},
{
"name" : "FTBFConfig_v109",
"assigned" : "2018-02-01T21:21:05.962-0600"
},
{
"name" : "FTBFConfig_v110",
"assigned" : "2018-02-02T11:25:36.996-0600"
},
{
"name" : "FTBFConfig_v111",
"assigned" : "2018-02-02T11:37:15.795-0600"
},
{
"name" : "FTBFConfig_v112",
"assigned" : "2018-02-02T11:47:18.306-0600"
},
{
"name" : "FTBFConfig_v113",
"assigned" : "2018-02-02T11:53:39.558-0600"
},
{
"name" : "FTBFConfig_v114",
"assigned" : "2018-02-02T12:00:55.696-0600"
},
{
"name" : "FTBFConfig_v115",
"assigned" : "2018-02-02T12:27:17.152-0600"
},
{
"name" : "FTBFConfig_v116",
"assigned" : "2018-02-02T14:28:56.689-0600"
},
{
"name" : "FTBFConfig_v117",
"assigned" : "2018-02-02T14:30:23.054-0600"
},
{
"name" : "FTBFConfig_v118",
"assigned" : "2018-02-02T14:34:04.303-0600"
},
{
"name" : "FTBFConfig_v119",
"assigned" : "2018-02-02T14:36:30.908-0600"
},
{
"name" : "FTBFConfig_v120",
"assigned" : "2018-02-02T14:38:44.328-0600"
},
{
"name" : "FTBFConfig_v121",
"assigned" : "2018-02-02T14:41:53.594-0600"
},
{
"name" : "FTBFConfig_v122",
"assigned" : "2018-02-02T14:50:27.686-0600"
},
{
"name" : "FTBFConfig_v123",
"assigned" : "2018-02-02T14:53:00.568-0600"
},
{
"name" : "FTBFConfig_v124",
"assigned" : "2018-02-02T14:59:53.886-0600"
},
{
"name" : "FTBFConfig_v125",
"assigned" : "2018-02-02T15:04:12.013-0600"
},
{
"name" : "FTBFConfig_v126",
"assigned" : "2018-02-02T15:50:15.343-0600"
},
{
"name" : "FTBFConfig_v127",
"assigned" : "2018-02-02T15:51:34.739-0600"
},
{
"name" : "FTBFConfig_v128",
"assigned" : "2018-02-02T15:52:39.907-0600"
},
{
"name" : "FTBFConfig_v129",
"assigned" : "2018-02-02T16:02:48.840-0600"
},
{
"name" : "FTBFConfig_v130",
"assigned" : "2018-02-02T16:08:48.399-0600"
},
{
"name" : "FTBFConfig_v131",
"assigned" : "2018-02-02T16:11:34.253-0600"
},
{
"name" : "FTBFConfig_v132",
"assigned" : "2018-02-02T16:13:02.140-0600"
},
{
"name" : "FTBFConfig_v133",
"assigned" : "2018-02-02T16:14:32.787-0600"
},
{
"name" : "FTBFConfig_v134",
"assigned" : "2018-02-02T16:26:25.652-0600"
},
{
"name" : "FTBFConfig_v135",
"assigned" : "2018-02-02T16:27:12.782-0600"
},
{
"name" : "FTBFConfig_v136",
"assigned" : "2018-02-02T16:29:34.142-0600"
},
{
"name" : "FTBFConfig_v137",
"assigned" : "2018-02-02T16:31:44.803-0600"
},
{
"name" : "FTBFConfig_v138",
"assigned" : "2018-02-02T16:34:17.452-0600"
},
{
"name" : "FTBFConfig_v139",
"assigned" : "2018-02-02T17:39:33.511-0600"
},
{
"name" : "FTBFConfig_v140",
"assigned" : "2018-02-02T17:42:55.716-0600"
},
{
"name" : "FTBFConfig_v141",
"assigned" : "2018-02-02T17:47:40.935-0600"
},
{
"name" : "FTBFConfig_v142",
"assigned" : "2018-02-02T17:54:04.932-0600"
}
],
"changelog" : "notprovided",
"bookkeeping" : {
"isdeleted" : false,
"isreadonly" : false,
"updates" : [
{
"event" : "addConfiguration",
"timestamp" : "2017-11-20T14:50:48.955-0600",
"value" : {
"name" : "notprovided",
"assigned" : "2017-11-20T14:50:48.955-0600"
}
},
{
"event" : "setVersion",
"timestamp" : "2017-11-20T14:50:48.955-0600",
"value" : {
"name" : "2",
"assigned" : "2017-11-20T14:50:48.955-0600"
}
},
{
"event" : "setCollection",
"timestamp" : "2017-11-20T14:50:48.956-0600",
"value" : {
"name" : "FSSRInterfaceConfiguration",
"assigned" : "2017-11-20T14:50:48.956-0600"
}
},
{
"event" : "addEntity",
"timestamp" : "2017-11-20T14:50:48.956-0600",
"value" : {
"name" : "OTSROOT",
"assigned" : "2017-11-20T14:50:48.956-0600"
}
},
{
"event" : "addConfiguration",
"timestamp" : "2017-11-20T15:39:57.675-0600",
"value" : {
"name" : "FTBFConfig_v30",
"assigned" : "2017-11-20T15:39:57.675-0600"
}
},
{
"event" : "addConfiguration",
"timestamp" : "2017-11-20T16:41:03.716-0600",
"value" : {
"name" : "FTBFConfig_v31",
"assigned" : "2017-11-20T16:41:03.716-0600"
}
},
{
"event" : "addConfiguration",
"timestamp" : "2017-11-20T18:55:36.662-0600",
"value" : {
"name" : "FTBFConfig_v32",
"assigned" : "2017-11-20T18:55:36.662-0600"
}
},
{
"event" : "addConfiguration",
"timestamp" : "2017-11-20T18:57:31.989-0600",
"value" : {
"name" : "FTBFConfig_v33",
"assigned" : "2017-11-20T18:57:31.989-0600"
}
},
{
"event" : "addConfiguration",
"timestamp" : "2017-11-29T17:50:41.447-0600",
"value" : {
"name" : "FTBFConfig_v34",
"assigned" : "2017-11-29T17:50:41.447-0600"
}
},
{
"event" : "addConfiguration",
"timestamp" : "2017-11-29T18:00:34.499-0600",
"value" : {
"name" : "FTBFConfig_v35",
"assigned" : "2017-11-29T18:00:34.499-0600"
}
},
{
"event" : "addConfiguration",
"timestamp" : "2017-11-29T18:35:13.116-0600",
"value" : {
"name" : "FTBFConfig_v36",
"assigned" : "2017-11-29T18:35:13.116-0600"
}
},
{
"event" : "addConfiguration",
"timestamp" : "2017-12-01T09:36:20.045-0600",
"value" : {
"name" : "FTBFConfig_v37",
"assigned" : "2017-12-01T09:36:20.045-0600"
}
},
{
"event" : "addConfiguration",
"timestamp" : "2017-12-01T09:52:02.959-0600",
"value" : {
"name" : "FTBFConfig_v38",
"assigned" : "2017-12-01T09:52:02.959-0600"
}
},
{
"event" : "addConfiguration",
"timestamp" : "2017-12-01T11:52:00.232-0600",
"value" : {
"name" : "FTBFConfig_v39",
"assigned" : "2017-12-01T11:52:00.232-0600"
}
},
{
"event" : "addConfiguration",
"timestamp" : "2017-12-01T12:18:22.368-0600",
"value" : {
"name" : "FTBFConfig_v40",
"assigned" : "2017-12-01T12:18:22.368-0600"
}
},
{
"event" : "addConfiguration",
"timestamp" : "2017-12-01T12:21:04.335-0600",
"value" : {
"name" : "FTBFConfig_v41",
"assigned" : "2017-12-01T12:21:04.335-0600"
}
},
{
"event" : "addConfiguration",
"timestamp" : "2017-12-01T12:43:23.830-0600",
"value" : {
"name" : "FTBFConfig_v42",
"assigned" : "2017-12-01T12:43:23.829-0600"
}
},
{
"event" : "addConfiguration",
"timestamp" : "2017-12-01T12:58:01.813-0600",
"value" : {
"name" : "FTBFConfig_v43",
"assigned" : "2017-12-01T12:58:01.813-0600"
}
},
{
"event" : "addConfiguration",
"timestamp" : "2017-12-01T13:00:54.280-0600",
"value" : {
"name" : "FTBFConfig_v44",
"assigned" : "2017-12-01T13:00:54.280-0600"
}
},
{
"event" : "addConfiguration",
"timestamp" : "2017-12-01T13:25:50.889-0600",
"value" : {
"name" : "FTBFConfig_v45",
"assigned" : "2017-12-01T13:25:50.889-0600"
}
},
{
"event" : "addConfiguration",
"timestamp" : "2017-12-01T13:35:45.732-0600",
"value" : {
"name" : "FTBFConfig_v46",
"assigned" : "2017-12-01T13:35:45.732-0600"
}
},
{
"event" : "addConfiguration",
"timestamp" : "2017-12-01T14:00:53.833-0600",
"value" : {
"name" : "FTBFConfig_v47",
"assigned" : "2017-12-01T14:00:53.833-0600"
}
},
{
"event" : "addConfiguration",
"timestamp" : "2017-12-01T14:04:01.188-0600",
"value" : {
"name" : "FTBFConfig_v48",
"assigned" : "2017-12-01T14:04:01.188-0600"
}
},
{
"event" : "addConfiguration",
"timestamp" : "2017-12-01T15:32:01.375-0600",
"value" : {
"name" : "FTBFConfig_v49",
"assigned" : "2017-12-01T15:32:01.375-0600"
}
},
{
"event" : "addConfiguration",
"timestamp" : "2017-12-01T15:37:34.645-0600",
"value" : {
"name" : "FTBFConfig_v52",
"assigned" : "2017-12-01T15:37:34.645-0600"
}
},
{
"event" : "addConfiguration",
"timestamp" : "2017-12-01T15:41:00.908-0600",
"value" : {
"name" : "FTBFConfig_v53",
"assigned" : "2017-12-01T15:41:00.908-0600"
}
},
{
"event" : "addConfiguration",
"timestamp" : "2017-12-01T15:52:51.205-0600",
"value" : {
"name" : "FTBFConfig_v54",
"assigned" : "2017-12-01T15:52:51.205-0600"
}
},
{
"event" : "addConfiguration",
"timestamp" : "2017-12-01T15:54:36.425-0600",
"value" : {
"name" : "FTBFConfig_v55",
"assigned" : "2017-12-01T15:54:36.425-0600"
}
},
{
"event" : "addConfiguration",
"timestamp" : "2017-12-01T15:55:35.991-0600",
"value" : {
"name" : "FTBFConfig_v56",
"assigned" : "2017-12-01T15:55:35.991-0600"
}
},
{
"event" : "addConfiguration",
"timestamp" : "2017-12-01T15:56:41.831-0600",
"value" : {
"name" : "FTBFConfig_v57",
"assigned" : "2017-12-01T15:56:41.831-0600"
}
},
{
"event" : "addConfiguration",
"timestamp" : "2017-12-01T15:57:39.955-0600",
"value" : {
"name" : "FTBFConfig_v58",
"assigned" : "2017-12-01T15:57:39.955-0600"
}
},
{
"event" : "addConfiguration",
"timestamp" : "2017-12-01T15:58:31.795-0600",
"value" : {
"name" : "FTBFConfig_v59",
"assigned" : "2017-12-01T15:58:31.795-0600"
}
},
{
"event" : "addConfiguration",
"timestamp" : "2017-12-01T15:59:33.056-0600",
"value" : {
"name" : "FTBFConfig_v60",
"assigned" : "2017-12-01T15:59:33.056-0600"
}
},
{
"event" : "addConfiguration",
"timestamp" : "2017-12-01T16:19:42.919-0600",
"value" : {
"name" : "FTBFConfig_v61",
"assigned" : "2017-12-01T16:19:42.918-0600"
}
},
{
"event" : "addConfiguration",
"timestamp" : "2017-12-01T16:22:05.350-0600",
"value" : {
"name" : "FTBFConfig_v62",
"assigned" : "2017-12-01T16:22:05.350-0600"
}
},
{
"event" : "addConfiguration",
"timestamp" : "2017-12-01T16:31:26.012-0600",
"value" : {
"name" : "FTBFConfig_v63",
"assigned" : "2017-12-01T16:31:26.012-0600"
}
},
{
"event" : "addConfiguration",
"timestamp" : "2017-12-01T17:06:33.382-0600",
"value" : {
"name" : "FTBFConfig_v64",
"assigned" : "2017-12-01T17:06:33.382-0600"
}
},
{
"event" : "addConfiguration",
"timestamp" : "2017-12-01T17:32:45.572-0600",
"value" : {
"name" : "FTBFConfig_v65",
"assigned" : "2017-12-01T17:32:45.572-0600"
}
},
{
"event" : "addConfiguration",
"timestamp" : "2017-12-01T20:38:51.955-0600",
"value" : {
"name" : "FTBFConfig_v66",
"assigned" : "2017-12-01T20:38:51.955-0600"
}
},
{
"event" : "addConfiguration",
"timestamp" : "2017-12-01T21:25:03.274-0600",
"value" : {
"name" : "FTBFConfig_v67",
"assigned" : "2017-12-01T21:25:03.274-0600"
}
},
{
"event" : "addConfiguration",
"timestamp" : "2017-12-01T21:43:02.995-0600",
"value" : {
"name" : "FTBFConfig_v68",
"assigned" : "2017-12-01T21:43:02.995-0600"
}
},
{
"event" : "addConfiguration",
"timestamp" : "2017-12-01T21:45:01.588-0600",
"value" : {
"name" : "FTBFConfig_v69",
"assigned" : "2017-12-01T21:45:01.588-0600"
}
},
{
"event" : "addConfiguration",
"timestamp" : "2017-12-01T21:59:20.897-0600",
"value" : {
"name" : "FTBFConfig_v70",
"assigned" : "2017-12-01T21:59:20.897-0600"
}
},
{
"event" : "addConfiguration",
"timestamp" : "2017-12-01T22:00:07.618-0600",
"value" : {
"name" : "FTBFConfigNim_v0",
"assigned" : "2017-12-01T22:00:07.618-0600"
}
},
{
"event" : "addConfiguration",
"timestamp" : "2017-12-01T22:13:09.445-0600",
"value" : {
"name" : "FTBFConfigNim_v1",
"assigned" : "2017-12-01T22:13:09.444-0600"
}
},
{
"event" : "addConfiguration",
"timestamp" : "2017-12-01T22:15:56.632-0600",
"value" : {
"name" : "FTBFConfigNim_v2",
"assigned" : "2017-12-01T22:15:56.632-0600"
}
},
{
"event" : "addConfiguration",
"timestamp" : "2017-12-01T22:17:05.218-0600",
"value" : {
"name" : "FTBFConfigNim_v3",
"assigned" : "2017-12-01T22:17:05.217-0600"
}
},
{
"event" : "addConfiguration",
"timestamp" : "2017-12-01T22:19:07.746-0600",
"value" : {
"name" : "FTBFConfigNim_v4",
"assigned" : "2017-12-01T22:19:07.745-0600"
}
},
{
"event" : "addConfiguration",
"timestamp" : "2017-12-01T22:21:58.530-0600",
"value" : {
"name" : "FTBFConfigNim_v5",
"assigned" : "2017-12-01T22:21:58.530-0600"
}
},
{
"event" : "addConfiguration",
"timestamp" : "2017-12-01T22:23:17.046-0600",
"value" : {
"name" : "FTBFConfigNim_v6",
"assigned" : "2017-12-01T22:23:17.046-0600"
}
},
{
"event" : "addConfiguration",
"timestamp" : "2017-12-01T22:25:18.530-0600",
"value" : {
"name" : "FTBFConfigNim_v7",
"assigned" : "2017-12-01T22:25:18.530-0600"
}
},
{
"event" : "addConfiguration",
"timestamp" : "2017-12-01T22:27:06.223-0600",
"value" : {
"name" : "FTBFConfigNim_v8",
"assigned" : "2017-12-01T22:27:06.223-0600"
}
},
{
"event" : "addConfiguration",
"timestamp" : "2017-12-01T22:29:30.436-0600",
"value" : {
"name" : "FTBFConfigNim_v9",
"assigned" : "2017-12-01T22:29:30.436-0600"
}
},
{
"event" : "addConfiguration",
"timestamp" : "2017-12-01T22:52:35.877-0600",
"value" : {
"name" : "FTBFConfigNim_v10",
"assigned" : "2017-12-01T22:52:35.877-0600"
}
},
{
"event" : "addConfiguration",
"timestamp" : "2017-12-01T22:57:30.366-0600",
"value" : {
"name" : "FTBFConfigNim_v11",
"assigned" : "2017-12-01T22:57:30.366-0600"
}
},
{
"event" : "addConfiguration",
"timestamp" : "2017-12-01T23:00:08.565-0600",
"value" : {
"name" : "FTBFConfigNim_v12",
"assigned" : "2017-12-01T23:00:08.565-0600"
}
},
{
"event" : "addConfiguration",
"timestamp" : "2017-12-01T23:52:36.723-0600",
"value" : {
"name" : "FTBFConfigNim_v13",
"assigned" : "2017-12-01T23:52:36.723-0600"
}
},
{
"event" : "addConfiguration",
"timestamp" : "2017-12-01T23:58:11.198-0600",
"value" : {
"name" : "FTBFConfigNim_v14",
"assigned" : "2017-12-01T23:58:11.198-0600"
}
},
{
"event" : "addConfiguration",
"timestamp" : "2017-12-02T00:00:35.409-0600",
"value" : {
"name" : "FTBFConfigNim_v15",
"assigned" : "2017-12-02T00:00:35.409-0600"
}
},
{
"event" : "addConfiguration",
"timestamp" : "2017-12-02T00:13:10.649-0600",
"value" : {
"name" : "FTBFConfigNim_v16",
"assigned" : "2017-12-02T00:13:10.649-0600"
}
},
{
"event" : "addConfiguration",
"timestamp" : "2017-12-02T00:28:29.546-0600",
"value" : {
"name" : "FTBFConfigNim_v17",
"assigned" : "2017-12-02T00:28:29.545-0600"
}
},
{
"event" : "addConfiguration",
"timestamp" : "2017-12-02T00:29:35.634-0600",
"value" : {
"name" : "FTBFConfigNim_v18",
"assigned" : "2017-12-02T00:29:35.634-0600"
}
},
{
"event" : "addConfiguration",
"timestamp" : "2017-12-02T00:31:14.501-0600",
"value" : {
"name" : "FTBFConfigNim_v19",
"assigned" : "2017-12-02T00:31:14.501-0600"
}
},
{
"event" : "addConfiguration",
"timestamp" : "2017-12-02T00:57:28.685-0600",
"value" : {
"name" : "FTBFConfigNim_v20",
"assigned" : "2017-12-02T00:57:28.685-0600"
}
},
{
"event" : "addConfiguration",
"timestamp" : "2017-12-02T10:58:03.252-0600",
"value" : {
"name" : "FTBFConfigNim_v21",
"assigned" : "2017-12-02T10:58:03.252-0600"
}
},
{
"event" : "addConfiguration",
"timestamp" : "2017-12-02T11:08:19.423-0600",
"value" : {
"name" : "FTBFConfigNim_v22",
"assigned" : "2017-12-02T11:08:19.423-0600"
}
},
{
"event" : "addConfiguration",
"timestamp" : "2017-12-02T11:12:41.062-0600",
"value" : {
"name" : "FTBFConfigNim_v23",
"assigned" : "2017-12-02T11:12:41.062-0600"
}
},
{
"event" : "addConfiguration",
"timestamp" : "2017-12-02T11:18:43.945-0600",
"value" : {
"name" : "FTBFConfigNim_v24",
"assigned" : "2017-12-02T11:18:43.945-0600"
}
},
{
"event" : "addConfiguration",
"timestamp" : "2017-12-02T11:27:07.151-0600",
"value" : {
"name" : "FTBFConfigNim_v25",
"assigned" : "2017-12-02T11:27:07.151-0600"
}
},
{
"event" : "addConfiguration",
"timestamp" : "2017-12-02T11:38:38.211-0600",
"value" : {
"name" : "FTBFConfigNim_v26",
"assigned" : "2017-12-02T11:38:38.211-0600"
}
},
{
"event" : "addConfiguration",
"timestamp" : "2017-12-02T11:49:09.440-0600",
"value" : {
"name" : "FTBFConfigNim_v27",
"assigned" : "2017-12-02T11:49:09.440-0600"
}
},
{
"event" : "addConfiguration",
"timestamp" : "2017-12-02T11:55:10.956-0600",
"value" : {
"name" : "FTBFConfigNim_v28",
"assigned" : "2017-12-02T11:55:10.955-0600"
}
},
{
"event" : "addConfiguration",
"timestamp" : "2017-12-02T12:06:27.765-0600",
"value" : {
"name" : "FTBFConfigNim_v29",
"assigned" : "2017-12-02T12:06:27.765-0600"
}
},
{
"event" : "addConfiguration",
"timestamp" : "2017-12-02T12:24:16.400-0600",
"value" : {
"name" : "FTBFConfig_v71",
"assigned" : "2017-12-02T12:24:16.400-0600"
}
},
{
"event" : "addConfiguration",
"timestamp" : "2017-12-02T12:43:37.324-0600",
"value" : {
"name" : "FTBFConfig_v72",
"assigned" : "2017-12-02T12:43:37.324-0600"
}
},
{
"event" : "addConfiguration",
"timestamp" : "2017-12-02T13:55:37.014-0600",
"value" : {
"name" : "FTBFConfig_v73",
"assigned" : "2017-12-02T13:55:37.014-0600"
}
},
{
"event" : "addConfiguration",
"timestamp" : "2017-12-02T14:12:20.207-0600",
"value" : {
"name" : "FTBFConfig_v75",
"assigned" : "2017-12-02T14:12:20.207-0600"
}
},
{
"event" : "addConfiguration",
"timestamp" : "2017-12-02T19:05:55.217-0600",
"value" : {
"name" : "FTBFConfig_v76",
"assigned" : "2017-12-02T19:05:55.217-0600"
}
},
{
"event" : "addConfiguration",
"timestamp" : "2017-12-02T19:12:15.046-0600",
"value" : {
"name" : "FTBFConfig_v77",
"assigned" : "2017-12-02T19:12:15.046-0600"
}
},
{
"event" : "addConfiguration",
"timestamp" : "2017-12-03T14:03:50.200-0600",
"value" : {
"name" : "FTBFConfig_v78",
"assigned" : "2017-12-03T14:03:50.200-0600"
}
},
{
"event" : "addConfiguration",
"timestamp" : "2017-12-03T14:09:08.495-0600",
"value" : {
"name" : "FTBFConfig_v79",
"assigned" : "2017-12-03T14:09:08.495-0600"
}
},
{
"event" : "addConfiguration",
"timestamp" : "2017-12-03T14:11:12.289-0600",
"value" : {
"name" : "FTBFConfig_v80",
"assigned" : "2017-12-03T14:11:12.289-0600"
}
},
{
"event" : "addConfiguration",
"timestamp" : "2017-12-03T14:22:35.294-0600",
"value" : {
"name" : "FTBFConfig_v81",
"assigned" : "2017-12-03T14:22:35.294-0600"
}
},
{
"event" : "addConfiguration",
"timestamp" : "2017-12-03T14:40:40.121-0600",
"value" : {
"name" : "FTBFConfig_v82",
"assigned" : "2017-12-03T14:40:40.120-0600"
}
},
{
"event" : "addConfiguration",
"timestamp" : "2017-12-03T14:45:07.492-0600",
"value" : {
"name" : "FTBFConfig_v83",
"assigned" : "2017-12-03T14:45:07.492-0600"
}
},
{
"event" : "addConfiguration",
"timestamp" : "2017-12-04T14:51:32.732-0600",
"value" : {
"name" : "FTBFConfig_v84",
"assigned" : "2017-12-04T14:51:32.732-0600"
}
},
{
"event" : "addConfiguration",
"timestamp" : "2017-12-04T14:55:45.963-0600",
"value" : {
"name" : "FTBFConfig_v85",
"assigned" : "2017-12-04T14:55:45.963-0600"
}
},
{
"event" : "addConfiguration",
"timestamp" : "2017-12-04T16:51:09.026-0600",
"value" : {
"name" : "FTBFConfig_v86",
"assigned" : "2017-12-04T16:51:09.026-0600"
}
},
{
"event" : "addConfiguration",
"timestamp" : "2017-12-04T16:56:49.660-0600",
"value" : {
"name" : "FTBFConfig_v87",
"assigned" : "2017-12-04T16:56:49.660-0600"
}
},
{
"event" : "addConfiguration",
"timestamp" : "2017-12-04T17:01:14.434-0600",
"value" : {
"name" : "FTBFConfig_v88",
"assigned" : "2017-12-04T17:01:14.434-0600"
}
},
{
"event" : "addConfiguration",
"timestamp" : "2017-12-04T17:03:59.554-0600",
"value" : {
"name" : "FTBFConfig_v89",
"assigned" : "2017-12-04T17:03:59.554-0600"
}
},
{
"event" : "addConfiguration",
"timestamp" : "2017-12-04T17:07:19.221-0600",
"value" : {
"name" : "FTBFConfig_v90",
"assigned" : "2017-12-04T17:07:19.221-0600"
}
},
{
"event" : "addConfiguration",
"timestamp" : "2017-12-04T17:09:28.374-0600",
"value" : {
"name" : "FTBFConfig_v91",
"assigned" : "2017-12-04T17:09:28.374-0600"
}
},
{
"event" : "addConfiguration",
"timestamp" : "2017-12-04T17:11:40.890-0600",
"value" : {
"name" : "FTBFConfig_v92",
"assigned" : "2017-12-04T17:11:40.890-0600"
}
},
{
"event" : "addConfiguration",
"timestamp" : "2017-12-04T21:05:23.403-0600",
"value" : {
"name" : "FTBFConfig_v93",
"assigned" : "2017-12-04T21:05:23.403-0600"
}
},
{
"event" : "addConfiguration",
"timestamp" : "2017-12-04T21:17:14.430-0600",
"value" : {
"name" : "FTBFConfig_v94",
"assigned" : "2017-12-04T21:17:14.430-0600"
}
},
{
"event" : "addConfiguration",
"timestamp" : "2017-12-04T21:41:20.033-0600",
"value" : {
"name" : "FTBFConfig_v95",
"assigned" : "2017-12-04T21:41:20.033-0600"
}
},
{
"event" : "addConfiguration",
"timestamp" : "2017-12-04T22:39:04.707-0600",
"value" : {
"name" : "FTBFConfig_v96",
"assigned" : "2017-12-04T22:39:04.707-0600"
}
},
{
"event" : "addConfiguration",
"timestamp" : "2017-12-04T23:01:15.231-0600",
"value" : {
"name" : "FTBFConfig_v97",
"assigned" : "2017-12-04T23:01:15.231-0600"
}
},
{
"event" : "addConfiguration",
"timestamp" : "2017-12-07T11:07:49.217-0600",
"value" : {
"name" : "FTBFConfig_v98",
"assigned" : "2017-12-07T11:07:49.217-0600"
}
},
{
"event" : "addConfiguration",
"timestamp" : "2017-12-07T11:50:01.880-0600",
"value" : {
"name" : "FTBFConfig_v99",
"assigned" : "2017-12-07T11:50:01.880-0600"
}
},
{
"event" : "addConfiguration",
"timestamp" : "2017-12-07T11:58:28.627-0600",
"value" : {
"name" : "FTBFConfig_v100",
"assigned" : "2017-12-07T11:58:28.626-0600"
}
},
{
"event" : "addConfiguration",
"timestamp" : "2017-12-08T13:30:50.810-0600",
"value" : {
"name" : "FTBFConfig_v101",
"assigned" : "2017-12-08T13:30:50.810-0600"
}
},
{
"event" : "addConfiguration",
"timestamp" : "2017-12-08T13:32:37.705-0600",
"value" : {
"name" : "FTBFConfig_v102",
"assigned" : "2017-12-08T13:32:37.704-0600"
}
},
{
"event" : "addConfiguration",
"timestamp" : "2017-12-12T11:03:07.517-0600",
"value" : {
"name" : "FTBFConfig_v103",
"assigned" : "2017-12-12T11:03:07.516-0600"
}
},
{
"event" : "addConfiguration",
"timestamp" : "2017-12-12T13:51:02.112-0600",
"value" : {
"name" : "FTBFConfig_v104",
"assigned" : "2017-12-12T13:51:02.111-0600"
}
},
{
"event" : "addConfiguration",
"timestamp" : "2017-12-12T15:25:08.074-0600",
"value" : {
"name" : "FTBFConfig_v105",
"assigned" : "2017-12-12T15:25:08.074-0600"
}
},
{
"event" : "addConfiguration",
"timestamp" : "2017-12-13T10:24:26.378-0600",
"value" : {
"name" : "FTBFConfig_v106",
"assigned" : "2017-12-13T10:24:26.377-0600"
}
},
{
"event" : "addConfiguration",
"timestamp" : "2017-12-13T10:27:05.057-0600",
"value" : {
"name" : "FTBFConfig_v107",
"assigned" : "2017-12-13T10:27:05.057-0600"
}
},
{
"event" : "addConfiguration",
"timestamp" : "2018-02-01T21:14:28.834-0600",
"value" : {
"name" : "FTBFConfig_v108",
"assigned" : "2018-02-01T21:14:28.833-0600"
}
},
{
"event" : "addConfiguration",
"timestamp" : "2018-02-01T21:21:05.963-0600",
"value" : {
"name" : "FTBFConfig_v109",
"assigned" : "2018-02-01T21:21:05.962-0600"
}
},
{
"event" : "addConfiguration",
"timestamp" : "2018-02-02T11:25:36.996-0600",
"value" : {
"name" : "FTBFConfig_v110",
"assigned" : "2018-02-02T11:25:36.996-0600"
}
},
{
"event" : "addConfiguration",
"timestamp" : "2018-02-02T11:37:15.795-0600",
"value" : {
"name" : "FTBFConfig_v111",
"assigned" : "2018-02-02T11:37:15.795-0600"
}
},
{
"event" : "addConfiguration",
"timestamp" : "2018-02-02T11:47:18.307-0600",
"value" : {
"name" : "FTBFConfig_v112",
"assigned" : "2018-02-02T11:47:18.306-0600"
}
},
{
"event" : "addConfiguration",
"timestamp" : "2018-02-02T11:53:39.558-0600",
"value" : {
"name" : "FTBFConfig_v113",
"assigned" : "2018-02-02T11:53:39.558-0600"
}
},
{
"event" : "addConfiguration",
"timestamp" : "2018-02-02T12:00:55.696-0600",
"value" : {
"name" : "FTBFConfig_v114",
"assigned" : "2018-02-02T12:00:55.696-0600"
}
},
{
"event" : "addConfiguration",
"timestamp" : "2018-02-02T12:27:17.152-0600",
"value" : {
"name" : "FTBFConfig_v115",
"assigned" : "2018-02-02T12:27:17.152-0600"
}
},
{
"event" : "addConfiguration",
"timestamp" : "2018-02-02T14:28:56.689-0600",
"value" : {
"name" : "FTBFConfig_v116",
"assigned" : "2018-02-02T14:28:56.689-0600"
}
},
{
"event" : "addConfiguration",
"timestamp" : "2018-02-02T14:30:23.055-0600",
"value" : {
"name" : "FTBFConfig_v117",
"assigned" : "2018-02-02T14:30:23.054-0600"
}
},
{
"event" : "addConfiguration",
"timestamp" : "2018-02-02T14:34:04.303-0600",
"value" : {
"name" : "FTBFConfig_v118",
"assigned" : "2018-02-02T14:34:04.303-0600"
}
},
{
"event" : "addConfiguration",
"timestamp" : "2018-02-02T14:36:30.908-0600",
"value" : {
"name" : "FTBFConfig_v119",
"assigned" : "2018-02-02T14:36:30.908-0600"
}
},
{
"event" : "addConfiguration",
"timestamp" : "2018-02-02T14:38:44.328-0600",
"value" : {
"name" : "FTBFConfig_v120",
"assigned" : "2018-02-02T14:38:44.328-0600"
}
},
{
"event" : "addConfiguration",
"timestamp" : "2018-02-02T14:41:53.594-0600",
"value" : {
"name" : "FTBFConfig_v121",
"assigned" : "2018-02-02T14:41:53.594-0600"
}
},
{
"event" : "addConfiguration",
"timestamp" : "2018-02-02T14:50:27.686-0600",
"value" : {
"name" : "FTBFConfig_v122",
"assigned" : "2018-02-02T14:50:27.686-0600"
}
},
{
"event" : "addConfiguration",
"timestamp" : "2018-02-02T14:53:00.568-0600",
"value" : {
"name" : "FTBFConfig_v123",
"assigned" : "2018-02-02T14:53:00.568-0600"
}
},
{
"event" : "addConfiguration",
"timestamp" : "2018-02-02T14:59:53.886-0600",
"value" : {
"name" : "FTBFConfig_v124",
"assigned" : "2018-02-02T14:59:53.886-0600"
}
},
{
"event" : "addConfiguration",
"timestamp" : "2018-02-02T15:04:12.013-0600",
"value" : {
"name" : "FTBFConfig_v125",
"assigned" : "2018-02-02T15:04:12.013-0600"
}
},
{
"event" : "addConfiguration",
"timestamp" : "2018-02-02T15:50:15.343-0600",
"value" : {
"name" : "FTBFConfig_v126",
"assigned" : "2018-02-02T15:50:15.343-0600"
}
},
{
"event" : "addConfiguration",
"timestamp" : "2018-02-02T15:51:34.739-0600",
"value" : {
"name" : "FTBFConfig_v127",
"assigned" : "2018-02-02T15:51:34.739-0600"
}
},
{
"event" : "addConfiguration",
"timestamp" : "2018-02-02T15:52:39.907-0600",
"value" : {
"name" : "FTBFConfig_v128",
"assigned" : "2018-02-02T15:52:39.907-0600"
}
},
{
"event" : "addConfiguration",
"timestamp" : "2018-02-02T16:02:48.840-0600",
"value" : {
"name" : "FTBFConfig_v129",
"assigned" : "2018-02-02T16:02:48.840-0600"
}
},
{
"event" : "addConfiguration",
"timestamp" : "2018-02-02T16:08:48.399-0600",
"value" : {
"name" : "FTBFConfig_v130",
"assigned" : "2018-02-02T16:08:48.399-0600"
}
},
{
"event" : "addConfiguration",
"timestamp" : "2018-02-02T16:11:34.253-0600",
"value" : {
"name" : "FTBFConfig_v131",
"assigned" : "2018-02-02T16:11:34.253-0600"
}
},
{
"event" : "addConfiguration",
"timestamp" : "2018-02-02T16:13:02.140-0600",
"value" : {
"name" : "FTBFConfig_v132",
"assigned" : "2018-02-02T16:13:02.140-0600"
}
},
{
"event" : "addConfiguration",
"timestamp" : "2018-02-02T16:14:32.787-0600",
"value" : {
"name" : "FTBFConfig_v133",
"assigned" : "2018-02-02T16:14:32.787-0600"
}
},
{
"event" : "addConfiguration",
"timestamp" : "2018-02-02T16:26:25.652-0600",
"value" : {
"name" : "FTBFConfig_v134",
"assigned" : "2018-02-02T16:26:25.652-0600"
}
},
{
"event" : "addConfiguration",
"timestamp" : "2018-02-02T16:27:12.782-0600",
"value" : {
"name" : "FTBFConfig_v135",
"assigned" : "2018-02-02T16:27:12.782-0600"
}
},
{
"event" : "addConfiguration",
"timestamp" : "2018-02-02T16:29:34.142-0600",
"value" : {
"name" : "FTBFConfig_v136",
"assigned" : "2018-02-02T16:29:34.142-0600"
}
},
{
"event" : "addConfiguration",
"timestamp" : "2018-02-02T16:31:44.803-0600",
"value" : {
"name" : "FTBFConfig_v137",
"assigned" : "2018-02-02T16:31:44.803-0600"
}
},
{
"event" : "addConfiguration",
"timestamp" : "2018-02-02T16:34:17.453-0600",
"value" : {
"name" : "FTBFConfig_v138",
"assigned" : "2018-02-02T16:34:17.452-0600"
}
},
{
"event" : "addConfiguration",
"timestamp" : "2018-02-02T17:39:33.511-0600",
"value" : {
"name" : "FTBFConfig_v139",
"assigned" : "2018-02-02T17:39:33.511-0600"
}
},
{
"event" : "addConfiguration",
"timestamp" : "2018-02-02T17:42:55.716-0600",
"value" : {
"name" : "FTBFConfig_v140",
"assigned" : "2018-02-02T17:42:55.716-0600"
}
},
{
"event" : "addConfiguration",
"timestamp" : "2018-02-02T17:47:40.935-0600",
"value" : {
"name" : "FTBFConfig_v141",
"assigned" : "2018-02-02T17:47:40.935-0600"
}
},
{
"event" : "addConfiguration",
"timestamp" : "2018-02-02T17:54:04.932-0600",
"value" : {
"name" : "FTBFConfig_v142",
"assigned" : "2018-02-02T17:54:04.932-0600"
}
}
],
"created" : "2017-11-20T14:50:48.954-0600"
},
"_id" : {
"$oid" : "31f27dfdfea04ecba63d011b"
},
"collection" : "FSSRInterfaceConfiguration",
"aliases" : {
"active" : [

],
"history" : [

]
},
"runs" : [

],
"attachments" : [

],
"configtype" : "notprovided"
}