{
"document" : {
"data" : {
"NAME" : "TCP_DATA_LISTENER_PRODUCER_TABLE",
"COMMENT" : "No comment.",
"AUTHOR" : "admin",
"CREATION_TIME" : 1574288559,
"COL_TYPES" : {
"PROCESSOR_UID" : "STRING",
"BUFFER_SIZE" : "NUMBER",
"SERVER_IP_ADDRESS" : "STRING",
"SERVER_PORT" : "NUMBER",
"COMMENT_DESCRIPTION" : "STRING",
"AUTHOR" : "STRING",
"RECORD_INSERTION_TIME" : "TIMESTAMP WITH TIMEZONE"
},
"DATA_SET" : [
{
"PROCESSOR_UID" : "VisualDataBufferListener",
"BUFFER_SIZE" : "1000",
"SERVER_IP_ADDRESS" : "127.0.0.1",
"SERVER_PORT" : "6000",
"COMMENT_DESCRIPTION" : "No Comment",
"AUTHOR" : "admin",
"RECORD_INSERTION_TIME" : "1574288559"
}
]
},
"metadata" : {

},
"search" : [

]
},
"comments" : [

],
"origin" : {
"source" : "template",
"name" : "notprovided",
"format" : "json",
"created" : "2019-11-20T16:22:39.324-0600",
"rawdata" : [

]
},
"version" : "0",
"entities" : [
{
"name" : "OTSROOT",
"assigned" : "2019-11-20T16:22:39.325-0600"
}
],
"configurations" : [
{
"name" : "notprovided",
"assigned" : "2019-11-20T16:22:39.325-0600"
},
{
"name" : "DefaultConfig_v13",
"assigned" : "2019-11-20T16:23:03.736-0600"
},
{
"name" : "DefaultConfig_v14",
"assigned" : "2019-11-20T16:24:45.876-0600"
},
{
"name" : "DefaultConfig_v15",
"assigned" : "2019-11-20T16:27:46.710-0600"
},
{
"name" : "DefaultConfig_v16",
"assigned" : "2019-11-20T16:42:11.272-0600"
}
],
"changelog" : "notprovided",
"bookkeeping" : {
"isdeleted" : false,
"isreadonly" : false,
"updates" : [
{
"event" : "addConfiguration",
"timestamp" : "2019-11-20T16:22:39.325-0600",
"value" : {
"name" : "notprovided",
"assigned" : "2019-11-20T16:22:39.325-0600"
}
},
{
"event" : "setVersion",
"timestamp" : "2019-11-20T16:22:39.325-0600",
"value" : {
"name" : "0",
"assigned" : "2019-11-20T16:22:39.325-0600"
}
},
{
"event" : "setCollection",
"timestamp" : "2019-11-20T16:22:39.325-0600",
"value" : {
"name" : "TCPDataListenerProducerTable",
"assigned" : "2019-11-20T16:22:39.325-0600"
}
},
{
"event" : "addEntity",
"timestamp" : "2019-11-20T16:22:39.326-0600",
"value" : {
"name" : "OTSROOT",
"assigned" : "2019-11-20T16:22:39.325-0600"
}
},
{
"event" : "addConfiguration",
"timestamp" : "2019-11-20T16:23:03.736-0600",
"value" : {
"name" : "DefaultConfig_v13",
"assigned" : "2019-11-20T16:23:03.736-0600"
}
},
{
"event" : "addConfiguration",
"timestamp" : "2019-11-20T16:24:45.876-0600",
"value" : {
"name" : "DefaultConfig_v14",
"assigned" : "2019-11-20T16:24:45.876-0600"
}
},
{
"event" : "addConfiguration",
"timestamp" : "2019-11-20T16:27:46.710-0600",
"value" : {
"name" : "DefaultConfig_v15",
"assigned" : "2019-11-20T16:27:46.710-0600"
}
},
{
"event" : "addConfiguration",
"timestamp" : "2019-11-20T16:42:11.272-0600",
"value" : {
"name" : "DefaultConfig_v16",
"assigned" : "2019-11-20T16:42:11.272-0600"
}
}
],
"created" : "2019-11-20T16:22:39.324-0600"
},
"_id" : {
"$oid" : "1731dabbc47d49d08cf3f934"
},
"collection" : "TCPDataListenerProducerTable",
"aliases" : {
"active" : [

],
"history" : [

]
},
"runs" : [

],
"attachments" : [

],
"configtype" : "notprovided"
}