{
"document" : {
"data" : {
"NAME" : "TCP_DATA_LISTENER_PRODUCER_TABLE",
"COMMENT" : "No comment.",
"AUTHOR" : "admin",
"CREATION_TIME" : 1576009306,
"COL_TYPES" : {
"PROCESSOR_UID" : "STRING",
"BUFFER_SIZE" : "NUMBER",
"SERVER_IP_ADDRESS" : "STRING",
"SERVER_PORT" : "NUMBER",
"COMMENT_DESCRIPTION" : "STRING",
"AUTHOR" : "STRING",
"RECORD_INSERTION_TIME" : "TIMESTAMP WITH TIMEZONE"
},
"DATA_SET" : [
{
"PROCESSOR_UID" : "VisualDataBufferListener",
"BUFFER_SIZE" : "50000",
"SERVER_IP_ADDRESS" : "127.0.0.1",
"SERVER_PORT" : "6000",
"COMMENT_DESCRIPTION" : "No Comment",
"AUTHOR" : "admin",
"RECORD_INSERTION_TIME" : "1576009303"
}
]
},
"metadata" : {

},
"search" : [

]
},
"comments" : [

],
"origin" : {
"source" : "template",
"name" : "notprovided",
"format" : "json",
"created" : "2019-12-10T14:21:46.768-0600",
"rawdata" : [

]
},
"version" : "2",
"entities" : [
{
"name" : "OTSROOT",
"assigned" : "2019-12-10T14:21:46.770-0600"
}
],
"configurations" : [
{
"name" : "notprovided",
"assigned" : "2019-12-10T14:21:46.769-0600"
},
{
"name" : "DefaultConfig_v18",
"assigned" : "2019-12-10T14:21:53.151-0600"
}
],
"changelog" : "notprovided",
"bookkeeping" : {
"isdeleted" : false,
"isreadonly" : false,
"updates" : [
{
"event" : "addConfiguration",
"timestamp" : "2019-12-10T14:21:46.769-0600",
"value" : {
"name" : "notprovided",
"assigned" : "2019-12-10T14:21:46.769-0600"
}
},
{
"event" : "setVersion",
"timestamp" : "2019-12-10T14:21:46.769-0600",
"value" : {
"name" : "2",
"assigned" : "2019-12-10T14:21:46.769-0600"
}
},
{
"event" : "setCollection",
"timestamp" : "2019-12-10T14:21:46.770-0600",
"value" : {
"name" : "TCPDataListenerProducerTable",
"assigned" : "2019-12-10T14:21:46.770-0600"
}
},
{
"event" : "addEntity",
"timestamp" : "2019-12-10T14:21:46.770-0600",
"value" : {
"name" : "OTSROOT",
"assigned" : "2019-12-10T14:21:46.770-0600"
}
},
{
"event" : "addConfiguration",
"timestamp" : "2019-12-10T14:21:53.151-0600",
"value" : {
"name" : "DefaultConfig_v18",
"assigned" : "2019-12-10T14:21:53.151-0600"
}
}
],
"created" : "2019-12-10T14:21:46.768-0600"
},
"_id" : {
"$oid" : "216407186add4c2882d6d7b8"
},
"collection" : "TCPDataListenerProducerTable",
"aliases" : {
"active" : [

],
"history" : [

]
},
"runs" : [

],
"attachments" : [

],
"configtype" : "notprovided"
}