{
"ouid" : [
"1731dabbc47d49d08cf3f934",
"216407186add4c2882d6d7b8",
"e9f1918e28a147589da8ecbc"
],
"version" : {
"0" : [
"1731dabbc47d49d08cf3f934"
],
"1" : [
"e9f1918e28a147589da8ecbc"
],
"2" : [
"216407186add4c2882d6d7b8"
]
},
"configurations.name" : {
"notprovided" : [
"1731dabbc47d49d08cf3f934",
"216407186add4c2882d6d7b8",
"e9f1918e28a147589da8ecbc"
],
"DefaultConfig_v13" : [
"1731dabbc47d49d08cf3f934"
],
"DefaultConfig_v14" : [
"1731dabbc47d49d08cf3f934"
],
"DefaultConfig_v15" : [
"1731dabbc47d49d08cf3f934"
],
"DefaultConfig_v16" : [
"1731dabbc47d49d08cf3f934"
],
"DefaultConfig_v17" : [
"e9f1918e28a147589da8ecbc"
],
"DefaultConfig_v18" : [
"216407186add4c2882d6d7b8"
]
},
"entities.name" : {
"OTSROOT" : [
"1731dabbc47d49d08cf3f934",
"216407186add4c2882d6d7b8",
"e9f1918e28a147589da8ecbc"
]
},
"aliases.active.name" : {

},
"runs.name" : {

},
"configurations.assigned" : {
"notprovided" : [
"2019-11-20T16:22:39.325-0600",
"2019-12-09T19:33:36.415-0600",
"2019-12-10T14:21:46.769-0600"
],
"DefaultConfig_v13" : [
"2019-11-20T16:23:03.736-0600"
],
"DefaultConfig_v14" : [
"2019-11-20T16:24:45.876-0600"
],
"DefaultConfig_v15" : [
"2019-11-20T16:27:46.710-0600"
],
"DefaultConfig_v16" : [
"2019-11-20T16:42:11.272-0600"
],
"DefaultConfig_v17" : [
"2019-12-09T19:33:37.820-0600"
],
"DefaultConfig_v18" : [
"2019-12-10T14:21:53.151-0600"
]
}
}