{
"ouid" : [
"0b6ff9142cc84692b14a0b23",
"72da2e7b081644f59e77a0d8"
],
"version" : {
"2" : [
"0b6ff9142cc84692b14a0b23"
],
"3" : [
"72da2e7b081644f59e77a0d8"
]
},
"configurations.name" : {
"notprovided" : [
"0b6ff9142cc84692b14a0b23",
"72da2e7b081644f59e77a0d8"
],
"DefaultContext_v2" : [
"0b6ff9142cc84692b14a0b23"
],
"DefaultContext_v3" : [
"0b6ff9142cc84692b14a0b23"
],
"DefaultContext_v4" : [
"0b6ff9142cc84692b14a0b23"
],
"DefaultContext_v5" : [
"0b6ff9142cc84692b14a0b23"
],
"DefaultContext_v6" : [
"0b6ff9142cc84692b14a0b23"
],
"DefaultContext_v7" : [
"0b6ff9142cc84692b14a0b23"
],
"DefaultContext_v8" : [
"72da2e7b081644f59e77a0d8"
],
"DefaultContext_v9" : [
"0b6ff9142cc84692b14a0b23"
],
"DefaultContext_v10" : [
"0b6ff9142cc84692b14a0b23"
]
},
"entities.name" : {
"OTSROOT" : [
"0b6ff9142cc84692b14a0b23",
"72da2e7b081644f59e77a0d8"
]
},
"aliases.active.name" : {

},
"runs.name" : {

},
"configurations.assigned" : {
"notprovided" : [
"2020-07-21T14:27:47.488-0500",
"2020-07-21T15:50:00.658-0500"
],
"DefaultContext_v2" : [
"2020-07-21T14:27:47.857-0500"
],
"DefaultContext_v3" : [
"2020-07-21T14:42:50.668-0500"
],
"DefaultContext_v4" : [
"2020-07-21T14:46:44.538-0500"
],
"DefaultContext_v5" : [
"2020-07-21T14:51:16.806-0500"
],
"DefaultContext_v6" : [
"2020-07-21T14:55:17.149-0500"
],
"DefaultContext_v7" : [
"2020-07-21T14:55:57.154-0500"
],
"DefaultContext_v8" : [
"2020-07-21T15:50:01.532-0500"
],
"DefaultContext_v9" : [
"2020-09-09T19:38:00.902+0200"
],
"DefaultContext_v10" : [
"2020-09-11T17:53:13.655+0200"
]
}
}