{
"ouid" : [
"944fcc2232d343f08b71b2e2",
"97afe3e900b14438a51883c4"
],
"version" : {
"0" : [
"97afe3e900b14438a51883c4"
],
"1" : [
"944fcc2232d343f08b71b2e2"
]
},
"configurations.name" : {
"notprovided" : [
"944fcc2232d343f08b71b2e2",
"97afe3e900b14438a51883c4"
],
"DefaultConfig_v10" : [
"97afe3e900b14438a51883c4"
],
"DefaultConfig_v11" : [
"97afe3e900b14438a51883c4"
],
"DefaultConfig_v12" : [
"97afe3e900b14438a51883c4"
],
"DefaultConfig_v13" : [
"97afe3e900b14438a51883c4"
],
"DefaultConfig_v14" : [
"97afe3e900b14438a51883c4"
],
"DefaultConfig_v15" : [
"944fcc2232d343f08b71b2e2"
],
"DefaultConfig_v16" : [
"944fcc2232d343f08b71b2e2"
],
"DefaultConfig_v17" : [
"944fcc2232d343f08b71b2e2"
],
"DefaultConfig_v18" : [
"944fcc2232d343f08b71b2e2"
]
},
"entities.name" : {
"OTSROOT" : [
"944fcc2232d343f08b71b2e2",
"97afe3e900b14438a51883c4"
]
},
"aliases.active.name" : {

},
"runs.name" : {

},
"configurations.assigned" : {
"notprovided" : [
"2019-11-20T15:14:19.457-0600",
"2019-11-20T16:27:20.967-0600"
],
"DefaultConfig_v10" : [
"2019-11-20T15:25:38.431-0600"
],
"DefaultConfig_v11" : [
"2019-11-20T15:28:12.454-0600"
],
"DefaultConfig_v12" : [
"2019-11-20T15:58:29.746-0600"
],
"DefaultConfig_v13" : [
"2019-11-20T16:23:03.458-0600"
],
"DefaultConfig_v14" : [
"2019-11-20T16:24:45.579-0600"
],
"DefaultConfig_v15" : [
"2019-11-20T16:27:46.421-0600"
],
"DefaultConfig_v16" : [
"2019-11-20T16:42:10.959-0600"
],
"DefaultConfig_v17" : [
"2019-12-09T19:33:37.529-0600"
],
"DefaultConfig_v18" : [
"2019-12-10T14:21:50.737-0600"
]
}
}