{
"document" : {
"data" : {
"NAME" : "CAEN_POWER_SUPPLY_DEVICE_TABLE",
"COMMENT" : "No comment.",
"AUTHOR" : "admin",
"CREATION_TIME" : 1598471350,
"COL_TYPES" : {
"POWER_SUPPLY_DEVICE_UID" : "STRING",
"STATUS" : "STRING",
"MODEL" : "STRING",
"CONNECTION" : "STRING",
"IP_ADDRESS" : "STRING",
"PORT" : "NUMBER",
"USER_NAME" : "STRING",
"PASSWORD" : "STRING",
"LINK_TO_POWER_SUPPLY_CHANNEL_TABLE" : "STRING",
"LINK_TO_POWER_SUPPLY_GROUP_UID" : "STRING",
"COMMENT_DESCRIPTION" : "STRING",
"AUTHOR" : "STRING",
"RECORD_INSERTION_TIME" : "TIMESTAMP WITH TIMEZONE"
},
"DATA_SET" : [
{
"POWER_SUPPLY_DEVICE_UID" : "CAENPowerSupply0",
"STATUS" : "On",
"MODEL" : "CAEN",
"CONNECTION" : "Ethernet",
"IP_ADDRESS" : "192.168.0.99",
"PORT" : "10001",
"USER_NAME" : "admin",
"PASSWORD" : "admin",
"LINK_TO_POWER_SUPPLY_CHANNEL_TABLE" : "CAENPowerSupplyChannelTable",
"LINK_TO_POWER_SUPPLY_GROUP_UID" : "CAENPowerSupply0",
"COMMENT_DESCRIPTION" : "No Comment",
"AUTHOR" : "admin",
"RECORD_INSERTION_TIME" : "1598471350"
}
]
},
"metadata" : {

},
"search" : [

]
},
"comments" : [

],
"origin" : {
"source" : "template",
"name" : "notprovided",
"format" : "json",
"created" : "2020-08-26T14:49:10.750-0500",
"rawdata" : [

]
},
"version" : "1",
"entities" : [
{
"name" : "OTSROOT",
"assigned" : "2020-08-26T14:49:10.751-0500"
}
],
"configurations" : [
{
"name" : "notprovided",
"assigned" : "2020-08-26T14:49:10.751-0500"
},
{
"name" : "DefaultConfig_v9",
"assigned" : "2020-08-26T14:49:52.502-0500"
},
{
"name" : "DefaultConfig_v10",
"assigned" : "2020-08-26T14:52:00.121-0500"
}
],
"changelog" : "notprovided",
"bookkeeping" : {
"isdeleted" : false,
"isreadonly" : false,
"updates" : [
{
"event" : "addConfiguration",
"timestamp" : "2020-08-26T14:49:10.751-0500",
"value" : {
"name" : "notprovided",
"assigned" : "2020-08-26T14:49:10.751-0500"
}
},
{
"event" : "setVersion",
"timestamp" : "2020-08-26T14:49:10.751-0500",
"value" : {
"name" : "1",
"assigned" : "2020-08-26T14:49:10.751-0500"
}
},
{
"event" : "setCollection",
"timestamp" : "2020-08-26T14:49:10.751-0500",
"value" : {
"name" : "CAENPowerSupplyDeviceTable",
"assigned" : "2020-08-26T14:49:10.751-0500"
}
},
{
"event" : "addEntity",
"timestamp" : "2020-08-26T14:49:10.751-0500",
"value" : {
"name" : "OTSROOT",
"assigned" : "2020-08-26T14:49:10.751-0500"
}
},
{
"event" : "addConfiguration",
"timestamp" : "2020-08-26T14:49:52.502-0500",
"value" : {
"name" : "DefaultConfig_v9",
"assigned" : "2020-08-26T14:49:52.502-0500"
}
},
{
"event" : "addConfiguration",
"timestamp" : "2020-08-26T14:52:00.121-0500",
"value" : {
"name" : "DefaultConfig_v10",
"assigned" : "2020-08-26T14:52:00.121-0500"
}
}
],
"created" : "2020-08-26T14:49:10.750-0500"
},
"_id" : {
"$oid" : "705f5b2947b0403c9ac92380"
},
"collection" : "CAENPowerSupplyDeviceTable",
"aliases" : {
"active" : [

],
"history" : [

]
},
"runs" : [

],
"attachments" : [

],
"configtype" : "notprovided"
}