{
"ouid" : [
"600a2968e6ce45ea8422b119"
],
"version" : {
"1" : [
"600a2968e6ce45ea8422b119"
]
},
"configurations.name" : {
"notprovided" : [
"600a2968e6ce45ea8422b119"
],
"DefaultConfig_v1" : [
"600a2968e6ce45ea8422b119"
],
"DefaultConfig_v2" : [
"600a2968e6ce45ea8422b119"
],
"DefaultConfig_v3" : [
"600a2968e6ce45ea8422b119"
],
"DefaultConfig_v4" : [
"600a2968e6ce45ea8422b119"
]
},
"entities.name" : {
"OTSROOT" : [
"600a2968e6ce45ea8422b119"
]
},
"aliases.active.name" : {

},
"runs.name" : {

},
"configurations.assigned" : {
"notprovided" : [
"2020-07-21T14:27:46.213-0500"
],
"DefaultConfig_v1" : [
"2020-07-21T14:27:46.765-0500"
],
"DefaultConfig_v2" : [
"2020-07-21T14:44:16.406-0500"
],
"DefaultConfig_v3" : [
"2020-07-21T14:57:50.290-0500"
],
"DefaultConfig_v4" : [
"2020-07-28T10:52:34.180-0500"
]
}
}