{
"ouid" : [
"54d21bbcf9f446cb88720d7f",
"8482096b184a470889cc0615",
"b3596d2481c64939a65e97fd"
],
"version" : {
"0" : [
"8482096b184a470889cc0615"
],
"1" : [
"54d21bbcf9f446cb88720d7f"
],
"2" : [
"b3596d2481c64939a65e97fd"
]
},
"configurations.name" : {
"notprovided" : [
"54d21bbcf9f446cb88720d7f",
"8482096b184a470889cc0615",
"b3596d2481c64939a65e97fd"
],
"iterateDefaultGroup_v0" : [
"8482096b184a470889cc0615"
],
"iterateDefaultGroup_v1" : [
"54d21bbcf9f446cb88720d7f"
],
"iterateDefaultGroup_v2" : [
"54d21bbcf9f446cb88720d7f"
],
"iterateDefaultGroup_v3" : [
"54d21bbcf9f446cb88720d7f"
],
"iterateDefaultGroup_v4" : [
"54d21bbcf9f446cb88720d7f"
],
"iterateDefaultGroup_v5" : [
"54d21bbcf9f446cb88720d7f"
],
"iterateDefaultGroup_v6" : [
"54d21bbcf9f446cb88720d7f"
],
"iterateDefaultGroup_v7" : [
"54d21bbcf9f446cb88720d7f"
],
"iterateDefaultGroup_v8" : [
"54d21bbcf9f446cb88720d7f"
],
"iterateDefaultGroup_v9" : [
"54d21bbcf9f446cb88720d7f"
],
"iterateDefaultGroup_v10" : [
"b3596d2481c64939a65e97fd"
],
"iterateDefaultGroup_v11" : [
"b3596d2481c64939a65e97fd"
],
"iterateDefaultGroup_v12" : [
"b3596d2481c64939a65e97fd"
]
},
"entities.name" : {
"OTSROOT" : [
"54d21bbcf9f446cb88720d7f",
"8482096b184a470889cc0615",
"b3596d2481c64939a65e97fd"
]
},
"aliases.active.name" : {

},
"runs.name" : {

},
"configurations.assigned" : {
"notprovided" : [
"2020-07-21T14:47:39.313-0500",
"2020-07-21T15:25:07.300-0500",
"2020-07-28T13:15:24.461-0500"
],
"iterateDefaultGroup_v0" : [
"2020-07-21T14:47:39.883-0500"
],
"iterateDefaultGroup_v1" : [
"2020-07-21T15:25:08.260-0500"
],
"iterateDefaultGroup_v2" : [
"2020-07-21T15:28:04.660-0500"
],
"iterateDefaultGroup_v3" : [
"2020-07-21T15:42:21.041-0500"
],
"iterateDefaultGroup_v4" : [
"2020-07-21T15:45:04.012-0500"
],
"iterateDefaultGroup_v5" : [
"2020-07-21T15:57:33.976-0500"
],
"iterateDefaultGroup_v6" : [
"2020-07-28T10:52:35.462-0500"
],
"iterateDefaultGroup_v7" : [
"2020-07-28T13:01:37.166-0500"
],
"iterateDefaultGroup_v8" : [
"2020-07-28T13:03:27.345-0500"
],
"iterateDefaultGroup_v9" : [
"2020-07-28T13:12:58.333-0500"
],
"iterateDefaultGroup_v10" : [
"2020-07-28T13:15:25.571-0500"
],
"iterateDefaultGroup_v11" : [
"2020-07-28T13:20:57.520-0500"
],
"iterateDefaultGroup_v12" : [
"2020-07-28T13:27:38.107-0500"
]
}
}