{
"ouid" : [
"137c7b2fddcf4368b7b0000d",
"4a5a9bf9e9534782b6c74f17",
"67cdec252c4f4351b17271a5"
],
"version" : {
"1" : [
"4a5a9bf9e9534782b6c74f17"
],
"2" : [
"137c7b2fddcf4368b7b0000d"
],
"3" : [
"67cdec252c4f4351b17271a5"
]
},
"configurations.name" : {
"notprovided" : [
"137c7b2fddcf4368b7b0000d",
"4a5a9bf9e9534782b6c74f17",
"67cdec252c4f4351b17271a5"
],
"DefaultConfig_v1" : [
"4a5a9bf9e9534782b6c74f17"
],
"DefaultConfig_v2" : [
"137c7b2fddcf4368b7b0000d"
],
"DefaultConfig_v3" : [
"67cdec252c4f4351b17271a5"
],
"DefaultConfig_v4" : [
"67cdec252c4f4351b17271a5"
]
},
"entities.name" : {
"OTSROOT" : [
"137c7b2fddcf4368b7b0000d",
"4a5a9bf9e9534782b6c74f17",
"67cdec252c4f4351b17271a5"
]
},
"aliases.active.name" : {

},
"runs.name" : {

},
"configurations.assigned" : {
"notprovided" : [
"2020-07-21T14:27:46.363-0500",
"2020-07-21T14:44:15.964-0500",
"2020-07-21T14:57:49.804-0500"
],
"DefaultConfig_v1" : [
"2020-07-21T14:27:46.896-0500"
],
"DefaultConfig_v2" : [
"2020-07-21T14:44:16.565-0500"
],
"DefaultConfig_v3" : [
"2020-07-21T14:57:50.438-0500"
],
"DefaultConfig_v4" : [
"2020-07-28T10:52:34.331-0500"
]
}
}