{
"document" : {
"data" : {
"NAME" : "TABLE_GROUP_METADATA",
"COMMENT" : "",
"AUTHOR" : "",
"CREATION_TIME" : 1550763300,
"COL_TYPES" : {
"UNUSED_UID" : "NUMBER",
"GROUP_ALIASES" : "STRING",
"COMMENT_DESCRIPTION" : "STRING",
"AUTHOR" : "STRING",
"GROUP_CREATION_TIME" : "TIMESTAMP WITH TIMEZONE"
},
"DATA_SET" : [
{
"UNUSED_UID" : "0",
"GROUP_ALIASES" : "",
"COMMENT_DESCRIPTION" : "Default%20Outer%20Tracker%20Table",
"AUTHOR" : "admin",
"GROUP_CREATION_TIME" : "1595360656"
}
]
},
"metadata" : {

},
"search" : [

]
},
"comments" : [

],
"origin" : {
"source" : "template",
"name" : "notprovided",
"format" : "json",
"created" : "2020-07-21T14:44:16.305-0500",
"rawdata" : [

]
},
"version" : "6",
"entities" : [
{
"name" : "OTSROOT",
"assigned" : "2020-07-21T14:44:16.305-0500"
}
],
"configurations" : [
{
"name" : "notprovided",
"assigned" : "2020-07-21T14:44:16.305-0500"
},
{
"name" : "DefaultConfig_v2",
"assigned" : "2020-07-21T14:44:16.796-0500"
}
],
"changelog" : "notprovided",
"bookkeeping" : {
"isdeleted" : false,
"isreadonly" : false,
"updates" : [
{
"event" : "addConfiguration",
"timestamp" : "2020-07-21T14:44:16.305-0500",
"value" : {
"name" : "notprovided",
"assigned" : "2020-07-21T14:44:16.305-0500"
}
},
{
"event" : "setVersion",
"timestamp" : "2020-07-21T14:44:16.305-0500",
"value" : {
"name" : "6",
"assigned" : "2020-07-21T14:44:16.305-0500"
}
},
{
"event" : "setCollection",
"timestamp" : "2020-07-21T14:44:16.305-0500",
"value" : {
"name" : "TableGroupMetadata",
"assigned" : "2020-07-21T14:44:16.305-0500"
}
},
{
"event" : "addEntity",
"timestamp" : "2020-07-21T14:44:16.305-0500",
"value" : {
"name" : "OTSROOT",
"assigned" : "2020-07-21T14:44:16.305-0500"
}
},
{
"event" : "addConfiguration",
"timestamp" : "2020-07-21T14:44:16.796-0500",
"value" : {
"name" : "DefaultConfig_v2",
"assigned" : "2020-07-21T14:44:16.796-0500"
}
}
],
"created" : "2020-07-21T14:44:16.305-0500"
},
"_id" : {
"$oid" : "c1431cc6c960432595299c0b"
},
"collection" : "TableGroupMetadata",
"aliases" : {
"active" : [

],
"history" : [

]
},
"runs" : [

],
"attachments" : [

],
"configtype" : "notprovided"
}