{
"ouid" : [
"006b5c0dcc6c4ef981eb0d36",
"04ccc19ebf9f44a1af18dc9c",
"13b6f68c09134ece9381d1db",
"1c42486bf1ab40f486388095",
"25ea71133c1146fe8635bea1",
"2ba28200357848c3b6f192b3",
"30ffd8fb35d24a2abbda151d",
"31e8a76801b5434cafea2b6e",
"39ca274ed2204dc99439471b",
"418ef36760c14e18bd0bbf1d",
"4730a5d8c4b94661a1a5e3cf",
"4bc42c0acc604c7a94eedb39",
"603bd9ff5b2541ee8dfad314",
"61f23003b0a14ffd919edb49",
"6beb26d5e4fb406484bffd22",
"90370c5734bd4656948cde75",
"93ffaf32364a40b39131c279",
"9d8e9d0f2d4640f8bb01c27a",
"9e943c13f5b443eca87958be",
"a5de921ab4704125a1fc3e35",
"bdb911f79e224d0ba68bb468",
"beac21373b9847c5bc752292",
"c04fc3f84f8541d9991be40f",
"c1431cc6c960432595299c0b",
"c644d63d961d4e59a9b8aa3a",
"cd7d55f6fc2b4279859b6361",
"d6151dbf60544550a77185d6",
"d82650c9ab5140ee86815160",
"e1decedee37d4b868b5b90a9",
"e3ede45399f24a0aa759be9f",
"efaf74cff63543539683d7f4",
"f19a77d1b1c84897b7710068",
"f7119058541c49389980249f",
"fd084412b3ef47a5a102ea81"
],
"version" : {
"0" : [
"4bc42c0acc604c7a94eedb39"
],
"1" : [
"30ffd8fb35d24a2abbda151d"
],
"2" : [
"e1decedee37d4b868b5b90a9"
],
"3" : [
"25ea71133c1146fe8635bea1"
],
"4" : [
"39ca274ed2204dc99439471b"
],
"5" : [
"cd7d55f6fc2b4279859b6361"
],
"6" : [
"c1431cc6c960432595299c0b"
],
"7" : [
"006b5c0dcc6c4ef981eb0d36"
],
"8" : [
"c644d63d961d4e59a9b8aa3a"
],
"9" : [
"90370c5734bd4656948cde75"
],
"10" : [
"efaf74cff63543539683d7f4"
],
"11" : [
"93ffaf32364a40b39131c279"
],
"12" : [
"31e8a76801b5434cafea2b6e"
],
"13" : [
"fd084412b3ef47a5a102ea81"
],
"14" : [
"a5de921ab4704125a1fc3e35"
],
"15" : [
"9e943c13f5b443eca87958be"
],
"16" : [
"418ef36760c14e18bd0bbf1d"
],
"17" : [
"c04fc3f84f8541d9991be40f"
],
"18" : [
"f19a77d1b1c84897b7710068"
],
"19" : [
"bdb911f79e224d0ba68bb468"
],
"20" : [
"13b6f68c09134ece9381d1db"
],
"21" : [
"603bd9ff5b2541ee8dfad314"
],
"22" : [
"1c42486bf1ab40f486388095"
],
"23" : [
"e3ede45399f24a0aa759be9f"
],
"24" : [
"d82650c9ab5140ee86815160"
],
"25" : [
"61f23003b0a14ffd919edb49"
],
"26" : [
"d6151dbf60544550a77185d6"
],
"27" : [
"beac21373b9847c5bc752292"
],
"28" : [
"6beb26d5e4fb406484bffd22"
],
"29" : [
"f7119058541c49389980249f"
],
"30" : [
"4730a5d8c4b94661a1a5e3cf"
],
"31" : [
"9d8e9d0f2d4640f8bb01c27a"
],
"32" : [
"2ba28200357848c3b6f192b3"
],
"33" : [
"04ccc19ebf9f44a1af18dc9c"
]
},
"configurations.name" : {
"notprovided" : [
"006b5c0dcc6c4ef981eb0d36",
"04ccc19ebf9f44a1af18dc9c",
"13b6f68c09134ece9381d1db",
"1c42486bf1ab40f486388095",
"25ea71133c1146fe8635bea1",
"2ba28200357848c3b6f192b3",
"30ffd8fb35d24a2abbda151d",
"31e8a76801b5434cafea2b6e",
"39ca274ed2204dc99439471b",
"418ef36760c14e18bd0bbf1d",
"4730a5d8c4b94661a1a5e3cf",
"4bc42c0acc604c7a94eedb39",
"603bd9ff5b2541ee8dfad314",
"61f23003b0a14ffd919edb49",
"6beb26d5e4fb406484bffd22",
"90370c5734bd4656948cde75",
"93ffaf32364a40b39131c279",
"9d8e9d0f2d4640f8bb01c27a",
"9e943c13f5b443eca87958be",
"a5de921ab4704125a1fc3e35",
"bdb911f79e224d0ba68bb468",
"beac21373b9847c5bc752292",
"c04fc3f84f8541d9991be40f",
"c1431cc6c960432595299c0b",
"c644d63d961d4e59a9b8aa3a",
"cd7d55f6fc2b4279859b6361",
"d6151dbf60544550a77185d6",
"d82650c9ab5140ee86815160",
"e1decedee37d4b868b5b90a9",
"e3ede45399f24a0aa759be9f",
"efaf74cff63543539683d7f4",
"f19a77d1b1c84897b7710068",
"f7119058541c49389980249f",
"fd084412b3ef47a5a102ea81"
],
"DefaultConfig_v1" : [
"30ffd8fb35d24a2abbda151d"
],
"DefaultContext_v2" : [
"e1decedee37d4b868b5b90a9"
],
"TableEditWizBackbone_v3" : [
"25ea71133c1146fe8635bea1"
],
"DefaultContext_v3" : [
"39ca274ed2204dc99439471b"
],
"GroupAliasTreeEditWizBackbone_v0" : [
"cd7d55f6fc2b4279859b6361"
],
"DefaultConfig_v2" : [
"c1431cc6c960432595299c0b"
],
"GroupAliasTreeEditWizBackbone_v1" : [
"006b5c0dcc6c4ef981eb0d36"
],
"DefaultContext_v4" : [
"c644d63d961d4e59a9b8aa3a"
],
"GroupAliasTreeEditWizBackbone_v2" : [
"90370c5734bd4656948cde75"
],
"iterateDefaultGroup_v0" : [
"efaf74cff63543539683d7f4"
],
"DefaultContext_v5" : [
"93ffaf32364a40b39131c279"
],
"GroupAliasTreeEditWizBackbone_v3" : [
"31e8a76801b5434cafea2b6e"
],
"DefaultContext_v6" : [
"fd084412b3ef47a5a102ea81"
],
"GroupAliasTreeEditWizBackbone_v4" : [
"a5de921ab4704125a1fc3e35"
],
"DefaultContext_v7" : [
"9e943c13f5b443eca87958be"
],
"GroupAliasTreeEditWizBackbone_v5" : [
"418ef36760c14e18bd0bbf1d"
],
"DefaultConfig_v3" : [
"c04fc3f84f8541d9991be40f"
],
"TableEditWizBackbone_v5" : [
"f19a77d1b1c84897b7710068"
],
"iterateDefaultGroup_v1" : [
"bdb911f79e224d0ba68bb468"
],
"iterateDefaultGroup_v2" : [
"13b6f68c09134ece9381d1db"
],
"iterateDefaultGroup_v3" : [
"603bd9ff5b2541ee8dfad314"
],
"iterateDefaultGroup_v4" : [
"1c42486bf1ab40f486388095"
],
"DefaultContext_v8" : [
"e3ede45399f24a0aa759be9f"
],
"GroupAliasTreeEditWizBackbone_v6" : [
"d82650c9ab5140ee86815160"
],
"iterateDefaultGroup_v5" : [
"61f23003b0a14ffd919edb49"
],
"DefaultConfig_v4" : [
"d6151dbf60544550a77185d6"
],
"iterateDefaultGroup_v6" : [
"beac21373b9847c5bc752292"
],
"iterateDefaultGroup_v7" : [
"6beb26d5e4fb406484bffd22"
],
"iterateDefaultGroup_v8" : [
"f7119058541c49389980249f"
],
"iterateDefaultGroup_v9" : [
"4730a5d8c4b94661a1a5e3cf"
],
"iterateDefaultGroup_v10" : [
"9d8e9d0f2d4640f8bb01c27a"
],
"iterateDefaultGroup_v11" : [
"2ba28200357848c3b6f192b3"
],
"iterateDefaultGroup_v12" : [
"04ccc19ebf9f44a1af18dc9c"
]
},
"entities.name" : {
"OTSROOT" : [
"006b5c0dcc6c4ef981eb0d36",
"04ccc19ebf9f44a1af18dc9c",
"13b6f68c09134ece9381d1db",
"1c42486bf1ab40f486388095",
"25ea71133c1146fe8635bea1",
"2ba28200357848c3b6f192b3",
"30ffd8fb35d24a2abbda151d",
"31e8a76801b5434cafea2b6e",
"39ca274ed2204dc99439471b",
"418ef36760c14e18bd0bbf1d",
"4730a5d8c4b94661a1a5e3cf",
"4bc42c0acc604c7a94eedb39",
"603bd9ff5b2541ee8dfad314",
"61f23003b0a14ffd919edb49",
"6beb26d5e4fb406484bffd22",
"90370c5734bd4656948cde75",
"93ffaf32364a40b39131c279",
"9d8e9d0f2d4640f8bb01c27a",
"9e943c13f5b443eca87958be",
"a5de921ab4704125a1fc3e35",
"bdb911f79e224d0ba68bb468",
"beac21373b9847c5bc752292",
"c04fc3f84f8541d9991be40f",
"c1431cc6c960432595299c0b",
"c644d63d961d4e59a9b8aa3a",
"cd7d55f6fc2b4279859b6361",
"d6151dbf60544550a77185d6",
"d82650c9ab5140ee86815160",
"e1decedee37d4b868b5b90a9",
"e3ede45399f24a0aa759be9f",
"efaf74cff63543539683d7f4",
"f19a77d1b1c84897b7710068",
"f7119058541c49389980249f",
"fd084412b3ef47a5a102ea81"
]
},
"aliases.active.name" : {

},
"runs.name" : {

},
"configurations.assigned" : {
"notprovided" : [
"2020-07-21T14:27:46.023-0500",
"2020-07-21T14:27:46.668-0500",
"2020-07-21T14:27:47.583-0500",
"2020-07-21T14:27:48.033-0500",
"2020-07-21T14:42:50.289-0500",
"2020-07-21T14:42:51.165-0500",
"2020-07-21T14:44:16.305-0500",
"2020-07-21T14:44:17.280-0500",
"2020-07-21T14:46:44.163-0500",
"2020-07-21T14:46:45.057-0500",
"2020-07-21T14:47:39.448-0500",
"2020-07-21T14:51:16.405-0500",
"2020-07-21T14:51:17.399-0500",
"2020-07-21T14:55:16.772-0500",
"2020-07-21T14:55:17.334-0500",
"2020-07-21T14:55:56.794-0500",
"2020-07-21T14:55:57.760-0500",
"2020-07-21T14:57:50.164-0500",
"2020-07-21T14:57:51.255-0500",
"2020-07-21T15:25:07.857-0500",
"2020-07-21T15:28:04.227-0500",
"2020-07-21T15:42:20.473-0500",
"2020-07-21T15:45:03.544-0500",
"2020-07-21T15:50:01.121-0500",
"2020-07-21T15:50:02.157-0500",
"2020-07-21T15:57:33.550-0500",
"2020-07-28T10:52:34.073-0500",
"2020-07-28T10:52:35.045-0500",
"2020-07-28T13:01:36.731-0500",
"2020-07-28T13:03:26.940-0500",
"2020-07-28T13:12:57.906-0500",
"2020-07-28T13:15:25.156-0500",
"2020-07-28T13:20:57.074-0500",
"2020-07-28T13:27:37.655-0500"
],
"DefaultConfig_v1" : [
"2020-07-21T14:27:47.078-0500"
],
"DefaultContext_v2" : [
"2020-07-21T14:27:47.806-0500"
],
"TableEditWizBackbone_v3" : [
"2020-07-21T14:27:48.084-0500"
],
"DefaultContext_v3" : [
"2020-07-21T14:42:50.585-0500"
],
"GroupAliasTreeEditWizBackbone_v0" : [
"2020-07-21T14:42:51.241-0500"
],
"DefaultConfig_v2" : [
"2020-07-21T14:44:16.796-0500"
],
"GroupAliasTreeEditWizBackbone_v1" : [
"2020-07-21T14:44:17.353-0500"
],
"DefaultContext_v4" : [
"2020-07-21T14:46:44.457-0500"
],
"GroupAliasTreeEditWizBackbone_v2" : [
"2020-07-21T14:46:45.129-0500"
],
"iterateDefaultGroup_v0" : [
"2020-07-21T14:47:40.022-0500"
],
"DefaultContext_v5" : [
"2020-07-21T14:51:16.720-0500"
],
"GroupAliasTreeEditWizBackbone_v3" : [
"2020-07-21T14:51:17.467-0500"
],
"DefaultContext_v6" : [
"2020-07-21T14:55:17.063-0500"
],
"GroupAliasTreeEditWizBackbone_v4" : [
"2020-07-21T14:55:17.422-0500"
],
"DefaultContext_v7" : [
"2020-07-21T14:55:57.064-0500"
],
"GroupAliasTreeEditWizBackbone_v5" : [
"2020-07-21T14:55:57.841-0500"
],
"DefaultConfig_v3" : [
"2020-07-21T14:57:50.690-0500"
],
"TableEditWizBackbone_v5" : [
"2020-07-21T14:57:51.317-0500"
],
"iterateDefaultGroup_v1" : [
"2020-07-21T15:25:08.427-0500"
],
"iterateDefaultGroup_v2" : [
"2020-07-21T15:28:04.820-0500"
],
"iterateDefaultGroup_v3" : [
"2020-07-21T15:42:21.235-0500"
],
"iterateDefaultGroup_v4" : [
"2020-07-21T15:45:04.166-0500"
],
"DefaultContext_v8" : [
"2020-07-21T15:50:01.432-0500"
],
"GroupAliasTreeEditWizBackbone_v6" : [
"2020-07-21T15:50:02.240-0500"
],
"iterateDefaultGroup_v5" : [
"2020-07-21T15:57:34.133-0500"
],
"DefaultConfig_v4" : [
"2020-07-28T10:52:34.633-0500"
],
"iterateDefaultGroup_v6" : [
"2020-07-28T10:52:35.618-0500"
],
"iterateDefaultGroup_v7" : [
"2020-07-28T13:01:37.325-0500"
],
"iterateDefaultGroup_v8" : [
"2020-07-28T13:03:27.505-0500"
],
"iterateDefaultGroup_v9" : [
"2020-07-28T13:12:58.494-0500"
],
"iterateDefaultGroup_v10" : [
"2020-07-28T13:15:25.736-0500"
],
"iterateDefaultGroup_v11" : [
"2020-07-28T13:20:57.687-0500"
],
"iterateDefaultGroup_v12" : [
"2020-07-28T13:27:38.261-0500"
]
}
}