{
"document" : {
"data" : {
"NAME" : "RAW_DATA_SAVER_CONSUMER_TABLE",
"COMMENT" : "Records for raw data savers.",
"AUTHOR" : "admin",
"CREATION_TIME" : 1550772416,
"COL_TYPES" : {
"PROCESSOR_UID" : "VARCHAR2",
"FILE_PATH" : "VARCHAR2",
"RADIX_FILE_NAME" : "VARCHAR2",
"MAX_FILE_SIZE" : "NUMBER",
"COMMENT_DESCRIPTION" : "VARCHAR2",
"AUTHOR" : "VARCHAR2",
"RECORD_INSERTION_TIME" : "TIMESTAMP WITH TIMEZONE"
},
"DATA_SET" : [
{
"PROCESSOR_UID" : "OuterTrackerDataBuffer0RawDataSaver0",
"FILE_PATH" : "${OTSDAQ_DATA}/OtsData",
"RADIX_FILE_NAME" : "OuterTrackerSaver0",
"MAX_FILE_SIZE" : "1000",
"COMMENT_DESCRIPTION" : "",
"AUTHOR" : "admin",
"RECORD_INSERTION_TIME" : "1550772416"
}
]
},
"metadata" : {

},
"search" : [

]
},
"comments" : [

],
"origin" : {
"source" : "template",
"name" : "notprovided",
"format" : "json",
"created" : "2019-02-22T16:11:42.855-0600",
"rawdata" : [

]
},
"version" : "1",
"entities" : [
{
"name" : "OTSROOT",
"assigned" : "2019-02-22T16:11:42.855-0600"
}
],
"tables" : [
{
"name" : "notprovided",
"assigned" : "2019-02-22T16:11:42.855-0600"
},
{
"name" : "DefaultConfig_v1",
"assigned" : "2019-02-22T16:11:43.110-0600"
}
],
"changelog" : "notprovided",
"bookkeeping" : {
"isdeleted" : false,
"isreadonly" : false,
"updates" : [
{
"event" : "addTable",
"timestamp" : "2019-02-22T16:11:42.855-0600",
"value" : {
"name" : "notprovided",
"assigned" : "2019-02-22T16:11:42.855-0600"
}
},
{
"event" : "setVersion",
"timestamp" : "2019-02-22T16:11:42.855-0600",
"value" : {
"name" : "1",
"assigned" : "2019-02-22T16:11:42.855-0600"
}
},
{
"event" : "setCollection",
"timestamp" : "2019-02-22T16:11:42.855-0600",
"value" : {
"name" : "RawDataSaverConsumerTable",
"assigned" : "2019-02-22T16:11:42.855-0600"
}
},
{
"event" : "addEntity",
"timestamp" : "2019-02-22T16:11:42.855-0600",
"value" : {
"name" : "OTSROOT",
"assigned" : "2019-02-22T16:11:42.855-0600"
}
},
{
"event" : "addTable",
"timestamp" : "2019-02-22T16:11:43.110-0600",
"value" : {
"name" : "DefaultConfig_v1",
"assigned" : "2019-02-22T16:11:43.110-0600"
}
},
{
"event" : "addConfiguration",
"timestamp" : "2019-07-22T11:27:30.461-0500",
"value" : {
"name" : "DefaultConfig_v2",
"assigned" : "2019-07-22T11:27:30.461-0500"
}
},
{
"event" : "addConfiguration",
"timestamp" : "2019-07-22T14:43:10.347-0500",
"value" : {
"name" : "DefaultConfig_v3",
"assigned" : "2019-07-22T14:43:10.347-0500"
}
},
{
"event" : "addConfiguration",
"timestamp" : "2019-07-22T14:47:01.516-0500",
"value" : {
"name" : "DefaultConfig_v4",
"assigned" : "2019-07-22T14:47:01.516-0500"
}
},
{
"event" : "addConfiguration",
"timestamp" : "2019-07-22T15:05:41.563-0500",
"value" : {
"name" : "DefaultConfig_v5",
"assigned" : "2019-07-22T15:05:41.562-0500"
}
},
{
"event" : "addConfiguration",
"timestamp" : "2019-07-23T09:00:32.049-0500",
"value" : {
"name" : "DefaultConfig_v6",
"assigned" : "2019-07-23T09:00:32.049-0500"
}
},
{
"event" : "addConfiguration",
"timestamp" : "2019-07-23T09:04:43.778-0500",
"value" : {
"name" : "DefaultConfig_v7",
"assigned" : "2019-07-23T09:04:43.778-0500"
}
},
{
"event" : "addConfiguration",
"timestamp" : "2019-07-23T09:48:11.881-0500",
"value" : {
"name" : "DefaultConfig_v8",
"assigned" : "2019-07-23T09:48:11.881-0500"
}
},
{
"event" : "addConfiguration",
"timestamp" : "2019-08-07T11:00:29.505-0500",
"value" : {
"name" : "DefaultConfig_v9",
"assigned" : "2019-08-07T11:00:29.505-0500"
}
},
{
"event" : "addConfiguration",
"timestamp" : "2019-11-20T15:25:38.664-0600",
"value" : {
"name" : "DefaultConfig_v10",
"assigned" : "2019-11-20T15:25:38.664-0600"
}
},
{
"event" : "addConfiguration",
"timestamp" : "2019-11-20T15:28:12.700-0600",
"value" : {
"name" : "DefaultConfig_v11",
"assigned" : "2019-11-20T15:28:12.700-0600"
}
},
{
"event" : "addConfiguration",
"timestamp" : "2019-11-20T15:58:30.015-0600",
"value" : {
"name" : "DefaultConfig_v12",
"assigned" : "2019-11-20T15:58:30.015-0600"
}
},
{
"event" : "addConfiguration",
"timestamp" : "2019-11-20T16:23:03.693-0600",
"value" : {
"name" : "DefaultConfig_v13",
"assigned" : "2019-11-20T16:23:03.693-0600"
}
},
{
"event" : "addConfiguration",
"timestamp" : "2019-11-20T16:24:45.828-0600",
"value" : {
"name" : "DefaultConfig_v14",
"assigned" : "2019-11-20T16:24:45.828-0600"
}
},
{
"event" : "addConfiguration",
"timestamp" : "2019-11-20T16:27:46.664-0600",
"value" : {
"name" : "DefaultConfig_v15",
"assigned" : "2019-11-20T16:27:46.664-0600"
}
},
{
"event" : "addConfiguration",
"timestamp" : "2019-11-20T16:42:11.226-0600",
"value" : {
"name" : "DefaultConfig_v16",
"assigned" : "2019-11-20T16:42:11.226-0600"
}
},
{
"event" : "addConfiguration",
"timestamp" : "2019-12-09T19:33:37.778-0600",
"value" : {
"name" : "DefaultConfig_v17",
"assigned" : "2019-12-09T19:33:37.778-0600"
}
},
{
"event" : "addConfiguration",
"timestamp" : "2019-12-10T14:21:52.850-0600",
"value" : {
"name" : "DefaultConfig_v18",
"assigned" : "2019-12-10T14:21:52.850-0600"
}
},
{
"event" : "addConfiguration",
"timestamp" : "2021-04-29T11:28:52.001-0500",
"value" : {
"name" : "DefaultConfig_v19",
"assigned" : "2021-04-29T11:28:52.001-0500"
}
},
{
"event" : "addConfiguration",
"timestamp" : "2021-04-29T11:36:30.024-0500",
"value" : {
"name" : "DefaultConfig_v20",
"assigned" : "2021-04-29T11:36:30.024-0500"
}
},
{
"event" : "addConfiguration",
"timestamp" : "2021-04-29T11:56:50.357-0500",
"value" : {
"name" : "DefaultConfig_v21",
"assigned" : "2021-04-29T11:56:50.357-0500"
}
},
{
"event" : "addConfiguration",
"timestamp" : "2021-04-29T12:03:11.984-0500",
"value" : {
"name" : "DefaultConfig_v22",
"assigned" : "2021-04-29T12:03:11.984-0500"
}
},
{
"event" : "addConfiguration",
"timestamp" : "2021-04-29T12:06:21.829-0500",
"value" : {
"name" : "DefaultConfig_v23",
"assigned" : "2021-04-29T12:06:21.829-0500"
}
},
{
"event" : "addConfiguration",
"timestamp" : "2021-04-29T13:06:39.487-0500",
"value" : {
"name" : "DefaultConfig_v24",
"assigned" : "2021-04-29T13:06:39.487-0500"
}
},
{
"event" : "addConfiguration",
"timestamp" : "2021-04-30T09:33:57.305-0500",
"value" : {
"name" : "DefaultConfig_v25",
"assigned" : "2021-04-30T09:33:57.305-0500"
}
},
{
"event" : "addConfiguration",
"timestamp" : "2021-04-30T09:34:32.883-0500",
"value" : {
"name" : "DefaultConfig_v26",
"assigned" : "2021-04-30T09:34:32.883-0500"
}
},
{
"event" : "addConfiguration",
"timestamp" : "2021-04-30T09:36:19.631-0500",
"value" : {
"name" : "DefaultConfig_v27",
"assigned" : "2021-04-30T09:36:19.631-0500"
}
},
{
"event" : "addConfiguration",
"timestamp" : "2021-04-30T11:59:06.298-0500",
"value" : {
"name" : "DefaultConfig_v28",
"assigned" : "2021-04-30T11:59:06.298-0500"
}
},
{
"event" : "addConfiguration",
"timestamp" : "2021-04-30T12:10:52.732-0500",
"value" : {
"name" : "DefaultConfig_v29",
"assigned" : "2021-04-30T12:10:52.732-0500"
}
},
{
"event" : "addConfiguration",
"timestamp" : "2021-04-30T12:11:39.049-0500",
"value" : {
"name" : "DefaultConfig_v30",
"assigned" : "2021-04-30T12:11:39.049-0500"
}
},
{
"event" : "addConfiguration",
"timestamp" : "2021-05-06T17:42:15.557-0500",
"value" : {
"name" : "DefaultConfig_v31",
"assigned" : "2021-05-06T17:42:15.557-0500"
}
},
{
"event" : "addConfiguration",
"timestamp" : "2021-05-10T10:42:47.409-0500",
"value" : {
"name" : "DefaultConfig_v32",
"assigned" : "2021-05-10T10:42:47.409-0500"
}
},
{
"event" : "addConfiguration",
"timestamp" : "2021-05-10T11:08:53.212-0500",
"value" : {
"name" : "DefaultConfig_v33",
"assigned" : "2021-05-10T11:08:53.212-0500"
}
},
{
"event" : "addConfiguration",
"timestamp" : "2021-05-12T15:51:23.283-0500",
"value" : {
"name" : "DefaultConfig_v34",
"assigned" : "2021-05-12T15:51:23.283-0500"
}
},
{
"event" : "addConfiguration",
"timestamp" : "2021-05-12T16:11:01.480-0500",
"value" : {
"name" : "DefaultConfig_v35",
"assigned" : "2021-05-12T16:11:01.480-0500"
}
},
{
"event" : "addConfiguration",
"timestamp" : "2021-05-14T15:34:24.834-0500",
"value" : {
"name" : "DefaultConfig_v36",
"assigned" : "2021-05-14T15:34:24.834-0500"
}
},
{
"event" : "addConfiguration",
"timestamp" : "2021-05-14T16:41:01.481-0500",
"value" : {
"name" : "DefaultConfig_v37",
"assigned" : "2021-05-14T16:41:01.481-0500"
}
}
],
"created" : "2019-02-22T16:11:42.855-0600"
},
"_id" : {
"$oid" : "a7c34c44993c4037907ebb5a"
},
"collection" : "RawDataSaverConsumerTable",
"aliases" : {
"active" : [

],
"history" : [

]
},
"runs" : [

],
"attachments" : [

],
"configtype" : "notprovided",
"configurations" : [
{
"name" : "DefaultConfig_v2",
"assigned" : "2019-07-22T11:27:30.461-0500"
},
{
"name" : "DefaultConfig_v3",
"assigned" : "2019-07-22T14:43:10.347-0500"
},
{
"name" : "DefaultConfig_v4",
"assigned" : "2019-07-22T14:47:01.516-0500"
},
{
"name" : "DefaultConfig_v5",
"assigned" : "2019-07-22T15:05:41.562-0500"
},
{
"name" : "DefaultConfig_v6",
"assigned" : "2019-07-23T09:00:32.049-0500"
},
{
"name" : "DefaultConfig_v7",
"assigned" : "2019-07-23T09:04:43.778-0500"
},
{
"name" : "DefaultConfig_v8",
"assigned" : "2019-07-23T09:48:11.881-0500"
},
{
"name" : "DefaultConfig_v9",
"assigned" : "2019-08-07T11:00:29.505-0500"
},
{
"name" : "DefaultConfig_v10",
"assigned" : "2019-11-20T15:25:38.664-0600"
},
{
"name" : "DefaultConfig_v11",
"assigned" : "2019-11-20T15:28:12.700-0600"
},
{
"name" : "DefaultConfig_v12",
"assigned" : "2019-11-20T15:58:30.015-0600"
},
{
"name" : "DefaultConfig_v13",
"assigned" : "2019-11-20T16:23:03.693-0600"
},
{
"name" : "DefaultConfig_v14",
"assigned" : "2019-11-20T16:24:45.828-0600"
},
{
"name" : "DefaultConfig_v15",
"assigned" : "2019-11-20T16:27:46.664-0600"
},
{
"name" : "DefaultConfig_v16",
"assigned" : "2019-11-20T16:42:11.226-0600"
},
{
"name" : "DefaultConfig_v17",
"assigned" : "2019-12-09T19:33:37.778-0600"
},
{
"name" : "DefaultConfig_v18",
"assigned" : "2019-12-10T14:21:52.850-0600"
},
{
"name" : "DefaultConfig_v19",
"assigned" : "2021-04-29T11:28:52.001-0500"
},
{
"name" : "DefaultConfig_v20",
"assigned" : "2021-04-29T11:36:30.024-0500"
},
{
"name" : "DefaultConfig_v21",
"assigned" : "2021-04-29T11:56:50.357-0500"
},
{
"name" : "DefaultConfig_v22",
"assigned" : "2021-04-29T12:03:11.984-0500"
},
{
"name" : "DefaultConfig_v23",
"assigned" : "2021-04-29T12:06:21.829-0500"
},
{
"name" : "DefaultConfig_v24",
"assigned" : "2021-04-29T13:06:39.487-0500"
},
{
"name" : "DefaultConfig_v25",
"assigned" : "2021-04-30T09:33:57.305-0500"
},
{
"name" : "DefaultConfig_v26",
"assigned" : "2021-04-30T09:34:32.883-0500"
},
{
"name" : "DefaultConfig_v27",
"assigned" : "2021-04-30T09:36:19.631-0500"
},
{
"name" : "DefaultConfig_v28",
"assigned" : "2021-04-30T11:59:06.298-0500"
},
{
"name" : "DefaultConfig_v29",
"assigned" : "2021-04-30T12:10:52.732-0500"
},
{
"name" : "DefaultConfig_v30",
"assigned" : "2021-04-30T12:11:39.049-0500"
},
{
"name" : "DefaultConfig_v31",
"assigned" : "2021-05-06T17:42:15.557-0500"
},
{
"name" : "DefaultConfig_v32",
"assigned" : "2021-05-10T10:42:47.409-0500"
},
{
"name" : "DefaultConfig_v33",
"assigned" : "2021-05-10T11:08:53.212-0500"
},
{
"name" : "DefaultConfig_v34",
"assigned" : "2021-05-12T15:51:23.283-0500"
},
{
"name" : "DefaultConfig_v35",
"assigned" : "2021-05-12T16:11:01.480-0500"
},
{
"name" : "DefaultConfig_v36",
"assigned" : "2021-05-14T15:34:24.834-0500"
},
{
"name" : "DefaultConfig_v37",
"assigned" : "2021-05-14T16:41:01.481-0500"
}
]
}