{
"ouid" : [
"2095e6f0260a4f38812a2e20",
"316f471acabf4c669526b746"
],
"version" : {
"1" : [
"2095e6f0260a4f38812a2e20"
],
"2" : [
"316f471acabf4c669526b746"
]
},
"configurations.name" : {
"notprovided" : [
"2095e6f0260a4f38812a2e20",
"316f471acabf4c669526b746"
],
"DefaultConfig_v1" : [
"2095e6f0260a4f38812a2e20"
],
"DefaultConfig_v2" : [
"2095e6f0260a4f38812a2e20"
],
"DefaultConfig_v3" : [
"2095e6f0260a4f38812a2e20"
],
"DefaultConfig_v4" : [
"2095e6f0260a4f38812a2e20"
],
"DefaultConfig_v5" : [
"2095e6f0260a4f38812a2e20"
],
"DefaultConfig_v6" : [
"2095e6f0260a4f38812a2e20"
],
"DefaultConfig_v7" : [
"2095e6f0260a4f38812a2e20"
],
"DefaultConfig_v8" : [
"2095e6f0260a4f38812a2e20"
],
"DefaultConfig_v9" : [
"316f471acabf4c669526b746"
],
"DefaultConfig_v10" : [
"2095e6f0260a4f38812a2e20"
],
"DefaultConfig_v11" : [
"2095e6f0260a4f38812a2e20"
],
"DefaultConfig_v12" : [
"2095e6f0260a4f38812a2e20"
],
"DefaultConfig_v13" : [
"2095e6f0260a4f38812a2e20"
],
"DefaultConfig_v14" : [
"2095e6f0260a4f38812a2e20"
],
"DefaultConfig_v15" : [
"2095e6f0260a4f38812a2e20"
],
"DefaultConfig_v16" : [
"2095e6f0260a4f38812a2e20"
],
"DefaultConfig_v17" : [
"2095e6f0260a4f38812a2e20"
],
"DefaultConfig_v18" : [
"2095e6f0260a4f38812a2e20"
]
},
"entities.name" : {
"OTSROOT" : [
"2095e6f0260a4f38812a2e20",
"316f471acabf4c669526b746"
]
},
"aliases.active.name" : {

},
"runs.name" : {

},
"configurations.assigned" : {
"notprovided" : [
"2019-02-22T16:11:42.830-0600",
"2019-08-07T11:00:28.737-0500"
],
"DefaultConfig_v1" : [
"2019-02-22T16:11:43.091-0600"
],
"DefaultConfig_v2" : [
"2019-07-22T11:27:30.426-0500"
],
"DefaultConfig_v3" : [
"2019-07-22T14:43:10.310-0500"
],
"DefaultConfig_v4" : [
"2019-07-22T14:47:01.481-0500"
],
"DefaultConfig_v5" : [
"2019-07-22T15:05:41.525-0500"
],
"DefaultConfig_v6" : [
"2019-07-23T09:00:32.012-0500"
],
"DefaultConfig_v7" : [
"2019-07-23T09:04:43.738-0500"
],
"DefaultConfig_v8" : [
"2019-07-23T09:48:11.841-0500"
],
"DefaultConfig_v9" : [
"2019-08-07T11:00:29.463-0500"
],
"DefaultConfig_v10" : [
"2019-11-20T15:25:38.622-0600"
],
"DefaultConfig_v11" : [
"2019-11-20T15:28:12.658-0600"
],
"DefaultConfig_v12" : [
"2019-11-20T15:58:29.968-0600"
],
"DefaultConfig_v13" : [
"2019-11-20T16:23:03.653-0600"
],
"DefaultConfig_v14" : [
"2019-11-20T16:24:45.787-0600"
],
"DefaultConfig_v15" : [
"2019-11-20T16:27:46.625-0600"
],
"DefaultConfig_v16" : [
"2019-11-20T16:42:11.182-0600"
],
"DefaultConfig_v17" : [
"2019-12-09T19:33:37.741-0600"
],
"DefaultConfig_v18" : [
"2019-12-10T14:21:52.529-0600"
]
}
}