{
"document" : {
"data" : {
"NAME" : "TCP_DATA_LISTENER_PRODUCER_TABLE",
"COMMENT" : "No comment.",
"AUTHOR" : "admin",
"CREATION_TIME" : 1592578587,
"COL_TYPES" : {
"PROCESSOR_UID" : "STRING",
"BUFFER_SIZE" : "NUMBER",
"SERVER_IP_ADDRESS" : "STRING",
"SERVER_PORT" : "NUMBER",
"DATA_TYPE" : "STRING",
"COMMENT_DESCRIPTION" : "STRING",
"AUTHOR" : "STRING",
"RECORD_INSERTION_TIME" : "TIMESTAMP WITH TIMEZONE"
},
"DATA_SET" : [
{
"PROCESSOR_UID" : "VisualDataBufferListener",
"BUFFER_SIZE" : "1000",
"SERVER_IP_ADDRESS" : "127.0.0.1",
"SERVER_PORT" : "6000",
"DATA_TYPE" : "Raw",
"COMMENT_DESCRIPTION" : "No Comment",
"AUTHOR" : "admin",
"RECORD_INSERTION_TIME" : "1592578587"
}
]
},
"metadata" : {

},
"search" : [

]
},
"comments" : [

],
"origin" : {
"source" : "template",
"name" : "notprovided",
"format" : "json",
"created" : "2020-09-08T15:08:30.447-0500",
"rawdata" : [

]
},
"version" : "0",
"entities" : [
{
"name" : "OTSROOT",
"assigned" : "2020-09-08T15:08:30.448-0500"
}
],
"configurations" : [
{
"name" : "notprovided",
"assigned" : "2020-09-08T15:08:30.448-0500"
},
{
"name" : "DefaultConfig_v0",
"assigned" : "2020-09-08T15:08:30.910-0500"
},
{
"name" : "DefaultConfig_v1",
"assigned" : "2020-09-08T15:38:44.982-0500"
},
{
"name" : "DefaultConfig_v2",
"assigned" : "2020-09-08T17:51:45.156-0500"
},
{
"name" : "DefaultConfig_v3",
"assigned" : "2020-09-08T17:53:12.077-0500"
}
],
"changelog" : "notprovided",
"bookkeeping" : {
"isdeleted" : false,
"isreadonly" : false,
"updates" : [
{
"event" : "addConfiguration",
"timestamp" : "2020-09-08T15:08:30.448-0500",
"value" : {
"name" : "notprovided",
"assigned" : "2020-09-08T15:08:30.448-0500"
}
},
{
"event" : "setVersion",
"timestamp" : "2020-09-08T15:08:30.448-0500",
"value" : {
"name" : "0",
"assigned" : "2020-09-08T15:08:30.448-0500"
}
},
{
"event" : "setCollection",
"timestamp" : "2020-09-08T15:08:30.448-0500",
"value" : {
"name" : "TCPDataListenerProducerTable",
"assigned" : "2020-09-08T15:08:30.448-0500"
}
},
{
"event" : "addEntity",
"timestamp" : "2020-09-08T15:08:30.448-0500",
"value" : {
"name" : "OTSROOT",
"assigned" : "2020-09-08T15:08:30.448-0500"
}
},
{
"event" : "addConfiguration",
"timestamp" : "2020-09-08T15:08:30.910-0500",
"value" : {
"name" : "DefaultConfig_v0",
"assigned" : "2020-09-08T15:08:30.910-0500"
}
},
{
"event" : "addConfiguration",
"timestamp" : "2020-09-08T15:38:44.982-0500",
"value" : {
"name" : "DefaultConfig_v1",
"assigned" : "2020-09-08T15:38:44.982-0500"
}
},
{
"event" : "addConfiguration",
"timestamp" : "2020-09-08T17:51:45.156-0500",
"value" : {
"name" : "DefaultConfig_v2",
"assigned" : "2020-09-08T17:51:45.156-0500"
}
},
{
"event" : "addConfiguration",
"timestamp" : "2020-09-08T17:53:12.077-0500",
"value" : {
"name" : "DefaultConfig_v3",
"assigned" : "2020-09-08T17:53:12.077-0500"
}
}
],
"created" : "2020-09-08T15:08:30.448-0500"
},
"_id" : {
"$oid" : "a507293ebf784982821973b9"
},
"collection" : "TCPDataListenerProducerTable",
"aliases" : {
"active" : [

],
"history" : [

]
},
"runs" : [

],
"attachments" : [

],
"configtype" : "notprovided"
}