{
"ouid" : [
"a507293ebf784982821973b9"
],
"version" : {
"0" : [
"a507293ebf784982821973b9"
]
},
"configurations.name" : {
"notprovided" : [
"a507293ebf784982821973b9"
],
"DefaultConfig_v0" : [
"a507293ebf784982821973b9"
],
"DefaultConfig_v1" : [
"a507293ebf784982821973b9"
],
"DefaultConfig_v2" : [
"a507293ebf784982821973b9"
],
"DefaultConfig_v3" : [
"a507293ebf784982821973b9"
]
},
"entities.name" : {
"OTSROOT" : [
"a507293ebf784982821973b9"
]
},
"aliases.active.name" : {

},
"runs.name" : {

},
"configurations.assigned" : {
"notprovided" : [
"2020-09-08T15:08:30.448-0500"
],
"DefaultConfig_v0" : [
"2020-09-08T15:08:30.910-0500"
],
"DefaultConfig_v1" : [
"2020-09-08T15:38:44.982-0500"
],
"DefaultConfig_v2" : [
"2020-09-08T17:51:45.156-0500"
],
"DefaultConfig_v3" : [
"2020-09-08T17:53:12.077-0500"
]
}
}