{
"document" : {
"data" : {
"NAME" : "ARTDAQ_DAQ_DESTINATION_CONFIGURATION",
"COMMENT" : "No comment.",
"AUTHOR" : "admin",
"CREATION_TIME" : 1510772868,
"COL_TYPES" : {
"DESTINATION_GROUP_ID" : "VARCHAR2",
"DESTINATION_UID" : "VARCHAR2",
"DESTINATION_KEY" : "VARCHAR2",
"TRANSFER_PLUGIN_TYPE" : "VARCHAR2",
"DESTINATION_ARTDAQ_CONTEXT_LINK" : "VARCHAR2",
"DESTINATION_ARTDAQ_CONTEXT_LINK_UID" : "VARCHAR2",
"ARTDAQ_GLOBAL_CONFIGURATION_LINK" : "VARCHAR2",
"ARTDAQ_GLOBAL_CONFIGURATION_LINK_UID" : "VARCHAR2",
"COMMENT_DESCRIPTION" : "VARCHAR2",
"AUTHOR" : "VARCHAR2",
"RECORD_INSERTION_TIME" : "TIMESTAMP WITH TIMEZONE"
},
"DATA_SET" : [
{
"DESTINATION_GROUP_ID" : "reader0DestGroup",
"DESTINATION_UID" : "d2destination0",
"DESTINATION_KEY" : "d2",
"TRANSFER_PLUGIN_TYPE" : "MPI",
"DESTINATION_ARTDAQ_CONTEXT_LINK" : "XDAQContextConfiguration",
"DESTINATION_ARTDAQ_CONTEXT_LINK_UID" : "ARTDAQEventBuilder0",
"ARTDAQ_GLOBAL_CONFIGURATION_LINK" : "ARTDAQGlobalConfiguration",
"ARTDAQ_GLOBAL_CONFIGURATION_LINK_UID" : "artdaq0",
"COMMENT_DESCRIPTION" : "No Comment",
"AUTHOR" : "DEFAULT",
"RECORD_INSERTION_TIME" : "0"
},
{
"DESTINATION_GROUP_ID" : "aggregator0destinations",
"DESTINATION_UID" : "dispatcherDestination0",
"DESTINATION_KEY" : "transfer_to_dispatcher",
"TRANSFER_PLUGIN_TYPE" : "Shmem",
"DESTINATION_ARTDAQ_CONTEXT_LINK" : "NO_LINK",
"DESTINATION_ARTDAQ_CONTEXT_LINK_UID" : "DEFAULT",
"ARTDAQ_GLOBAL_CONFIGURATION_LINK" : "ARTDAQGlobalConfiguration",
"ARTDAQ_GLOBAL_CONFIGURATION_LINK_UID" : "artdaq0",
"COMMENT_DESCRIPTION" : "No Comment",
"AUTHOR" : "DEFAULT",
"RECORD_INSERTION_TIME" : "0"
},
{
"DESTINATION_GROUP_ID" : "readerStripsOnly0DestGroup",
"DESTINATION_UID" : "readerStripsOnlyDestination0",
"DESTINATION_KEY" : "d3",
"TRANSFER_PLUGIN_TYPE" : "MPI",
"DESTINATION_ARTDAQ_CONTEXT_LINK" : "XDAQContextConfiguration",
"DESTINATION_ARTDAQ_CONTEXT_LINK_UID" : "ARTDAQEventBuilderStripsOnly0",
"ARTDAQ_GLOBAL_CONFIGURATION_LINK" : "ARTDAQGlobalConfiguration",
"ARTDAQ_GLOBAL_CONFIGURATION_LINK_UID" : "artdaq0",
"COMMENT_DESCRIPTION" : "No Comment",
"AUTHOR" : "admin",
"RECORD_INSERTION_TIME" : "1510772868"
}
]
},
"metadata" : {

},
"search" : [

]
},
"comments" : [

],
"origin" : {
"source" : "template",
"name" : "notprovided",
"format" : "json",
"created" : "2017-11-15T13:07:48.422-0600",
"rawdata" : [

]
},
"version" : "1",
"entities" : [
{
"name" : "OTSROOT",
"assigned" : "2017-11-15T13:07:48.424-0600"
}
],
"configurations" : [
{
"name" : "notprovided",
"assigned" : "2017-11-15T13:07:48.423-0600"
},
{
"name" : "FTBFConfig_v11",
"assigned" : "2017-11-15T13:07:50.377-0600"
}
],
"changelog" : "notprovided",
"bookkeeping" : {
"isdeleted" : false,
"isreadonly" : false,
"updates" : [
{
"event" : "addConfiguration",
"timestamp" : "2017-11-15T13:07:48.423-0600",
"value" : {
"name" : "notprovided",
"assigned" : "2017-11-15T13:07:48.423-0600"
}
},
{
"event" : "setVersion",
"timestamp" : "2017-11-15T13:07:48.423-0600",
"value" : {
"name" : "1",
"assigned" : "2017-11-15T13:07:48.423-0600"
}
},
{
"event" : "setCollection",
"timestamp" : "2017-11-15T13:07:48.424-0600",
"value" : {
"name" : "ARTDAQDaqDestinationConfiguration",
"assigned" : "2017-11-15T13:07:48.424-0600"
}
},
{
"event" : "addEntity",
"timestamp" : "2017-11-15T13:07:48.424-0600",
"value" : {
"name" : "OTSROOT",
"assigned" : "2017-11-15T13:07:48.424-0600"
}
},
{
"event" : "addConfiguration",
"timestamp" : "2017-11-15T13:07:50.377-0600",
"value" : {
"name" : "FTBFConfig_v11",
"assigned" : "2017-11-15T13:07:50.377-0600"
}
}
],
"created" : "2017-11-15T13:07:48.422-0600"
},
"_id" : {
"$oid" : "59be8e25f18d4dbe918ebbdc"
},
"collection" : "ARTDAQDaqDestinationConfiguration",
"aliases" : {
"active" : [

],
"history" : [

]
},
"runs" : [

],
"attachments" : [

],
"configtype" : "notprovided"
}