{
"ouid" : [
"50a50a89c9fc47f7936a0eaa"
],
"version" : {
"0" : [
"50a50a89c9fc47f7936a0eaa"
]
},
"configurations.name" : {
"notprovided" : [
"50a50a89c9fc47f7936a0eaa"
],
"DefaultConfig_v0" : [
"50a50a89c9fc47f7936a0eaa"
],
"DefaultConfig_v1" : [
"50a50a89c9fc47f7936a0eaa"
],
"DefaultConfig_v2" : [
"50a50a89c9fc47f7936a0eaa"
],
"DefaultConfig_v3" : [
"50a50a89c9fc47f7936a0eaa"
]
},
"entities.name" : {
"OTSROOT" : [
"50a50a89c9fc47f7936a0eaa"
]
},
"aliases.active.name" : {

},
"runs.name" : {

},
"configurations.assigned" : {
"notprovided" : [
"2020-09-08T15:08:30.491-0500"
],
"DefaultConfig_v0" : [
"2020-09-08T15:08:30.976-0500"
],
"DefaultConfig_v1" : [
"2020-09-08T15:38:45.062-0500"
],
"DefaultConfig_v2" : [
"2020-09-08T17:51:45.232-0500"
],
"DefaultConfig_v3" : [
"2020-09-08T17:53:12.155-0500"
]
}
}