{
"document" : {
"data" : {
"NAME" : "FE_HISTO_MAKER_INTERFACE_TABLE",
"COMMENT" : "No comment.",
"AUTHOR" : "admin",
"CREATION_TIME" : 1574288840,
"COL_TYPES" : {
"INTERFACE_ID" : "STRING",
"FIRMWARE_VERSION" : "NUMBER",
"SERVER_PORT" : "NUMBER",
"COMMENT_DESCRIPTION" : "STRING",
"AUTHOR" : "STRING",
"RECORD_INSERTION_TIME" : "TIMESTAMP WITH TIMEZONE"
},
"DATA_SET" : [
{
"INTERFACE_ID" : "HistoMakerFEInterface0",
"FIRMWARE_VERSION" : "0",
"SERVER_PORT" : "6000",
"COMMENT_DESCRIPTION" : "No Comment",
"AUTHOR" : "admin",
"RECORD_INSERTION_TIME" : "1574288840"
}
]
},
"metadata" : {

},
"search" : [

]
},
"comments" : [

],
"origin" : {
"source" : "template",
"name" : "notprovided",
"format" : "json",
"created" : "2020-09-08T15:08:30.160-0500",
"rawdata" : [

]
},
"version" : "0",
"entities" : [
{
"name" : "OTSROOT",
"assigned" : "2020-09-08T15:08:30.161-0500"
}
],
"configurations" : [
{
"name" : "notprovided",
"assigned" : "2020-09-08T15:08:30.161-0500"
},
{
"name" : "DefaultConfig_v0",
"assigned" : "2020-09-08T15:08:30.699-0500"
},
{
"name" : "DefaultConfig_v1",
"assigned" : "2020-09-08T15:38:44.708-0500"
},
{
"name" : "DefaultConfig_v2",
"assigned" : "2020-09-08T17:51:44.889-0500"
},
{
"name" : "DefaultConfig_v3",
"assigned" : "2020-09-08T17:53:11.815-0500"
}
],
"changelog" : "notprovided",
"bookkeeping" : {
"isdeleted" : false,
"isreadonly" : false,
"updates" : [
{
"event" : "addConfiguration",
"timestamp" : "2020-09-08T15:08:30.161-0500",
"value" : {
"name" : "notprovided",
"assigned" : "2020-09-08T15:08:30.161-0500"
}
},
{
"event" : "setVersion",
"timestamp" : "2020-09-08T15:08:30.161-0500",
"value" : {
"name" : "0",
"assigned" : "2020-09-08T15:08:30.161-0500"
}
},
{
"event" : "setCollection",
"timestamp" : "2020-09-08T15:08:30.161-0500",
"value" : {
"name" : "FEHistoMakerInterfaceTable",
"assigned" : "2020-09-08T15:08:30.161-0500"
}
},
{
"event" : "addEntity",
"timestamp" : "2020-09-08T15:08:30.161-0500",
"value" : {
"name" : "OTSROOT",
"assigned" : "2020-09-08T15:08:30.161-0500"
}
},
{
"event" : "addConfiguration",
"timestamp" : "2020-09-08T15:08:30.699-0500",
"value" : {
"name" : "DefaultConfig_v0",
"assigned" : "2020-09-08T15:08:30.699-0500"
}
},
{
"event" : "addConfiguration",
"timestamp" : "2020-09-08T15:38:44.708-0500",
"value" : {
"name" : "DefaultConfig_v1",
"assigned" : "2020-09-08T15:38:44.708-0500"
}
},
{
"event" : "addConfiguration",
"timestamp" : "2020-09-08T17:51:44.889-0500",
"value" : {
"name" : "DefaultConfig_v2",
"assigned" : "2020-09-08T17:51:44.889-0500"
}
},
{
"event" : "addConfiguration",
"timestamp" : "2020-09-08T17:53:11.815-0500",
"value" : {
"name" : "DefaultConfig_v3",
"assigned" : "2020-09-08T17:53:11.815-0500"
}
}
],
"created" : "2020-09-08T15:08:30.160-0500"
},
"_id" : {
"$oid" : "8f55221e25b54f7480ae96ad"
},
"collection" : "FEHistoMakerInterfaceTable",
"aliases" : {
"active" : [

],
"history" : [

]
},
"runs" : [

],
"attachments" : [

],
"configtype" : "notprovided"
}