{
"document" : {
"data" : {
"NAME" : "POWER_SUPPLY_TO_DETECTOR_TABLE",
"COMMENT" : "No comment.",
"AUTHOR" : "admin",
"CREATION_TIME" : 1600200847,
"COL_TYPES" : {
"CHANNEL_GROUP" : "STRING",
"CHANNEL_UID" : "STRING",
"LINK_TO_CHANNEL_TABLE" : "STRING",
"LINK_TO_CHANNEL_UID" : "STRING",
"LINK_TO_DETECTOR_TABLE" : "STRING",
"LINK_TO_DETECTOR_UID" : "STRING",
"TURN_ON_SEQUENCE" : "NUMBER",
"TURN_OFF_SEQUENCE" : "NUMBER",
"COMMENT_DESCRIPTION" : "STRING",
"AUTHOR" : "STRING",
"RECORD_INSERTION_TIME" : "TIMESTAMP WITH TIMEZONE"
},
"DATA_SET" : [
{
"CHANNEL_GROUP" : "PowerSupplyFEInterface0",
"CHANNEL_UID" : "LV_Module1",
"LINK_TO_CHANNEL_TABLE" : "CAENPowerSupplyChannelTable",
"LINK_TO_CHANNEL_UID" : "LV_Module1",
"LINK_TO_DETECTOR_TABLE" : "NO_LINK",
"LINK_TO_DETECTOR_UID" : "DEFAULT",
"TURN_ON_SEQUENCE" : "0",
"TURN_OFF_SEQUENCE" : "0",
"COMMENT_DESCRIPTION" : "No Comment",
"AUTHOR" : "admin",
"RECORD_INSERTION_TIME" : "1600200847"
}
]
},
"metadata" : {

},
"search" : [

]
},
"comments" : [

],
"origin" : {
"source" : "template",
"name" : "notprovided",
"format" : "json",
"created" : "2020-09-15T15:14:07.865-0500",
"rawdata" : [

]
},
"version" : "0",
"entities" : [
{
"name" : "OTSROOT",
"assigned" : "2020-09-15T15:14:07.866-0500"
}
],
"configurations" : [
{
"name" : "notprovided",
"assigned" : "2020-09-15T15:14:07.865-0500"
},
{
"name" : "DefaultConfig_v21",
"assigned" : "2020-09-15T15:14:57.425-0500"
}
],
"changelog" : "notprovided",
"bookkeeping" : {
"isdeleted" : false,
"isreadonly" : false,
"updates" : [
{
"event" : "addConfiguration",
"timestamp" : "2020-09-15T15:14:07.865-0500",
"value" : {
"name" : "notprovided",
"assigned" : "2020-09-15T15:14:07.865-0500"
}
},
{
"event" : "setVersion",
"timestamp" : "2020-09-15T15:14:07.866-0500",
"value" : {
"name" : "0",
"assigned" : "2020-09-15T15:14:07.866-0500"
}
},
{
"event" : "setCollection",
"timestamp" : "2020-09-15T15:14:07.866-0500",
"value" : {
"name" : "PowerSupplyToDetectorTable",
"assigned" : "2020-09-15T15:14:07.866-0500"
}
},
{
"event" : "addEntity",
"timestamp" : "2020-09-15T15:14:07.866-0500",
"value" : {
"name" : "OTSROOT",
"assigned" : "2020-09-15T15:14:07.866-0500"
}
},
{
"event" : "addConfiguration",
"timestamp" : "2020-09-15T15:14:57.425-0500",
"value" : {
"name" : "DefaultConfig_v21",
"assigned" : "2020-09-15T15:14:57.425-0500"
}
}
],
"created" : "2020-09-15T15:14:07.865-0500"
},
"_id" : {
"$oid" : "512519fcbfd345e0be2f0591"
},
"collection" : "PowerSupplyToDetectorTable",
"aliases" : {
"active" : [

],
"history" : [

]
},
"runs" : [

],
"attachments" : [

],
"configtype" : "notprovided"
}