{
"document" : {
"data" : {
"NAME" : "FE_OTS_UDPFSSR_INTERFACE_CONFIGURATION",
"COMMENT" : "ots style FE-for-FSSR records.",
"AUTHOR" : "rrivera",
"CREATION_TIME" : 1510175789,
"COL_TYPES" : {
"INTERFACE_ID" : "VARCHAR2",
"STATUS" : "VARCHAR2",
"FIRMWARE_VERSION" : "NUMBER",
"INTERFACE_IP_ADDRESS" : "VARCHAR2",
"INTERFACE_PORT" : "NUMBER",
"HOST_IP_ADDRESS" : "VARCHAR2",
"HOST_PORT" : "NUMBER",
"STREAM_TO_IP_ADDRESS" : "VARCHAR2",
"STREAM_TO_PORT" : "NUMBER",
"CLOCK_SELECT" : "VARCHAR2",
"CLOCK_SPEED_M_HZ" : "NUMBER",
"CHANNEL_STATUS0" : "VARCHAR2",
"CHANNEL_STATUS1" : "VARCHAR2",
"CHANNEL_STATUS2" : "VARCHAR2",
"CHANNEL_STATUS3" : "VARCHAR2",
"CHANNEL_STATUS4" : "VARCHAR2",
"CHANNEL_STATUS5" : "VARCHAR2",
"COMMENT_DESCRIPTION" : "VARCHAR2",
"AUTHOR" : "VARCHAR2",
"RECORD_INSERTION_TIME" : "TIMESTAMP WITH TIMEZONE"
},
"DATA_SET" : [
{
"INTERFACE_ID" : "OtsUDPFSSR3",
"STATUS" : "On",
"FIRMWARE_VERSION" : "1",
"INTERFACE_IP_ADDRESS" : "192.168.133.107",
"INTERFACE_PORT" : "2000",
"HOST_IP_ADDRESS" : "192.168.133.1",
"HOST_PORT" : "10003",
"STREAM_TO_IP_ADDRESS" : "192.168.133.1",
"STREAM_TO_PORT" : "47003",
"CLOCK_SELECT" : "External",
"CLOCK_SPEED_M_HZ" : "13.5",
"CHANNEL_STATUS0" : "On",
"CHANNEL_STATUS1" : "On",
"CHANNEL_STATUS2" : "Off",
"CHANNEL_STATUS3" : "Off",
"CHANNEL_STATUS4" : "Off",
"CHANNEL_STATUS5" : "Off",
"COMMENT_DESCRIPTION" : "No Comment",
"AUTHOR" : "admin",
"RECORD_INSERTION_TIME" : "1509657820"
},
{
"INTERFACE_ID" : "OtsUDPFSSR2",
"STATUS" : "On",
"FIRMWARE_VERSION" : "1",
"INTERFACE_IP_ADDRESS" : "192.168.133.132",
"INTERFACE_PORT" : "2001",
"HOST_IP_ADDRESS" : "192.168.133.1",
"HOST_PORT" : "10002",
"STREAM_TO_IP_ADDRESS" : "192.168.133.1",
"STREAM_TO_PORT" : "47002",
"CLOCK_SELECT" : "External",
"CLOCK_SPEED_M_HZ" : "13.5",
"CHANNEL_STATUS0" : "On",
"CHANNEL_STATUS1" : "On",
"CHANNEL_STATUS2" : "On",
"CHANNEL_STATUS3" : "On",
"CHANNEL_STATUS4" : "On",
"CHANNEL_STATUS5" : "On",
"COMMENT_DESCRIPTION" : "No Comment",
"AUTHOR" : "rrivera",
"RECORD_INSERTION_TIME" : "1510175784"
}
]
},
"metadata" : {

},
"search" : [

]
},
"comments" : [

],
"origin" : {
"source" : "template",
"name" : "notprovided",
"format" : "json",
"created" : "2017-11-08T15:56:03.747-0600",
"rawdata" : [

]
},
"version" : "0",
"entities" : [
{
"name" : "OTSROOT",
"assigned" : "2017-11-08T15:56:03.749-0600"
}
],
"configurations" : [
{
"name" : "notprovided",
"assigned" : "2017-11-08T15:56:03.748-0600"
},
{
"name" : "FTBFConfig_v0",
"assigned" : "2017-11-08T15:56:06.685-0600"
},
{
"name" : "FTBFConfig_v1",
"assigned" : "2017-11-09T09:56:31.416-0600"
},
{
"name" : "FTBFConfig_v2",
"assigned" : "2017-11-09T10:06:00.392-0600"
},
{
"name" : "FTBFConfig_v3",
"assigned" : "2017-11-09T10:37:11.968-0600"
},
{
"name" : "FTBFConfig_v4",
"assigned" : "2017-11-15T11:30:10.801-0600"
},
{
"name" : "FTBFConfig_v5",
"assigned" : "2017-11-15T11:54:57.619-0600"
},
{
"name" : "FTBFConfig_v6",
"assigned" : "2017-11-15T11:57:50.264-0600"
},
{
"name" : "FTBFConfig_v7",
"assigned" : "2017-11-15T12:42:32.719-0600"
},
{
"name" : "FTBFConfig_v8",
"assigned" : "2017-11-15T13:01:03.741-0600"
},
{
"name" : "FTBFConfig_v9",
"assigned" : "2017-11-15T13:02:57.102-0600"
},
{
"name" : "FTBFConfig_v10",
"assigned" : "2017-11-15T13:04:24.675-0600"
},
{
"name" : "FTBFConfig_v11",
"assigned" : "2017-11-15T13:07:52.179-0600"
},
{
"name" : "FTBFConfig_v12",
"assigned" : "2017-11-15T13:11:59.657-0600"
},
{
"name" : "FTBFConfig_v13",
"assigned" : "2017-11-15T13:13:53.606-0600"
},
{
"name" : "FTBFConfig_v14",
"assigned" : "2017-11-15T13:27:31.590-0600"
},
{
"name" : "FTBFConfig_v15",
"assigned" : "2017-11-15T13:35:47.606-0600"
},
{
"name" : "FTBFConfig_v16",
"assigned" : "2017-11-15T13:36:52.222-0600"
},
{
"name" : "FTBFConfig_v17",
"assigned" : "2017-11-15T15:33:30.770-0600"
},
{
"name" : "FTBFConfig_v18",
"assigned" : "2017-11-15T15:35:34.394-0600"
},
{
"name" : "FTBFConfig_v19",
"assigned" : "2017-11-15T15:38:03.255-0600"
},
{
"name" : "FTBFConfig_v20",
"assigned" : "2017-11-15T16:26:31.215-0600"
},
{
"name" : "FTBFConfig_v21",
"assigned" : "2017-11-16T09:22:32.064-0600"
},
{
"name" : "FTBFConfig_v22",
"assigned" : "2017-11-17T10:23:28.293-0600"
},
{
"name" : "FTBFConfig_v23",
"assigned" : "2017-11-17T17:26:45.867-0600"
},
{
"name" : "FTBFConfig_v24",
"assigned" : "2017-11-17T17:58:26.434-0600"
},
{
"name" : "FTBFConfig_v25",
"assigned" : "2017-11-17T18:24:46.079-0600"
},
{
"name" : "FTBFConfig_v26",
"assigned" : "2017-11-17T18:32:23.817-0600"
},
{
"name" : "FTBFConfig_v27",
"assigned" : "2017-11-17T18:43:30.973-0600"
},
{
"name" : "FTBFConfig_v28",
"assigned" : "2017-11-17T18:48:33.044-0600"
},
{
"name" : "FTBFConfig_v29",
"assigned" : "2017-11-20T14:48:31.522-0600"
},
{
"name" : "FTBFConfig_v30",
"assigned" : "2017-11-20T15:39:56.599-0600"
},
{
"name" : "FTBFConfig_v31",
"assigned" : "2017-11-20T16:41:02.632-0600"
},
{
"name" : "FTBFConfig_v32",
"assigned" : "2017-11-20T18:55:35.565-0600"
},
{
"name" : "FTBFConfig_v33",
"assigned" : "2017-11-20T18:57:30.849-0600"
},
{
"name" : "FTBFConfig_v34",
"assigned" : "2017-11-29T17:50:40.329-0600"
},
{
"name" : "FTBFConfig_v35",
"assigned" : "2017-11-29T18:00:33.279-0600"
},
{
"name" : "FTBFConfig_v36",
"assigned" : "2017-11-29T18:35:11.989-0600"
},
{
"name" : "FTBFConfig_v37",
"assigned" : "2017-12-01T09:36:18.685-0600"
},
{
"name" : "FTBFConfig_v38",
"assigned" : "2017-12-01T09:52:01.743-0600"
},
{
"name" : "FTBFConfig_v39",
"assigned" : "2017-12-01T11:51:59.016-0600"
},
{
"name" : "FTBFConfig_v40",
"assigned" : "2017-12-01T12:18:21.114-0600"
},
{
"name" : "FTBFConfig_v41",
"assigned" : "2017-12-01T12:21:03.123-0600"
},
{
"name" : "FTBFConfig_v42",
"assigned" : "2017-12-01T12:43:22.504-0600"
},
{
"name" : "FTBFConfig_v43",
"assigned" : "2017-12-01T12:58:00.391-0600"
},
{
"name" : "FTBFConfig_v44",
"assigned" : "2017-12-01T13:00:52.910-0600"
},
{
"name" : "FTBFConfig_v45",
"assigned" : "2017-12-01T13:25:49.475-0600"
},
{
"name" : "FTBFConfig_v46",
"assigned" : "2017-12-01T13:35:44.258-0600"
},
{
"name" : "FTBFConfig_v47",
"assigned" : "2017-12-01T14:00:52.526-0600"
},
{
"name" : "FTBFConfig_v48",
"assigned" : "2017-12-01T14:03:59.887-0600"
},
{
"name" : "FTBFConfig_v49",
"assigned" : "2017-12-01T15:32:00.052-0600"
},
{
"name" : "FTBFConfig_v52",
"assigned" : "2017-12-01T15:37:32.599-0600"
},
{
"name" : "FTBFConfig_v53",
"assigned" : "2017-12-01T15:40:59.555-0600"
},
{
"name" : "FTBFConfig_v54",
"assigned" : "2017-12-01T15:52:49.876-0600"
},
{
"name" : "FTBFConfig_v55",
"assigned" : "2017-12-01T15:54:35.050-0600"
},
{
"name" : "FTBFConfig_v56",
"assigned" : "2017-12-01T15:55:34.610-0600"
},
{
"name" : "FTBFConfig_v57",
"assigned" : "2017-12-01T15:56:40.459-0600"
},
{
"name" : "FTBFConfig_v58",
"assigned" : "2017-12-01T15:57:38.512-0600"
},
{
"name" : "FTBFConfig_v59",
"assigned" : "2017-12-01T15:58:30.432-0600"
},
{
"name" : "FTBFConfig_v60",
"assigned" : "2017-12-01T15:59:31.645-0600"
},
{
"name" : "FTBFConfig_v61",
"assigned" : "2017-12-01T16:19:41.474-0600"
},
{
"name" : "FTBFConfig_v62",
"assigned" : "2017-12-01T16:22:03.956-0600"
},
{
"name" : "FTBFConfig_v63",
"assigned" : "2017-12-01T16:31:24.591-0600"
},
{
"name" : "FTBFConfig_v64",
"assigned" : "2017-12-01T17:06:31.889-0600"
},
{
"name" : "FTBFConfig_v65",
"assigned" : "2017-12-01T17:32:44.017-0600"
},
{
"name" : "FTBFConfig_v66",
"assigned" : "2017-12-01T20:38:50.466-0600"
},
{
"name" : "FTBFConfig_v67",
"assigned" : "2017-12-01T21:25:01.810-0600"
},
{
"name" : "FTBFConfig_v68",
"assigned" : "2017-12-01T21:43:01.502-0600"
},
{
"name" : "FTBFConfig_v69",
"assigned" : "2017-12-01T21:45:00.094-0600"
},
{
"name" : "FTBFConfig_v70",
"assigned" : "2017-12-01T21:59:19.371-0600"
},
{
"name" : "FTBFConfigNim_v0",
"assigned" : "2017-12-01T22:00:06.100-0600"
},
{
"name" : "FTBFConfigNim_v1",
"assigned" : "2017-12-01T22:13:07.867-0600"
},
{
"name" : "FTBFConfigNim_v2",
"assigned" : "2017-12-01T22:15:55.113-0600"
},
{
"name" : "FTBFConfigNim_v3",
"assigned" : "2017-12-01T22:17:03.631-0600"
},
{
"name" : "FTBFConfigNim_v4",
"assigned" : "2017-12-01T22:19:06.199-0600"
},
{
"name" : "FTBFConfigNim_v5",
"assigned" : "2017-12-01T22:21:56.961-0600"
},
{
"name" : "FTBFConfigNim_v6",
"assigned" : "2017-12-01T22:23:13.777-0600"
},
{
"name" : "FTBFConfigNim_v7",
"assigned" : "2017-12-01T22:25:16.956-0600"
},
{
"name" : "FTBFConfigNim_v8",
"assigned" : "2017-12-01T22:27:04.625-0600"
},
{
"name" : "FTBFConfigNim_v9",
"assigned" : "2017-12-01T22:29:28.760-0600"
},
{
"name" : "FTBFConfigNim_v10",
"assigned" : "2017-12-01T22:52:34.079-0600"
},
{
"name" : "FTBFConfigNim_v11",
"assigned" : "2017-12-01T22:57:28.753-0600"
},
{
"name" : "FTBFConfigNim_v12",
"assigned" : "2017-12-01T23:00:06.950-0600"
},
{
"name" : "FTBFConfigNim_v13",
"assigned" : "2017-12-01T23:52:35.094-0600"
},
{
"name" : "FTBFConfigNim_v14",
"assigned" : "2017-12-01T23:58:09.543-0600"
},
{
"name" : "FTBFConfigNim_v15",
"assigned" : "2017-12-02T00:00:33.769-0600"
},
{
"name" : "FTBFConfigNim_v16",
"assigned" : "2017-12-02T00:13:08.945-0600"
},
{
"name" : "FTBFConfigNim_v17",
"assigned" : "2017-12-02T00:28:27.892-0600"
},
{
"name" : "FTBFConfigNim_v18",
"assigned" : "2017-12-02T00:29:33.956-0600"
},
{
"name" : "FTBFConfigNim_v19",
"assigned" : "2017-12-02T00:31:12.774-0600"
},
{
"name" : "FTBFConfigNim_v20",
"assigned" : "2017-12-02T00:57:26.985-0600"
},
{
"name" : "FTBFConfigNim_v21",
"assigned" : "2017-12-02T10:58:01.537-0600"
},
{
"name" : "FTBFConfigNim_v22",
"assigned" : "2017-12-02T11:08:17.745-0600"
},
{
"name" : "FTBFConfigNim_v23",
"assigned" : "2017-12-02T11:12:39.361-0600"
},
{
"name" : "FTBFConfigNim_v24",
"assigned" : "2017-12-02T11:18:42.226-0600"
},
{
"name" : "FTBFConfigNim_v25",
"assigned" : "2017-12-02T11:27:05.420-0600"
},
{
"name" : "FTBFConfigNim_v26",
"assigned" : "2017-12-02T11:38:36.463-0600"
},
{
"name" : "FTBFConfigNim_v27",
"assigned" : "2017-12-02T11:49:07.661-0600"
},
{
"name" : "FTBFConfigNim_v28",
"assigned" : "2017-12-02T11:55:09.177-0600"
},
{
"name" : "FTBFConfigNim_v29",
"assigned" : "2017-12-02T12:06:25.959-0600"
},
{
"name" : "FTBFConfig_v71",
"assigned" : "2017-12-02T12:24:14.621-0600"
},
{
"name" : "FTBFConfig_v72",
"assigned" : "2017-12-02T12:43:35.492-0600"
},
{
"name" : "FTBFConfig_v73",
"assigned" : "2017-12-02T13:55:35.155-0600"
},
{
"name" : "FTBFConfig_v75",
"assigned" : "2017-12-02T14:12:18.303-0600"
},
{
"name" : "FTBFConfig_v76",
"assigned" : "2017-12-02T19:05:53.351-0600"
},
{
"name" : "FTBFConfig_v77",
"assigned" : "2017-12-02T19:12:13.223-0600"
},
{
"name" : "FTBFConfig_v78",
"assigned" : "2017-12-03T14:03:48.372-0600"
},
{
"name" : "FTBFConfig_v79",
"assigned" : "2017-12-03T14:09:06.635-0600"
},
{
"name" : "FTBFConfig_v80",
"assigned" : "2017-12-03T14:11:10.366-0600"
},
{
"name" : "FTBFConfig_v81",
"assigned" : "2017-12-03T14:22:33.423-0600"
},
{
"name" : "FTBFConfig_v82",
"assigned" : "2017-12-03T14:40:38.230-0600"
},
{
"name" : "FTBFConfig_v83",
"assigned" : "2017-12-03T14:45:05.587-0600"
},
{
"name" : "FTBFConfig_v84",
"assigned" : "2017-12-04T14:51:30.885-0600"
},
{
"name" : "FTBFConfig_v85",
"assigned" : "2017-12-04T14:55:44.076-0600"
},
{
"name" : "FTBFConfig_v86",
"assigned" : "2017-12-04T16:51:07.130-0600"
},
{
"name" : "FTBFConfig_v87",
"assigned" : "2017-12-04T16:56:47.771-0600"
},
{
"name" : "FTBFConfig_v88",
"assigned" : "2017-12-04T17:01:12.503-0600"
},
{
"name" : "FTBFConfig_v89",
"assigned" : "2017-12-04T17:03:57.618-0600"
},
{
"name" : "FTBFConfig_v90",
"assigned" : "2017-12-04T17:07:17.264-0600"
},
{
"name" : "FTBFConfig_v91",
"assigned" : "2017-12-04T17:09:26.386-0600"
},
{
"name" : "FTBFConfig_v92",
"assigned" : "2017-12-04T17:11:38.898-0600"
},
{
"name" : "FTBFConfig_v93",
"assigned" : "2017-12-04T21:05:21.452-0600"
},
{
"name" : "FTBFConfig_v94",
"assigned" : "2017-12-04T21:17:12.419-0600"
},
{
"name" : "FTBFConfig_v95",
"assigned" : "2017-12-04T21:41:18.068-0600"
},
{
"name" : "FTBFConfig_v96",
"assigned" : "2017-12-04T22:39:02.725-0600"
},
{
"name" : "FTBFConfig_v97",
"assigned" : "2017-12-04T23:01:13.230-0600"
},
{
"name" : "FTBFConfig_v98",
"assigned" : "2017-12-07T11:07:47.234-0600"
},
{
"name" : "FTBFConfig_v99",
"assigned" : "2017-12-07T11:49:59.894-0600"
},
{
"name" : "FTBFConfig_v100",
"assigned" : "2017-12-07T11:58:26.643-0600"
},
{
"name" : "FTBFConfig_v101",
"assigned" : "2017-12-08T13:30:48.808-0600"
},
{
"name" : "FTBFConfig_v102",
"assigned" : "2017-12-08T13:32:35.670-0600"
},
{
"name" : "FTBFConfig_v103",
"assigned" : "2017-12-12T11:03:05.488-0600"
},
{
"name" : "FTBFConfig_v104",
"assigned" : "2017-12-12T13:50:59.998-0600"
},
{
"name" : "FTBFConfig_v105",
"assigned" : "2017-12-12T15:25:05.955-0600"
},
{
"name" : "FTBFConfig_v106",
"assigned" : "2017-12-13T10:24:24.292-0600"
},
{
"name" : "FTBFConfig_v107",
"assigned" : "2017-12-13T10:27:03.029-0600"
},
{
"name" : "FTBFConfig_v108",
"assigned" : "2018-02-01T21:14:26.649-0600"
},
{
"name" : "FTBFConfig_v109",
"assigned" : "2018-02-01T21:21:03.776-0600"
},
{
"name" : "FTBFConfig_v110",
"assigned" : "2018-02-02T11:25:34.738-0600"
},
{
"name" : "FTBFConfig_v111",
"assigned" : "2018-02-02T11:37:13.580-0600"
},
{
"name" : "FTBFConfig_v112",
"assigned" : "2018-02-02T11:47:16.081-0600"
},
{
"name" : "FTBFConfig_v113",
"assigned" : "2018-02-02T11:53:37.331-0600"
},
{
"name" : "FTBFConfig_v114",
"assigned" : "2018-02-02T12:00:53.445-0600"
},
{
"name" : "FTBFConfig_v115",
"assigned" : "2018-02-02T12:27:14.920-0600"
},
{
"name" : "FTBFConfig_v116",
"assigned" : "2018-02-02T14:28:54.438-0600"
},
{
"name" : "FTBFConfig_v117",
"assigned" : "2018-02-02T14:30:20.787-0600"
},
{
"name" : "FTBFConfig_v118",
"assigned" : "2018-02-02T14:34:02.050-0600"
},
{
"name" : "FTBFConfig_v119",
"assigned" : "2018-02-02T14:36:28.646-0600"
},
{
"name" : "FTBFConfig_v120",
"assigned" : "2018-02-02T14:38:42.009-0600"
},
{
"name" : "FTBFConfig_v121",
"assigned" : "2018-02-02T14:41:51.304-0600"
},
{
"name" : "FTBFConfig_v122",
"assigned" : "2018-02-02T14:50:25.389-0600"
},
{
"name" : "FTBFConfig_v123",
"assigned" : "2018-02-02T14:52:58.265-0600"
},
{
"name" : "FTBFConfig_v124",
"assigned" : "2018-02-02T14:59:51.575-0600"
},
{
"name" : "FTBFConfig_v125",
"assigned" : "2018-02-02T15:04:09.693-0600"
},
{
"name" : "FTBFConfig_v126",
"assigned" : "2018-02-02T15:50:12.942-0600"
},
{
"name" : "FTBFConfig_v127",
"assigned" : "2018-02-02T15:51:32.398-0600"
},
{
"name" : "FTBFConfig_v128",
"assigned" : "2018-02-02T15:52:37.558-0600"
},
{
"name" : "FTBFConfig_v129",
"assigned" : "2018-02-02T16:02:46.478-0600"
},
{
"name" : "FTBFConfig_v130",
"assigned" : "2018-02-02T16:08:46.012-0600"
},
{
"name" : "FTBFConfig_v131",
"assigned" : "2018-02-02T16:11:31.871-0600"
},
{
"name" : "FTBFConfig_v132",
"assigned" : "2018-02-02T16:12:59.737-0600"
},
{
"name" : "FTBFConfig_v133",
"assigned" : "2018-02-02T16:14:30.325-0600"
},
{
"name" : "FTBFConfig_v134",
"assigned" : "2018-02-02T16:26:23.251-0600"
},
{
"name" : "FTBFConfig_v135",
"assigned" : "2018-02-02T16:27:10.356-0600"
},
{
"name" : "FTBFConfig_v136",
"assigned" : "2018-02-02T16:29:31.716-0600"
},
{
"name" : "FTBFConfig_v137",
"assigned" : "2018-02-02T16:31:42.334-0600"
},
{
"name" : "FTBFConfig_v138",
"assigned" : "2018-02-02T16:34:15.008-0600"
},
{
"name" : "FTBFConfig_v139",
"assigned" : "2018-02-02T17:39:31.054-0600"
},
{
"name" : "FTBFConfig_v140",
"assigned" : "2018-02-02T17:42:53.235-0600"
},
{
"name" : "FTBFConfig_v141",
"assigned" : "2018-02-02T17:47:38.460-0600"
},
{
"name" : "FTBFConfig_v142",
"assigned" : "2018-02-02T17:54:02.452-0600"
}
],
"changelog" : "notprovided",
"bookkeeping" : {
"isdeleted" : false,
"isreadonly" : false,
"updates" : [
{
"event" : "addConfiguration",
"timestamp" : "2017-11-08T15:56:03.748-0600",
"value" : {
"name" : "notprovided",
"assigned" : "2017-11-08T15:56:03.748-0600"
}
},
{
"event" : "setVersion",
"timestamp" : "2017-11-08T15:56:03.748-0600",
"value" : {
"name" : "0",
"assigned" : "2017-11-08T15:56:03.748-0600"
}
},
{
"event" : "setCollection",
"timestamp" : "2017-11-08T15:56:03.749-0600",
"value" : {
"name" : "FEOtsUDPFSSRInterfaceConfiguration",
"assigned" : "2017-11-08T15:56:03.749-0600"
}
},
{
"event" : "addEntity",
"timestamp" : "2017-11-08T15:56:03.749-0600",
"value" : {
"name" : "OTSROOT",
"assigned" : "2017-11-08T15:56:03.749-0600"
}
},
{
"event" : "addConfiguration",
"timestamp" : "2017-11-08T15:56:06.685-0600",
"value" : {
"name" : "FTBFConfig_v0",
"assigned" : "2017-11-08T15:56:06.685-0600"
}
},
{
"event" : "addConfiguration",
"timestamp" : "2017-11-09T09:56:31.416-0600",
"value" : {
"name" : "FTBFConfig_v1",
"assigned" : "2017-11-09T09:56:31.416-0600"
}
},
{
"event" : "addConfiguration",
"timestamp" : "2017-11-09T10:06:00.392-0600",
"value" : {
"name" : "FTBFConfig_v2",
"assigned" : "2017-11-09T10:06:00.392-0600"
}
},
{
"event" : "addConfiguration",
"timestamp" : "2017-11-09T10:37:11.968-0600",
"value" : {
"name" : "FTBFConfig_v3",
"assigned" : "2017-11-09T10:37:11.968-0600"
}
},
{
"event" : "addConfiguration",
"timestamp" : "2017-11-15T11:30:10.801-0600",
"value" : {
"name" : "FTBFConfig_v4",
"assigned" : "2017-11-15T11:30:10.801-0600"
}
},
{
"event" : "addConfiguration",
"timestamp" : "2017-11-15T11:54:57.619-0600",
"value" : {
"name" : "FTBFConfig_v5",
"assigned" : "2017-11-15T11:54:57.619-0600"
}
},
{
"event" : "addConfiguration",
"timestamp" : "2017-11-15T11:57:50.264-0600",
"value" : {
"name" : "FTBFConfig_v6",
"assigned" : "2017-11-15T11:57:50.264-0600"
}
},
{
"event" : "addConfiguration",
"timestamp" : "2017-11-15T12:42:32.719-0600",
"value" : {
"name" : "FTBFConfig_v7",
"assigned" : "2017-11-15T12:42:32.719-0600"
}
},
{
"event" : "addConfiguration",
"timestamp" : "2017-11-15T13:01:03.741-0600",
"value" : {
"name" : "FTBFConfig_v8",
"assigned" : "2017-11-15T13:01:03.741-0600"
}
},
{
"event" : "addConfiguration",
"timestamp" : "2017-11-15T13:02:57.102-0600",
"value" : {
"name" : "FTBFConfig_v9",
"assigned" : "2017-11-15T13:02:57.102-0600"
}
},
{
"event" : "addConfiguration",
"timestamp" : "2017-11-15T13:04:24.675-0600",
"value" : {
"name" : "FTBFConfig_v10",
"assigned" : "2017-11-15T13:04:24.675-0600"
}
},
{
"event" : "addConfiguration",
"timestamp" : "2017-11-15T13:07:52.180-0600",
"value" : {
"name" : "FTBFConfig_v11",
"assigned" : "2017-11-15T13:07:52.179-0600"
}
},
{
"event" : "addConfiguration",
"timestamp" : "2017-11-15T13:11:59.657-0600",
"value" : {
"name" : "FTBFConfig_v12",
"assigned" : "2017-11-15T13:11:59.657-0600"
}
},
{
"event" : "addConfiguration",
"timestamp" : "2017-11-15T13:13:53.606-0600",
"value" : {
"name" : "FTBFConfig_v13",
"assigned" : "2017-11-15T13:13:53.606-0600"
}
},
{
"event" : "addConfiguration",
"timestamp" : "2017-11-15T13:27:31.590-0600",
"value" : {
"name" : "FTBFConfig_v14",
"assigned" : "2017-11-15T13:27:31.590-0600"
}
},
{
"event" : "addConfiguration",
"timestamp" : "2017-11-15T13:35:47.606-0600",
"value" : {
"name" : "FTBFConfig_v15",
"assigned" : "2017-11-15T13:35:47.606-0600"
}
},
{
"event" : "addConfiguration",
"timestamp" : "2017-11-15T13:36:52.222-0600",
"value" : {
"name" : "FTBFConfig_v16",
"assigned" : "2017-11-15T13:36:52.222-0600"
}
},
{
"event" : "addConfiguration",
"timestamp" : "2017-11-15T15:33:30.770-0600",
"value" : {
"name" : "FTBFConfig_v17",
"assigned" : "2017-11-15T15:33:30.770-0600"
}
},
{
"event" : "addConfiguration",
"timestamp" : "2017-11-15T15:35:34.395-0600",
"value" : {
"name" : "FTBFConfig_v18",
"assigned" : "2017-11-15T15:35:34.394-0600"
}
},
{
"event" : "addConfiguration",
"timestamp" : "2017-11-15T15:38:03.255-0600",
"value" : {
"name" : "FTBFConfig_v19",
"assigned" : "2017-11-15T15:38:03.255-0600"
}
},
{
"event" : "addConfiguration",
"timestamp" : "2017-11-15T16:26:31.215-0600",
"value" : {
"name" : "FTBFConfig_v20",
"assigned" : "2017-11-15T16:26:31.215-0600"
}
},
{
"event" : "addConfiguration",
"timestamp" : "2017-11-16T09:22:32.064-0600",
"value" : {
"name" : "FTBFConfig_v21",
"assigned" : "2017-11-16T09:22:32.064-0600"
}
},
{
"event" : "addConfiguration",
"timestamp" : "2017-11-17T10:23:28.293-0600",
"value" : {
"name" : "FTBFConfig_v22",
"assigned" : "2017-11-17T10:23:28.293-0600"
}
},
{
"event" : "addConfiguration",
"timestamp" : "2017-11-17T17:26:45.868-0600",
"value" : {
"name" : "FTBFConfig_v23",
"assigned" : "2017-11-17T17:26:45.867-0600"
}
},
{
"event" : "addConfiguration",
"timestamp" : "2017-11-17T17:58:26.434-0600",
"value" : {
"name" : "FTBFConfig_v24",
"assigned" : "2017-11-17T17:58:26.434-0600"
}
},
{
"event" : "addConfiguration",
"timestamp" : "2017-11-17T18:24:46.079-0600",
"value" : {
"name" : "FTBFConfig_v25",
"assigned" : "2017-11-17T18:24:46.079-0600"
}
},
{
"event" : "addConfiguration",
"timestamp" : "2017-11-17T18:32:23.817-0600",
"value" : {
"name" : "FTBFConfig_v26",
"assigned" : "2017-11-17T18:32:23.817-0600"
}
},
{
"event" : "addConfiguration",
"timestamp" : "2017-11-17T18:43:30.973-0600",
"value" : {
"name" : "FTBFConfig_v27",
"assigned" : "2017-11-17T18:43:30.973-0600"
}
},
{
"event" : "addConfiguration",
"timestamp" : "2017-11-17T18:48:33.045-0600",
"value" : {
"name" : "FTBFConfig_v28",
"assigned" : "2017-11-17T18:48:33.044-0600"
}
},
{
"event" : "addConfiguration",
"timestamp" : "2017-11-20T14:48:31.522-0600",
"value" : {
"name" : "FTBFConfig_v29",
"assigned" : "2017-11-20T14:48:31.522-0600"
}
},
{
"event" : "addConfiguration",
"timestamp" : "2017-11-20T15:39:56.600-0600",
"value" : {
"name" : "FTBFConfig_v30",
"assigned" : "2017-11-20T15:39:56.599-0600"
}
},
{
"event" : "addConfiguration",
"timestamp" : "2017-11-20T16:41:02.632-0600",
"value" : {
"name" : "FTBFConfig_v31",
"assigned" : "2017-11-20T16:41:02.632-0600"
}
},
{
"event" : "addConfiguration",
"timestamp" : "2017-11-20T18:55:35.565-0600",
"value" : {
"name" : "FTBFConfig_v32",
"assigned" : "2017-11-20T18:55:35.565-0600"
}
},
{
"event" : "addConfiguration",
"timestamp" : "2017-11-20T18:57:30.849-0600",
"value" : {
"name" : "FTBFConfig_v33",
"assigned" : "2017-11-20T18:57:30.849-0600"
}
},
{
"event" : "addConfiguration",
"timestamp" : "2017-11-29T17:50:40.329-0600",
"value" : {
"name" : "FTBFConfig_v34",
"assigned" : "2017-11-29T17:50:40.329-0600"
}
},
{
"event" : "addConfiguration",
"timestamp" : "2017-11-29T18:00:33.279-0600",
"value" : {
"name" : "FTBFConfig_v35",
"assigned" : "2017-11-29T18:00:33.279-0600"
}
},
{
"event" : "addConfiguration",
"timestamp" : "2017-11-29T18:35:11.989-0600",
"value" : {
"name" : "FTBFConfig_v36",
"assigned" : "2017-11-29T18:35:11.989-0600"
}
},
{
"event" : "addConfiguration",
"timestamp" : "2017-12-01T09:36:18.685-0600",
"value" : {
"name" : "FTBFConfig_v37",
"assigned" : "2017-12-01T09:36:18.685-0600"
}
},
{
"event" : "addConfiguration",
"timestamp" : "2017-12-01T09:52:01.743-0600",
"value" : {
"name" : "FTBFConfig_v38",
"assigned" : "2017-12-01T09:52:01.743-0600"
}
},
{
"event" : "addConfiguration",
"timestamp" : "2017-12-01T11:51:59.016-0600",
"value" : {
"name" : "FTBFConfig_v39",
"assigned" : "2017-12-01T11:51:59.016-0600"
}
},
{
"event" : "addConfiguration",
"timestamp" : "2017-12-01T12:18:21.114-0600",
"value" : {
"name" : "FTBFConfig_v40",
"assigned" : "2017-12-01T12:18:21.114-0600"
}
},
{
"event" : "addConfiguration",
"timestamp" : "2017-12-01T12:21:03.123-0600",
"value" : {
"name" : "FTBFConfig_v41",
"assigned" : "2017-12-01T12:21:03.123-0600"
}
},
{
"event" : "addConfiguration",
"timestamp" : "2017-12-01T12:43:22.504-0600",
"value" : {
"name" : "FTBFConfig_v42",
"assigned" : "2017-12-01T12:43:22.504-0600"
}
},
{
"event" : "addConfiguration",
"timestamp" : "2017-12-01T12:58:00.392-0600",
"value" : {
"name" : "FTBFConfig_v43",
"assigned" : "2017-12-01T12:58:00.391-0600"
}
},
{
"event" : "addConfiguration",
"timestamp" : "2017-12-01T13:00:52.910-0600",
"value" : {
"name" : "FTBFConfig_v44",
"assigned" : "2017-12-01T13:00:52.910-0600"
}
},
{
"event" : "addConfiguration",
"timestamp" : "2017-12-01T13:25:49.475-0600",
"value" : {
"name" : "FTBFConfig_v45",
"assigned" : "2017-12-01T13:25:49.475-0600"
}
},
{
"event" : "addConfiguration",
"timestamp" : "2017-12-01T13:35:44.259-0600",
"value" : {
"name" : "FTBFConfig_v46",
"assigned" : "2017-12-01T13:35:44.258-0600"
}
},
{
"event" : "addConfiguration",
"timestamp" : "2017-12-01T14:00:52.527-0600",
"value" : {
"name" : "FTBFConfig_v47",
"assigned" : "2017-12-01T14:00:52.526-0600"
}
},
{
"event" : "addConfiguration",
"timestamp" : "2017-12-01T14:03:59.887-0600",
"value" : {
"name" : "FTBFConfig_v48",
"assigned" : "2017-12-01T14:03:59.887-0600"
}
},
{
"event" : "addConfiguration",
"timestamp" : "2017-12-01T15:32:00.052-0600",
"value" : {
"name" : "FTBFConfig_v49",
"assigned" : "2017-12-01T15:32:00.052-0600"
}
},
{
"event" : "addConfiguration",
"timestamp" : "2017-12-01T15:37:32.599-0600",
"value" : {
"name" : "FTBFConfig_v52",
"assigned" : "2017-12-01T15:37:32.599-0600"
}
},
{
"event" : "addConfiguration",
"timestamp" : "2017-12-01T15:40:59.556-0600",
"value" : {
"name" : "FTBFConfig_v53",
"assigned" : "2017-12-01T15:40:59.555-0600"
}
},
{
"event" : "addConfiguration",
"timestamp" : "2017-12-01T15:52:49.876-0600",
"value" : {
"name" : "FTBFConfig_v54",
"assigned" : "2017-12-01T15:52:49.876-0600"
}
},
{
"event" : "addConfiguration",
"timestamp" : "2017-12-01T15:54:35.050-0600",
"value" : {
"name" : "FTBFConfig_v55",
"assigned" : "2017-12-01T15:54:35.050-0600"
}
},
{
"event" : "addConfiguration",
"timestamp" : "2017-12-01T15:55:34.610-0600",
"value" : {
"name" : "FTBFConfig_v56",
"assigned" : "2017-12-01T15:55:34.610-0600"
}
},
{
"event" : "addConfiguration",
"timestamp" : "2017-12-01T15:56:40.459-0600",
"value" : {
"name" : "FTBFConfig_v57",
"assigned" : "2017-12-01T15:56:40.459-0600"
}
},
{
"event" : "addConfiguration",
"timestamp" : "2017-12-01T15:57:38.512-0600",
"value" : {
"name" : "FTBFConfig_v58",
"assigned" : "2017-12-01T15:57:38.512-0600"
}
},
{
"event" : "addConfiguration",
"timestamp" : "2017-12-01T15:58:30.433-0600",
"value" : {
"name" : "FTBFConfig_v59",
"assigned" : "2017-12-01T15:58:30.432-0600"
}
},
{
"event" : "addConfiguration",
"timestamp" : "2017-12-01T15:59:31.646-0600",
"value" : {
"name" : "FTBFConfig_v60",
"assigned" : "2017-12-01T15:59:31.645-0600"
}
},
{
"event" : "addConfiguration",
"timestamp" : "2017-12-01T16:19:41.474-0600",
"value" : {
"name" : "FTBFConfig_v61",
"assigned" : "2017-12-01T16:19:41.474-0600"
}
},
{
"event" : "addConfiguration",
"timestamp" : "2017-12-01T16:22:03.956-0600",
"value" : {
"name" : "FTBFConfig_v62",
"assigned" : "2017-12-01T16:22:03.956-0600"
}
},
{
"event" : "addConfiguration",
"timestamp" : "2017-12-01T16:31:24.591-0600",
"value" : {
"name" : "FTBFConfig_v63",
"assigned" : "2017-12-01T16:31:24.591-0600"
}
},
{
"event" : "addConfiguration",
"timestamp" : "2017-12-01T17:06:31.889-0600",
"value" : {
"name" : "FTBFConfig_v64",
"assigned" : "2017-12-01T17:06:31.889-0600"
}
},
{
"event" : "addConfiguration",
"timestamp" : "2017-12-01T17:32:44.017-0600",
"value" : {
"name" : "FTBFConfig_v65",
"assigned" : "2017-12-01T17:32:44.017-0600"
}
},
{
"event" : "addConfiguration",
"timestamp" : "2017-12-01T20:38:50.466-0600",
"value" : {
"name" : "FTBFConfig_v66",
"assigned" : "2017-12-01T20:38:50.466-0600"
}
},
{
"event" : "addConfiguration",
"timestamp" : "2017-12-01T21:25:01.810-0600",
"value" : {
"name" : "FTBFConfig_v67",
"assigned" : "2017-12-01T21:25:01.810-0600"
}
},
{
"event" : "addConfiguration",
"timestamp" : "2017-12-01T21:43:01.502-0600",
"value" : {
"name" : "FTBFConfig_v68",
"assigned" : "2017-12-01T21:43:01.502-0600"
}
},
{
"event" : "addConfiguration",
"timestamp" : "2017-12-01T21:45:00.094-0600",
"value" : {
"name" : "FTBFConfig_v69",
"assigned" : "2017-12-01T21:45:00.094-0600"
}
},
{
"event" : "addConfiguration",
"timestamp" : "2017-12-01T21:59:19.371-0600",
"value" : {
"name" : "FTBFConfig_v70",
"assigned" : "2017-12-01T21:59:19.371-0600"
}
},
{
"event" : "addConfiguration",
"timestamp" : "2017-12-01T22:00:06.100-0600",
"value" : {
"name" : "FTBFConfigNim_v0",
"assigned" : "2017-12-01T22:00:06.100-0600"
}
},
{
"event" : "addConfiguration",
"timestamp" : "2017-12-01T22:13:07.867-0600",
"value" : {
"name" : "FTBFConfigNim_v1",
"assigned" : "2017-12-01T22:13:07.867-0600"
}
},
{
"event" : "addConfiguration",
"timestamp" : "2017-12-01T22:15:55.113-0600",
"value" : {
"name" : "FTBFConfigNim_v2",
"assigned" : "2017-12-01T22:15:55.113-0600"
}
},
{
"event" : "addConfiguration",
"timestamp" : "2017-12-01T22:17:03.631-0600",
"value" : {
"name" : "FTBFConfigNim_v3",
"assigned" : "2017-12-01T22:17:03.631-0600"
}
},
{
"event" : "addConfiguration",
"timestamp" : "2017-12-01T22:19:06.199-0600",
"value" : {
"name" : "FTBFConfigNim_v4",
"assigned" : "2017-12-01T22:19:06.199-0600"
}
},
{
"event" : "addConfiguration",
"timestamp" : "2017-12-01T22:21:56.962-0600",
"value" : {
"name" : "FTBFConfigNim_v5",
"assigned" : "2017-12-01T22:21:56.961-0600"
}
},
{
"event" : "addConfiguration",
"timestamp" : "2017-12-01T22:23:13.777-0600",
"value" : {
"name" : "FTBFConfigNim_v6",
"assigned" : "2017-12-01T22:23:13.777-0600"
}
},
{
"event" : "addConfiguration",
"timestamp" : "2017-12-01T22:25:16.956-0600",
"value" : {
"name" : "FTBFConfigNim_v7",
"assigned" : "2017-12-01T22:25:16.956-0600"
}
},
{
"event" : "addConfiguration",
"timestamp" : "2017-12-01T22:27:04.625-0600",
"value" : {
"name" : "FTBFConfigNim_v8",
"assigned" : "2017-12-01T22:27:04.625-0600"
}
},
{
"event" : "addConfiguration",
"timestamp" : "2017-12-01T22:29:28.760-0600",
"value" : {
"name" : "FTBFConfigNim_v9",
"assigned" : "2017-12-01T22:29:28.760-0600"
}
},
{
"event" : "addConfiguration",
"timestamp" : "2017-12-01T22:52:34.079-0600",
"value" : {
"name" : "FTBFConfigNim_v10",
"assigned" : "2017-12-01T22:52:34.079-0600"
}
},
{
"event" : "addConfiguration",
"timestamp" : "2017-12-01T22:57:28.754-0600",
"value" : {
"name" : "FTBFConfigNim_v11",
"assigned" : "2017-12-01T22:57:28.753-0600"
}
},
{
"event" : "addConfiguration",
"timestamp" : "2017-12-01T23:00:06.950-0600",
"value" : {
"name" : "FTBFConfigNim_v12",
"assigned" : "2017-12-01T23:00:06.950-0600"
}
},
{
"event" : "addConfiguration",
"timestamp" : "2017-12-01T23:52:35.094-0600",
"value" : {
"name" : "FTBFConfigNim_v13",
"assigned" : "2017-12-01T23:52:35.094-0600"
}
},
{
"event" : "addConfiguration",
"timestamp" : "2017-12-01T23:58:09.543-0600",
"value" : {
"name" : "FTBFConfigNim_v14",
"assigned" : "2017-12-01T23:58:09.543-0600"
}
},
{
"event" : "addConfiguration",
"timestamp" : "2017-12-02T00:00:33.769-0600",
"value" : {
"name" : "FTBFConfigNim_v15",
"assigned" : "2017-12-02T00:00:33.769-0600"
}
},
{
"event" : "addConfiguration",
"timestamp" : "2017-12-02T00:13:08.945-0600",
"value" : {
"name" : "FTBFConfigNim_v16",
"assigned" : "2017-12-02T00:13:08.945-0600"
}
},
{
"event" : "addConfiguration",
"timestamp" : "2017-12-02T00:28:27.893-0600",
"value" : {
"name" : "FTBFConfigNim_v17",
"assigned" : "2017-12-02T00:28:27.892-0600"
}
},
{
"event" : "addConfiguration",
"timestamp" : "2017-12-02T00:29:33.956-0600",
"value" : {
"name" : "FTBFConfigNim_v18",
"assigned" : "2017-12-02T00:29:33.956-0600"
}
},
{
"event" : "addConfiguration",
"timestamp" : "2017-12-02T00:31:12.774-0600",
"value" : {
"name" : "FTBFConfigNim_v19",
"assigned" : "2017-12-02T00:31:12.774-0600"
}
},
{
"event" : "addConfiguration",
"timestamp" : "2017-12-02T00:57:26.986-0600",
"value" : {
"name" : "FTBFConfigNim_v20",
"assigned" : "2017-12-02T00:57:26.985-0600"
}
},
{
"event" : "addConfiguration",
"timestamp" : "2017-12-02T10:58:01.537-0600",
"value" : {
"name" : "FTBFConfigNim_v21",
"assigned" : "2017-12-02T10:58:01.537-0600"
}
},
{
"event" : "addConfiguration",
"timestamp" : "2017-12-02T11:08:17.745-0600",
"value" : {
"name" : "FTBFConfigNim_v22",
"assigned" : "2017-12-02T11:08:17.745-0600"
}
},
{
"event" : "addConfiguration",
"timestamp" : "2017-12-02T11:12:39.361-0600",
"value" : {
"name" : "FTBFConfigNim_v23",
"assigned" : "2017-12-02T11:12:39.361-0600"
}
},
{
"event" : "addConfiguration",
"timestamp" : "2017-12-02T11:18:42.226-0600",
"value" : {
"name" : "FTBFConfigNim_v24",
"assigned" : "2017-12-02T11:18:42.226-0600"
}
},
{
"event" : "addConfiguration",
"timestamp" : "2017-12-02T11:27:05.420-0600",
"value" : {
"name" : "FTBFConfigNim_v25",
"assigned" : "2017-12-02T11:27:05.420-0600"
}
},
{
"event" : "addConfiguration",
"timestamp" : "2017-12-02T11:38:36.463-0600",
"value" : {
"name" : "FTBFConfigNim_v26",
"assigned" : "2017-12-02T11:38:36.463-0600"
}
},
{
"event" : "addConfiguration",
"timestamp" : "2017-12-02T11:49:07.661-0600",
"value" : {
"name" : "FTBFConfigNim_v27",
"assigned" : "2017-12-02T11:49:07.661-0600"
}
},
{
"event" : "addConfiguration",
"timestamp" : "2017-12-02T11:55:09.177-0600",
"value" : {
"name" : "FTBFConfigNim_v28",
"assigned" : "2017-12-02T11:55:09.177-0600"
}
},
{
"event" : "addConfiguration",
"timestamp" : "2017-12-02T12:06:25.959-0600",
"value" : {
"name" : "FTBFConfigNim_v29",
"assigned" : "2017-12-02T12:06:25.959-0600"
}
},
{
"event" : "addConfiguration",
"timestamp" : "2017-12-02T12:24:14.621-0600",
"value" : {
"name" : "FTBFConfig_v71",
"assigned" : "2017-12-02T12:24:14.621-0600"
}
},
{
"event" : "addConfiguration",
"timestamp" : "2017-12-02T12:43:35.492-0600",
"value" : {
"name" : "FTBFConfig_v72",
"assigned" : "2017-12-02T12:43:35.492-0600"
}
},
{
"event" : "addConfiguration",
"timestamp" : "2017-12-02T13:55:35.155-0600",
"value" : {
"name" : "FTBFConfig_v73",
"assigned" : "2017-12-02T13:55:35.155-0600"
}
},
{
"event" : "addConfiguration",
"timestamp" : "2017-12-02T14:12:18.303-0600",
"value" : {
"name" : "FTBFConfig_v75",
"assigned" : "2017-12-02T14:12:18.303-0600"
}
},
{
"event" : "addConfiguration",
"timestamp" : "2017-12-02T19:05:53.351-0600",
"value" : {
"name" : "FTBFConfig_v76",
"assigned" : "2017-12-02T19:05:53.351-0600"
}
},
{
"event" : "addConfiguration",
"timestamp" : "2017-12-02T19:12:13.223-0600",
"value" : {
"name" : "FTBFConfig_v77",
"assigned" : "2017-12-02T19:12:13.223-0600"
}
},
{
"event" : "addConfiguration",
"timestamp" : "2017-12-03T14:03:48.372-0600",
"value" : {
"name" : "FTBFConfig_v78",
"assigned" : "2017-12-03T14:03:48.372-0600"
}
},
{
"event" : "addConfiguration",
"timestamp" : "2017-12-03T14:09:06.635-0600",
"value" : {
"name" : "FTBFConfig_v79",
"assigned" : "2017-12-03T14:09:06.635-0600"
}
},
{
"event" : "addConfiguration",
"timestamp" : "2017-12-03T14:11:10.367-0600",
"value" : {
"name" : "FTBFConfig_v80",
"assigned" : "2017-12-03T14:11:10.366-0600"
}
},
{
"event" : "addConfiguration",
"timestamp" : "2017-12-03T14:22:33.423-0600",
"value" : {
"name" : "FTBFConfig_v81",
"assigned" : "2017-12-03T14:22:33.423-0600"
}
},
{
"event" : "addConfiguration",
"timestamp" : "2017-12-03T14:40:38.230-0600",
"value" : {
"name" : "FTBFConfig_v82",
"assigned" : "2017-12-03T14:40:38.230-0600"
}
},
{
"event" : "addConfiguration",
"timestamp" : "2017-12-03T14:45:05.587-0600",
"value" : {
"name" : "FTBFConfig_v83",
"assigned" : "2017-12-03T14:45:05.587-0600"
}
},
{
"event" : "addConfiguration",
"timestamp" : "2017-12-04T14:51:30.885-0600",
"value" : {
"name" : "FTBFConfig_v84",
"assigned" : "2017-12-04T14:51:30.885-0600"
}
},
{
"event" : "addConfiguration",
"timestamp" : "2017-12-04T14:55:44.076-0600",
"value" : {
"name" : "FTBFConfig_v85",
"assigned" : "2017-12-04T14:55:44.076-0600"
}
},
{
"event" : "addConfiguration",
"timestamp" : "2017-12-04T16:51:07.131-0600",
"value" : {
"name" : "FTBFConfig_v86",
"assigned" : "2017-12-04T16:51:07.130-0600"
}
},
{
"event" : "addConfiguration",
"timestamp" : "2017-12-04T16:56:47.772-0600",
"value" : {
"name" : "FTBFConfig_v87",
"assigned" : "2017-12-04T16:56:47.771-0600"
}
},
{
"event" : "addConfiguration",
"timestamp" : "2017-12-04T17:01:12.503-0600",
"value" : {
"name" : "FTBFConfig_v88",
"assigned" : "2017-12-04T17:01:12.503-0600"
}
},
{
"event" : "addConfiguration",
"timestamp" : "2017-12-04T17:03:57.618-0600",
"value" : {
"name" : "FTBFConfig_v89",
"assigned" : "2017-12-04T17:03:57.618-0600"
}
},
{
"event" : "addConfiguration",
"timestamp" : "2017-12-04T17:07:17.264-0600",
"value" : {
"name" : "FTBFConfig_v90",
"assigned" : "2017-12-04T17:07:17.264-0600"
}
},
{
"event" : "addConfiguration",
"timestamp" : "2017-12-04T17:09:26.386-0600",
"value" : {
"name" : "FTBFConfig_v91",
"assigned" : "2017-12-04T17:09:26.386-0600"
}
},
{
"event" : "addConfiguration",
"timestamp" : "2017-12-04T17:11:38.898-0600",
"value" : {
"name" : "FTBFConfig_v92",
"assigned" : "2017-12-04T17:11:38.898-0600"
}
},
{
"event" : "addConfiguration",
"timestamp" : "2017-12-04T21:05:21.452-0600",
"value" : {
"name" : "FTBFConfig_v93",
"assigned" : "2017-12-04T21:05:21.452-0600"
}
},
{
"event" : "addConfiguration",
"timestamp" : "2017-12-04T21:17:12.419-0600",
"value" : {
"name" : "FTBFConfig_v94",
"assigned" : "2017-12-04T21:17:12.419-0600"
}
},
{
"event" : "addConfiguration",
"timestamp" : "2017-12-04T21:41:18.069-0600",
"value" : {
"name" : "FTBFConfig_v95",
"assigned" : "2017-12-04T21:41:18.068-0600"
}
},
{
"event" : "addConfiguration",
"timestamp" : "2017-12-04T22:39:02.725-0600",
"value" : {
"name" : "FTBFConfig_v96",
"assigned" : "2017-12-04T22:39:02.725-0600"
}
},
{
"event" : "addConfiguration",
"timestamp" : "2017-12-04T23:01:13.230-0600",
"value" : {
"name" : "FTBFConfig_v97",
"assigned" : "2017-12-04T23:01:13.230-0600"
}
},
{
"event" : "addConfiguration",
"timestamp" : "2017-12-07T11:07:47.234-0600",
"value" : {
"name" : "FTBFConfig_v98",
"assigned" : "2017-12-07T11:07:47.234-0600"
}
},
{
"event" : "addConfiguration",
"timestamp" : "2017-12-07T11:49:59.894-0600",
"value" : {
"name" : "FTBFConfig_v99",
"assigned" : "2017-12-07T11:49:59.894-0600"
}
},
{
"event" : "addConfiguration",
"timestamp" : "2017-12-07T11:58:26.643-0600",
"value" : {
"name" : "FTBFConfig_v100",
"assigned" : "2017-12-07T11:58:26.643-0600"
}
},
{
"event" : "addConfiguration",
"timestamp" : "2017-12-08T13:30:48.808-0600",
"value" : {
"name" : "FTBFConfig_v101",
"assigned" : "2017-12-08T13:30:48.808-0600"
}
},
{
"event" : "addConfiguration",
"timestamp" : "2017-12-08T13:32:35.671-0600",
"value" : {
"name" : "FTBFConfig_v102",
"assigned" : "2017-12-08T13:32:35.670-0600"
}
},
{
"event" : "addConfiguration",
"timestamp" : "2017-12-12T11:03:05.489-0600",
"value" : {
"name" : "FTBFConfig_v103",
"assigned" : "2017-12-12T11:03:05.488-0600"
}
},
{
"event" : "addConfiguration",
"timestamp" : "2017-12-12T13:50:59.998-0600",
"value" : {
"name" : "FTBFConfig_v104",
"assigned" : "2017-12-12T13:50:59.998-0600"
}
},
{
"event" : "addConfiguration",
"timestamp" : "2017-12-12T15:25:05.955-0600",
"value" : {
"name" : "FTBFConfig_v105",
"assigned" : "2017-12-12T15:25:05.955-0600"
}
},
{
"event" : "addConfiguration",
"timestamp" : "2017-12-13T10:24:24.292-0600",
"value" : {
"name" : "FTBFConfig_v106",
"assigned" : "2017-12-13T10:24:24.292-0600"
}
},
{
"event" : "addConfiguration",
"timestamp" : "2017-12-13T10:27:03.029-0600",
"value" : {
"name" : "FTBFConfig_v107",
"assigned" : "2017-12-13T10:27:03.029-0600"
}
},
{
"event" : "addConfiguration",
"timestamp" : "2018-02-01T21:14:26.649-0600",
"value" : {
"name" : "FTBFConfig_v108",
"assigned" : "2018-02-01T21:14:26.649-0600"
}
},
{
"event" : "addConfiguration",
"timestamp" : "2018-02-01T21:21:03.776-0600",
"value" : {
"name" : "FTBFConfig_v109",
"assigned" : "2018-02-01T21:21:03.776-0600"
}
},
{
"event" : "addConfiguration",
"timestamp" : "2018-02-02T11:25:34.738-0600",
"value" : {
"name" : "FTBFConfig_v110",
"assigned" : "2018-02-02T11:25:34.738-0600"
}
},
{
"event" : "addConfiguration",
"timestamp" : "2018-02-02T11:37:13.580-0600",
"value" : {
"name" : "FTBFConfig_v111",
"assigned" : "2018-02-02T11:37:13.580-0600"
}
},
{
"event" : "addConfiguration",
"timestamp" : "2018-02-02T11:47:16.081-0600",
"value" : {
"name" : "FTBFConfig_v112",
"assigned" : "2018-02-02T11:47:16.081-0600"
}
},
{
"event" : "addConfiguration",
"timestamp" : "2018-02-02T11:53:37.331-0600",
"value" : {
"name" : "FTBFConfig_v113",
"assigned" : "2018-02-02T11:53:37.331-0600"
}
},
{
"event" : "addConfiguration",
"timestamp" : "2018-02-02T12:00:53.445-0600",
"value" : {
"name" : "FTBFConfig_v114",
"assigned" : "2018-02-02T12:00:53.445-0600"
}
},
{
"event" : "addConfiguration",
"timestamp" : "2018-02-02T12:27:14.920-0600",
"value" : {
"name" : "FTBFConfig_v115",
"assigned" : "2018-02-02T12:27:14.920-0600"
}
},
{
"event" : "addConfiguration",
"timestamp" : "2018-02-02T14:28:54.438-0600",
"value" : {
"name" : "FTBFConfig_v116",
"assigned" : "2018-02-02T14:28:54.438-0600"
}
},
{
"event" : "addConfiguration",
"timestamp" : "2018-02-02T14:30:20.787-0600",
"value" : {
"name" : "FTBFConfig_v117",
"assigned" : "2018-02-02T14:30:20.787-0600"
}
},
{
"event" : "addConfiguration",
"timestamp" : "2018-02-02T14:34:02.051-0600",
"value" : {
"name" : "FTBFConfig_v118",
"assigned" : "2018-02-02T14:34:02.050-0600"
}
},
{
"event" : "addConfiguration",
"timestamp" : "2018-02-02T14:36:28.646-0600",
"value" : {
"name" : "FTBFConfig_v119",
"assigned" : "2018-02-02T14:36:28.646-0600"
}
},
{
"event" : "addConfiguration",
"timestamp" : "2018-02-02T14:38:42.010-0600",
"value" : {
"name" : "FTBFConfig_v120",
"assigned" : "2018-02-02T14:38:42.009-0600"
}
},
{
"event" : "addConfiguration",
"timestamp" : "2018-02-02T14:41:51.305-0600",
"value" : {
"name" : "FTBFConfig_v121",
"assigned" : "2018-02-02T14:41:51.304-0600"
}
},
{
"event" : "addConfiguration",
"timestamp" : "2018-02-02T14:50:25.389-0600",
"value" : {
"name" : "FTBFConfig_v122",
"assigned" : "2018-02-02T14:50:25.389-0600"
}
},
{
"event" : "addConfiguration",
"timestamp" : "2018-02-02T14:52:58.265-0600",
"value" : {
"name" : "FTBFConfig_v123",
"assigned" : "2018-02-02T14:52:58.265-0600"
}
},
{
"event" : "addConfiguration",
"timestamp" : "2018-02-02T14:59:51.575-0600",
"value" : {
"name" : "FTBFConfig_v124",
"assigned" : "2018-02-02T14:59:51.575-0600"
}
},
{
"event" : "addConfiguration",
"timestamp" : "2018-02-02T15:04:09.694-0600",
"value" : {
"name" : "FTBFConfig_v125",
"assigned" : "2018-02-02T15:04:09.693-0600"
}
},
{
"event" : "addConfiguration",
"timestamp" : "2018-02-02T15:50:12.943-0600",
"value" : {
"name" : "FTBFConfig_v126",
"assigned" : "2018-02-02T15:50:12.942-0600"
}
},
{
"event" : "addConfiguration",
"timestamp" : "2018-02-02T15:51:32.399-0600",
"value" : {
"name" : "FTBFConfig_v127",
"assigned" : "2018-02-02T15:51:32.398-0600"
}
},
{
"event" : "addConfiguration",
"timestamp" : "2018-02-02T15:52:37.558-0600",
"value" : {
"name" : "FTBFConfig_v128",
"assigned" : "2018-02-02T15:52:37.558-0600"
}
},
{
"event" : "addConfiguration",
"timestamp" : "2018-02-02T16:02:46.478-0600",
"value" : {
"name" : "FTBFConfig_v129",
"assigned" : "2018-02-02T16:02:46.478-0600"
}
},
{
"event" : "addConfiguration",
"timestamp" : "2018-02-02T16:08:46.012-0600",
"value" : {
"name" : "FTBFConfig_v130",
"assigned" : "2018-02-02T16:08:46.012-0600"
}
},
{
"event" : "addConfiguration",
"timestamp" : "2018-02-02T16:11:31.871-0600",
"value" : {
"name" : "FTBFConfig_v131",
"assigned" : "2018-02-02T16:11:31.871-0600"
}
},
{
"event" : "addConfiguration",
"timestamp" : "2018-02-02T16:12:59.738-0600",
"value" : {
"name" : "FTBFConfig_v132",
"assigned" : "2018-02-02T16:12:59.737-0600"
}
},
{
"event" : "addConfiguration",
"timestamp" : "2018-02-02T16:14:30.325-0600",
"value" : {
"name" : "FTBFConfig_v133",
"assigned" : "2018-02-02T16:14:30.325-0600"
}
},
{
"event" : "addConfiguration",
"timestamp" : "2018-02-02T16:26:23.252-0600",
"value" : {
"name" : "FTBFConfig_v134",
"assigned" : "2018-02-02T16:26:23.251-0600"
}
},
{
"event" : "addConfiguration",
"timestamp" : "2018-02-02T16:27:10.356-0600",
"value" : {
"name" : "FTBFConfig_v135",
"assigned" : "2018-02-02T16:27:10.356-0600"
}
},
{
"event" : "addConfiguration",
"timestamp" : "2018-02-02T16:29:31.716-0600",
"value" : {
"name" : "FTBFConfig_v136",
"assigned" : "2018-02-02T16:29:31.716-0600"
}
},
{
"event" : "addConfiguration",
"timestamp" : "2018-02-02T16:31:42.334-0600",
"value" : {
"name" : "FTBFConfig_v137",
"assigned" : "2018-02-02T16:31:42.334-0600"
}
},
{
"event" : "addConfiguration",
"timestamp" : "2018-02-02T16:34:15.008-0600",
"value" : {
"name" : "FTBFConfig_v138",
"assigned" : "2018-02-02T16:34:15.008-0600"
}
},
{
"event" : "addConfiguration",
"timestamp" : "2018-02-02T17:39:31.055-0600",
"value" : {
"name" : "FTBFConfig_v139",
"assigned" : "2018-02-02T17:39:31.054-0600"
}
},
{
"event" : "addConfiguration",
"timestamp" : "2018-02-02T17:42:53.235-0600",
"value" : {
"name" : "FTBFConfig_v140",
"assigned" : "2018-02-02T17:42:53.235-0600"
}
},
{
"event" : "addConfiguration",
"timestamp" : "2018-02-02T17:47:38.460-0600",
"value" : {
"name" : "FTBFConfig_v141",
"assigned" : "2018-02-02T17:47:38.460-0600"
}
},
{
"event" : "addConfiguration",
"timestamp" : "2018-02-02T17:54:02.452-0600",
"value" : {
"name" : "FTBFConfig_v142",
"assigned" : "2018-02-02T17:54:02.452-0600"
}
}
],
"created" : "2017-11-08T15:56:03.747-0600"
},
"_id" : {
"$oid" : "6c7b6f0fcd7342e993b58467"
},
"collection" : "FEOtsUDPFSSRInterfaceConfiguration",
"aliases" : {
"active" : [

],
"history" : [

]
},
"runs" : [

],
"attachments" : [

],
"configtype" : "notprovided"
}