{
"document" : {
"data" : {
"NAME" : "GROUP_ALIASES_TABLE",
"COMMENT" : "Default Backbone.",
"AUTHOR" : "admin",
"CREATION_TIME" : 1574288686,
"COL_TYPES" : {
"GROUP_KEY_ALIAS" : "STRING",
"GROUP_NAME" : "STRING",
"GROUP_KEY" : "STRING",
"COMMENT_DESCRIPTION" : "STRING",
"AUTHOR" : "STRING",
"RECORD_INSERTION_TIME" : "TIMESTAMP WITH TIMEZONE"
},
"DATA_SET" : [
{
"GROUP_KEY_ALIAS" : "OuterTrackerContext",
"GROUP_NAME" : "DefaultContext",
"GROUP_KEY" : "9",
"COMMENT_DESCRIPTION" : "This Group Alias was automatically setup by the server.",
"AUTHOR" : "admin",
"RECORD_INSERTION_TIME" : "1574285314"
},
{
"GROUP_KEY_ALIAS" : "OuterTrackerTable",
"GROUP_NAME" : "DefaultConfig",
"GROUP_KEY" : "14",
"COMMENT_DESCRIPTION" : "This Group Alias was automatically setup by the server.",
"AUTHOR" : "admin",
"RECORD_INSERTION_TIME" : "1574288686"
}
]
},
"metadata" : {

},
"search" : [

]
},
"comments" : [

],
"origin" : {
"source" : "template",
"name" : "notprovided",
"format" : "json",
"created" : "2019-11-20T16:24:46.088-0600",
"rawdata" : [

]
},
"version" : "28",
"entities" : [
{
"name" : "OTSROOT",
"assigned" : "2019-11-20T16:24:46.089-0600"
}
],
"configurations" : [
{
"name" : "notprovided",
"assigned" : "2019-11-20T16:24:46.089-0600"
},
{
"name" : "TableEditWizBackbone_v15",
"assigned" : "2019-11-20T16:24:46.712-0600"
}
],
"changelog" : "notprovided",
"bookkeeping" : {
"isdeleted" : false,
"isreadonly" : false,
"updates" : [
{
"event" : "addConfiguration",
"timestamp" : "2019-11-20T16:24:46.089-0600",
"value" : {
"name" : "notprovided",
"assigned" : "2019-11-20T16:24:46.089-0600"
}
},
{
"event" : "setVersion",
"timestamp" : "2019-11-20T16:24:46.089-0600",
"value" : {
"name" : "28",
"assigned" : "2019-11-20T16:24:46.089-0600"
}
},
{
"event" : "setCollection",
"timestamp" : "2019-11-20T16:24:46.089-0600",
"value" : {
"name" : "GroupAliasesTable",
"assigned" : "2019-11-20T16:24:46.089-0600"
}
},
{
"event" : "addEntity",
"timestamp" : "2019-11-20T16:24:46.089-0600",
"value" : {
"name" : "OTSROOT",
"assigned" : "2019-11-20T16:24:46.089-0600"
}
},
{
"event" : "addConfiguration",
"timestamp" : "2019-11-20T16:24:46.712-0600",
"value" : {
"name" : "TableEditWizBackbone_v15",
"assigned" : "2019-11-20T16:24:46.712-0600"
}
}
],
"created" : "2019-11-20T16:24:46.088-0600"
},
"_id" : {
"$oid" : "1f4946bd5c82400093231729"
},
"collection" : "GroupAliasesTable",
"aliases" : {
"active" : [

],
"history" : [

]
},
"runs" : [

],
"attachments" : [

],
"configtype" : "notprovided"
}