{
"document" : {
"data" : {
"NAME" : "GROUP_ALIASES_TABLE",
"COMMENT" : "Default Backbone.",
"AUTHOR" : "admin",
"CREATION_TIME" : 1619715410,
"COL_TYPES" : {
"GROUP_KEY_ALIAS" : "STRING",
"GROUP_NAME" : "STRING",
"GROUP_KEY" : "STRING",
"COMMENT_DESCRIPTION" : "STRING",
"AUTHOR" : "STRING",
"RECORD_INSERTION_TIME" : "TIMESTAMP WITH TIMEZONE"
},
"DATA_SET" : [
{
"GROUP_KEY_ALIAS" : "OuterTrackerContext",
"GROUP_NAME" : "DefaultContext",
"GROUP_KEY" : "16",
"COMMENT_DESCRIPTION" : "This Group Alias was automatically setup by the server.",
"AUTHOR" : "admin",
"RECORD_INSERTION_TIME" : "1619712273"
},
{
"GROUP_KEY_ALIAS" : "T992Config",
"GROUP_NAME" : "DefaultConfig",
"GROUP_KEY" : "21",
"COMMENT_DESCRIPTION" : "This Group Alias was automatically setup by the server.",
"AUTHOR" : "admin",
"RECORD_INSERTION_TIME" : "1619715410"
}
]
},
"metadata" : {

},
"search" : [

]
},
"comments" : [

],
"origin" : {
"source" : "template",
"name" : "notprovided",
"format" : "json",
"created" : "2021-04-29T11:56:50.649-0500",
"rawdata" : [

]
},
"version" : "42",
"entities" : [
{
"name" : "OTSROOT",
"assigned" : "2021-04-29T11:56:50.649-0500"
}
],
"configurations" : [
{
"name" : "notprovided",
"assigned" : "2021-04-29T11:56:50.649-0500"
},
{
"name" : "TableEditWizBackbone_v22",
"assigned" : "2021-04-29T11:56:51.142-0500"
}
],
"changelog" : "notprovided",
"bookkeeping" : {
"isdeleted" : false,
"isreadonly" : false,
"updates" : [
{
"event" : "addConfiguration",
"timestamp" : "2021-04-29T11:56:50.649-0500",
"value" : {
"name" : "notprovided",
"assigned" : "2021-04-29T11:56:50.649-0500"
}
},
{
"event" : "setVersion",
"timestamp" : "2021-04-29T11:56:50.649-0500",
"value" : {
"name" : "42",
"assigned" : "2021-04-29T11:56:50.649-0500"
}
},
{
"event" : "setCollection",
"timestamp" : "2021-04-29T11:56:50.649-0500",
"value" : {
"name" : "GroupAliasesTable",
"assigned" : "2021-04-29T11:56:50.649-0500"
}
},
{
"event" : "addEntity",
"timestamp" : "2021-04-29T11:56:50.650-0500",
"value" : {
"name" : "OTSROOT",
"assigned" : "2021-04-29T11:56:50.649-0500"
}
},
{
"event" : "addConfiguration",
"timestamp" : "2021-04-29T11:56:51.142-0500",
"value" : {
"name" : "TableEditWizBackbone_v22",
"assigned" : "2021-04-29T11:56:51.142-0500"
}
}
],
"created" : "2021-04-29T11:56:50.649-0500"
},
"_id" : {
"$oid" : "239bab10bdfb4b3c998be99b"
},
"collection" : "GroupAliasesTable",
"aliases" : {
"active" : [

],
"history" : [

]
},
"runs" : [

],
"attachments" : [

],
"configtype" : "notprovided"
}