{
"document" : {
"data" : {
"NAME" : "GROUP_ALIASES_TABLE",
"COMMENT" : "Default Backbone.",
"AUTHOR" : "admin",
"CREATION_TIME" : 1621024466,
"COL_TYPES" : {
"GROUP_KEY_ALIAS" : "STRING",
"GROUP_NAME" : "STRING",
"GROUP_KEY" : "STRING",
"COMMENT_DESCRIPTION" : "STRING",
"AUTHOR" : "STRING",
"RECORD_INSERTION_TIME" : "TIMESTAMP WITH TIMEZONE"
},
"DATA_SET" : [
{
"GROUP_KEY_ALIAS" : "OuterTrackerContext",
"GROUP_NAME" : "DefaultContext",
"GROUP_KEY" : "24",
"COMMENT_DESCRIPTION" : "This Group Alias was automatically setup by the server.",
"AUTHOR" : "admin",
"RECORD_INSERTION_TIME" : "1621024466"
},
{
"GROUP_KEY_ALIAS" : "T992Config",
"GROUP_NAME" : "DefaultConfig",
"GROUP_KEY" : "35",
"COMMENT_DESCRIPTION" : "This Group Alias was automatically setup by the server.",
"AUTHOR" : "admin",
"RECORD_INSERTION_TIME" : "1620853861"
}
]
},
"metadata" : {

},
"search" : [

]
},
"comments" : [

],
"origin" : {
"source" : "template",
"name" : "notprovided",
"format" : "json",
"created" : "2021-05-14T15:34:26.480-0500",
"rawdata" : [

]
},
"version" : "64",
"entities" : [
{
"name" : "OTSROOT",
"assigned" : "2021-05-14T15:34:26.480-0500"
}
],
"configurations" : [
{
"name" : "notprovided",
"assigned" : "2021-05-14T15:34:26.480-0500"
},
{
"name" : "GroupAliasTreeEditWizBackbone_v30",
"assigned" : "2021-05-14T15:34:27.126-0500"
}
],
"changelog" : "notprovided",
"bookkeeping" : {
"isdeleted" : false,
"isreadonly" : false,
"updates" : [
{
"event" : "addConfiguration",
"timestamp" : "2021-05-14T15:34:26.480-0500",
"value" : {
"name" : "notprovided",
"assigned" : "2021-05-14T15:34:26.480-0500"
}
},
{
"event" : "setVersion",
"timestamp" : "2021-05-14T15:34:26.480-0500",
"value" : {
"name" : "64",
"assigned" : "2021-05-14T15:34:26.480-0500"
}
},
{
"event" : "setCollection",
"timestamp" : "2021-05-14T15:34:26.480-0500",
"value" : {
"name" : "GroupAliasesTable",
"assigned" : "2021-05-14T15:34:26.480-0500"
}
},
{
"event" : "addEntity",
"timestamp" : "2021-05-14T15:34:26.480-0500",
"value" : {
"name" : "OTSROOT",
"assigned" : "2021-05-14T15:34:26.480-0500"
}
},
{
"event" : "addConfiguration",
"timestamp" : "2021-05-14T15:34:27.126-0500",
"value" : {
"name" : "GroupAliasTreeEditWizBackbone_v30",
"assigned" : "2021-05-14T15:34:27.126-0500"
}
}
],
"created" : "2021-05-14T15:34:26.480-0500"
},
"_id" : {
"$oid" : "5811a950520e437bad0498c6"
},
"collection" : "GroupAliasesTable",
"aliases" : {
"active" : [

],
"history" : [

]
},
"runs" : [

],
"attachments" : [

],
"configtype" : "notprovided"
}