{
"document" : {
"data" : {
"NAME" : "GROUP_ALIASES_TABLE",
"COMMENT" : "Default Backbone.",
"AUTHOR" : "admin",
"CREATION_TIME" : 1621966883,
"COL_TYPES" : {
"GROUP_KEY_ALIAS" : "STRING",
"GROUP_NAME" : "STRING",
"GROUP_KEY" : "STRING",
"COMMENT_DESCRIPTION" : "STRING",
"AUTHOR" : "STRING",
"RECORD_INSERTION_TIME" : "TIMESTAMP WITH TIMEZONE"
},
"DATA_SET" : [
{
"GROUP_KEY_ALIAS" : "TrackerContext",
"GROUP_NAME" : "DefaultContext",
"GROUP_KEY" : "28",
"COMMENT_DESCRIPTION" : "This Group Alias was automatically setup by the server.",
"AUTHOR" : "admin",
"RECORD_INSERTION_TIME" : "1621965963"
},
{
"GROUP_KEY_ALIAS" : "T992Config",
"GROUP_NAME" : "DefaultConfig",
"GROUP_KEY" : "37",
"COMMENT_DESCRIPTION" : "This Group Alias was automatically setup by the server.",
"AUTHOR" : "admin",
"RECORD_INSERTION_TIME" : "1621966883"
}
]
},
"metadata" : {

},
"search" : [

]
},
"comments" : [

],
"origin" : {
"source" : "template",
"name" : "notprovided",
"format" : "json",
"created" : "2021-05-25T13:21:23.065-0500",
"rawdata" : [

]
},
"version" : "72",
"entities" : [
{
"name" : "OTSROOT",
"assigned" : "2021-05-25T13:21:23.066-0500"
}
],
"configurations" : [
{
"name" : "notprovided",
"assigned" : "2021-05-25T13:21:23.066-0500"
},
{
"name" : "TableEditWizBackbone_v38",
"assigned" : "2021-05-25T13:21:23.708-0500"
}
],
"changelog" : "notprovided",
"bookkeeping" : {
"isdeleted" : false,
"isreadonly" : false,
"updates" : [
{
"event" : "addConfiguration",
"timestamp" : "2021-05-25T13:21:23.066-0500",
"value" : {
"name" : "notprovided",
"assigned" : "2021-05-25T13:21:23.066-0500"
}
},
{
"event" : "setVersion",
"timestamp" : "2021-05-25T13:21:23.066-0500",
"value" : {
"name" : "72",
"assigned" : "2021-05-25T13:21:23.066-0500"
}
},
{
"event" : "setCollection",
"timestamp" : "2021-05-25T13:21:23.066-0500",
"value" : {
"name" : "GroupAliasesTable",
"assigned" : "2021-05-25T13:21:23.066-0500"
}
},
{
"event" : "addEntity",
"timestamp" : "2021-05-25T13:21:23.066-0500",
"value" : {
"name" : "OTSROOT",
"assigned" : "2021-05-25T13:21:23.066-0500"
}
},
{
"event" : "addConfiguration",
"timestamp" : "2021-05-25T13:21:23.708-0500",
"value" : {
"name" : "TableEditWizBackbone_v38",
"assigned" : "2021-05-25T13:21:23.708-0500"
}
}
],
"created" : "2021-05-25T13:21:23.065-0500"
},
"_id" : {
"$oid" : "9c992e3f103b4d678d861173"
},
"collection" : "GroupAliasesTable",
"aliases" : {
"active" : [

],
"history" : [

]
},
"runs" : [

],
"attachments" : [

],
"configtype" : "notprovided"
}