{
"document" : {
"data" : {
"NAME" : "GROUP_ALIASES_TABLE",
"COMMENT" : "Default Backbone.",
"AUTHOR" : "admin",
"CREATION_TIME" : 1619715792,
"COL_TYPES" : {
"GROUP_KEY_ALIAS" : "STRING",
"GROUP_NAME" : "STRING",
"GROUP_KEY" : "STRING",
"COMMENT_DESCRIPTION" : "STRING",
"AUTHOR" : "STRING",
"RECORD_INSERTION_TIME" : "TIMESTAMP WITH TIMEZONE"
},
"DATA_SET" : [
{
"GROUP_KEY_ALIAS" : "OuterTrackerContext",
"GROUP_NAME" : "DefaultContext",
"GROUP_KEY" : "16",
"COMMENT_DESCRIPTION" : "This Group Alias was automatically setup by the server.",
"AUTHOR" : "admin",
"RECORD_INSERTION_TIME" : "1619712273"
},
{
"GROUP_KEY_ALIAS" : "T992Config",
"GROUP_NAME" : "DefaultConfig",
"GROUP_KEY" : "22",
"COMMENT_DESCRIPTION" : "This Group Alias was automatically setup by the server.",
"AUTHOR" : "admin",
"RECORD_INSERTION_TIME" : "1619715792"
}
]
},
"metadata" : {

},
"search" : [

]
},
"comments" : [

],
"origin" : {
"source" : "template",
"name" : "notprovided",
"format" : "json",
"created" : "2021-04-29T12:03:12.235-0500",
"rawdata" : [

]
},
"version" : "43",
"entities" : [
{
"name" : "OTSROOT",
"assigned" : "2021-04-29T12:03:12.235-0500"
}
],
"configurations" : [
{
"name" : "notprovided",
"assigned" : "2021-04-29T12:03:12.235-0500"
},
{
"name" : "TableEditWizBackbone_v23",
"assigned" : "2021-04-29T12:03:12.700-0500"
}
],
"changelog" : "notprovided",
"bookkeeping" : {
"isdeleted" : false,
"isreadonly" : false,
"updates" : [
{
"event" : "addConfiguration",
"timestamp" : "2021-04-29T12:03:12.235-0500",
"value" : {
"name" : "notprovided",
"assigned" : "2021-04-29T12:03:12.235-0500"
}
},
{
"event" : "setVersion",
"timestamp" : "2021-04-29T12:03:12.235-0500",
"value" : {
"name" : "43",
"assigned" : "2021-04-29T12:03:12.235-0500"
}
},
{
"event" : "setCollection",
"timestamp" : "2021-04-29T12:03:12.235-0500",
"value" : {
"name" : "GroupAliasesTable",
"assigned" : "2021-04-29T12:03:12.235-0500"
}
},
{
"event" : "addEntity",
"timestamp" : "2021-04-29T12:03:12.235-0500",
"value" : {
"name" : "OTSROOT",
"assigned" : "2021-04-29T12:03:12.235-0500"
}
},
{
"event" : "addConfiguration",
"timestamp" : "2021-04-29T12:03:12.700-0500",
"value" : {
"name" : "TableEditWizBackbone_v23",
"assigned" : "2021-04-29T12:03:12.700-0500"
}
}
],
"created" : "2021-04-29T12:03:12.235-0500"
},
"_id" : {
"$oid" : "cad573d48e554fe481b177e7"
},
"collection" : "GroupAliasesTable",
"aliases" : {
"active" : [

],
"history" : [

]
},
"runs" : [

],
"attachments" : [

],
"configtype" : "notprovided"
}