{
"ouid" : [
"024053d795964df9a02d260c",
"042d6da5f8b04bf8b223922f",
"09cec182030b44d39beb9448",
"0b05eec7d81e4c25a00936fb",
"0c856f401a2749d19962aca6",
"0e89ad7b5e9545da961f3b0b",
"0fa0cb85dd05452eb5203a4d",
"10c8cce209ba4bb98333d78a",
"10dc39d15ac0471e889e44ea",
"137f4ffdf5874a3a832992e7",
"14d4590e1bee4e47a59e5ea2",
"160ff075906a484598e86733",
"1bc9647293a94320ba420858",
"1c725a31c892413babc25689",
"1f4946bd5c82400093231729",
"239bab10bdfb4b3c998be99b",
"29112f3a7f404e958601839f",
"2c681be828ca4fa0a679f8c6",
"3479b5a0794b459c8b8a0e9b",
"34959371a8024241af05dda9",
"37364b5340b8429395cbf592",
"3cc02e9298d2498b933a4e70",
"44808d1f3b4546c28101d183",
"55aa78a14617470498927eed",
"5811a950520e437bad0498c6",
"5f1e514df3494097a104a6f5",
"5f78964d6e9b4c58a8d0e342",
"63b2199bfc844b24a31a1fb8",
"67f28bc8ac7f462e8e739a70",
"730b74041f9d4c898216cc2b",
"75b43369183f4004b5aead36",
"7acf58ac4e2b4449bfc08312",
"7d383510c0a8413f927d9663",
"81aea3c0fb4b4ad483184aa7",
"81f9583ca8f542af8d30fcaa",
"832a092fdccd45b8bbd58e59",
"859a3010aa68432589b5fdfb",
"883f9ef3aca24705a9d89038",
"8b35865d7c8549ef9c3fde1a",
"8c016dc50e574c6e820c4c90",
"9530bae2bb3b41299cab42d3",
"96c7d73c60f54e0d9a1e6ade",
"9a4a56d599f542aaaba742de",
"9b985d437cd34bf793f0e608",
"9c992e3f103b4d678d861173",
"9ff5cbcf8d3f4e9e978aa8fe",
"a13b44dfcd9b4701b87f93a3",
"a920f543e8474e6d9d116dfb",
"aae1d64bcbde499eb9206038",
"b42dbe61e8df457cb90d78b3",
"bfa57900e6774a53ac23806b",
"c3e7937bc3e04416a350b135",
"c5582ea5815d47ec89527d16",
"cad573d48e554fe481b177e7",
"ce7b5eb9b2f541989b72292c",
"cecc36d09f5847e7b644f81a",
"d31c94340ae74d0ca10cc52c",
"d3947b3ad603462b9f8eabb0",
"df7b6d502405411bb8b6da1c",
"e257345de9ff4a48bee92e68",
"e2facd6109b84204aff385cc",
"e449a94c5ee94f45912dd77b",
"ea68e4ec56b94186ba59d311",
"ed24ec733d274a79acea91da",
"f463b1a332d24facb0d5b68a",
"f5b27cef77c945328f1512ba",
"f6ded8bc0112499eb93ffa7f",
"f73075dd0d794202ab310115",
"f8555b4fe0784a6ca5361657",
"ffa8946f4328452eb2c70a8e",
"fffbb9b61c1d4055bb9ef866"
],
"version" : {
"3" : [
"63b2199bfc844b24a31a1fb8"
],
"4" : [
"d31c94340ae74d0ca10cc52c"
],
"5" : [
"0b05eec7d81e4c25a00936fb"
],
"6" : [
"e257345de9ff4a48bee92e68"
],
"7" : [
"f463b1a332d24facb0d5b68a"
],
"8" : [
"5f1e514df3494097a104a6f5"
],
"9" : [
"b42dbe61e8df457cb90d78b3"
],
"10" : [
"9ff5cbcf8d3f4e9e978aa8fe"
],
"11" : [
"8b35865d7c8549ef9c3fde1a"
],
"12" : [
"aae1d64bcbde499eb9206038"
],
"13" : [
"e2facd6109b84204aff385cc"
],
"14" : [
"7acf58ac4e2b4449bfc08312"
],
"15" : [
"137f4ffdf5874a3a832992e7"
],
"16" : [
"bfa57900e6774a53ac23806b"
],
"17" : [
"2c681be828ca4fa0a679f8c6"
],
"18" : [
"d3947b3ad603462b9f8eabb0"
],
"19" : [
"df7b6d502405411bb8b6da1c"
],
"20" : [
"0e89ad7b5e9545da961f3b0b"
],
"21" : [
"8c016dc50e574c6e820c4c90"
],
"22" : [
"3479b5a0794b459c8b8a0e9b"
],
"23" : [
"160ff075906a484598e86733"
],
"24" : [
"9a4a56d599f542aaaba742de"
],
"25" : [
"9530bae2bb3b41299cab42d3"
],
"26" : [
"75b43369183f4004b5aead36"
],
"27" : [
"37364b5340b8429395cbf592"
],
"28" : [
"1f4946bd5c82400093231729"
],
"29" : [
"09cec182030b44d39beb9448"
],
"30" : [
"a13b44dfcd9b4701b87f93a3"
],
"31" : [
"042d6da5f8b04bf8b223922f"
],
"32" : [
"024053d795964df9a02d260c"
],
"33" : [
"fffbb9b61c1d4055bb9ef866"
],
"34" : [
"f5b27cef77c945328f1512ba"
],
"35" : [
"1c725a31c892413babc25689"
],
"36" : [
"0c856f401a2749d19962aca6"
],
"37" : [
"55aa78a14617470498927eed"
],
"38" : [
"29112f3a7f404e958601839f"
],
"39" : [
"e449a94c5ee94f45912dd77b"
],
"40" : [
"c5582ea5815d47ec89527d16"
],
"41" : [
"f6ded8bc0112499eb93ffa7f"
],
"42" : [
"239bab10bdfb4b3c998be99b"
],
"43" : [
"cad573d48e554fe481b177e7"
],
"44" : [
"883f9ef3aca24705a9d89038"
],
"45" : [
"10dc39d15ac0471e889e44ea"
],
"46" : [
"f73075dd0d794202ab310115"
],
"47" : [
"ffa8946f4328452eb2c70a8e"
],
"48" : [
"81aea3c0fb4b4ad483184aa7"
],
"49" : [
"0fa0cb85dd05452eb5203a4d"
],
"50" : [
"f8555b4fe0784a6ca5361657"
],
"51" : [
"ed24ec733d274a79acea91da"
],
"52" : [
"7d383510c0a8413f927d9663"
],
"53" : [
"cecc36d09f5847e7b644f81a"
],
"54" : [
"1bc9647293a94320ba420858"
],
"55" : [
"832a092fdccd45b8bbd58e59"
],
"56" : [
"34959371a8024241af05dda9"
],
"57" : [
"ea68e4ec56b94186ba59d311"
],
"58" : [
"859a3010aa68432589b5fdfb"
],
"59" : [
"14d4590e1bee4e47a59e5ea2"
],
"60" : [
"5f78964d6e9b4c58a8d0e342"
],
"61" : [
"10c8cce209ba4bb98333d78a"
],
"62" : [
"3cc02e9298d2498b933a4e70"
],
"63" : [
"c3e7937bc3e04416a350b135"
],
"64" : [
"5811a950520e437bad0498c6"
],
"65" : [
"67f28bc8ac7f462e8e739a70"
],
"66" : [
"96c7d73c60f54e0d9a1e6ade"
],
"67" : [
"ce7b5eb9b2f541989b72292c"
],
"68" : [
"a920f543e8474e6d9d116dfb"
],
"69" : [
"9b985d437cd34bf793f0e608"
],
"70" : [
"81f9583ca8f542af8d30fcaa"
],
"71" : [
"44808d1f3b4546c28101d183"
],
"72" : [
"9c992e3f103b4d678d861173"
],
"73" : [
"730b74041f9d4c898216cc2b"
]
},
"configurations.name" : {
"notprovided" : [
"024053d795964df9a02d260c",
"042d6da5f8b04bf8b223922f",
"09cec182030b44d39beb9448",
"0b05eec7d81e4c25a00936fb",
"0c856f401a2749d19962aca6",
"0e89ad7b5e9545da961f3b0b",
"0fa0cb85dd05452eb5203a4d",
"10c8cce209ba4bb98333d78a",
"10dc39d15ac0471e889e44ea",
"137f4ffdf5874a3a832992e7",
"14d4590e1bee4e47a59e5ea2",
"160ff075906a484598e86733",
"1bc9647293a94320ba420858",
"1c725a31c892413babc25689",
"1f4946bd5c82400093231729",
"239bab10bdfb4b3c998be99b",
"29112f3a7f404e958601839f",
"2c681be828ca4fa0a679f8c6",
"3479b5a0794b459c8b8a0e9b",
"34959371a8024241af05dda9",
"37364b5340b8429395cbf592",
"3cc02e9298d2498b933a4e70",
"44808d1f3b4546c28101d183",
"55aa78a14617470498927eed",
"5811a950520e437bad0498c6",
"5f1e514df3494097a104a6f5",
"5f78964d6e9b4c58a8d0e342",
"63b2199bfc844b24a31a1fb8",
"67f28bc8ac7f462e8e739a70",
"730b74041f9d4c898216cc2b",
"75b43369183f4004b5aead36",
"7acf58ac4e2b4449bfc08312",
"7d383510c0a8413f927d9663",
"81aea3c0fb4b4ad483184aa7",
"81f9583ca8f542af8d30fcaa",
"832a092fdccd45b8bbd58e59",
"859a3010aa68432589b5fdfb",
"883f9ef3aca24705a9d89038",
"8b35865d7c8549ef9c3fde1a",
"8c016dc50e574c6e820c4c90",
"9530bae2bb3b41299cab42d3",
"96c7d73c60f54e0d9a1e6ade",
"9a4a56d599f542aaaba742de",
"9b985d437cd34bf793f0e608",
"9c992e3f103b4d678d861173",
"9ff5cbcf8d3f4e9e978aa8fe",
"a13b44dfcd9b4701b87f93a3",
"a920f543e8474e6d9d116dfb",
"aae1d64bcbde499eb9206038",
"b42dbe61e8df457cb90d78b3",
"bfa57900e6774a53ac23806b",
"c3e7937bc3e04416a350b135",
"c5582ea5815d47ec89527d16",
"cad573d48e554fe481b177e7",
"ce7b5eb9b2f541989b72292c",
"cecc36d09f5847e7b644f81a",
"d31c94340ae74d0ca10cc52c",
"d3947b3ad603462b9f8eabb0",
"df7b6d502405411bb8b6da1c",
"e257345de9ff4a48bee92e68",
"e2facd6109b84204aff385cc",
"e449a94c5ee94f45912dd77b",
"ea68e4ec56b94186ba59d311",
"ed24ec733d274a79acea91da",
"f463b1a332d24facb0d5b68a",
"f5b27cef77c945328f1512ba",
"f6ded8bc0112499eb93ffa7f",
"f73075dd0d794202ab310115",
"f8555b4fe0784a6ca5361657",
"ffa8946f4328452eb2c70a8e",
"fffbb9b61c1d4055bb9ef866"
],
"GroupAliasTreeEditWizBackbone_v3" : [
"63b2199bfc844b24a31a1fb8"
],
"GroupAliasTreeEditWizBackbone_v4" : [
"d31c94340ae74d0ca10cc52c"
],
"TableEditWizBackbone_v0" : [
"0b05eec7d81e4c25a00936fb"
],
"TableEditWizBackbone_v1" : [
"e257345de9ff4a48bee92e68"
],
"TableEditWizBackbone_v2" : [
"f463b1a332d24facb0d5b68a"
],
"TableEditWizBackbone_v3" : [
"5f1e514df3494097a104a6f5"
],
"TableEditWizBackbone_v4" : [
"b42dbe61e8df457cb90d78b3"
],
"TableEditWizBackbone_v5" : [
"9ff5cbcf8d3f4e9e978aa8fe"
],
"GroupAliasTreeEditWizBackbone_v5" : [
"8b35865d7c8549ef9c3fde1a"
],
"TableEditWizBackbone_v6" : [
"aae1d64bcbde499eb9206038"
],
"TableEditWizBackbone_v7" : [
"e2facd6109b84204aff385cc"
],
"TableEditWizBackbone_v8" : [
"7acf58ac4e2b4449bfc08312"
],
"TableEditWizBackbone_v9" : [
"137f4ffdf5874a3a832992e7"
],
"TableEditWizBackbone_v10" : [
"bfa57900e6774a53ac23806b"
],
"TableEditWizBackbone_v11" : [
"2c681be828ca4fa0a679f8c6"
],
"TableEditWizBackbone_v12" : [
"d3947b3ad603462b9f8eabb0"
],
"GroupAliasTreeEditWizBackbone_v6" : [
"df7b6d502405411bb8b6da1c"
],
"GroupAliasTreeEditWizBackbone_v7" : [
"0e89ad7b5e9545da961f3b0b"
],
"GroupAliasTreeEditWizBackbone_v8" : [
"8c016dc50e574c6e820c4c90"
],
"GroupAliasTreeEditWizBackbone_v9" : [
"3479b5a0794b459c8b8a0e9b"
],
"TableEditWizBackbone_v13" : [
"160ff075906a484598e86733"
],
"GroupAliasTreeEditWizBackbone_v10" : [
"9a4a56d599f542aaaba742de"
],
"GroupAliasTreeEditWizBackbone_v11" : [
"9530bae2bb3b41299cab42d3"
],
"GroupAliasTreeEditWizBackbone_v12" : [
"75b43369183f4004b5aead36"
],
"TableEditWizBackbone_v14" : [
"37364b5340b8429395cbf592"
],
"TableEditWizBackbone_v15" : [
"1f4946bd5c82400093231729"
],
"TableEditWizBackbone_v16" : [
"09cec182030b44d39beb9448"
],
"GroupAliasTreeEditWizBackbone_v13" : [
"a13b44dfcd9b4701b87f93a3"
],
"GroupAliasTreeEditWizBackbone_v14" : [
"042d6da5f8b04bf8b223922f"
],
"TableEditWizBackbone_v17" : [
"024053d795964df9a02d260c"
],
"TableEditWizBackbone_v18" : [
"fffbb9b61c1d4055bb9ef866"
],
"GroupAliasTreeEditWizBackbone_v15" : [
"f5b27cef77c945328f1512ba"
],
"GroupAliasTreeEditWizBackbone_v16" : [
"fffbb9b61c1d4055bb9ef866"
],
"GroupAliasTreeEditWizBackbone_v17" : [
"1c725a31c892413babc25689"
],
"GroupAliasTreeEditWizBackbone_v18" : [
"0c856f401a2749d19962aca6"
],
"GroupAliasTreeEditWizBackbone_v19" : [
"55aa78a14617470498927eed"
],
"TableEditWizBackbone_v19" : [
"29112f3a7f404e958601839f"
],
"TableEditWizBackbone_v20" : [
"e449a94c5ee94f45912dd77b"
],
"GroupAliasTreeEditWizBackbone_v20" : [
"c5582ea5815d47ec89527d16"
],
"TableEditWizBackbone_v21" : [
"f6ded8bc0112499eb93ffa7f"
],
"TableEditWizBackbone_v22" : [
"239bab10bdfb4b3c998be99b"
],
"TableEditWizBackbone_v23" : [
"cad573d48e554fe481b177e7"
],
"TableEditWizBackbone_v24" : [
"883f9ef3aca24705a9d89038"
],
"GroupAliasTreeEditWizBackbone_v21" : [
"10dc39d15ac0471e889e44ea"
],
"GroupAliasTreeEditWizBackbone_v22" : [
"f73075dd0d794202ab310115"
],
"GroupAliasTreeEditWizBackbone_v23" : [
"ffa8946f4328452eb2c70a8e"
],
"TableEditWizBackbone_v25" : [
"81aea3c0fb4b4ad483184aa7"
],
"GroupAliasTreeEditWizBackbone_v24" : [
"0fa0cb85dd05452eb5203a4d"
],
"GroupAliasTreeEditWizBackbone_v25" : [
"f8555b4fe0784a6ca5361657"
],
"TableEditWizBackbone_v26" : [
"ed24ec733d274a79acea91da"
],
"TableEditWizBackbone_v27" : [
"7d383510c0a8413f927d9663"
],
"TableEditWizBackbone_v28" : [
"cecc36d09f5847e7b644f81a"
],
"TableEditWizBackbone_v29" : [
"1bc9647293a94320ba420858"
],
"TableEditWizBackbone_v30" : [
"832a092fdccd45b8bbd58e59"
],
"GroupAliasTreeEditWizBackbone_v26" : [
"34959371a8024241af05dda9"
],
"GroupAliasTreeEditWizBackbone_v27" : [
"ea68e4ec56b94186ba59d311"
],
"GroupAliasTreeEditWizBackbone_v28" : [
"859a3010aa68432589b5fdfb"
],
"GroupAliasTreeEditWizBackbone_v29" : [
"14d4590e1bee4e47a59e5ea2"
],
"TableEditWizBackbone_v31" : [
"5f78964d6e9b4c58a8d0e342"
],
"TableEditWizBackbone_v32" : [
"10c8cce209ba4bb98333d78a"
],
"TableEditWizBackbone_v33" : [
"3cc02e9298d2498b933a4e70"
],
"TableEditWizBackbone_v34" : [
"c3e7937bc3e04416a350b135"
],
"GroupAliasTreeEditWizBackbone_v30" : [
"5811a950520e437bad0498c6"
],
"GroupAliasTreeEditWizBackbone_v31" : [
"67f28bc8ac7f462e8e739a70"
],
"GroupAliasTreeEditWizBackbone_v32" : [
"96c7d73c60f54e0d9a1e6ade"
],
"GroupAliasTreeEditWizBackbone_v33" : [
"ce7b5eb9b2f541989b72292c"
],
"GroupAliasTreeEditWizBackbone_v34" : [
"a920f543e8474e6d9d116dfb"
],
"TableEditWizBackbone_v35" : [
"9b985d437cd34bf793f0e608"
],
"TableEditWizBackbone_v36" : [
"81f9583ca8f542af8d30fcaa"
],
"TableEditWizBackbone_v37" : [
"44808d1f3b4546c28101d183"
],
"TableEditWizBackbone_v38" : [
"9c992e3f103b4d678d861173"
],
"TableEditWizBackbone_v39" : [
"730b74041f9d4c898216cc2b"
]
},
"entities.name" : {
"OTSROOT" : [
"024053d795964df9a02d260c",
"042d6da5f8b04bf8b223922f",
"09cec182030b44d39beb9448",
"0b05eec7d81e4c25a00936fb",
"0c856f401a2749d19962aca6",
"0e89ad7b5e9545da961f3b0b",
"0fa0cb85dd05452eb5203a4d",
"10c8cce209ba4bb98333d78a",
"10dc39d15ac0471e889e44ea",
"137f4ffdf5874a3a832992e7",
"14d4590e1bee4e47a59e5ea2",
"160ff075906a484598e86733",
"1bc9647293a94320ba420858",
"1c725a31c892413babc25689",
"1f4946bd5c82400093231729",
"239bab10bdfb4b3c998be99b",
"29112f3a7f404e958601839f",
"2c681be828ca4fa0a679f8c6",
"3479b5a0794b459c8b8a0e9b",
"34959371a8024241af05dda9",
"37364b5340b8429395cbf592",
"3cc02e9298d2498b933a4e70",
"44808d1f3b4546c28101d183",
"55aa78a14617470498927eed",
"5811a950520e437bad0498c6",
"5f1e514df3494097a104a6f5",
"5f78964d6e9b4c58a8d0e342",
"63b2199bfc844b24a31a1fb8",
"67f28bc8ac7f462e8e739a70",
"730b74041f9d4c898216cc2b",
"75b43369183f4004b5aead36",
"7acf58ac4e2b4449bfc08312",
"7d383510c0a8413f927d9663",
"81aea3c0fb4b4ad483184aa7",
"81f9583ca8f542af8d30fcaa",
"832a092fdccd45b8bbd58e59",
"859a3010aa68432589b5fdfb",
"883f9ef3aca24705a9d89038",
"8b35865d7c8549ef9c3fde1a",
"8c016dc50e574c6e820c4c90",
"9530bae2bb3b41299cab42d3",
"96c7d73c60f54e0d9a1e6ade",
"9a4a56d599f542aaaba742de",
"9b985d437cd34bf793f0e608",
"9c992e3f103b4d678d861173",
"9ff5cbcf8d3f4e9e978aa8fe",
"a13b44dfcd9b4701b87f93a3",
"a920f543e8474e6d9d116dfb",
"aae1d64bcbde499eb9206038",
"b42dbe61e8df457cb90d78b3",
"bfa57900e6774a53ac23806b",
"c3e7937bc3e04416a350b135",
"c5582ea5815d47ec89527d16",
"cad573d48e554fe481b177e7",
"ce7b5eb9b2f541989b72292c",
"cecc36d09f5847e7b644f81a",
"d31c94340ae74d0ca10cc52c",
"d3947b3ad603462b9f8eabb0",
"df7b6d502405411bb8b6da1c",
"e257345de9ff4a48bee92e68",
"e2facd6109b84204aff385cc",
"e449a94c5ee94f45912dd77b",
"ea68e4ec56b94186ba59d311",
"ed24ec733d274a79acea91da",
"f463b1a332d24facb0d5b68a",
"f5b27cef77c945328f1512ba",
"f6ded8bc0112499eb93ffa7f",
"f73075dd0d794202ab310115",
"f8555b4fe0784a6ca5361657",
"ffa8946f4328452eb2c70a8e",
"fffbb9b61c1d4055bb9ef866"
]
},
"aliases.active.name" : {

},
"runs.name" : {

},
"configurations.assigned" : {
"notprovided" : [
"2019-02-22T16:11:43.627-0600",
"2019-02-22T16:11:43.759-0600",
"2019-07-22T11:27:30.632-0500",
"2019-07-22T14:43:10.515-0500",
"2019-07-22T14:47:01.676-0500",
"2019-07-22T15:05:41.723-0500",
"2019-07-23T09:00:32.209-0500",
"2019-07-23T09:04:43.942-0500",
"2019-07-23T09:05:25.909-0500",
"2019-07-23T09:48:12.059-0500",
"2019-08-07T11:00:29.767-0500",
"2019-11-19T16:07:22.020-0600",
"2019-11-20T14:24:12.952-0600",
"2019-11-20T14:39:27.843-0600",
"2019-11-20T15:25:38.864-0600",
"2019-11-20T15:26:58.813-0600",
"2019-11-20T15:27:24.924-0600",
"2019-11-20T15:28:12.953-0600",
"2019-11-20T15:28:34.099-0600",
"2019-11-20T15:56:58.691-0600",
"2019-11-20T15:58:30.271-0600",
"2019-11-20T15:59:10.128-0600",
"2019-11-20T16:00:09.572-0600",
"2019-11-20T16:01:26.407-0600",
"2019-11-20T16:23:03.936-0600",
"2019-11-20T16:24:46.089-0600",
"2019-11-20T16:27:46.960-0600",
"2019-11-20T16:42:11.559-0600",
"2019-12-05T17:52:36.736-0600",
"2019-12-06T09:54:12.982-0600",
"2019-12-06T17:09:40.797-0600",
"2019-12-09T11:56:59.873-0600",
"2019-12-09T19:33:38.267-0600",
"2019-12-10T14:21:54.548-0600",
"2019-12-13T13:15:33.391-0600",
"2019-12-13T13:20:57.304-0600",
"2021-04-29T11:04:33.562-0500",
"2021-04-29T11:28:52.293-0500",
"2021-04-29T11:36:30.294-0500",
"2021-04-29T11:56:50.649-0500",
"2021-04-29T12:03:12.235-0500",
"2021-04-29T12:06:22.102-0500",
"2021-04-29T12:14:46.194-0500",
"2021-04-29T12:25:33.566-0500",
"2021-04-29T12:25:53.260-0500",
"2021-04-29T12:40:04.392-0500",
"2021-04-29T13:06:39.765-0500",
"2021-04-29T13:20:40.677-0500",
"2021-04-30T09:33:57.661-0500",
"2021-04-30T09:34:33.276-0500",
"2021-04-30T09:36:19.925-0500",
"2021-04-30T11:59:06.653-0500",
"2021-04-30T12:10:53.057-0500",
"2021-04-30T12:11:39.439-0500",
"2021-05-06T17:42:15.899-0500",
"2021-05-10T10:42:47.772-0500",
"2021-05-10T11:08:53.629-0500",
"2021-05-10T11:39:30.546-0500",
"2021-05-12T15:51:23.633-0500",
"2021-05-12T15:51:58.667-0500",
"2021-05-12T16:11:01.828-0500",
"2021-05-14T15:34:26.480-0500",
"2021-05-14T15:34:27.524-0500",
"2021-05-14T16:41:03.143-0500",
"2021-05-14T16:41:04.126-0500",
"2021-05-25T12:00:06.234-0500",
"2021-05-25T12:01:05.412-0500",
"2021-05-25T12:57:26.917-0500",
"2021-05-25T13:06:03.742-0500",
"2021-05-25T13:21:23.066-0500",
"2021-05-25T13:51:13.694-0500"
],
"GroupAliasTreeEditWizBackbone_v3" : [
"2019-02-22T16:11:43.696-0600"
],
"GroupAliasTreeEditWizBackbone_v4" : [
"2019-02-22T16:11:43.794-0600"
],
"TableEditWizBackbone_v0" : [
"2019-07-22T11:27:31.073-0500"
],
"TableEditWizBackbone_v1" : [
"2019-07-22T14:43:10.885-0500"
],
"TableEditWizBackbone_v2" : [
"2019-07-22T14:47:02.028-0500"
],
"TableEditWizBackbone_v3" : [
"2019-07-22T15:05:42.109-0500"
],
"TableEditWizBackbone_v4" : [
"2019-07-23T09:00:32.604-0500"
],
"TableEditWizBackbone_v5" : [
"2019-07-23T09:04:44.287-0500"
],
"GroupAliasTreeEditWizBackbone_v5" : [
"2019-07-23T09:05:26.179-0500"
],
"TableEditWizBackbone_v6" : [
"2019-07-23T09:48:12.411-0500"
],
"TableEditWizBackbone_v7" : [
"2019-08-07T11:00:30.095-0500"
],
"TableEditWizBackbone_v8" : [
"2019-11-19T16:07:22.324-0600"
],
"TableEditWizBackbone_v9" : [
"2019-11-20T14:24:13.325-0600"
],
"TableEditWizBackbone_v10" : [
"2019-11-20T14:39:28.201-0600"
],
"TableEditWizBackbone_v11" : [
"2019-11-20T15:25:39.351-0600"
],
"TableEditWizBackbone_v12" : [
"2019-11-20T15:26:59.306-0600"
],
"GroupAliasTreeEditWizBackbone_v6" : [
"2019-11-20T15:27:25.284-0600"
],
"GroupAliasTreeEditWizBackbone_v7" : [
"2019-11-20T15:28:13.305-0600"
],
"GroupAliasTreeEditWizBackbone_v8" : [
"2019-11-20T15:28:34.481-0600"
],
"GroupAliasTreeEditWizBackbone_v9" : [
"2019-11-20T15:56:59.139-0600"
],
"TableEditWizBackbone_v13" : [
"2019-11-20T15:58:30.896-0600"
],
"GroupAliasTreeEditWizBackbone_v10" : [
"2019-11-20T15:59:10.552-0600"
],
"GroupAliasTreeEditWizBackbone_v11" : [
"2019-11-20T16:00:09.988-0600"
],
"GroupAliasTreeEditWizBackbone_v12" : [
"2019-11-20T16:01:26.861-0600"
],
"TableEditWizBackbone_v14" : [
"2019-11-20T16:23:04.562-0600"
],
"TableEditWizBackbone_v15" : [
"2019-11-20T16:24:46.712-0600"
],
"TableEditWizBackbone_v16" : [
"2019-11-20T16:27:47.538-0600"
],
"GroupAliasTreeEditWizBackbone_v13" : [
"2019-11-20T16:42:12.002-0600"
],
"GroupAliasTreeEditWizBackbone_v14" : [
"2019-12-05T17:52:37.236-0600"
],
"TableEditWizBackbone_v17" : [
"2019-12-06T09:54:13.667-0600"
],
"TableEditWizBackbone_v18" : [
"2019-12-06T17:09:41.349-0600"
],
"GroupAliasTreeEditWizBackbone_v15" : [
"2019-12-09T11:57:00.385-0600"
],
"GroupAliasTreeEditWizBackbone_v16" : [
"2019-12-09T15:50:02.247-0600"
],
"GroupAliasTreeEditWizBackbone_v17" : [
"2019-12-09T19:33:38.860-0600"
],
"GroupAliasTreeEditWizBackbone_v18" : [
"2019-12-10T14:21:55.881-0600"
],
"GroupAliasTreeEditWizBackbone_v19" : [
"2019-12-13T13:15:34.754-0600"
],
"TableEditWizBackbone_v19" : [
"2019-12-13T13:20:58.811-0600"
],
"TableEditWizBackbone_v20" : [
"2021-04-29T11:04:34.089-0500"
],
"GroupAliasTreeEditWizBackbone_v20" : [
"2021-04-29T11:28:52.751-0500"
],
"TableEditWizBackbone_v21" : [
"2021-04-29T11:36:30.872-0500"
],
"TableEditWizBackbone_v22" : [
"2021-04-29T11:56:51.142-0500"
],
"TableEditWizBackbone_v23" : [
"2021-04-29T12:03:12.700-0500"
],
"TableEditWizBackbone_v24" : [
"2021-04-29T12:06:22.637-0500"
],
"GroupAliasTreeEditWizBackbone_v21" : [
"2021-04-29T12:14:46.673-0500"
],
"GroupAliasTreeEditWizBackbone_v22" : [
"2021-04-29T12:25:33.877-0500"
],
"GroupAliasTreeEditWizBackbone_v23" : [
"2021-04-29T12:25:53.838-0500"
],
"TableEditWizBackbone_v25" : [
"2021-04-29T12:40:04.953-0500"
],
"GroupAliasTreeEditWizBackbone_v24" : [
"2021-04-29T13:06:40.350-0500"
],
"GroupAliasTreeEditWizBackbone_v25" : [
"2021-04-29T13:20:41.216-0500"
],
"TableEditWizBackbone_v26" : [
"2021-04-30T09:33:58.246-0500"
],
"TableEditWizBackbone_v27" : [
"2021-04-30T09:34:33.793-0500"
],
"TableEditWizBackbone_v28" : [
"2021-04-30T09:36:20.510-0500"
],
"TableEditWizBackbone_v29" : [
"2021-04-30T11:59:07.253-0500"
],
"TableEditWizBackbone_v30" : [
"2021-04-30T12:10:53.592-0500"
],
"GroupAliasTreeEditWizBackbone_v26" : [
"2021-04-30T12:11:40.023-0500"
],
"GroupAliasTreeEditWizBackbone_v27" : [
"2021-05-06T17:42:16.429-0500"
],
"GroupAliasTreeEditWizBackbone_v28" : [
"2021-05-10T10:42:48.402-0500"
],
"GroupAliasTreeEditWizBackbone_v29" : [
"2021-05-10T11:08:54.251-0500"
],
"TableEditWizBackbone_v31" : [
"2021-05-10T11:39:31.247-0500"
],
"TableEditWizBackbone_v32" : [
"2021-05-12T15:51:24.250-0500"
],
"TableEditWizBackbone_v33" : [
"2021-05-12T15:51:59.295-0500"
],
"TableEditWizBackbone_v34" : [
"2021-05-12T16:11:02.441-0500"
],
"GroupAliasTreeEditWizBackbone_v30" : [
"2021-05-14T15:34:27.126-0500"
],
"GroupAliasTreeEditWizBackbone_v31" : [
"2021-05-14T15:34:28.126-0500"
],
"GroupAliasTreeEditWizBackbone_v32" : [
"2021-05-14T16:41:03.807-0500"
],
"GroupAliasTreeEditWizBackbone_v33" : [
"2021-05-14T16:41:04.794-0500"
],
"GroupAliasTreeEditWizBackbone_v34" : [
"2021-05-25T12:00:06.909-0500"
],
"TableEditWizBackbone_v35" : [
"2021-05-25T12:01:06.036-0500"
],
"TableEditWizBackbone_v36" : [
"2021-05-25T12:57:27.581-0500"
],
"TableEditWizBackbone_v37" : [
"2021-05-25T13:06:04.469-0500"
],
"TableEditWizBackbone_v38" : [
"2021-05-25T13:21:23.708-0500"
],
"TableEditWizBackbone_v39" : [
"2021-05-25T13:51:14.297-0500"
]
}
}