{
"ouid" : [
"538bd1a16b7e4dd890ad9b15",
"b0756764407c4f9784fd53ad",
"f7ba8f0200854c78ab0f8cbf"
],
"version" : {
"0" : [
"538bd1a16b7e4dd890ad9b15"
],
"1" : [
"b0756764407c4f9784fd53ad"
],
"2" : [
"f7ba8f0200854c78ab0f8cbf"
]
},
"configurations.name" : {
"notprovided" : [
"538bd1a16b7e4dd890ad9b15",
"b0756764407c4f9784fd53ad",
"f7ba8f0200854c78ab0f8cbf"
],
"iterateDefaultGroup_v0" : [
"538bd1a16b7e4dd890ad9b15"
],
"iterateDefaultGroup_v1" : [
"b0756764407c4f9784fd53ad"
],
"iterateDefaultGroup_v2" : [
"f7ba8f0200854c78ab0f8cbf"
],
"iterateDefaultGroup_v3" : [
"f7ba8f0200854c78ab0f8cbf"
],
"iterateDefaultGroup_v4" : [
"f7ba8f0200854c78ab0f8cbf"
],
"iterateDefaultGroup_v5" : [
"f7ba8f0200854c78ab0f8cbf"
],
"iterateDefaultGroup_v6" : [
"f7ba8f0200854c78ab0f8cbf"
],
"iterateDefaultGroup_v7" : [
"f7ba8f0200854c78ab0f8cbf"
],
"iterateDefaultGroup_v8" : [
"f7ba8f0200854c78ab0f8cbf"
],
"iterateDefaultGroup_v9" : [
"f7ba8f0200854c78ab0f8cbf"
],
"iterateDefaultGroup_v10" : [
"538bd1a16b7e4dd890ad9b15"
],
"iterateDefaultGroup_v11" : [
"538bd1a16b7e4dd890ad9b15"
],
"iterateDefaultGroup_v12" : [
"538bd1a16b7e4dd890ad9b15"
]
},
"entities.name" : {
"OTSROOT" : [
"538bd1a16b7e4dd890ad9b15",
"b0756764407c4f9784fd53ad",
"f7ba8f0200854c78ab0f8cbf"
]
},
"aliases.active.name" : {

},
"runs.name" : {

},
"configurations.assigned" : {
"notprovided" : [
"2020-07-21T14:47:39.348-0500",
"2020-07-21T15:25:07.229-0500",
"2020-07-21T15:28:03.707-0500"
],
"iterateDefaultGroup_v0" : [
"2020-07-21T14:47:39.921-0500"
],
"iterateDefaultGroup_v1" : [
"2020-07-21T15:25:08.297-0500"
],
"iterateDefaultGroup_v2" : [
"2020-07-21T15:28:04.701-0500"
],
"iterateDefaultGroup_v3" : [
"2020-07-21T15:42:21.088-0500"
],
"iterateDefaultGroup_v4" : [
"2020-07-21T15:45:04.049-0500"
],
"iterateDefaultGroup_v5" : [
"2020-07-21T15:57:34.018-0500"
],
"iterateDefaultGroup_v6" : [
"2020-07-28T10:52:35.499-0500"
],
"iterateDefaultGroup_v7" : [
"2020-07-28T13:01:37.204-0500"
],
"iterateDefaultGroup_v8" : [
"2020-07-28T13:03:27.381-0500"
],
"iterateDefaultGroup_v9" : [
"2020-07-28T13:12:58.373-0500"
],
"iterateDefaultGroup_v10" : [
"2020-07-28T13:15:25.609-0500"
],
"iterateDefaultGroup_v11" : [
"2020-07-28T13:20:57.562-0500"
],
"iterateDefaultGroup_v12" : [
"2020-07-28T13:27:38.145-0500"
]
}
}