{
"ouid" : [
"e1f0a4adf67a4da6b55a05e6"
],
"version" : {
"0" : [
"e1f0a4adf67a4da6b55a05e6"
]
},
"configurations.name" : {
"notprovided" : [
"e1f0a4adf67a4da6b55a05e6"
],
"FTBFConfig_v0" : [
"e1f0a4adf67a4da6b55a05e6"
],
"FTBFConfig_v1" : [
"e1f0a4adf67a4da6b55a05e6"
],
"FTBFConfig_v2" : [
"e1f0a4adf67a4da6b55a05e6"
],
"FTBFConfig_v3" : [
"e1f0a4adf67a4da6b55a05e6"
],
"FTBFConfig_v4" : [
"e1f0a4adf67a4da6b55a05e6"
],
"FTBFConfig_v5" : [
"e1f0a4adf67a4da6b55a05e6"
],
"FTBFConfig_v6" : [
"e1f0a4adf67a4da6b55a05e6"
],
"FTBFConfig_v7" : [
"e1f0a4adf67a4da6b55a05e6"
],
"FTBFConfig_v8" : [
"e1f0a4adf67a4da6b55a05e6"
],
"FTBFConfig_v9" : [
"e1f0a4adf67a4da6b55a05e6"
],
"FTBFConfig_v10" : [
"e1f0a4adf67a4da6b55a05e6"
],
"FTBFConfig_v11" : [
"e1f0a4adf67a4da6b55a05e6"
],
"FTBFConfig_v12" : [
"e1f0a4adf67a4da6b55a05e6"
],
"FTBFConfig_v13" : [
"e1f0a4adf67a4da6b55a05e6"
],
"FTBFConfig_v14" : [
"e1f0a4adf67a4da6b55a05e6"
],
"FTBFConfig_v15" : [
"e1f0a4adf67a4da6b55a05e6"
],
"FTBFConfig_v16" : [
"e1f0a4adf67a4da6b55a05e6"
],
"FTBFConfig_v17" : [
"e1f0a4adf67a4da6b55a05e6"
],
"FTBFConfig_v18" : [
"e1f0a4adf67a4da6b55a05e6"
],
"FTBFConfig_v19" : [
"e1f0a4adf67a4da6b55a05e6"
],
"FTBFConfig_v20" : [
"e1f0a4adf67a4da6b55a05e6"
],
"FTBFConfig_v21" : [
"e1f0a4adf67a4da6b55a05e6"
],
"FTBFConfig_v22" : [
"e1f0a4adf67a4da6b55a05e6"
],
"FTBFConfig_v23" : [
"e1f0a4adf67a4da6b55a05e6"
],
"FTBFConfig_v24" : [
"e1f0a4adf67a4da6b55a05e6"
],
"FTBFConfig_v25" : [
"e1f0a4adf67a4da6b55a05e6"
],
"FTBFConfig_v26" : [
"e1f0a4adf67a4da6b55a05e6"
],
"FTBFConfig_v27" : [
"e1f0a4adf67a4da6b55a05e6"
],
"FTBFConfig_v28" : [
"e1f0a4adf67a4da6b55a05e6"
],
"FTBFConfig_v29" : [
"e1f0a4adf67a4da6b55a05e6"
],
"FTBFConfig_v30" : [
"e1f0a4adf67a4da6b55a05e6"
],
"FTBFConfig_v31" : [
"e1f0a4adf67a4da6b55a05e6"
],
"FTBFConfig_v32" : [
"e1f0a4adf67a4da6b55a05e6"
],
"FTBFConfig_v33" : [
"e1f0a4adf67a4da6b55a05e6"
],
"FTBFConfig_v34" : [
"e1f0a4adf67a4da6b55a05e6"
],
"FTBFConfig_v35" : [
"e1f0a4adf67a4da6b55a05e6"
],
"FTBFConfig_v36" : [
"e1f0a4adf67a4da6b55a05e6"
],
"FTBFConfig_v37" : [
"e1f0a4adf67a4da6b55a05e6"
],
"FTBFConfig_v38" : [
"e1f0a4adf67a4da6b55a05e6"
],
"FTBFConfig_v39" : [
"e1f0a4adf67a4da6b55a05e6"
],
"FTBFConfig_v40" : [
"e1f0a4adf67a4da6b55a05e6"
],
"FTBFConfig_v41" : [
"e1f0a4adf67a4da6b55a05e6"
],
"FTBFConfig_v42" : [
"e1f0a4adf67a4da6b55a05e6"
],
"FTBFConfig_v43" : [
"e1f0a4adf67a4da6b55a05e6"
],
"FTBFConfig_v44" : [
"e1f0a4adf67a4da6b55a05e6"
],
"FTBFConfig_v45" : [
"e1f0a4adf67a4da6b55a05e6"
],
"FTBFConfig_v46" : [
"e1f0a4adf67a4da6b55a05e6"
],
"FTBFConfig_v47" : [
"e1f0a4adf67a4da6b55a05e6"
],
"FTBFConfig_v48" : [
"e1f0a4adf67a4da6b55a05e6"
],
"FTBFConfig_v49" : [
"e1f0a4adf67a4da6b55a05e6"
],
"FTBFConfig_v52" : [
"e1f0a4adf67a4da6b55a05e6"
],
"FTBFConfig_v53" : [
"e1f0a4adf67a4da6b55a05e6"
],
"FTBFConfig_v54" : [
"e1f0a4adf67a4da6b55a05e6"
],
"FTBFConfig_v55" : [
"e1f0a4adf67a4da6b55a05e6"
],
"FTBFConfig_v56" : [
"e1f0a4adf67a4da6b55a05e6"
],
"FTBFConfig_v57" : [
"e1f0a4adf67a4da6b55a05e6"
],
"FTBFConfig_v58" : [
"e1f0a4adf67a4da6b55a05e6"
],
"FTBFConfig_v59" : [
"e1f0a4adf67a4da6b55a05e6"
],
"FTBFConfig_v60" : [
"e1f0a4adf67a4da6b55a05e6"
],
"FTBFConfig_v61" : [
"e1f0a4adf67a4da6b55a05e6"
],
"FTBFConfig_v62" : [
"e1f0a4adf67a4da6b55a05e6"
],
"FTBFConfig_v63" : [
"e1f0a4adf67a4da6b55a05e6"
],
"FTBFConfig_v64" : [
"e1f0a4adf67a4da6b55a05e6"
],
"FTBFConfig_v65" : [
"e1f0a4adf67a4da6b55a05e6"
],
"FTBFConfig_v66" : [
"e1f0a4adf67a4da6b55a05e6"
],
"FTBFConfig_v67" : [
"e1f0a4adf67a4da6b55a05e6"
],
"FTBFConfig_v68" : [
"e1f0a4adf67a4da6b55a05e6"
],
"FTBFConfig_v69" : [
"e1f0a4adf67a4da6b55a05e6"
],
"FTBFConfig_v70" : [
"e1f0a4adf67a4da6b55a05e6"
],
"FTBFConfigNim_v0" : [
"e1f0a4adf67a4da6b55a05e6"
],
"FTBFConfigNim_v1" : [
"e1f0a4adf67a4da6b55a05e6"
],
"FTBFConfigNim_v2" : [
"e1f0a4adf67a4da6b55a05e6"
],
"FTBFConfigNim_v3" : [
"e1f0a4adf67a4da6b55a05e6"
],
"FTBFConfigNim_v4" : [
"e1f0a4adf67a4da6b55a05e6"
],
"FTBFConfigNim_v5" : [
"e1f0a4adf67a4da6b55a05e6"
],
"FTBFConfigNim_v6" : [
"e1f0a4adf67a4da6b55a05e6"
],
"FTBFConfigNim_v7" : [
"e1f0a4adf67a4da6b55a05e6"
],
"FTBFConfigNim_v8" : [
"e1f0a4adf67a4da6b55a05e6"
],
"FTBFConfigNim_v9" : [
"e1f0a4adf67a4da6b55a05e6"
],
"FTBFConfigNim_v10" : [
"e1f0a4adf67a4da6b55a05e6"
],
"FTBFConfigNim_v11" : [
"e1f0a4adf67a4da6b55a05e6"
],
"FTBFConfigNim_v12" : [
"e1f0a4adf67a4da6b55a05e6"
],
"FTBFConfigNim_v13" : [
"e1f0a4adf67a4da6b55a05e6"
],
"FTBFConfigNim_v14" : [
"e1f0a4adf67a4da6b55a05e6"
],
"FTBFConfigNim_v15" : [
"e1f0a4adf67a4da6b55a05e6"
],
"FTBFConfigNim_v16" : [
"e1f0a4adf67a4da6b55a05e6"
],
"FTBFConfigNim_v17" : [
"e1f0a4adf67a4da6b55a05e6"
],
"FTBFConfigNim_v18" : [
"e1f0a4adf67a4da6b55a05e6"
],
"FTBFConfigNim_v19" : [
"e1f0a4adf67a4da6b55a05e6"
],
"FTBFConfigNim_v20" : [
"e1f0a4adf67a4da6b55a05e6"
],
"FTBFConfigNim_v21" : [
"e1f0a4adf67a4da6b55a05e6"
],
"FTBFConfigNim_v22" : [
"e1f0a4adf67a4da6b55a05e6"
],
"FTBFConfigNim_v23" : [
"e1f0a4adf67a4da6b55a05e6"
],
"FTBFConfigNim_v24" : [
"e1f0a4adf67a4da6b55a05e6"
],
"FTBFConfigNim_v25" : [
"e1f0a4adf67a4da6b55a05e6"
],
"FTBFConfigNim_v26" : [
"e1f0a4adf67a4da6b55a05e6"
],
"FTBFConfigNim_v27" : [
"e1f0a4adf67a4da6b55a05e6"
],
"FTBFConfigNim_v28" : [
"e1f0a4adf67a4da6b55a05e6"
],
"FTBFConfigNim_v29" : [
"e1f0a4adf67a4da6b55a05e6"
],
"FTBFConfig_v71" : [
"e1f0a4adf67a4da6b55a05e6"
],
"FTBFConfig_v72" : [
"e1f0a4adf67a4da6b55a05e6"
],
"FTBFConfig_v73" : [
"e1f0a4adf67a4da6b55a05e6"
],
"FTBFConfig_v74" : [
"e1f0a4adf67a4da6b55a05e6"
],
"FTBFConfig_v75" : [
"e1f0a4adf67a4da6b55a05e6"
],
"FTBFConfig_v76" : [
"e1f0a4adf67a4da6b55a05e6"
],
"FTBFConfig_v77" : [
"e1f0a4adf67a4da6b55a05e6"
],
"FTBFConfig_v78" : [
"e1f0a4adf67a4da6b55a05e6"
],
"FTBFConfig_v79" : [
"e1f0a4adf67a4da6b55a05e6"
],
"FTBFConfig_v80" : [
"e1f0a4adf67a4da6b55a05e6"
],
"FTBFConfig_v81" : [
"e1f0a4adf67a4da6b55a05e6"
],
"FTBFConfig_v82" : [
"e1f0a4adf67a4da6b55a05e6"
],
"FTBFConfig_v83" : [
"e1f0a4adf67a4da6b55a05e6"
],
"FTBFConfig_v84" : [
"e1f0a4adf67a4da6b55a05e6"
],
"FTBFConfig_v85" : [
"e1f0a4adf67a4da6b55a05e6"
],
"FTBFConfig_v86" : [
"e1f0a4adf67a4da6b55a05e6"
],
"FTBFConfig_v87" : [
"e1f0a4adf67a4da6b55a05e6"
],
"FTBFConfig_v88" : [
"e1f0a4adf67a4da6b55a05e6"
],
"FTBFConfig_v89" : [
"e1f0a4adf67a4da6b55a05e6"
],
"FTBFConfig_v90" : [
"e1f0a4adf67a4da6b55a05e6"
],
"FTBFConfig_v91" : [
"e1f0a4adf67a4da6b55a05e6"
],
"FTBFConfig_v92" : [
"e1f0a4adf67a4da6b55a05e6"
],
"FTBFConfig_v93" : [
"e1f0a4adf67a4da6b55a05e6"
],
"FTBFConfig_v94" : [
"e1f0a4adf67a4da6b55a05e6"
],
"FTBFConfig_v95" : [
"e1f0a4adf67a4da6b55a05e6"
],
"FTBFConfig_v96" : [
"e1f0a4adf67a4da6b55a05e6"
],
"FTBFConfig_v97" : [
"e1f0a4adf67a4da6b55a05e6"
],
"FTBFConfig_v98" : [
"e1f0a4adf67a4da6b55a05e6"
],
"FTBFConfig_v99" : [
"e1f0a4adf67a4da6b55a05e6"
],
"FTBFConfig_v100" : [
"e1f0a4adf67a4da6b55a05e6"
],
"FTBFConfig_v101" : [
"e1f0a4adf67a4da6b55a05e6"
],
"FTBFConfig_v102" : [
"e1f0a4adf67a4da6b55a05e6"
],
"FTBFConfig_v103" : [
"e1f0a4adf67a4da6b55a05e6"
],
"FTBFConfig_v104" : [
"e1f0a4adf67a4da6b55a05e6"
],
"FTBFConfig_v105" : [
"e1f0a4adf67a4da6b55a05e6"
],
"FTBFConfig_v106" : [
"e1f0a4adf67a4da6b55a05e6"
],
"FTBFConfig_v107" : [
"e1f0a4adf67a4da6b55a05e6"
],
"FTBFConfig_v108" : [
"e1f0a4adf67a4da6b55a05e6"
],
"FTBFConfig_v109" : [
"e1f0a4adf67a4da6b55a05e6"
],
"FTBFConfig_v110" : [
"e1f0a4adf67a4da6b55a05e6"
],
"FTBFConfig_v111" : [
"e1f0a4adf67a4da6b55a05e6"
],
"FTBFConfig_v112" : [
"e1f0a4adf67a4da6b55a05e6"
],
"FTBFConfig_v113" : [
"e1f0a4adf67a4da6b55a05e6"
],
"FTBFConfig_v114" : [
"e1f0a4adf67a4da6b55a05e6"
],
"FTBFConfig_v115" : [
"e1f0a4adf67a4da6b55a05e6"
],
"FTBFConfig_v116" : [
"e1f0a4adf67a4da6b55a05e6"
],
"FTBFConfig_v117" : [
"e1f0a4adf67a4da6b55a05e6"
],
"FTBFConfig_v118" : [
"e1f0a4adf67a4da6b55a05e6"
],
"FTBFConfig_v119" : [
"e1f0a4adf67a4da6b55a05e6"
],
"FTBFConfig_v120" : [
"e1f0a4adf67a4da6b55a05e6"
],
"FTBFConfig_v121" : [
"e1f0a4adf67a4da6b55a05e6"
],
"FTBFConfig_v122" : [
"e1f0a4adf67a4da6b55a05e6"
],
"FTBFConfig_v123" : [
"e1f0a4adf67a4da6b55a05e6"
],
"FTBFConfig_v124" : [
"e1f0a4adf67a4da6b55a05e6"
],
"FTBFConfig_v125" : [
"e1f0a4adf67a4da6b55a05e6"
],
"FTBFConfig_v126" : [
"e1f0a4adf67a4da6b55a05e6"
],
"FTBFConfig_v127" : [
"e1f0a4adf67a4da6b55a05e6"
],
"FTBFConfig_v128" : [
"e1f0a4adf67a4da6b55a05e6"
],
"FTBFConfig_v129" : [
"e1f0a4adf67a4da6b55a05e6"
],
"FTBFConfig_v130" : [
"e1f0a4adf67a4da6b55a05e6"
],
"FTBFConfig_v131" : [
"e1f0a4adf67a4da6b55a05e6"
],
"FTBFConfig_v132" : [
"e1f0a4adf67a4da6b55a05e6"
],
"FTBFConfig_v133" : [
"e1f0a4adf67a4da6b55a05e6"
],
"FTBFConfig_v134" : [
"e1f0a4adf67a4da6b55a05e6"
],
"FTBFConfig_v135" : [
"e1f0a4adf67a4da6b55a05e6"
],
"FTBFConfig_v136" : [
"e1f0a4adf67a4da6b55a05e6"
],
"FTBFConfig_v137" : [
"e1f0a4adf67a4da6b55a05e6"
],
"FTBFConfig_v138" : [
"e1f0a4adf67a4da6b55a05e6"
],
"FTBFConfig_v139" : [
"e1f0a4adf67a4da6b55a05e6"
],
"FTBFConfig_v140" : [
"e1f0a4adf67a4da6b55a05e6"
],
"FTBFConfig_v141" : [
"e1f0a4adf67a4da6b55a05e6"
],
"FTBFConfig_v142" : [
"e1f0a4adf67a4da6b55a05e6"
]
},
"entities.name" : {
"OTSROOT" : [
"e1f0a4adf67a4da6b55a05e6"
]
},
"aliases.active.name" : {

},
"runs.name" : {

},
"configurations.assigned" : {
"notprovided" : [
"2017-11-08T15:56:03.264-0600"
],
"FTBFConfig_v0" : [
"2017-11-08T15:56:06.002-0600"
],
"FTBFConfig_v1" : [
"2017-11-09T09:56:30.684-0600"
],
"FTBFConfig_v2" : [
"2017-11-09T10:05:59.656-0600"
],
"FTBFConfig_v3" : [
"2017-11-09T10:37:11.208-0600"
],
"FTBFConfig_v4" : [
"2017-11-15T11:30:10.006-0600"
],
"FTBFConfig_v5" : [
"2017-11-15T11:54:56.808-0600"
],
"FTBFConfig_v6" : [
"2017-11-15T11:57:49.433-0600"
],
"FTBFConfig_v7" : [
"2017-11-15T12:42:31.842-0600"
],
"FTBFConfig_v8" : [
"2017-11-15T13:01:02.910-0600"
],
"FTBFConfig_v9" : [
"2017-11-15T13:02:56.245-0600"
],
"FTBFConfig_v10" : [
"2017-11-15T13:04:23.830-0600"
],
"FTBFConfig_v11" : [
"2017-11-15T13:07:51.323-0600"
],
"FTBFConfig_v12" : [
"2017-11-15T13:11:58.781-0600"
],
"FTBFConfig_v13" : [
"2017-11-15T13:13:52.729-0600"
],
"FTBFConfig_v14" : [
"2017-11-15T13:27:28.515-0600"
],
"FTBFConfig_v15" : [
"2017-11-15T13:35:46.733-0600"
],
"FTBFConfig_v16" : [
"2017-11-15T13:36:51.333-0600"
],
"FTBFConfig_v17" : [
"2017-11-15T15:33:29.872-0600"
],
"FTBFConfig_v18" : [
"2017-11-15T15:35:33.496-0600"
],
"FTBFConfig_v19" : [
"2017-11-15T15:38:02.350-0600"
],
"FTBFConfig_v20" : [
"2017-11-15T16:26:30.149-0600"
],
"FTBFConfig_v21" : [
"2017-11-16T09:22:31.152-0600"
],
"FTBFConfig_v22" : [
"2017-11-17T10:23:27.366-0600"
],
"FTBFConfig_v23" : [
"2017-11-17T17:26:44.908-0600"
],
"FTBFConfig_v24" : [
"2017-11-17T17:58:25.404-0600"
],
"FTBFConfig_v25" : [
"2017-11-17T18:24:45.070-0600"
],
"FTBFConfig_v26" : [
"2017-11-17T18:32:22.454-0600"
],
"FTBFConfig_v27" : [
"2017-11-17T18:43:29.584-0600"
],
"FTBFConfig_v28" : [
"2017-11-17T18:48:31.632-0600"
],
"FTBFConfig_v29" : [
"2017-11-20T14:48:30.446-0600"
],
"FTBFConfig_v30" : [
"2017-11-20T15:39:55.581-0600"
],
"FTBFConfig_v31" : [
"2017-11-20T16:41:01.583-0600"
],
"FTBFConfig_v32" : [
"2017-11-20T18:55:34.505-0600"
],
"FTBFConfig_v33" : [
"2017-11-20T18:57:29.778-0600"
],
"FTBFConfig_v34" : [
"2017-11-29T17:50:39.271-0600"
],
"FTBFConfig_v35" : [
"2017-11-29T18:00:32.224-0600"
],
"FTBFConfig_v36" : [
"2017-11-29T18:35:10.948-0600"
],
"FTBFConfig_v37" : [
"2017-12-01T09:36:17.208-0600"
],
"FTBFConfig_v38" : [
"2017-12-01T09:52:00.620-0600"
],
"FTBFConfig_v39" : [
"2017-12-01T11:51:57.872-0600"
],
"FTBFConfig_v40" : [
"2017-12-01T12:18:19.844-0600"
],
"FTBFConfig_v41" : [
"2017-12-01T12:21:01.973-0600"
],
"FTBFConfig_v42" : [
"2017-12-01T12:43:21.167-0600"
],
"FTBFConfig_v43" : [
"2017-12-01T12:57:58.600-0600"
],
"FTBFConfig_v44" : [
"2017-12-01T13:00:51.572-0600"
],
"FTBFConfig_v45" : [
"2017-12-01T13:25:48.266-0600"
],
"FTBFConfig_v46" : [
"2017-12-01T13:35:43.035-0600"
],
"FTBFConfig_v47" : [
"2017-12-01T14:00:51.334-0600"
],
"FTBFConfig_v48" : [
"2017-12-01T14:03:58.663-0600"
],
"FTBFConfig_v49" : [
"2017-12-01T15:31:58.813-0600"
],
"FTBFConfig_v52" : [
"2017-12-01T15:37:30.694-0600"
],
"FTBFConfig_v53" : [
"2017-12-01T15:40:58.328-0600"
],
"FTBFConfig_v54" : [
"2017-12-01T15:52:48.644-0600"
],
"FTBFConfig_v55" : [
"2017-12-01T15:54:33.794-0600"
],
"FTBFConfig_v56" : [
"2017-12-01T15:55:33.350-0600"
],
"FTBFConfig_v57" : [
"2017-12-01T15:56:39.183-0600"
],
"FTBFConfig_v58" : [
"2017-12-01T15:57:37.239-0600"
],
"FTBFConfig_v59" : [
"2017-12-01T15:58:29.150-0600"
],
"FTBFConfig_v60" : [
"2017-12-01T15:59:30.347-0600"
],
"FTBFConfig_v61" : [
"2017-12-01T16:19:40.103-0600"
],
"FTBFConfig_v62" : [
"2017-12-01T16:22:02.647-0600"
],
"FTBFConfig_v63" : [
"2017-12-01T16:31:23.278-0600"
],
"FTBFConfig_v64" : [
"2017-12-01T17:06:30.471-0600"
],
"FTBFConfig_v65" : [
"2017-12-01T17:32:42.611-0600"
],
"FTBFConfig_v66" : [
"2017-12-01T20:38:49.016-0600"
],
"FTBFConfig_v67" : [
"2017-12-01T21:25:00.440-0600"
],
"FTBFConfig_v68" : [
"2017-12-01T21:43:00.117-0600"
],
"FTBFConfig_v69" : [
"2017-12-01T21:44:58.732-0600"
],
"FTBFConfig_v70" : [
"2017-12-01T21:59:17.972-0600"
],
"FTBFConfigNim_v0" : [
"2017-12-01T22:00:04.676-0600"
],
"FTBFConfigNim_v1" : [
"2017-12-01T22:13:06.438-0600"
],
"FTBFConfigNim_v2" : [
"2017-12-01T22:15:53.680-0600"
],
"FTBFConfigNim_v3" : [
"2017-12-01T22:17:01.916-0600"
],
"FTBFConfigNim_v4" : [
"2017-12-01T22:19:04.761-0600"
],
"FTBFConfigNim_v5" : [
"2017-12-01T22:21:55.503-0600"
],
"FTBFConfigNim_v6" : [
"2017-12-01T22:23:11.652-0600"
],
"FTBFConfigNim_v7" : [
"2017-12-01T22:25:15.450-0600"
],
"FTBFConfigNim_v8" : [
"2017-12-01T22:27:03.098-0600"
],
"FTBFConfigNim_v9" : [
"2017-12-01T22:29:27.260-0600"
],
"FTBFConfigNim_v10" : [
"2017-12-01T22:52:32.382-0600"
],
"FTBFConfigNim_v11" : [
"2017-12-01T22:57:27.196-0600"
],
"FTBFConfigNim_v12" : [
"2017-12-01T23:00:05.446-0600"
],
"FTBFConfigNim_v13" : [
"2017-12-01T23:52:33.565-0600"
],
"FTBFConfigNim_v14" : [
"2017-12-01T23:58:07.984-0600"
],
"FTBFConfigNim_v15" : [
"2017-12-02T00:00:32.244-0600"
],
"FTBFConfigNim_v16" : [
"2017-12-02T00:13:07.392-0600"
],
"FTBFConfigNim_v17" : [
"2017-12-02T00:28:26.349-0600"
],
"FTBFConfigNim_v18" : [
"2017-12-02T00:29:32.413-0600"
],
"FTBFConfigNim_v19" : [
"2017-12-02T00:31:09.664-0600"
],
"FTBFConfigNim_v20" : [
"2017-12-02T00:57:25.442-0600"
],
"FTBFConfigNim_v21" : [
"2017-12-02T10:57:59.971-0600"
],
"FTBFConfigNim_v22" : [
"2017-12-02T11:08:16.143-0600"
],
"FTBFConfigNim_v23" : [
"2017-12-02T11:12:37.711-0600"
],
"FTBFConfigNim_v24" : [
"2017-12-02T11:18:40.621-0600"
],
"FTBFConfigNim_v25" : [
"2017-12-02T11:27:03.798-0600"
],
"FTBFConfigNim_v26" : [
"2017-12-02T11:38:34.841-0600"
],
"FTBFConfigNim_v27" : [
"2017-12-02T11:49:06.016-0600"
],
"FTBFConfigNim_v28" : [
"2017-12-02T11:55:07.462-0600"
],
"FTBFConfigNim_v29" : [
"2017-12-02T12:06:24.310-0600"
],
"FTBFConfig_v71" : [
"2017-12-02T12:24:12.956-0600"
],
"FTBFConfig_v72" : [
"2017-12-02T12:43:33.805-0600"
],
"FTBFConfig_v73" : [
"2017-12-02T13:55:33.440-0600"
],
"FTBFConfig_v74" : [
"2017-12-02T14:09:05.767-0600"
],
"FTBFConfig_v75" : [
"2017-12-02T14:12:16.563-0600"
],
"FTBFConfig_v76" : [
"2017-12-02T19:05:51.641-0600"
],
"FTBFConfig_v77" : [
"2017-12-02T19:12:11.521-0600"
],
"FTBFConfig_v78" : [
"2017-12-03T14:03:46.656-0600"
],
"FTBFConfig_v79" : [
"2017-12-03T14:09:04.878-0600"
],
"FTBFConfig_v80" : [
"2017-12-03T14:11:08.628-0600"
],
"FTBFConfig_v81" : [
"2017-12-03T14:22:31.677-0600"
],
"FTBFConfig_v82" : [
"2017-12-03T14:40:36.457-0600"
],
"FTBFConfig_v83" : [
"2017-12-03T14:45:03.820-0600"
],
"FTBFConfig_v84" : [
"2017-12-04T14:51:29.172-0600"
],
"FTBFConfig_v85" : [
"2017-12-04T14:55:42.336-0600"
],
"FTBFConfig_v86" : [
"2017-12-04T16:51:05.337-0600"
],
"FTBFConfig_v87" : [
"2017-12-04T16:56:45.965-0600"
],
"FTBFConfig_v88" : [
"2017-12-04T17:01:10.695-0600"
],
"FTBFConfig_v89" : [
"2017-12-04T17:03:55.802-0600"
],
"FTBFConfig_v90" : [
"2017-12-04T17:07:15.428-0600"
],
"FTBFConfig_v91" : [
"2017-12-04T17:09:24.555-0600"
],
"FTBFConfig_v92" : [
"2017-12-04T17:11:37.043-0600"
],
"FTBFConfig_v93" : [
"2017-12-04T21:05:19.641-0600"
],
"FTBFConfig_v94" : [
"2017-12-04T21:17:10.549-0600"
],
"FTBFConfig_v95" : [
"2017-12-04T21:41:16.230-0600"
],
"FTBFConfig_v96" : [
"2017-12-04T22:39:00.859-0600"
],
"FTBFConfig_v97" : [
"2017-12-04T23:01:11.368-0600"
],
"FTBFConfig_v98" : [
"2017-12-07T11:07:45.385-0600"
],
"FTBFConfig_v99" : [
"2017-12-07T11:49:58.060-0600"
],
"FTBFConfig_v100" : [
"2017-12-07T11:58:24.776-0600"
],
"FTBFConfig_v101" : [
"2017-12-08T13:30:46.932-0600"
],
"FTBFConfig_v102" : [
"2017-12-08T13:32:33.792-0600"
],
"FTBFConfig_v103" : [
"2017-12-12T11:03:03.598-0600"
],
"FTBFConfig_v104" : [
"2017-12-12T13:50:57.976-0600"
],
"FTBFConfig_v105" : [
"2017-12-12T15:25:04.020-0600"
],
"FTBFConfig_v106" : [
"2017-12-13T10:24:22.370-0600"
],
"FTBFConfig_v107" : [
"2017-12-13T10:27:01.127-0600"
],
"FTBFConfig_v108" : [
"2018-02-01T21:14:24.613-0600"
],
"FTBFConfig_v109" : [
"2018-02-01T21:21:01.721-0600"
],
"FTBFConfig_v110" : [
"2018-02-02T11:25:32.690-0600"
],
"FTBFConfig_v111" : [
"2018-02-02T11:37:11.510-0600"
],
"FTBFConfig_v112" : [
"2018-02-02T11:47:13.987-0600"
],
"FTBFConfig_v113" : [
"2018-02-02T11:53:35.248-0600"
],
"FTBFConfig_v114" : [
"2018-02-02T12:00:51.348-0600"
],
"FTBFConfig_v115" : [
"2018-02-02T12:27:12.823-0600"
],
"FTBFConfig_v116" : [
"2018-02-02T14:28:52.345-0600"
],
"FTBFConfig_v117" : [
"2018-02-02T14:30:18.673-0600"
],
"FTBFConfig_v118" : [
"2018-02-02T14:33:59.880-0600"
],
"FTBFConfig_v119" : [
"2018-02-02T14:36:26.529-0600"
],
"FTBFConfig_v120" : [
"2018-02-02T14:38:39.870-0600"
],
"FTBFConfig_v121" : [
"2018-02-02T14:41:49.181-0600"
],
"FTBFConfig_v122" : [
"2018-02-02T14:50:23.261-0600"
],
"FTBFConfig_v123" : [
"2018-02-02T14:52:56.066-0600"
],
"FTBFConfig_v124" : [
"2018-02-02T14:59:49.419-0600"
],
"FTBFConfig_v125" : [
"2018-02-02T15:04:07.520-0600"
],
"FTBFConfig_v126" : [
"2018-02-02T15:50:10.708-0600"
],
"FTBFConfig_v127" : [
"2018-02-02T15:51:30.215-0600"
],
"FTBFConfig_v128" : [
"2018-02-02T15:52:35.365-0600"
],
"FTBFConfig_v129" : [
"2018-02-02T16:02:44.267-0600"
],
"FTBFConfig_v130" : [
"2018-02-02T16:08:43.800-0600"
],
"FTBFConfig_v131" : [
"2018-02-02T16:11:29.649-0600"
],
"FTBFConfig_v132" : [
"2018-02-02T16:12:57.496-0600"
],
"FTBFConfig_v133" : [
"2018-02-02T16:14:28.092-0600"
],
"FTBFConfig_v134" : [
"2018-02-02T16:26:20.965-0600"
],
"FTBFConfig_v135" : [
"2018-02-02T16:27:08.088-0600"
],
"FTBFConfig_v136" : [
"2018-02-02T16:29:29.448-0600"
],
"FTBFConfig_v137" : [
"2018-02-02T16:31:40.043-0600"
],
"FTBFConfig_v138" : [
"2018-02-02T16:34:12.697-0600"
],
"FTBFConfig_v139" : [
"2018-02-02T17:39:28.752-0600"
],
"FTBFConfig_v140" : [
"2018-02-02T17:42:50.928-0600"
],
"FTBFConfig_v141" : [
"2018-02-02T17:47:36.113-0600"
],
"FTBFConfig_v142" : [
"2018-02-02T17:54:00.134-0600"
]
}
}