{
"document" : {
"data" : {
"NAME" : "TABLE_GROUP_METADATA",
"COMMENT" : "",
"AUTHOR" : "",
"CREATION_TIME" : 1550763300,
"COL_TYPES" : {
"UNUSED_UID" : "NUMBER",
"GROUP_ALIASES" : "STRING",
"COMMENT_DESCRIPTION" : "STRING",
"AUTHOR" : "STRING",
"GROUP_CREATION_TIME" : "TIMESTAMP WITH TIMEZONE"
},
"DATA_SET" : [
{
"UNUSED_UID" : "0",
"GROUP_ALIASES" : "",
"COMMENT_DESCRIPTION" : "",
"AUTHOR" : "admin",
"GROUP_CREATION_TIME" : "1599673603"
}
]
},
"metadata" : {

},
"search" : [

]
},
"comments" : [

],
"origin" : {
"source" : "template",
"name" : "notprovided",
"format" : "json",
"created" : "2020-09-09T19:46:43.873+0200",
"rawdata" : [

]
},
"version" : "40",
"entities" : [
{
"name" : "OTSROOT",
"assigned" : "2020-09-09T19:46:43.874+0200"
}
],
"configurations" : [
{
"name" : "notprovided",
"assigned" : "2020-09-09T19:46:43.874+0200"
},
{
"name" : "TableEditWizBackbone_v6",
"assigned" : "2020-09-09T19:46:43.932+0200"
}
],
"changelog" : "notprovided",
"bookkeeping" : {
"isdeleted" : false,
"isreadonly" : false,
"updates" : [
{
"event" : "addConfiguration",
"timestamp" : "2020-09-09T19:46:43.874+0200",
"value" : {
"name" : "notprovided",
"assigned" : "2020-09-09T19:46:43.874+0200"
}
},
{
"event" : "setVersion",
"timestamp" : "2020-09-09T19:46:43.874+0200",
"value" : {
"name" : "40",
"assigned" : "2020-09-09T19:46:43.874+0200"
}
},
{
"event" : "setCollection",
"timestamp" : "2020-09-09T19:46:43.874+0200",
"value" : {
"name" : "TableGroupMetadata",
"assigned" : "2020-09-09T19:46:43.874+0200"
}
},
{
"event" : "addEntity",
"timestamp" : "2020-09-09T19:46:43.874+0200",
"value" : {
"name" : "OTSROOT",
"assigned" : "2020-09-09T19:46:43.874+0200"
}
},
{
"event" : "addConfiguration",
"timestamp" : "2020-09-09T19:46:43.932+0200",
"value" : {
"name" : "TableEditWizBackbone_v6",
"assigned" : "2020-09-09T19:46:43.932+0200"
}
}
],
"created" : "2020-09-09T19:46:43.873+0200"
},
"_id" : {
"$oid" : "6c60e11d7f7b45f195409b60"
},
"collection" : "TableGroupMetadata",
"aliases" : {
"active" : [

],
"history" : [

]
},
"runs" : [

],
"attachments" : [

],
"configtype" : "notprovided"
}