{
"document" : {
"data" : {
"NAME" : "DQM_POWER_SUPPLY_CONSUMER_TABLE",
"COMMENT" : "No comment.",
"AUTHOR" : "admin",
"CREATION_TIME" : 1602014624,
"COL_TYPES" : {
"PROCESSOR_UID" : "STRING",
"FILE_PATH" : "STRING",
"RADIX_FILE_NAME" : "STRING",
"SAVE_FILE" : "STRING",
"LINK_TO_POWER_SUPPLY_TO_DETECTOR_TABLE" : "STRING",
"LINK_TO_POWER_SUPPLY_TO_DETECTOR_UID" : "STRING",
"COMMENT_DESCRIPTION" : "STRING",
"AUTHOR" : "STRING",
"RECORD_INSERTION_TIME" : "TIMESTAMP WITH TIMEZONE"
},
"DATA_SET" : [
{
"PROCESSOR_UID" : "VisualDataBufferPowerSupplyHistos",
"FILE_PATH" : "${OTSDAQ_DATA}/OtsHistos",
"RADIX_FILE_NAME" : "PowerSupplyHistos",
"SAVE_FILE" : "Yes",
"LINK_TO_POWER_SUPPLY_TO_DETECTOR_TABLE" : "PowerSupplyToDetectorTable",
"LINK_TO_POWER_SUPPLY_TO_DETECTOR_UID" : "PowerSupplyFEInterface0",
"COMMENT_DESCRIPTION" : "No Comment",
"AUTHOR" : "admin",
"RECORD_INSERTION_TIME" : "1602014624"
}
]
},
"metadata" : {

},
"search" : [

]
},
"comments" : [

],
"origin" : {
"source" : "template",
"name" : "notprovided",
"format" : "json",
"created" : "2020-10-06T15:03:44.312-0500",
"rawdata" : [

]
},
"version" : "1",
"entities" : [
{
"name" : "OTSROOT",
"assigned" : "2020-10-06T15:03:44.313-0500"
}
],
"configurations" : [
{
"name" : "notprovided",
"assigned" : "2020-10-06T15:03:44.312-0500"
},
{
"name" : "DefaultConfig_v28",
"assigned" : "2020-10-06T15:04:19.444-0500"
},
{
"name" : "DefaultConfig_v29",
"assigned" : "2020-10-07T16:45:35.559-0500"
},
{
"name" : "DefaultConfig_v30",
"assigned" : "2020-10-07T17:03:29.719-0500"
},
{
"name" : "DefaultConfig_v31",
"assigned" : "2020-11-04T20:42:36.685-0600"
},
{
"name" : "DefaultConfig_v32",
"assigned" : "2020-11-11T11:26:54.267-0600"
},
{
"name" : "DefaultConfig_v33",
"assigned" : "2021-01-18T20:04:38.629-0600"
},
{
"name" : "DefaultConfig_v34",
"assigned" : "2021-01-18T20:05:19.085-0600"
}
],
"changelog" : "notprovided",
"bookkeeping" : {
"isdeleted" : false,
"isreadonly" : false,
"updates" : [
{
"event" : "addConfiguration",
"timestamp" : "2020-10-06T15:03:44.312-0500",
"value" : {
"name" : "notprovided",
"assigned" : "2020-10-06T15:03:44.312-0500"
}
},
{
"event" : "setVersion",
"timestamp" : "2020-10-06T15:03:44.313-0500",
"value" : {
"name" : "1",
"assigned" : "2020-10-06T15:03:44.313-0500"
}
},
{
"event" : "setCollection",
"timestamp" : "2020-10-06T15:03:44.313-0500",
"value" : {
"name" : "DQMPowerSupplyConsumerTable",
"assigned" : "2020-10-06T15:03:44.313-0500"
}
},
{
"event" : "addEntity",
"timestamp" : "2020-10-06T15:03:44.313-0500",
"value" : {
"name" : "OTSROOT",
"assigned" : "2020-10-06T15:03:44.313-0500"
}
},
{
"event" : "addConfiguration",
"timestamp" : "2020-10-06T15:04:19.444-0500",
"value" : {
"name" : "DefaultConfig_v28",
"assigned" : "2020-10-06T15:04:19.444-0500"
}
},
{
"event" : "addConfiguration",
"timestamp" : "2020-10-07T16:45:35.560-0500",
"value" : {
"name" : "DefaultConfig_v29",
"assigned" : "2020-10-07T16:45:35.559-0500"
}
},
{
"event" : "addConfiguration",
"timestamp" : "2020-10-07T17:03:29.719-0500",
"value" : {
"name" : "DefaultConfig_v30",
"assigned" : "2020-10-07T17:03:29.719-0500"
}
},
{
"event" : "addConfiguration",
"timestamp" : "2020-11-04T20:42:36.685-0600",
"value" : {
"name" : "DefaultConfig_v31",
"assigned" : "2020-11-04T20:42:36.685-0600"
}
},
{
"event" : "addConfiguration",
"timestamp" : "2020-11-11T11:26:54.267-0600",
"value" : {
"name" : "DefaultConfig_v32",
"assigned" : "2020-11-11T11:26:54.267-0600"
}
},
{
"event" : "addConfiguration",
"timestamp" : "2021-01-18T20:04:38.629-0600",
"value" : {
"name" : "DefaultConfig_v33",
"assigned" : "2021-01-18T20:04:38.629-0600"
}
},
{
"event" : "addConfiguration",
"timestamp" : "2021-01-18T20:05:19.085-0600",
"value" : {
"name" : "DefaultConfig_v34",
"assigned" : "2021-01-18T20:05:19.085-0600"
}
}
],
"created" : "2020-10-06T15:03:44.312-0500"
},
"_id" : {
"$oid" : "ac7ab4bbec574479b17c285b"
},
"collection" : "DQMPowerSupplyConsumerTable",
"aliases" : {
"active" : [

],
"history" : [

]
},
"runs" : [

],
"attachments" : [

],
"configtype" : "notprovided"
}