{
"document" : {
"data" : {
"NAME" : "DQM_POWER_SUPPLY_CONSUMER_TABLE",
"COMMENT" : "No comment.",
"AUTHOR" : "admin",
"CREATION_TIME" : 1602013512,
"COL_TYPES" : {
"PROCESSOR_UID" : "STRING",
"FILE_PATH" : "STRING",
"RADIX_FILE_NAME" : "STRING",
"SAVE_FILE" : "STRING",
"LINK_TO_POWER_SUPPLY_TO_DETECTOR_TABLE" : "STRING",
"LINK_TO_POWER_SUPPLY_TO_DETECTOR_UID" : "STRING",
"COMMENT_DESCRIPTION" : "STRING",
"AUTHOR" : "STRING",
"RECORD_INSERTION_TIME" : "TIMESTAMP WITH TIMEZONE"
},
"DATA_SET" : [
{
"PROCESSOR_UID" : "VisualDataBufferPowerSupplyHistos",
"FILE_PATH" : "${OTSDAQ_DATA}/OtsHistos",
"RADIX_FILE_NAME" : "PowerSupplyHistos",
"SAVE_FILE" : "Yes",
"LINK_TO_POWER_SUPPLY_TO_DETECTOR_TABLE" : "PowerSupplyToDetectorTable",
"LINK_TO_POWER_SUPPLY_TO_DETECTOR_UID" : "CAENPowerSupplyChannelTable",
"COMMENT_DESCRIPTION" : "No Comment",
"AUTHOR" : "admin",
"RECORD_INSERTION_TIME" : "1602013512"
}
]
},
"metadata" : {

},
"search" : [

]
},
"comments" : [

],
"origin" : {
"source" : "template",
"name" : "notprovided",
"format" : "json",
"created" : "2020-10-06T14:45:12.488-0500",
"rawdata" : [

]
},
"version" : "0",
"entities" : [
{
"name" : "OTSROOT",
"assigned" : "2020-10-06T14:45:12.489-0500"
}
],
"configurations" : [
{
"name" : "notprovided",
"assigned" : "2020-10-06T14:45:12.488-0500"
},
{
"name" : "DefaultConfig_v27",
"assigned" : "2020-10-06T14:45:40.908-0500"
}
],
"changelog" : "notprovided",
"bookkeeping" : {
"isdeleted" : false,
"isreadonly" : false,
"updates" : [
{
"event" : "addConfiguration",
"timestamp" : "2020-10-06T14:45:12.488-0500",
"value" : {
"name" : "notprovided",
"assigned" : "2020-10-06T14:45:12.488-0500"
}
},
{
"event" : "setVersion",
"timestamp" : "2020-10-06T14:45:12.488-0500",
"value" : {
"name" : "0",
"assigned" : "2020-10-06T14:45:12.488-0500"
}
},
{
"event" : "setCollection",
"timestamp" : "2020-10-06T14:45:12.489-0500",
"value" : {
"name" : "DQMPowerSupplyConsumerTable",
"assigned" : "2020-10-06T14:45:12.489-0500"
}
},
{
"event" : "addEntity",
"timestamp" : "2020-10-06T14:45:12.489-0500",
"value" : {
"name" : "OTSROOT",
"assigned" : "2020-10-06T14:45:12.489-0500"
}
},
{
"event" : "addConfiguration",
"timestamp" : "2020-10-06T14:45:40.908-0500",
"value" : {
"name" : "DefaultConfig_v27",
"assigned" : "2020-10-06T14:45:40.908-0500"
}
}
],
"created" : "2020-10-06T14:45:12.488-0500"
},
"_id" : {
"$oid" : "e795f0aff8554ddc9d71cd58"
},
"collection" : "DQMPowerSupplyConsumerTable",
"aliases" : {
"active" : [

],
"history" : [

]
},
"runs" : [

],
"attachments" : [

],
"configtype" : "notprovided"
}