{
"ouid" : [
"ac7ab4bbec574479b17c285b",
"e795f0aff8554ddc9d71cd58"
],
"version" : {
"0" : [
"e795f0aff8554ddc9d71cd58"
],
"1" : [
"ac7ab4bbec574479b17c285b"
]
},
"configurations.name" : {
"notprovided" : [
"ac7ab4bbec574479b17c285b",
"e795f0aff8554ddc9d71cd58"
],
"DefaultConfig_v27" : [
"e795f0aff8554ddc9d71cd58"
],
"DefaultConfig_v28" : [
"ac7ab4bbec574479b17c285b"
],
"DefaultConfig_v29" : [
"ac7ab4bbec574479b17c285b"
],
"DefaultConfig_v30" : [
"ac7ab4bbec574479b17c285b"
],
"DefaultConfig_v31" : [
"ac7ab4bbec574479b17c285b"
],
"DefaultConfig_v32" : [
"ac7ab4bbec574479b17c285b"
],
"DefaultConfig_v33" : [
"ac7ab4bbec574479b17c285b"
],
"DefaultConfig_v34" : [
"ac7ab4bbec574479b17c285b"
]
},
"entities.name" : {
"OTSROOT" : [
"ac7ab4bbec574479b17c285b",
"e795f0aff8554ddc9d71cd58"
]
},
"aliases.active.name" : {

},
"runs.name" : {

},
"configurations.assigned" : {
"notprovided" : [
"2020-10-06T14:45:12.488-0500",
"2020-10-06T15:03:44.312-0500"
],
"DefaultConfig_v27" : [
"2020-10-06T14:45:40.908-0500"
],
"DefaultConfig_v28" : [
"2020-10-06T15:04:19.444-0500"
],
"DefaultConfig_v29" : [
"2020-10-07T16:45:35.559-0500"
],
"DefaultConfig_v30" : [
"2020-10-07T17:03:29.719-0500"
],
"DefaultConfig_v31" : [
"2020-11-04T20:42:36.685-0600"
],
"DefaultConfig_v32" : [
"2020-11-11T11:26:54.267-0600"
],
"DefaultConfig_v33" : [
"2021-01-18T20:04:38.629-0600"
],
"DefaultConfig_v34" : [
"2021-01-18T20:05:19.085-0600"
]
}
}