{
"document" : {
"data" : {
"NAME" : "DATA_MANAGER_SUPERVISOR_TABLE",
"COMMENT" : "Data manager top-level records.",
"AUTHOR" : "admin",
"CREATION_TIME" : 1550871277,
"COL_TYPES" : {
"SUPERVISOR_UID" : "STRING",
"LINK_TO_DATA_BUFFER_TABLE" : "STRING",
"LINK_TO_DATA_BUFFER_GROUP_ID" : "STRING",
"COMMENT_DESCRIPTION" : "STRING",
"AUTHOR" : "STRING",
"RECORD_INSERTION_TIME" : "TIMESTAMP WITH TIMEZONE"
},
"DATA_SET" : [
{
"SUPERVISOR_UID" : "OuterTrackerDataManagerSupervisor0",
"LINK_TO_DATA_BUFFER_TABLE" : "DataBufferTable",
"LINK_TO_DATA_BUFFER_GROUP_ID" : "OuterTrackerDataBuffer0",
"COMMENT_DESCRIPTION" : "No Comment",
"AUTHOR" : "admin",
"RECORD_INSERTION_TIME" : "1550773483"
},
{
"SUPERVISOR_UID" : "VisualSupervisor0",
"LINK_TO_DATA_BUFFER_TABLE" : "DataBufferTable",
"LINK_TO_DATA_BUFFER_GROUP_ID" : "VisualDataBuffer",
"COMMENT_DESCRIPTION" : "",
"AUTHOR" : "admin",
"RECORD_INSERTION_TIME" : "1550871277"
}
]
},
"metadata" : {

},
"search" : [

]
},
"comments" : [

],
"origin" : {
"source" : "template",
"name" : "notprovided",
"format" : "json",
"created" : "2020-07-21T14:27:46.212-0500",
"rawdata" : [

]
},
"version" : "1",
"entities" : [
{
"name" : "OTSROOT",
"assigned" : "2020-07-21T14:27:46.213-0500"
}
],
"configurations" : [
{
"name" : "notprovided",
"assigned" : "2020-07-21T14:27:46.213-0500"
},
{
"name" : "DefaultConfig_v1",
"assigned" : "2020-07-21T14:27:46.765-0500"
},
{
"name" : "DefaultConfig_v2",
"assigned" : "2020-07-21T14:44:16.406-0500"
},
{
"name" : "DefaultConfig_v3",
"assigned" : "2020-07-21T14:57:50.290-0500"
},
{
"name" : "DefaultConfig_v4",
"assigned" : "2020-07-28T10:52:34.180-0500"
},
{
"name" : "DefaultConfig_v5",
"assigned" : "2020-08-24T11:59:56.719-0500"
},
{
"name" : "DefaultConfig_v6",
"assigned" : "2020-08-24T16:05:13.280-0500"
},
{
"name" : "DefaultConfig_v7",
"assigned" : "2020-08-26T10:33:56.665-0500"
},
{
"name" : "DefaultConfig_v8",
"assigned" : "2020-08-26T10:45:54.423-0500"
},
{
"name" : "DefaultConfig_v9",
"assigned" : "2020-08-26T14:49:52.608-0500"
},
{
"name" : "DefaultConfig_v10",
"assigned" : "2020-08-26T14:52:00.228-0500"
},
{
"name" : "DefaultConfig_v11",
"assigned" : "2020-08-26T15:00:03.696-0500"
},
{
"name" : "DefaultConfig_v12",
"assigned" : "2020-08-26T16:18:15.440-0500"
},
{
"name" : "DefaultConfig_v13",
"assigned" : "2020-08-28T21:40:22.783-0500"
},
{
"name" : "DefaultConfig_v14",
"assigned" : "2020-08-31T15:19:58.721-0500"
},
{
"name" : "DefaultConfig_v15",
"assigned" : "2020-09-03T10:43:22.188-0500"
},
{
"name" : "DefaultConfig_v16",
"assigned" : "2020-09-03T10:49:03.257-0500"
},
{
"name" : "DefaultConfig_v17",
"assigned" : "2020-09-08T17:07:21.461-0500"
},
{
"name" : "DefaultConfig_v18",
"assigned" : "2020-09-11T16:02:29.140-0500"
},
{
"name" : "DefaultConfig_v19",
"assigned" : "2020-09-14T17:47:19.304-0500"
},
{
"name" : "DefaultConfig_v20",
"assigned" : "2020-09-14T18:00:23.555-0500"
},
{
"name" : "DefaultConfig_v21",
"assigned" : "2020-09-15T15:14:57.002-0500"
},
{
"name" : "DefaultConfig_v22",
"assigned" : "2020-09-15T15:18:54.101-0500"
},
{
"name" : "DefaultConfig_v23",
"assigned" : "2020-09-15T15:27:51.006-0500"
},
{
"name" : "DefaultConfig_v24",
"assigned" : "2020-09-15T15:52:12.519-0500"
},
{
"name" : "DefaultConfig_v25",
"assigned" : "2020-09-21T11:41:58.184-0500"
},
{
"name" : "DefaultConfig_v26",
"assigned" : "2020-09-21T11:54:28.924-0500"
},
{
"name" : "DefaultConfig_v27",
"assigned" : "2020-10-06T14:45:40.990-0500"
},
{
"name" : "DefaultConfig_v28",
"assigned" : "2020-10-06T15:04:19.522-0500"
},
{
"name" : "DefaultConfig_v29",
"assigned" : "2020-10-07T16:45:35.643-0500"
},
{
"name" : "DefaultConfig_v30",
"assigned" : "2020-10-07T17:03:29.799-0500"
},
{
"name" : "DefaultConfig_v31",
"assigned" : "2020-11-04T20:42:36.779-0600"
},
{
"name" : "DefaultConfig_v32",
"assigned" : "2020-11-11T11:26:54.361-0600"
},
{
"name" : "DefaultConfig_v33",
"assigned" : "2021-01-18T20:04:38.721-0600"
},
{
"name" : "DefaultConfig_v34",
"assigned" : "2021-01-18T20:05:19.185-0600"
}
],
"changelog" : "notprovided",
"bookkeeping" : {
"isdeleted" : false,
"isreadonly" : false,
"updates" : [
{
"event" : "addConfiguration",
"timestamp" : "2020-07-21T14:27:46.213-0500",
"value" : {
"name" : "notprovided",
"assigned" : "2020-07-21T14:27:46.213-0500"
}
},
{
"event" : "setVersion",
"timestamp" : "2020-07-21T14:27:46.213-0500",
"value" : {
"name" : "1",
"assigned" : "2020-07-21T14:27:46.213-0500"
}
},
{
"event" : "setCollection",
"timestamp" : "2020-07-21T14:27:46.213-0500",
"value" : {
"name" : "DataManagerSupervisorTable",
"assigned" : "2020-07-21T14:27:46.213-0500"
}
},
{
"event" : "addEntity",
"timestamp" : "2020-07-21T14:27:46.213-0500",
"value" : {
"name" : "OTSROOT",
"assigned" : "2020-07-21T14:27:46.213-0500"
}
},
{
"event" : "addConfiguration",
"timestamp" : "2020-07-21T14:27:46.765-0500",
"value" : {
"name" : "DefaultConfig_v1",
"assigned" : "2020-07-21T14:27:46.765-0500"
}
},
{
"event" : "addConfiguration",
"timestamp" : "2020-07-21T14:44:16.406-0500",
"value" : {
"name" : "DefaultConfig_v2",
"assigned" : "2020-07-21T14:44:16.406-0500"
}
},
{
"event" : "addConfiguration",
"timestamp" : "2020-07-21T14:57:50.290-0500",
"value" : {
"name" : "DefaultConfig_v3",
"assigned" : "2020-07-21T14:57:50.290-0500"
}
},
{
"event" : "addConfiguration",
"timestamp" : "2020-07-28T10:52:34.180-0500",
"value" : {
"name" : "DefaultConfig_v4",
"assigned" : "2020-07-28T10:52:34.180-0500"
}
},
{
"event" : "addConfiguration",
"timestamp" : "2020-08-24T11:59:56.719-0500",
"value" : {
"name" : "DefaultConfig_v5",
"assigned" : "2020-08-24T11:59:56.719-0500"
}
},
{
"event" : "addConfiguration",
"timestamp" : "2020-08-24T16:05:13.280-0500",
"value" : {
"name" : "DefaultConfig_v6",
"assigned" : "2020-08-24T16:05:13.280-0500"
}
},
{
"event" : "addConfiguration",
"timestamp" : "2020-08-26T10:33:56.665-0500",
"value" : {
"name" : "DefaultConfig_v7",
"assigned" : "2020-08-26T10:33:56.665-0500"
}
},
{
"event" : "addConfiguration",
"timestamp" : "2020-08-26T10:45:54.423-0500",
"value" : {
"name" : "DefaultConfig_v8",
"assigned" : "2020-08-26T10:45:54.423-0500"
}
},
{
"event" : "addConfiguration",
"timestamp" : "2020-08-26T14:49:52.608-0500",
"value" : {
"name" : "DefaultConfig_v9",
"assigned" : "2020-08-26T14:49:52.608-0500"
}
},
{
"event" : "addConfiguration",
"timestamp" : "2020-08-26T14:52:00.228-0500",
"value" : {
"name" : "DefaultConfig_v10",
"assigned" : "2020-08-26T14:52:00.228-0500"
}
},
{
"event" : "addConfiguration",
"timestamp" : "2020-08-26T15:00:03.696-0500",
"value" : {
"name" : "DefaultConfig_v11",
"assigned" : "2020-08-26T15:00:03.696-0500"
}
},
{
"event" : "addConfiguration",
"timestamp" : "2020-08-26T16:18:15.440-0500",
"value" : {
"name" : "DefaultConfig_v12",
"assigned" : "2020-08-26T16:18:15.440-0500"
}
},
{
"event" : "addConfiguration",
"timestamp" : "2020-08-28T21:40:22.783-0500",
"value" : {
"name" : "DefaultConfig_v13",
"assigned" : "2020-08-28T21:40:22.783-0500"
}
},
{
"event" : "addConfiguration",
"timestamp" : "2020-08-31T15:19:58.721-0500",
"value" : {
"name" : "DefaultConfig_v14",
"assigned" : "2020-08-31T15:19:58.721-0500"
}
},
{
"event" : "addConfiguration",
"timestamp" : "2020-09-03T10:43:22.188-0500",
"value" : {
"name" : "DefaultConfig_v15",
"assigned" : "2020-09-03T10:43:22.188-0500"
}
},
{
"event" : "addConfiguration",
"timestamp" : "2020-09-03T10:49:03.257-0500",
"value" : {
"name" : "DefaultConfig_v16",
"assigned" : "2020-09-03T10:49:03.257-0500"
}
},
{
"event" : "addConfiguration",
"timestamp" : "2020-09-08T17:07:21.461-0500",
"value" : {
"name" : "DefaultConfig_v17",
"assigned" : "2020-09-08T17:07:21.461-0500"
}
},
{
"event" : "addConfiguration",
"timestamp" : "2020-09-11T16:02:29.140-0500",
"value" : {
"name" : "DefaultConfig_v18",
"assigned" : "2020-09-11T16:02:29.140-0500"
}
},
{
"event" : "addConfiguration",
"timestamp" : "2020-09-14T17:47:19.304-0500",
"value" : {
"name" : "DefaultConfig_v19",
"assigned" : "2020-09-14T17:47:19.304-0500"
}
},
{
"event" : "addConfiguration",
"timestamp" : "2020-09-14T18:00:23.555-0500",
"value" : {
"name" : "DefaultConfig_v20",
"assigned" : "2020-09-14T18:00:23.555-0500"
}
},
{
"event" : "addConfiguration",
"timestamp" : "2020-09-15T15:14:57.002-0500",
"value" : {
"name" : "DefaultConfig_v21",
"assigned" : "2020-09-15T15:14:57.002-0500"
}
},
{
"event" : "addConfiguration",
"timestamp" : "2020-09-15T15:18:54.101-0500",
"value" : {
"name" : "DefaultConfig_v22",
"assigned" : "2020-09-15T15:18:54.101-0500"
}
},
{
"event" : "addConfiguration",
"timestamp" : "2020-09-15T15:27:51.006-0500",
"value" : {
"name" : "DefaultConfig_v23",
"assigned" : "2020-09-15T15:27:51.006-0500"
}
},
{
"event" : "addConfiguration",
"timestamp" : "2020-09-15T15:52:12.519-0500",
"value" : {
"name" : "DefaultConfig_v24",
"assigned" : "2020-09-15T15:52:12.519-0500"
}
},
{
"event" : "addConfiguration",
"timestamp" : "2020-09-21T11:41:58.184-0500",
"value" : {
"name" : "DefaultConfig_v25",
"assigned" : "2020-09-21T11:41:58.184-0500"
}
},
{
"event" : "addConfiguration",
"timestamp" : "2020-09-21T11:54:28.924-0500",
"value" : {
"name" : "DefaultConfig_v26",
"assigned" : "2020-09-21T11:54:28.924-0500"
}
},
{
"event" : "addConfiguration",
"timestamp" : "2020-10-06T14:45:40.990-0500",
"value" : {
"name" : "DefaultConfig_v27",
"assigned" : "2020-10-06T14:45:40.990-0500"
}
},
{
"event" : "addConfiguration",
"timestamp" : "2020-10-06T15:04:19.522-0500",
"value" : {
"name" : "DefaultConfig_v28",
"assigned" : "2020-10-06T15:04:19.522-0500"
}
},
{
"event" : "addConfiguration",
"timestamp" : "2020-10-07T16:45:35.643-0500",
"value" : {
"name" : "DefaultConfig_v29",
"assigned" : "2020-10-07T16:45:35.643-0500"
}
},
{
"event" : "addConfiguration",
"timestamp" : "2020-10-07T17:03:29.799-0500",
"value" : {
"name" : "DefaultConfig_v30",
"assigned" : "2020-10-07T17:03:29.799-0500"
}
},
{
"event" : "addConfiguration",
"timestamp" : "2020-11-04T20:42:36.779-0600",
"value" : {
"name" : "DefaultConfig_v31",
"assigned" : "2020-11-04T20:42:36.779-0600"
}
},
{
"event" : "addConfiguration",
"timestamp" : "2020-11-11T11:26:54.361-0600",
"value" : {
"name" : "DefaultConfig_v32",
"assigned" : "2020-11-11T11:26:54.361-0600"
}
},
{
"event" : "addConfiguration",
"timestamp" : "2021-01-18T20:04:38.721-0600",
"value" : {
"name" : "DefaultConfig_v33",
"assigned" : "2021-01-18T20:04:38.721-0600"
}
},
{
"event" : "addConfiguration",
"timestamp" : "2021-01-18T20:05:19.185-0600",
"value" : {
"name" : "DefaultConfig_v34",
"assigned" : "2021-01-18T20:05:19.185-0600"
}
}
],
"created" : "2020-07-21T14:27:46.212-0500"
},
"_id" : {
"$oid" : "600a2968e6ce45ea8422b119"
},
"collection" : "DataManagerSupervisorTable",
"aliases" : {
"active" : [

],
"history" : [

]
},
"runs" : [

],
"attachments" : [

],
"configtype" : "notprovided"
}