{
"document" : {
"data" : {
"NAME" : "FENIM_PLUS_INTERFACE_CONFIGURATION",
"COMMENT" : "NIM+ primary parameters",
"AUTHOR" : "admin",
"CREATION_TIME" : 1517541186,
"COL_TYPES" : {
"INTERFACE_ID" : "VARCHAR2",
"STATUS" : "VARCHAR2",
"FIRMWARE_VERSION" : "NUMBER",
"INTERFACE_IP_ADDRESS" : "VARCHAR2",
"INTERFACE_PORT" : "NUMBER",
"HOST_IP_ADDRESS" : "VARCHAR2",
"HOST_PORT" : "NUMBER",
"STREAM_TO_IP_ADDRESS" : "VARCHAR2",
"STREAM_TO_PORT" : "NUMBER",
"ENABLE_INPUT_CHANNEL_A" : "VARCHAR2",
"ENABLE_INPUT_CHANNEL_B" : "VARCHAR2",
"ENABLE_INPUT_CHANNEL_C" : "VARCHAR2",
"ENABLE_INPUT_CHANNEL_D" : "VARCHAR2",
"OUTPUT_SOURCE_SELECT_CHANNEL0" : "VARCHAR2",
"OUTPUT_SOURCE_SELECT_CHANNEL1" : "VARCHAR2",
"OUTPUT_SOURCE_SELECT_CHANNEL2" : "VARCHAR2",
"OUTPUT_MUX_SELECT_CHANNEL_A" : "VARCHAR2",
"OUTPUT_MUX_SELECT_CHANNEL_B" : "VARCHAR2",
"OUTPUT_MUX_SELECT_CHANNEL_C" : "VARCHAR2",
"OUTPUT_MUX_SELECT_CHANNEL_D" : "VARCHAR2",
"COINCIDENCE_LOGIC_WORD" : "NUMBER",
"LINK_TO_OPTIONAL_PARAMETERS" : "VARCHAR2",
"LINK_TO_OPTIONAL_PARAMETERS_UID" : "VARCHAR2",
"COMMENT_DESCRIPTION" : "VARCHAR2",
"AUTHOR" : "VARCHAR2",
"RECORD_INSERTION_TIME" : "TIMESTAMP WITH TIMEZONE"
},
"DATA_SET" : [
{
"INTERFACE_ID" : "NIM0",
"STATUS" : "On",
"FIRMWARE_VERSION" : "0",
"INTERFACE_IP_ADDRESS" : "192.168.133.114",
"INTERFACE_PORT" : "2001",
"HOST_IP_ADDRESS" : "192.168.133.1",
"HOST_PORT" : "5101",
"STREAM_TO_IP_ADDRESS" : "192.168.133.1",
"STREAM_TO_PORT" : "5102",
"ENABLE_INPUT_CHANNEL_A" : "On",
"ENABLE_INPUT_CHANNEL_B" : "Off",
"ENABLE_INPUT_CHANNEL_C" : "Off",
"ENABLE_INPUT_CHANNEL_D" : "Off",
"OUTPUT_SOURCE_SELECT_CHANNEL0" : "DEFAULT",
"OUTPUT_SOURCE_SELECT_CHANNEL1" : "SigLog",
"OUTPUT_SOURCE_SELECT_CHANNEL2" : "SigLog",
"OUTPUT_MUX_SELECT_CHANNEL_A" : "SigCMS1",
"OUTPUT_MUX_SELECT_CHANNEL_B" : "SigCMS1",
"OUTPUT_MUX_SELECT_CHANNEL_C" : "SigCMS1",
"OUTPUT_MUX_SELECT_CHANNEL_D" : "SigCMS1",
"COINCIDENCE_LOGIC_WORD" : "2",
"LINK_TO_OPTIONAL_PARAMETERS" : "FENIMPlusInterfaceOptionalConfiguration",
"LINK_TO_OPTIONAL_PARAMETERS_UID" : "NIM0",
"COMMENT_DESCRIPTION" : "No Comment",
"AUTHOR" : "admin",
"RECORD_INSERTION_TIME" : "1517541186"
}
]
},
"metadata" : {

},
"search" : [

]
},
"comments" : [

],
"origin" : {
"source" : "template",
"name" : "notprovided",
"format" : "json",
"created" : "2018-02-01T21:13:06.247-0600",
"rawdata" : [

]
},
"version" : "13",
"entities" : [
{
"name" : "OTSROOT",
"assigned" : "2018-02-01T21:13:06.249-0600"
}
],
"configurations" : [
{
"name" : "notprovided",
"assigned" : "2018-02-01T21:13:06.248-0600"
},
{
"name" : "FTBFConfig_v108",
"assigned" : "2018-02-01T21:14:26.318-0600"
},
{
"name" : "FTBFConfig_v109",
"assigned" : "2018-02-01T21:21:03.455-0600"
},
{
"name" : "FTBFConfig_v110",
"assigned" : "2018-02-02T11:25:34.417-0600"
},
{
"name" : "FTBFConfig_v111",
"assigned" : "2018-02-02T11:37:13.242-0600"
},
{
"name" : "FTBFConfig_v112",
"assigned" : "2018-02-02T11:47:15.754-0600"
},
{
"name" : "FTBFConfig_v113",
"assigned" : "2018-02-02T11:53:37.004-0600"
},
{
"name" : "FTBFConfig_v114",
"assigned" : "2018-02-02T12:00:53.117-0600"
},
{
"name" : "FTBFConfig_v115",
"assigned" : "2018-02-02T12:27:14.592-0600"
},
{
"name" : "FTBFConfig_v116",
"assigned" : "2018-02-02T14:28:54.109-0600"
},
{
"name" : "FTBFConfig_v117",
"assigned" : "2018-02-02T14:30:20.451-0600"
},
{
"name" : "FTBFConfig_v118",
"assigned" : "2018-02-02T14:34:01.720-0600"
},
{
"name" : "FTBFConfig_v119",
"assigned" : "2018-02-02T14:36:28.316-0600"
},
{
"name" : "FTBFConfig_v120",
"assigned" : "2018-02-02T14:38:41.678-0600"
},
{
"name" : "FTBFConfig_v121",
"assigned" : "2018-02-02T14:41:50.974-0600"
},
{
"name" : "FTBFConfig_v122",
"assigned" : "2018-02-02T14:50:25.056-0600"
},
{
"name" : "FTBFConfig_v123",
"assigned" : "2018-02-02T14:52:57.928-0600"
},
{
"name" : "FTBFConfig_v124",
"assigned" : "2018-02-02T14:59:51.237-0600"
},
{
"name" : "FTBFConfig_v125",
"assigned" : "2018-02-02T15:04:09.353-0600"
},
{
"name" : "FTBFConfig_v126",
"assigned" : "2018-02-02T15:50:12.588-0600"
},
{
"name" : "FTBFConfig_v127",
"assigned" : "2018-02-02T15:51:32.058-0600"
},
{
"name" : "FTBFConfig_v128",
"assigned" : "2018-02-02T15:52:37.215-0600"
},
{
"name" : "FTBFConfig_v129",
"assigned" : "2018-02-02T16:02:46.133-0600"
},
{
"name" : "FTBFConfig_v130",
"assigned" : "2018-02-02T16:08:45.666-0600"
},
{
"name" : "FTBFConfig_v131",
"assigned" : "2018-02-02T16:11:31.521-0600"
},
{
"name" : "FTBFConfig_v132",
"assigned" : "2018-02-02T16:12:59.386-0600"
},
{
"name" : "FTBFConfig_v133",
"assigned" : "2018-02-02T16:14:29.974-0600"
},
{
"name" : "FTBFConfig_v134",
"assigned" : "2018-02-02T16:26:22.898-0600"
},
{
"name" : "FTBFConfig_v135",
"assigned" : "2018-02-02T16:27:10.001-0600"
},
{
"name" : "FTBFConfig_v136",
"assigned" : "2018-02-02T16:29:31.361-0600"
},
{
"name" : "FTBFConfig_v137",
"assigned" : "2018-02-02T16:31:41.970-0600"
},
{
"name" : "FTBFConfig_v138",
"assigned" : "2018-02-02T16:34:14.649-0600"
},
{
"name" : "FTBFConfig_v139",
"assigned" : "2018-02-02T17:39:30.694-0600"
},
{
"name" : "FTBFConfig_v140",
"assigned" : "2018-02-02T17:42:52.874-0600"
},
{
"name" : "FTBFConfig_v141",
"assigned" : "2018-02-02T17:47:38.098-0600"
},
{
"name" : "FTBFConfig_v142",
"assigned" : "2018-02-02T17:54:02.088-0600"
}
],
"changelog" : "notprovided",
"bookkeeping" : {
"isdeleted" : false,
"isreadonly" : false,
"updates" : [
{
"event" : "addConfiguration",
"timestamp" : "2018-02-01T21:13:06.248-0600",
"value" : {
"name" : "notprovided",
"assigned" : "2018-02-01T21:13:06.248-0600"
}
},
{
"event" : "setVersion",
"timestamp" : "2018-02-01T21:13:06.248-0600",
"value" : {
"name" : "13",
"assigned" : "2018-02-01T21:13:06.248-0600"
}
},
{
"event" : "setCollection",
"timestamp" : "2018-02-01T21:13:06.249-0600",
"value" : {
"name" : "FENIMPlusInterfaceConfiguration",
"assigned" : "2018-02-01T21:13:06.249-0600"
}
},
{
"event" : "addEntity",
"timestamp" : "2018-02-01T21:13:06.249-0600",
"value" : {
"name" : "OTSROOT",
"assigned" : "2018-02-01T21:13:06.249-0600"
}
},
{
"event" : "addConfiguration",
"timestamp" : "2018-02-01T21:14:26.318-0600",
"value" : {
"name" : "FTBFConfig_v108",
"assigned" : "2018-02-01T21:14:26.318-0600"
}
},
{
"event" : "addConfiguration",
"timestamp" : "2018-02-01T21:21:03.455-0600",
"value" : {
"name" : "FTBFConfig_v109",
"assigned" : "2018-02-01T21:21:03.455-0600"
}
},
{
"event" : "addConfiguration",
"timestamp" : "2018-02-02T11:25:34.417-0600",
"value" : {
"name" : "FTBFConfig_v110",
"assigned" : "2018-02-02T11:25:34.417-0600"
}
},
{
"event" : "addConfiguration",
"timestamp" : "2018-02-02T11:37:13.242-0600",
"value" : {
"name" : "FTBFConfig_v111",
"assigned" : "2018-02-02T11:37:13.242-0600"
}
},
{
"event" : "addConfiguration",
"timestamp" : "2018-02-02T11:47:15.754-0600",
"value" : {
"name" : "FTBFConfig_v112",
"assigned" : "2018-02-02T11:47:15.754-0600"
}
},
{
"event" : "addConfiguration",
"timestamp" : "2018-02-02T11:53:37.004-0600",
"value" : {
"name" : "FTBFConfig_v113",
"assigned" : "2018-02-02T11:53:37.004-0600"
}
},
{
"event" : "addConfiguration",
"timestamp" : "2018-02-02T12:00:53.117-0600",
"value" : {
"name" : "FTBFConfig_v114",
"assigned" : "2018-02-02T12:00:53.117-0600"
}
},
{
"event" : "addConfiguration",
"timestamp" : "2018-02-02T12:27:14.592-0600",
"value" : {
"name" : "FTBFConfig_v115",
"assigned" : "2018-02-02T12:27:14.592-0600"
}
},
{
"event" : "addConfiguration",
"timestamp" : "2018-02-02T14:28:54.109-0600",
"value" : {
"name" : "FTBFConfig_v116",
"assigned" : "2018-02-02T14:28:54.109-0600"
}
},
{
"event" : "addConfiguration",
"timestamp" : "2018-02-02T14:30:20.451-0600",
"value" : {
"name" : "FTBFConfig_v117",
"assigned" : "2018-02-02T14:30:20.451-0600"
}
},
{
"event" : "addConfiguration",
"timestamp" : "2018-02-02T14:34:01.720-0600",
"value" : {
"name" : "FTBFConfig_v118",
"assigned" : "2018-02-02T14:34:01.720-0600"
}
},
{
"event" : "addConfiguration",
"timestamp" : "2018-02-02T14:36:28.316-0600",
"value" : {
"name" : "FTBFConfig_v119",
"assigned" : "2018-02-02T14:36:28.316-0600"
}
},
{
"event" : "addConfiguration",
"timestamp" : "2018-02-02T14:38:41.678-0600",
"value" : {
"name" : "FTBFConfig_v120",
"assigned" : "2018-02-02T14:38:41.678-0600"
}
},
{
"event" : "addConfiguration",
"timestamp" : "2018-02-02T14:41:50.974-0600",
"value" : {
"name" : "FTBFConfig_v121",
"assigned" : "2018-02-02T14:41:50.974-0600"
}
},
{
"event" : "addConfiguration",
"timestamp" : "2018-02-02T14:50:25.056-0600",
"value" : {
"name" : "FTBFConfig_v122",
"assigned" : "2018-02-02T14:50:25.056-0600"
}
},
{
"event" : "addConfiguration",
"timestamp" : "2018-02-02T14:52:57.928-0600",
"value" : {
"name" : "FTBFConfig_v123",
"assigned" : "2018-02-02T14:52:57.928-0600"
}
},
{
"event" : "addConfiguration",
"timestamp" : "2018-02-02T14:59:51.237-0600",
"value" : {
"name" : "FTBFConfig_v124",
"assigned" : "2018-02-02T14:59:51.237-0600"
}
},
{
"event" : "addConfiguration",
"timestamp" : "2018-02-02T15:04:09.353-0600",
"value" : {
"name" : "FTBFConfig_v125",
"assigned" : "2018-02-02T15:04:09.353-0600"
}
},
{
"event" : "addConfiguration",
"timestamp" : "2018-02-02T15:50:12.588-0600",
"value" : {
"name" : "FTBFConfig_v126",
"assigned" : "2018-02-02T15:50:12.588-0600"
}
},
{
"event" : "addConfiguration",
"timestamp" : "2018-02-02T15:51:32.058-0600",
"value" : {
"name" : "FTBFConfig_v127",
"assigned" : "2018-02-02T15:51:32.058-0600"
}
},
{
"event" : "addConfiguration",
"timestamp" : "2018-02-02T15:52:37.215-0600",
"value" : {
"name" : "FTBFConfig_v128",
"assigned" : "2018-02-02T15:52:37.215-0600"
}
},
{
"event" : "addConfiguration",
"timestamp" : "2018-02-02T16:02:46.133-0600",
"value" : {
"name" : "FTBFConfig_v129",
"assigned" : "2018-02-02T16:02:46.133-0600"
}
},
{
"event" : "addConfiguration",
"timestamp" : "2018-02-02T16:08:45.666-0600",
"value" : {
"name" : "FTBFConfig_v130",
"assigned" : "2018-02-02T16:08:45.666-0600"
}
},
{
"event" : "addConfiguration",
"timestamp" : "2018-02-02T16:11:31.521-0600",
"value" : {
"name" : "FTBFConfig_v131",
"assigned" : "2018-02-02T16:11:31.521-0600"
}
},
{
"event" : "addConfiguration",
"timestamp" : "2018-02-02T16:12:59.387-0600",
"value" : {
"name" : "FTBFConfig_v132",
"assigned" : "2018-02-02T16:12:59.386-0600"
}
},
{
"event" : "addConfiguration",
"timestamp" : "2018-02-02T16:14:29.974-0600",
"value" : {
"name" : "FTBFConfig_v133",
"assigned" : "2018-02-02T16:14:29.974-0600"
}
},
{
"event" : "addConfiguration",
"timestamp" : "2018-02-02T16:26:22.899-0600",
"value" : {
"name" : "FTBFConfig_v134",
"assigned" : "2018-02-02T16:26:22.898-0600"
}
},
{
"event" : "addConfiguration",
"timestamp" : "2018-02-02T16:27:10.001-0600",
"value" : {
"name" : "FTBFConfig_v135",
"assigned" : "2018-02-02T16:27:10.001-0600"
}
},
{
"event" : "addConfiguration",
"timestamp" : "2018-02-02T16:29:31.361-0600",
"value" : {
"name" : "FTBFConfig_v136",
"assigned" : "2018-02-02T16:29:31.361-0600"
}
},
{
"event" : "addConfiguration",
"timestamp" : "2018-02-02T16:31:41.970-0600",
"value" : {
"name" : "FTBFConfig_v137",
"assigned" : "2018-02-02T16:31:41.970-0600"
}
},
{
"event" : "addConfiguration",
"timestamp" : "2018-02-02T16:34:14.650-0600",
"value" : {
"name" : "FTBFConfig_v138",
"assigned" : "2018-02-02T16:34:14.649-0600"
}
},
{
"event" : "addConfiguration",
"timestamp" : "2018-02-02T17:39:30.694-0600",
"value" : {
"name" : "FTBFConfig_v139",
"assigned" : "2018-02-02T17:39:30.694-0600"
}
},
{
"event" : "addConfiguration",
"timestamp" : "2018-02-02T17:42:52.874-0600",
"value" : {
"name" : "FTBFConfig_v140",
"assigned" : "2018-02-02T17:42:52.874-0600"
}
},
{
"event" : "addConfiguration",
"timestamp" : "2018-02-02T17:47:38.098-0600",
"value" : {
"name" : "FTBFConfig_v141",
"assigned" : "2018-02-02T17:47:38.098-0600"
}
},
{
"event" : "addConfiguration",
"timestamp" : "2018-02-02T17:54:02.088-0600",
"value" : {
"name" : "FTBFConfig_v142",
"assigned" : "2018-02-02T17:54:02.088-0600"
}
}
],
"created" : "2018-02-01T21:13:06.247-0600"
},
"_id" : {
"$oid" : "a89d823a79514407a9d15472"
},
"collection" : "FENIMPlusInterfaceConfiguration",
"aliases" : {
"active" : [

],
"history" : [

]
},
"runs" : [

],
"attachments" : [

],
"configtype" : "notprovided"
}