{
"ouid" : [
"22233cb185ff49ffb3d2f04b"
],
"version" : {
"1" : [
"22233cb185ff49ffb3d2f04b"
]
},
"configurations.name" : {
"notprovided" : [
"22233cb185ff49ffb3d2f04b"
],
"DefaultConfig_v1" : [
"22233cb185ff49ffb3d2f04b"
],
"DefaultConfig_v2" : [
"22233cb185ff49ffb3d2f04b"
],
"DefaultConfig_v3" : [
"22233cb185ff49ffb3d2f04b"
],
"DefaultConfig_v4" : [
"22233cb185ff49ffb3d2f04b"
],
"DefaultConfig_v5" : [
"22233cb185ff49ffb3d2f04b"
],
"DefaultConfig_v6" : [
"22233cb185ff49ffb3d2f04b"
],
"DefaultConfig_v7" : [
"22233cb185ff49ffb3d2f04b"
],
"DefaultConfig_v8" : [
"22233cb185ff49ffb3d2f04b"
],
"DefaultConfig_v9" : [
"22233cb185ff49ffb3d2f04b"
],
"DefaultConfig_v10" : [
"22233cb185ff49ffb3d2f04b"
],
"DefaultConfig_v11" : [
"22233cb185ff49ffb3d2f04b"
],
"DefaultConfig_v12" : [
"22233cb185ff49ffb3d2f04b"
],
"DefaultConfig_v13" : [
"22233cb185ff49ffb3d2f04b"
],
"DefaultConfig_v14" : [
"22233cb185ff49ffb3d2f04b"
],
"DefaultConfig_v15" : [
"22233cb185ff49ffb3d2f04b"
],
"DefaultConfig_v16" : [
"22233cb185ff49ffb3d2f04b"
],
"DefaultConfig_v17" : [
"22233cb185ff49ffb3d2f04b"
],
"DefaultConfig_v18" : [
"22233cb185ff49ffb3d2f04b"
],
"DefaultConfig_v19" : [
"22233cb185ff49ffb3d2f04b"
],
"DefaultConfig_v20" : [
"22233cb185ff49ffb3d2f04b"
],
"DefaultConfig_v21" : [
"22233cb185ff49ffb3d2f04b"
],
"DefaultConfig_v22" : [
"22233cb185ff49ffb3d2f04b"
],
"DefaultConfig_v23" : [
"22233cb185ff49ffb3d2f04b"
],
"DefaultConfig_v24" : [
"22233cb185ff49ffb3d2f04b"
],
"DefaultConfig_v25" : [
"22233cb185ff49ffb3d2f04b"
],
"DefaultConfig_v26" : [
"22233cb185ff49ffb3d2f04b"
],
"DefaultConfig_v27" : [
"22233cb185ff49ffb3d2f04b"
],
"DefaultConfig_v28" : [
"22233cb185ff49ffb3d2f04b"
],
"DefaultConfig_v29" : [
"22233cb185ff49ffb3d2f04b"
],
"DefaultConfig_v30" : [
"22233cb185ff49ffb3d2f04b"
],
"DefaultConfig_v31" : [
"22233cb185ff49ffb3d2f04b"
],
"DefaultConfig_v32" : [
"22233cb185ff49ffb3d2f04b"
],
"DefaultConfig_v33" : [
"22233cb185ff49ffb3d2f04b"
],
"DefaultConfig_v34" : [
"22233cb185ff49ffb3d2f04b"
]
},
"entities.name" : {
"OTSROOT" : [
"22233cb185ff49ffb3d2f04b"
]
},
"aliases.active.name" : {

},
"runs.name" : {

},
"configurations.assigned" : {
"notprovided" : [
"2020-07-21T14:27:46.534-0500"
],
"DefaultConfig_v1" : [
"2020-07-21T14:27:47.016-0500"
],
"DefaultConfig_v2" : [
"2020-07-21T14:44:16.719-0500"
],
"DefaultConfig_v3" : [
"2020-07-21T14:57:50.611-0500"
],
"DefaultConfig_v4" : [
"2020-07-28T10:52:34.542-0500"
],
"DefaultConfig_v5" : [
"2020-08-24T11:59:57.000-0500"
],
"DefaultConfig_v6" : [
"2020-08-24T16:05:13.565-0500"
],
"DefaultConfig_v7" : [
"2020-08-26T10:33:56.949-0500"
],
"DefaultConfig_v8" : [
"2020-08-26T10:45:54.747-0500"
],
"DefaultConfig_v9" : [
"2020-08-26T14:49:52.931-0500"
],
"DefaultConfig_v10" : [
"2020-08-26T14:52:00.556-0500"
],
"DefaultConfig_v11" : [
"2020-08-26T15:00:04.038-0500"
],
"DefaultConfig_v12" : [
"2020-08-26T16:18:15.770-0500"
],
"DefaultConfig_v13" : [
"2020-08-28T21:40:23.131-0500"
],
"DefaultConfig_v14" : [
"2020-08-31T15:19:59.055-0500"
],
"DefaultConfig_v15" : [
"2020-09-03T10:43:22.590-0500"
],
"DefaultConfig_v16" : [
"2020-09-03T10:49:03.616-0500"
],
"DefaultConfig_v17" : [
"2020-09-08T17:07:21.900-0500"
],
"DefaultConfig_v18" : [
"2020-09-11T16:02:29.475-0500"
],
"DefaultConfig_v19" : [
"2020-09-14T17:47:19.684-0500"
],
"DefaultConfig_v20" : [
"2020-09-14T18:00:23.970-0500"
],
"DefaultConfig_v21" : [
"2020-09-15T15:14:57.462-0500"
],
"DefaultConfig_v22" : [
"2020-09-15T15:18:54.570-0500"
],
"DefaultConfig_v23" : [
"2020-09-15T15:27:51.510-0500"
],
"DefaultConfig_v24" : [
"2020-09-15T15:52:12.984-0500"
],
"DefaultConfig_v25" : [
"2020-09-21T11:41:58.697-0500"
],
"DefaultConfig_v26" : [
"2020-09-21T11:54:29.466-0500"
],
"DefaultConfig_v27" : [
"2020-10-06T14:45:41.547-0500"
],
"DefaultConfig_v28" : [
"2020-10-06T15:04:20.085-0500"
],
"DefaultConfig_v29" : [
"2020-10-07T16:45:36.235-0500"
],
"DefaultConfig_v30" : [
"2020-10-07T17:03:30.382-0500"
],
"DefaultConfig_v31" : [
"2020-11-04T20:42:37.388-0600"
],
"DefaultConfig_v32" : [
"2020-11-11T11:26:54.992-0600"
],
"DefaultConfig_v33" : [
"2021-01-18T20:04:39.373-0600"
],
"DefaultConfig_v34" : [
"2021-01-18T20:05:19.840-0600"
]
}
}