{
"document" : {
"data" : {
"NAME" : "FE_INTERFACE_CONFIGURATION",
"COMMENT" : "trying \"myNewInterface\"",
"AUTHOR" : "admin",
"CREATION_TIME" : 1497977871,
"COL_TYPES" : {
"FE_INTERFACE_GROUP_ID" : "VARCHAR2",
"FE_INTERFACE_UID" : "VARCHAR2",
"STATUS" : "VARCHAR2",
"FE_INTERFACE_PLUGIN_NAME" : "VARCHAR2",
"LINK_TO_FE_TYPE_TABLE" : "VARCHAR2",
"LINK_TO_FE_TYPE_UID" : "VARCHAR2",
"LINK_TO_SLOW_CONTROL_CHANNELS_TABLE" : "VARCHAR2",
"LINK_TO_SLOW_CONTROL_CHANNELS_GROUP_ID" : "VARCHAR2",
"LINK_TO_SLOW_CONTROLS_MONITOR_TABLE" : "VARCHAR2",
"LINK_TO_SLOW_CONTROLS_MONITOR_UID" : "VARCHAR2",
"SLOW_CONTROLS_TX_SOCKET_IP_ADDRESS" : "VARCHAR2",
"SLOW_CONTROLS_TX_SOCKET_PORT" : "NUMBER",
"SLOW_CONTROLS_LOCAL_AGGREGATE_SAVING_ENABLED" : "VARCHAR2",
"SLOW_CONTROLS_LOCAL_FILE_PATH" : "VARCHAR2",
"SLOW_CONTROLS_RADIX_FILE_NAME" : "VARCHAR2",
"SLOW_CONTROLS_SAVE_BINARY_FILE" : "VARCHAR2",
"COMMENT_DESCRIPTION" : "VARCHAR2",
"AUTHOR" : "VARCHAR2",
"RECORD_INSERTION_TIME" : "TIMESTAMP WITH TIMEZONE"
},
"DATA_SET" : [
{
"FE_INTERFACE_GROUP_ID" : "FEGroupMiniModule0",
"FE_INTERFACE_UID" : "OTMiniModule",
"STATUS" : "On",
"FE_INTERFACE_PLUGIN_NAME" : "FECBCInterface",
"LINK_TO_FE_TYPE_TABLE" : "FECBCInterfaceConfiguration",
"LINK_TO_FE_TYPE_UID" : "OTMiniModule0",
"LINK_TO_SLOW_CONTROL_CHANNELS_TABLE" : "NO_LINK",
"LINK_TO_SLOW_CONTROL_CHANNELS_GROUP_ID" : "OtsHwEmulatorGroup0",
"LINK_TO_SLOW_CONTROLS_MONITOR_TABLE" : "NO_LINK",
"LINK_TO_SLOW_CONTROLS_MONITOR_UID" : "0",
"SLOW_CONTROLS_TX_SOCKET_IP_ADDRESS" : "127.0.0.1",
"SLOW_CONTROLS_TX_SOCKET_PORT" : "4200",
"SLOW_CONTROLS_LOCAL_AGGREGATE_SAVING_ENABLED" : "Yes",
"SLOW_CONTROLS_LOCAL_FILE_PATH" : "/home/rrivera/ots/tmp/",
"SLOW_CONTROLS_RADIX_FILE_NAME" : "SlowControls",
"SLOW_CONTROLS_SAVE_BINARY_FILE" : "False",
"COMMENT_DESCRIPTION" : "using for hw emulator slow controls.",
"AUTHOR" : "admin",
"RECORD_INSERTION_TIME" : "1497977871"
}
]
},
"metadata" : {

},
"search" : [

]
},
"comments" : [

],
"origin" : {
"source" : "template",
"name" : "notprovided",
"format" : "json",
"created" : "Fri Jul 07 22:54:21 2017",
"rawdata" : [

]
},
"version" : "2",
"entities" : [
{
"name" : "OTSROOT",
"assigned" : "Fri Jul 07 22:54:21 2017"
}
],
"configurations" : [
{
"name" : "notprovided",
"assigned" : "Fri Jul 07 22:54:21 2017"
},
{
"name" : "OTMiniModuleConfiguration_v2",
"assigned" : "Fri Jul 07 22:54:21 2017"
}
],
"changelog" : "notprovided",
"bookkeeping" : {
"isdeleted" : false,
"isreadonly" : false,
"updates" : [
{
"event" : "addConfiguration",
"timestamp" : "Fri Jul 07 22:54:21 2017",
"value" : {
"name" : "notprovided",
"assigned" : "Fri Jul 07 22:54:21 2017"
}
},
{
"event" : "setVersion",
"timestamp" : "Fri Jul 07 22:54:21 2017",
"value" : {
"name" : "2",
"assigned" : "Fri Jul 07 22:54:21 2017"
}
},
{
"event" : "setCollection",
"timestamp" : "Fri Jul 07 22:54:21 2017",
"value" : {
"name" : "FEInterfaceConfiguration",
"assigned" : "Fri Jul 07 22:54:21 2017"
}
},
{
"event" : "addEntity",
"timestamp" : "Fri Jul 07 22:54:21 2017",
"value" : {
"name" : "OTSROOT",
"assigned" : "Fri Jul 07 22:54:21 2017"
}
},
{
"event" : "addConfiguration",
"timestamp" : "Fri Jul 07 22:54:21 2017",
"value" : {
"name" : "OTMiniModuleConfiguration_v2",
"assigned" : "Fri Jul 07 22:54:21 2017"
}
}
],
"created" : "Fri Jul 07 22:54:21 2017"
},
"_id" : {
"$oid" : "0c98bca492cf4fc28c70eecd"
},
"collection" : "FEInterfaceConfiguration",
"aliases" : {
"active" : [

],
"history" : [

]
},
"runs" : [

],
"attachments" : [

],
"configtype" : "notprovided"
}