{
"document" : {
"data" : {
"NAME" : "UDP_DATA_LISTENER_PRODUCER_TABLE",
"COMMENT" : "UDP Listener records.",
"AUTHOR" : "admin",
"CREATION_TIME" : 1574288599,
"COL_TYPES" : {
"PROCESSOR_UID" : "STRING",
"BUFFER_SIZE" : "NUMBER",
"HOST_IP_ADDRESS" : "STRING",
"HOST_PORT" : "NUMBER",
"COMMENT_DESCRIPTION" : "STRING",
"AUTHOR" : "STRING",
"RECORD_INSERTION_TIME" : "TIMESTAMP WITH TIMEZONE"
},
"DATA_SET" : [
{
"PROCESSOR_UID" : "OuterTrackerDataBuffer0Listener0",
"BUFFER_SIZE" : "1000",
"HOST_IP_ADDRESS" : "127.0.0.1",
"HOST_PORT" : "32000",
"COMMENT_DESCRIPTION" : "",
"AUTHOR" : "admin",
"RECORD_INSERTION_TIME" : "1574288599"
}
]
},
"metadata" : {

},
"search" : [

]
},
"comments" : [

],
"origin" : {
"source" : "template",
"name" : "notprovided",
"format" : "json",
"created" : "2020-07-21T14:27:46.620-0500",
"rawdata" : [

]
},
"version" : "1",
"entities" : [
{
"name" : "OTSROOT",
"assigned" : "2020-07-21T14:27:46.621-0500"
}
],
"configurations" : [
{
"name" : "notprovided",
"assigned" : "2020-07-21T14:27:46.620-0500"
},
{
"name" : "DefaultConfig_v1",
"assigned" : "2020-07-21T14:27:47.106-0500"
},
{
"name" : "DefaultConfig_v2",
"assigned" : "2020-07-21T14:44:16.833-0500"
},
{
"name" : "DefaultConfig_v3",
"assigned" : "2020-07-21T14:57:50.729-0500"
},
{
"name" : "DefaultConfig_v4",
"assigned" : "2020-07-28T10:52:34.675-0500"
},
{
"name" : "DefaultConfig_v5",
"assigned" : "2020-08-24T11:59:57.107-0500"
},
{
"name" : "DefaultConfig_v6",
"assigned" : "2020-08-24T16:05:13.674-0500"
},
{
"name" : "DefaultConfig_v7",
"assigned" : "2020-08-26T10:33:57.057-0500"
},
{
"name" : "DefaultConfig_v8",
"assigned" : "2020-08-26T10:45:54.857-0500"
},
{
"name" : "DefaultConfig_v9",
"assigned" : "2020-08-26T14:49:53.041-0500"
},
{
"name" : "DefaultConfig_v10",
"assigned" : "2020-08-26T14:52:00.666-0500"
},
{
"name" : "DefaultConfig_v11",
"assigned" : "2020-08-26T15:00:04.155-0500"
},
{
"name" : "DefaultConfig_v12",
"assigned" : "2020-08-26T16:18:15.883-0500"
},
{
"name" : "DefaultConfig_v13",
"assigned" : "2020-08-28T21:40:23.251-0500"
},
{
"name" : "DefaultConfig_v14",
"assigned" : "2020-08-31T15:19:59.167-0500"
},
{
"name" : "DefaultConfig_v15",
"assigned" : "2020-09-03T10:43:22.722-0500"
},
{
"name" : "DefaultConfig_v16",
"assigned" : "2020-09-03T10:49:03.735-0500"
},
{
"name" : "DefaultConfig_v17",
"assigned" : "2020-09-08T17:07:22.041-0500"
},
{
"name" : "DefaultConfig_v18",
"assigned" : "2020-09-11T16:02:29.592-0500"
},
{
"name" : "DefaultConfig_v19",
"assigned" : "2020-09-14T17:47:19.815-0500"
},
{
"name" : "DefaultConfig_v20",
"assigned" : "2020-09-14T18:00:24.120-0500"
},
{
"name" : "DefaultConfig_v21",
"assigned" : "2020-09-15T15:14:57.614-0500"
},
{
"name" : "DefaultConfig_v22",
"assigned" : "2020-09-15T15:18:54.737-0500"
},
{
"name" : "DefaultConfig_v23",
"assigned" : "2020-09-15T15:27:51.669-0500"
},
{
"name" : "DefaultConfig_v24",
"assigned" : "2020-09-15T15:52:13.144-0500"
},
{
"name" : "DefaultConfig_v25",
"assigned" : "2020-09-21T11:41:58.858-0500"
},
{
"name" : "DefaultConfig_v26",
"assigned" : "2020-09-21T11:54:29.695-0500"
},
{
"name" : "DefaultConfig_v27",
"assigned" : "2020-10-06T14:45:41.794-0500"
},
{
"name" : "DefaultConfig_v28",
"assigned" : "2020-10-06T15:04:20.334-0500"
},
{
"name" : "DefaultConfig_v29",
"assigned" : "2020-10-07T16:45:36.489-0500"
},
{
"name" : "DefaultConfig_v30",
"assigned" : "2020-10-07T17:03:30.626-0500"
},
{
"name" : "DefaultConfig_v31",
"assigned" : "2020-11-04T20:42:37.630-0600"
},
{
"name" : "DefaultConfig_v32",
"assigned" : "2020-11-11T11:26:55.290-0600"
},
{
"name" : "DefaultConfig_v33",
"assigned" : "2021-01-18T20:04:39.642-0600"
},
{
"name" : "DefaultConfig_v34",
"assigned" : "2021-01-18T20:05:20.119-0600"
}
],
"changelog" : "notprovided",
"bookkeeping" : {
"isdeleted" : false,
"isreadonly" : false,
"updates" : [
{
"event" : "addConfiguration",
"timestamp" : "2020-07-21T14:27:46.620-0500",
"value" : {
"name" : "notprovided",
"assigned" : "2020-07-21T14:27:46.620-0500"
}
},
{
"event" : "setVersion",
"timestamp" : "2020-07-21T14:27:46.620-0500",
"value" : {
"name" : "1",
"assigned" : "2020-07-21T14:27:46.620-0500"
}
},
{
"event" : "setCollection",
"timestamp" : "2020-07-21T14:27:46.621-0500",
"value" : {
"name" : "UDPDataListenerProducerTable",
"assigned" : "2020-07-21T14:27:46.621-0500"
}
},
{
"event" : "addEntity",
"timestamp" : "2020-07-21T14:27:46.621-0500",
"value" : {
"name" : "OTSROOT",
"assigned" : "2020-07-21T14:27:46.621-0500"
}
},
{
"event" : "addConfiguration",
"timestamp" : "2020-07-21T14:27:47.106-0500",
"value" : {
"name" : "DefaultConfig_v1",
"assigned" : "2020-07-21T14:27:47.106-0500"
}
},
{
"event" : "addConfiguration",
"timestamp" : "2020-07-21T14:44:16.833-0500",
"value" : {
"name" : "DefaultConfig_v2",
"assigned" : "2020-07-21T14:44:16.833-0500"
}
},
{
"event" : "addConfiguration",
"timestamp" : "2020-07-21T14:57:50.729-0500",
"value" : {
"name" : "DefaultConfig_v3",
"assigned" : "2020-07-21T14:57:50.729-0500"
}
},
{
"event" : "addConfiguration",
"timestamp" : "2020-07-28T10:52:34.675-0500",
"value" : {
"name" : "DefaultConfig_v4",
"assigned" : "2020-07-28T10:52:34.675-0500"
}
},
{
"event" : "addConfiguration",
"timestamp" : "2020-08-24T11:59:57.107-0500",
"value" : {
"name" : "DefaultConfig_v5",
"assigned" : "2020-08-24T11:59:57.107-0500"
}
},
{
"event" : "addConfiguration",
"timestamp" : "2020-08-24T16:05:13.674-0500",
"value" : {
"name" : "DefaultConfig_v6",
"assigned" : "2020-08-24T16:05:13.674-0500"
}
},
{
"event" : "addConfiguration",
"timestamp" : "2020-08-26T10:33:57.057-0500",
"value" : {
"name" : "DefaultConfig_v7",
"assigned" : "2020-08-26T10:33:57.057-0500"
}
},
{
"event" : "addConfiguration",
"timestamp" : "2020-08-26T10:45:54.857-0500",
"value" : {
"name" : "DefaultConfig_v8",
"assigned" : "2020-08-26T10:45:54.857-0500"
}
},
{
"event" : "addConfiguration",
"timestamp" : "2020-08-26T14:49:53.041-0500",
"value" : {
"name" : "DefaultConfig_v9",
"assigned" : "2020-08-26T14:49:53.041-0500"
}
},
{
"event" : "addConfiguration",
"timestamp" : "2020-08-26T14:52:00.666-0500",
"value" : {
"name" : "DefaultConfig_v10",
"assigned" : "2020-08-26T14:52:00.666-0500"
}
},
{
"event" : "addConfiguration",
"timestamp" : "2020-08-26T15:00:04.155-0500",
"value" : {
"name" : "DefaultConfig_v11",
"assigned" : "2020-08-26T15:00:04.155-0500"
}
},
{
"event" : "addConfiguration",
"timestamp" : "2020-08-26T16:18:15.884-0500",
"value" : {
"name" : "DefaultConfig_v12",
"assigned" : "2020-08-26T16:18:15.883-0500"
}
},
{
"event" : "addConfiguration",
"timestamp" : "2020-08-28T21:40:23.251-0500",
"value" : {
"name" : "DefaultConfig_v13",
"assigned" : "2020-08-28T21:40:23.251-0500"
}
},
{
"event" : "addConfiguration",
"timestamp" : "2020-08-31T15:19:59.167-0500",
"value" : {
"name" : "DefaultConfig_v14",
"assigned" : "2020-08-31T15:19:59.167-0500"
}
},
{
"event" : "addConfiguration",
"timestamp" : "2020-09-03T10:43:22.722-0500",
"value" : {
"name" : "DefaultConfig_v15",
"assigned" : "2020-09-03T10:43:22.722-0500"
}
},
{
"event" : "addConfiguration",
"timestamp" : "2020-09-03T10:49:03.735-0500",
"value" : {
"name" : "DefaultConfig_v16",
"assigned" : "2020-09-03T10:49:03.735-0500"
}
},
{
"event" : "addConfiguration",
"timestamp" : "2020-09-08T17:07:22.041-0500",
"value" : {
"name" : "DefaultConfig_v17",
"assigned" : "2020-09-08T17:07:22.041-0500"
}
},
{
"event" : "addConfiguration",
"timestamp" : "2020-09-11T16:02:29.592-0500",
"value" : {
"name" : "DefaultConfig_v18",
"assigned" : "2020-09-11T16:02:29.592-0500"
}
},
{
"event" : "addConfiguration",
"timestamp" : "2020-09-14T17:47:19.815-0500",
"value" : {
"name" : "DefaultConfig_v19",
"assigned" : "2020-09-14T17:47:19.815-0500"
}
},
{
"event" : "addConfiguration",
"timestamp" : "2020-09-14T18:00:24.120-0500",
"value" : {
"name" : "DefaultConfig_v20",
"assigned" : "2020-09-14T18:00:24.120-0500"
}
},
{
"event" : "addConfiguration",
"timestamp" : "2020-09-15T15:14:57.614-0500",
"value" : {
"name" : "DefaultConfig_v21",
"assigned" : "2020-09-15T15:14:57.614-0500"
}
},
{
"event" : "addConfiguration",
"timestamp" : "2020-09-15T15:18:54.737-0500",
"value" : {
"name" : "DefaultConfig_v22",
"assigned" : "2020-09-15T15:18:54.737-0500"
}
},
{
"event" : "addConfiguration",
"timestamp" : "2020-09-15T15:27:51.669-0500",
"value" : {
"name" : "DefaultConfig_v23",
"assigned" : "2020-09-15T15:27:51.669-0500"
}
},
{
"event" : "addConfiguration",
"timestamp" : "2020-09-15T15:52:13.144-0500",
"value" : {
"name" : "DefaultConfig_v24",
"assigned" : "2020-09-15T15:52:13.144-0500"
}
},
{
"event" : "addConfiguration",
"timestamp" : "2020-09-21T11:41:58.858-0500",
"value" : {
"name" : "DefaultConfig_v25",
"assigned" : "2020-09-21T11:41:58.858-0500"
}
},
{
"event" : "addConfiguration",
"timestamp" : "2020-09-21T11:54:29.695-0500",
"value" : {
"name" : "DefaultConfig_v26",
"assigned" : "2020-09-21T11:54:29.695-0500"
}
},
{
"event" : "addConfiguration",
"timestamp" : "2020-10-06T14:45:41.794-0500",
"value" : {
"name" : "DefaultConfig_v27",
"assigned" : "2020-10-06T14:45:41.794-0500"
}
},
{
"event" : "addConfiguration",
"timestamp" : "2020-10-06T15:04:20.334-0500",
"value" : {
"name" : "DefaultConfig_v28",
"assigned" : "2020-10-06T15:04:20.334-0500"
}
},
{
"event" : "addConfiguration",
"timestamp" : "2020-10-07T16:45:36.489-0500",
"value" : {
"name" : "DefaultConfig_v29",
"assigned" : "2020-10-07T16:45:36.489-0500"
}
},
{
"event" : "addConfiguration",
"timestamp" : "2020-10-07T17:03:30.626-0500",
"value" : {
"name" : "DefaultConfig_v30",
"assigned" : "2020-10-07T17:03:30.626-0500"
}
},
{
"event" : "addConfiguration",
"timestamp" : "2020-11-04T20:42:37.630-0600",
"value" : {
"name" : "DefaultConfig_v31",
"assigned" : "2020-11-04T20:42:37.630-0600"
}
},
{
"event" : "addConfiguration",
"timestamp" : "2020-11-11T11:26:55.290-0600",
"value" : {
"name" : "DefaultConfig_v32",
"assigned" : "2020-11-11T11:26:55.290-0600"
}
},
{
"event" : "addConfiguration",
"timestamp" : "2021-01-18T20:04:39.642-0600",
"value" : {
"name" : "DefaultConfig_v33",
"assigned" : "2021-01-18T20:04:39.642-0600"
}
},
{
"event" : "addConfiguration",
"timestamp" : "2021-01-18T20:05:20.119-0600",
"value" : {
"name" : "DefaultConfig_v34",
"assigned" : "2021-01-18T20:05:20.119-0600"
}
}
],
"created" : "2020-07-21T14:27:46.620-0500"
},
"_id" : {
"$oid" : "d05bc2015c904dbaa4a33610"
},
"collection" : "UDPDataListenerProducerTable",
"aliases" : {
"active" : [

],
"history" : [

]
},
"runs" : [

],
"attachments" : [

],
"configtype" : "notprovided"
}