{
"document" : {
"data" : {
"NAME" : "OTDQM_HISTOS_CONSUMER_TABLE",
"COMMENT" : "No comment.",
"AUTHOR" : "admin",
"CREATION_TIME" : 1605038825,
"COL_TYPES" : {
"PROCESSOR_UID" : "STRING",
"FILE_PATH" : "STRING",
"RADIX_FILE_NAME" : "STRING",
"SAVE_FILE" : "STRING",
"CALIBRATION_NAME" : "STRING",
"CONFIGURATION_DIR" : "STRING",
"CONFIGURATION_NAME" : "STRING",
"COMMENT_DESCRIPTION" : "STRING",
"AUTHOR" : "STRING",
"RECORD_INSERTION_TIME" : "TIMESTAMP WITH TIMEZONE"
},
"DATA_SET" : [
{
"PROCESSOR_UID" : "VisualDataBufferOTDQMHistos",
"FILE_PATH" : "${OTSDAQ_DATA}/OtsHistos",
"RADIX_FILE_NAME" : "OTDQMHistos",
"SAVE_FILE" : "Yes",
"CALIBRATION_NAME" : "scurve",
"CONFIGURATION_DIR" : "${PH2ACF_BASE_DIR}/runBuild",
"CONFIGURATION_NAME" : "CMSIT.xml",
"COMMENT_DESCRIPTION" : "",
"AUTHOR" : "admin",
"RECORD_INSERTION_TIME" : "1605038761"
}
]
},
"metadata" : {

},
"search" : [

]
},
"comments" : [

],
"origin" : {
"source" : "template",
"name" : "notprovided",
"format" : "json",
"created" : "2020-11-10T21:07:05.617+0100",
"rawdata" : [

]
},
"version" : "7",
"entities" : [
{
"name" : "OTSROOT",
"assigned" : "2020-11-10T21:07:05.618+0100"
}
],
"configurations" : [
{
"name" : "notprovided",
"assigned" : "2020-11-10T21:07:05.617+0100"
},
{
"name" : "DefaultConfig_v12",
"assigned" : "2020-11-10T21:07:07.209+0100"
}
],
"changelog" : "notprovided",
"bookkeeping" : {
"isdeleted" : false,
"isreadonly" : false,
"updates" : [
{
"event" : "addConfiguration",
"timestamp" : "2020-11-10T21:07:05.617+0100",
"value" : {
"name" : "notprovided",
"assigned" : "2020-11-10T21:07:05.617+0100"
}
},
{
"event" : "setVersion",
"timestamp" : "2020-11-10T21:07:05.618+0100",
"value" : {
"name" : "7",
"assigned" : "2020-11-10T21:07:05.618+0100"
}
},
{
"event" : "setCollection",
"timestamp" : "2020-11-10T21:07:05.618+0100",
"value" : {
"name" : "OTDQMHistosConsumerTable",
"assigned" : "2020-11-10T21:07:05.618+0100"
}
},
{
"event" : "addEntity",
"timestamp" : "2020-11-10T21:07:05.618+0100",
"value" : {
"name" : "OTSROOT",
"assigned" : "2020-11-10T21:07:05.618+0100"
}
},
{
"event" : "addConfiguration",
"timestamp" : "2020-11-10T21:07:07.209+0100",
"value" : {
"name" : "DefaultConfig_v12",
"assigned" : "2020-11-10T21:07:07.209+0100"
}
}
],
"created" : "2020-11-10T21:07:05.617+0100"
},
"_id" : {
"$oid" : "3c91e57515454a8fb40c4c77"
},
"collection" : "OTDQMHistosConsumerTable",
"aliases" : {
"active" : [

],
"history" : [

]
},
"runs" : [

],
"attachments" : [

],
"configtype" : "notprovided"
}