{
"document" : {
"data" : {
"NAME" : "OTDQM_HISTOS_CONSUMER_TABLE",
"COMMENT" : "No comment.",
"AUTHOR" : "admin",
"CREATION_TIME" : 1599673602,
"COL_TYPES" : {
"PROCESSOR_UID" : "STRING",
"FILE_PATH" : "STRING",
"RADIX_FILE_NAME" : "STRING",
"SAVE_FILE" : "STRING",
"CALIBRATION_NAME" : "STRING",
"CONFIGURATION_DIR" : "STRING",
"CONFIGURATION_NAME" : "STRING",
"COMMENT_DESCRIPTION" : "STRING",
"AUTHOR" : "STRING",
"RECORD_INSERTION_TIME" : "TIMESTAMP WITH TIMEZONE"
},
"DATA_SET" : [
{
"PROCESSOR_UID" : "VisualDataBufferOTDQMHistos",
"FILE_PATH" : "${OTSDAQ_DATA}/OtsHistos",
"RADIX_FILE_NAME" : "OTDQMHistos",
"SAVE_FILE" : "Yes",
"CALIBRATION_NAME" : "pixelalive",
"CONFIGURATION_DIR" : "${PH2ACF_BASE_DIR}/runBuild",
"CONFIGURATION_NAME" : "CMSIT.xml",
"COMMENT_DESCRIPTION" : "",
"AUTHOR" : "admin",
"RECORD_INSERTION_TIME" : "1599673602"
}
]
},
"metadata" : {

},
"search" : [

]
},
"comments" : [

],
"origin" : {
"source" : "template",
"name" : "notprovided",
"format" : "json",
"created" : "2020-09-09T19:46:42.261+0200",
"rawdata" : [

]
},
"version" : "2",
"entities" : [
{
"name" : "OTSROOT",
"assigned" : "2020-09-09T19:46:42.262+0200"
}
],
"configurations" : [
{
"name" : "notprovided",
"assigned" : "2020-09-09T19:46:42.261+0200"
},
{
"name" : "DefaultConfig_v6",
"assigned" : "2020-09-09T19:46:43.079+0200"
}
],
"changelog" : "notprovided",
"bookkeeping" : {
"isdeleted" : false,
"isreadonly" : false,
"updates" : [
{
"event" : "addConfiguration",
"timestamp" : "2020-09-09T19:46:42.262+0200",
"value" : {
"name" : "notprovided",
"assigned" : "2020-09-09T19:46:42.261+0200"
}
},
{
"event" : "setVersion",
"timestamp" : "2020-09-09T19:46:42.262+0200",
"value" : {
"name" : "2",
"assigned" : "2020-09-09T19:46:42.262+0200"
}
},
{
"event" : "setCollection",
"timestamp" : "2020-09-09T19:46:42.262+0200",
"value" : {
"name" : "OTDQMHistosConsumerTable",
"assigned" : "2020-09-09T19:46:42.262+0200"
}
},
{
"event" : "addEntity",
"timestamp" : "2020-09-09T19:46:42.262+0200",
"value" : {
"name" : "OTSROOT",
"assigned" : "2020-09-09T19:46:42.262+0200"
}
},
{
"event" : "addConfiguration",
"timestamp" : "2020-09-09T19:46:43.079+0200",
"value" : {
"name" : "DefaultConfig_v6",
"assigned" : "2020-09-09T19:46:43.079+0200"
}
}
],
"created" : "2020-09-09T19:46:42.261+0200"
},
"_id" : {
"$oid" : "533a7f7bb8f243e1b0503e4a"
},
"collection" : "OTDQMHistosConsumerTable",
"aliases" : {
"active" : [

],
"history" : [

]
},
"runs" : [

],
"attachments" : [

],
"configtype" : "notprovided"
}