{
"document" : {
"data" : {
"NAME" : "GROUP_ALIASES_TABLE",
"COMMENT" : "Default Backbone.",
"AUTHOR" : "admin",
"CREATION_TIME" : 1576264533,
"COL_TYPES" : {
"GROUP_KEY_ALIAS" : "STRING",
"GROUP_NAME" : "STRING",
"GROUP_KEY" : "STRING",
"COMMENT_DESCRIPTION" : "STRING",
"AUTHOR" : "STRING",
"RECORD_INSERTION_TIME" : "TIMESTAMP WITH TIMEZONE"
},
"DATA_SET" : [
{
"GROUP_KEY_ALIAS" : "OuterTrackerContext",
"GROUP_NAME" : "DefaultContext",
"GROUP_KEY" : "13",
"COMMENT_DESCRIPTION" : "This Group Alias was automatically setup by the server.",
"AUTHOR" : "admin",
"RECORD_INSERTION_TIME" : "1575647652"
},
{
"GROUP_KEY_ALIAS" : "T992Config",
"GROUP_NAME" : "DefaultConfig",
"GROUP_KEY" : "18",
"COMMENT_DESCRIPTION" : "This Group Alias was automatically setup by the server.",
"AUTHOR" : "admin",
"RECORD_INSERTION_TIME" : "1576264533"
}
]
},
"metadata" : {

},
"search" : [

]
},
"comments" : [

],
"origin" : {
"source" : "template",
"name" : "notprovided",
"format" : "json",
"created" : "2019-12-13T13:15:33.391-0600",
"rawdata" : [

]
},
"version" : "37",
"entities" : [
{
"name" : "OTSROOT",
"assigned" : "2019-12-13T13:15:33.392-0600"
}
],
"configurations" : [
{
"name" : "notprovided",
"assigned" : "2019-12-13T13:15:33.391-0600"
},
{
"name" : "GroupAliasTreeEditWizBackbone_v19",
"assigned" : "2019-12-13T13:15:34.754-0600"
}
],
"changelog" : "notprovided",
"bookkeeping" : {
"isdeleted" : false,
"isreadonly" : false,
"updates" : [
{
"event" : "addConfiguration",
"timestamp" : "2019-12-13T13:15:33.391-0600",
"value" : {
"name" : "notprovided",
"assigned" : "2019-12-13T13:15:33.391-0600"
}
},
{
"event" : "setVersion",
"timestamp" : "2019-12-13T13:15:33.392-0600",
"value" : {
"name" : "37",
"assigned" : "2019-12-13T13:15:33.392-0600"
}
},
{
"event" : "setCollection",
"timestamp" : "2019-12-13T13:15:33.392-0600",
"value" : {
"name" : "GroupAliasesTable",
"assigned" : "2019-12-13T13:15:33.392-0600"
}
},
{
"event" : "addEntity",
"timestamp" : "2019-12-13T13:15:33.392-0600",
"value" : {
"name" : "OTSROOT",
"assigned" : "2019-12-13T13:15:33.392-0600"
}
},
{
"event" : "addConfiguration",
"timestamp" : "2019-12-13T13:15:34.754-0600",
"value" : {
"name" : "GroupAliasTreeEditWizBackbone_v19",
"assigned" : "2019-12-13T13:15:34.754-0600"
}
}
],
"created" : "2019-12-13T13:15:33.391-0600"
},
"_id" : {
"$oid" : "55aa78a14617470498927eed"
},
"collection" : "GroupAliasesTable",
"aliases" : {
"active" : [

],
"history" : [

]
},
"runs" : [

],
"attachments" : [

],
"configtype" : "notprovided"
}