{
"document" : {
"data" : {
"NAME" : "FSSRDA_CS_CONFIGURATION",
"COMMENT" : "FSSR ROC DAC records.",
"AUTHOR" : "uplegger",
"CREATION_TIME" : 1510963101,
"COL_TYPES" : {
"DETECTOR_UID" : "VARCHAR2",
"PULSER_DATA" : "NUMBER",
"PULSER_CONTROL" : "NUMBER",
"INTEGRATOR_VBN" : "NUMBER",
"SHAPER_VBP2" : "NUMBER",
"SHAPER_VBP1" : "NUMBER",
"BL_RESTORER" : "NUMBER",
"V_TN" : "NUMBER",
"V_TP0" : "NUMBER",
"V_TP1" : "NUMBER",
"V_TP2" : "NUMBER",
"V_TP3" : "NUMBER",
"V_TP4" : "NUMBER",
"V_TP5" : "NUMBER",
"V_TP6" : "NUMBER",
"V_TP7" : "NUMBER",
"ACTIVE_LINES" : "NUMBER",
"SEND_DATA" : "NUMBER",
"REJECT_HITS" : "NUMBER",
"DIG_CONTR_REG" : "NUMBER",
"AQ_BCO" : "NUMBER",
"COMMENT_DESCRIPTION" : "VARCHAR2",
"AUTHOR" : "VARCHAR2",
"RECORD_INSERTION_TIME" : "TIMESTAMP WITH TIMEZONE"
},
"DATA_SET" : [
{
"DETECTOR_UID" : "FSSR_STA0_MOD0_ROC0",
"PULSER_DATA" : "0",
"PULSER_CONTROL" : "0",
"INTEGRATOR_VBN" : "139",
"SHAPER_VBP2" : "116",
"SHAPER_VBP1" : "121",
"BL_RESTORER" : "80",
"V_TN" : "0",
"V_TP0" : "32",
"V_TP1" : "50",
"V_TP2" : "65",
"V_TP3" : "80",
"V_TP4" : "95",
"V_TP5" : "110",
"V_TP6" : "125",
"V_TP7" : "140",
"ACTIVE_LINES" : "0",
"SEND_DATA" : "1",
"REJECT_HITS" : "0",
"DIG_CONTR_REG" : "19",
"AQ_BCO" : "0",
"COMMENT_DESCRIPTION" : "No Comment",
"AUTHOR" : "admin",
"RECORD_INSERTION_TIME" : "1509658379"
},
{
"DETECTOR_UID" : "FSSR_STA0_MOD0_ROC1",
"PULSER_DATA" : "0",
"PULSER_CONTROL" : "0",
"INTEGRATOR_VBN" : "139",
"SHAPER_VBP2" : "116",
"SHAPER_VBP1" : "121",
"BL_RESTORER" : "80",
"V_TN" : "0",
"V_TP0" : "32",
"V_TP1" : "50",
"V_TP2" : "65",
"V_TP3" : "80",
"V_TP4" : "95",
"V_TP5" : "110",
"V_TP6" : "125",
"V_TP7" : "140",
"ACTIVE_LINES" : "0",
"SEND_DATA" : "1",
"REJECT_HITS" : "0",
"DIG_CONTR_REG" : "19",
"AQ_BCO" : "0",
"COMMENT_DESCRIPTION" : "No Comment",
"AUTHOR" : "admin",
"RECORD_INSERTION_TIME" : "1509658379"
},
{
"DETECTOR_UID" : "FSSR_STA0_MOD0_ROC2",
"PULSER_DATA" : "0",
"PULSER_CONTROL" : "0",
"INTEGRATOR_VBN" : "139",
"SHAPER_VBP2" : "116",
"SHAPER_VBP1" : "121",
"BL_RESTORER" : "80",
"V_TN" : "0",
"V_TP0" : "32",
"V_TP1" : "50",
"V_TP2" : "65",
"V_TP3" : "80",
"V_TP4" : "95",
"V_TP5" : "110",
"V_TP6" : "125",
"V_TP7" : "140",
"ACTIVE_LINES" : "0",
"SEND_DATA" : "1",
"REJECT_HITS" : "0",
"DIG_CONTR_REG" : "19",
"AQ_BCO" : "0",
"COMMENT_DESCRIPTION" : "No Comment",
"AUTHOR" : "admin",
"RECORD_INSERTION_TIME" : "1509658379"
},
{
"DETECTOR_UID" : "FSSR_STA0_MOD0_ROC3",
"PULSER_DATA" : "0",
"PULSER_CONTROL" : "0",
"INTEGRATOR_VBN" : "139",
"SHAPER_VBP2" : "116",
"SHAPER_VBP1" : "121",
"BL_RESTORER" : "80",
"V_TN" : "0",
"V_TP0" : "32",
"V_TP1" : "50",
"V_TP2" : "65",
"V_TP3" : "80",
"V_TP4" : "95",
"V_TP5" : "110",
"V_TP6" : "125",
"V_TP7" : "140",
"ACTIVE_LINES" : "0",
"SEND_DATA" : "1",
"REJECT_HITS" : "0",
"DIG_CONTR_REG" : "19",
"AQ_BCO" : "0",
"COMMENT_DESCRIPTION" : "No Comment",
"AUTHOR" : "admin",
"RECORD_INSERTION_TIME" : "1509658379"
},
{
"DETECTOR_UID" : "FSSR_STA0_MOD0_ROC4",
"PULSER_DATA" : "0",
"PULSER_CONTROL" : "0",
"INTEGRATOR_VBN" : "139",
"SHAPER_VBP2" : "116",
"SHAPER_VBP1" : "121",
"BL_RESTORER" : "80",
"V_TN" : "0",
"V_TP0" : "32",
"V_TP1" : "50",
"V_TP2" : "65",
"V_TP3" : "80",
"V_TP4" : "95",
"V_TP5" : "110",
"V_TP6" : "125",
"V_TP7" : "140",
"ACTIVE_LINES" : "0",
"SEND_DATA" : "1",
"REJECT_HITS" : "0",
"DIG_CONTR_REG" : "19",
"AQ_BCO" : "0",
"COMMENT_DESCRIPTION" : "No Comment",
"AUTHOR" : "admin",
"RECORD_INSERTION_TIME" : "1509658379"
},
{
"DETECTOR_UID" : "FSSR_STA0_MOD1_ROC0",
"PULSER_DATA" : "0",
"PULSER_CONTROL" : "0",
"INTEGRATOR_VBN" : "139",
"SHAPER_VBP2" : "116",
"SHAPER_VBP1" : "121",
"BL_RESTORER" : "80",
"V_TN" : "0",
"V_TP0" : "32",
"V_TP1" : "50",
"V_TP2" : "65",
"V_TP3" : "80",
"V_TP4" : "95",
"V_TP5" : "110",
"V_TP6" : "125",
"V_TP7" : "140",
"ACTIVE_LINES" : "0",
"SEND_DATA" : "1",
"REJECT_HITS" : "0",
"DIG_CONTR_REG" : "19",
"AQ_BCO" : "0",
"COMMENT_DESCRIPTION" : "No Comment",
"AUTHOR" : "admin",
"RECORD_INSERTION_TIME" : "1509658379"
},
{
"DETECTOR_UID" : "FSSR_STA0_MOD1_ROC1",
"PULSER_DATA" : "0",
"PULSER_CONTROL" : "0",
"INTEGRATOR_VBN" : "139",
"SHAPER_VBP2" : "116",
"SHAPER_VBP1" : "121",
"BL_RESTORER" : "80",
"V_TN" : "0",
"V_TP0" : "32",
"V_TP1" : "50",
"V_TP2" : "65",
"V_TP3" : "80",
"V_TP4" : "95",
"V_TP5" : "110",
"V_TP6" : "125",
"V_TP7" : "140",
"ACTIVE_LINES" : "0",
"SEND_DATA" : "1",
"REJECT_HITS" : "0",
"DIG_CONTR_REG" : "19",
"AQ_BCO" : "0",
"COMMENT_DESCRIPTION" : "No Comment",
"AUTHOR" : "admin",
"RECORD_INSERTION_TIME" : "1509658379"
},
{
"DETECTOR_UID" : "FSSR_STA0_MOD1_ROC2",
"PULSER_DATA" : "0",
"PULSER_CONTROL" : "0",
"INTEGRATOR_VBN" : "139",
"SHAPER_VBP2" : "116",
"SHAPER_VBP1" : "121",
"BL_RESTORER" : "80",
"V_TN" : "0",
"V_TP0" : "32",
"V_TP1" : "50",
"V_TP2" : "65",
"V_TP3" : "80",
"V_TP4" : "95",
"V_TP5" : "110",
"V_TP6" : "125",
"V_TP7" : "140",
"ACTIVE_LINES" : "0",
"SEND_DATA" : "1",
"REJECT_HITS" : "0",
"DIG_CONTR_REG" : "19",
"AQ_BCO" : "0",
"COMMENT_DESCRIPTION" : "No Comment",
"AUTHOR" : "admin",
"RECORD_INSERTION_TIME" : "1509658379"
},
{
"DETECTOR_UID" : "FSSR_STA0_MOD1_ROC3",
"PULSER_DATA" : "0",
"PULSER_CONTROL" : "0",
"INTEGRATOR_VBN" : "139",
"SHAPER_VBP2" : "116",
"SHAPER_VBP1" : "121",
"BL_RESTORER" : "80",
"V_TN" : "0",
"V_TP0" : "32",
"V_TP1" : "50",
"V_TP2" : "65",
"V_TP3" : "80",
"V_TP4" : "95",
"V_TP5" : "110",
"V_TP6" : "125",
"V_TP7" : "140",
"ACTIVE_LINES" : "0",
"SEND_DATA" : "1",
"REJECT_HITS" : "0",
"DIG_CONTR_REG" : "19",
"AQ_BCO" : "0",
"COMMENT_DESCRIPTION" : "No Comment",
"AUTHOR" : "admin",
"RECORD_INSERTION_TIME" : "1509658379"
},
{
"DETECTOR_UID" : "FSSR_STA0_MOD1_ROC4",
"PULSER_DATA" : "0",
"PULSER_CONTROL" : "0",
"INTEGRATOR_VBN" : "139",
"SHAPER_VBP2" : "116",
"SHAPER_VBP1" : "121",
"BL_RESTORER" : "80",
"V_TN" : "0",
"V_TP0" : "32",
"V_TP1" : "50",
"V_TP2" : "65",
"V_TP3" : "80",
"V_TP4" : "95",
"V_TP5" : "110",
"V_TP6" : "125",
"V_TP7" : "140",
"ACTIVE_LINES" : "0",
"SEND_DATA" : "1",
"REJECT_HITS" : "0",
"DIG_CONTR_REG" : "19",
"AQ_BCO" : "0",
"COMMENT_DESCRIPTION" : "No Comment",
"AUTHOR" : "admin",
"RECORD_INSERTION_TIME" : "1509658379"
},
{
"DETECTOR_UID" : "FSSR_STA0_MOD2_ROC0",
"PULSER_DATA" : "0",
"PULSER_CONTROL" : "0",
"INTEGRATOR_VBN" : "139",
"SHAPER_VBP2" : "116",
"SHAPER_VBP1" : "121",
"BL_RESTORER" : "80",
"V_TN" : "0",
"V_TP0" : "32",
"V_TP1" : "50",
"V_TP2" : "65",
"V_TP3" : "80",
"V_TP4" : "95",
"V_TP5" : "110",
"V_TP6" : "125",
"V_TP7" : "140",
"ACTIVE_LINES" : "0",
"SEND_DATA" : "1",
"REJECT_HITS" : "0",
"DIG_CONTR_REG" : "19",
"AQ_BCO" : "0",
"COMMENT_DESCRIPTION" : "No Comment",
"AUTHOR" : "admin",
"RECORD_INSERTION_TIME" : "1509658379"
},
{
"DETECTOR_UID" : "FSSR_STA0_MOD2_ROC1",
"PULSER_DATA" : "0",
"PULSER_CONTROL" : "0",
"INTEGRATOR_VBN" : "139",
"SHAPER_VBP2" : "116",
"SHAPER_VBP1" : "121",
"BL_RESTORER" : "80",
"V_TN" : "0",
"V_TP0" : "32",
"V_TP1" : "50",
"V_TP2" : "65",
"V_TP3" : "80",
"V_TP4" : "95",
"V_TP5" : "110",
"V_TP6" : "125",
"V_TP7" : "140",
"ACTIVE_LINES" : "0",
"SEND_DATA" : "1",
"REJECT_HITS" : "0",
"DIG_CONTR_REG" : "19",
"AQ_BCO" : "0",
"COMMENT_DESCRIPTION" : "No Comment",
"AUTHOR" : "admin",
"RECORD_INSERTION_TIME" : "1509658379"
},
{
"DETECTOR_UID" : "FSSR_STA0_MOD2_ROC2",
"PULSER_DATA" : "0",
"PULSER_CONTROL" : "0",
"INTEGRATOR_VBN" : "139",
"SHAPER_VBP2" : "116",
"SHAPER_VBP1" : "121",
"BL_RESTORER" : "80",
"V_TN" : "0",
"V_TP0" : "32",
"V_TP1" : "50",
"V_TP2" : "65",
"V_TP3" : "80",
"V_TP4" : "95",
"V_TP5" : "110",
"V_TP6" : "125",
"V_TP7" : "140",
"ACTIVE_LINES" : "0",
"SEND_DATA" : "1",
"REJECT_HITS" : "0",
"DIG_CONTR_REG" : "19",
"AQ_BCO" : "0",
"COMMENT_DESCRIPTION" : "No Comment",
"AUTHOR" : "admin",
"RECORD_INSERTION_TIME" : "1509658379"
},
{
"DETECTOR_UID" : "FSSR_STA0_MOD2_ROC3",
"PULSER_DATA" : "0",
"PULSER_CONTROL" : "0",
"INTEGRATOR_VBN" : "139",
"SHAPER_VBP2" : "116",
"SHAPER_VBP1" : "121",
"BL_RESTORER" : "80",
"V_TN" : "0",
"V_TP0" : "32",
"V_TP1" : "50",
"V_TP2" : "65",
"V_TP3" : "80",
"V_TP4" : "95",
"V_TP5" : "110",
"V_TP6" : "125",
"V_TP7" : "140",
"ACTIVE_LINES" : "0",
"SEND_DATA" : "1",
"REJECT_HITS" : "0",
"DIG_CONTR_REG" : "19",
"AQ_BCO" : "0",
"COMMENT_DESCRIPTION" : "No Comment",
"AUTHOR" : "admin",
"RECORD_INSERTION_TIME" : "1509658379"
},
{
"DETECTOR_UID" : "FSSR_STA0_MOD2_ROC4",
"PULSER_DATA" : "0",
"PULSER_CONTROL" : "0",
"INTEGRATOR_VBN" : "139",
"SHAPER_VBP2" : "116",
"SHAPER_VBP1" : "121",
"BL_RESTORER" : "80",
"V_TN" : "0",
"V_TP0" : "32",
"V_TP1" : "50",
"V_TP2" : "65",
"V_TP3" : "80",
"V_TP4" : "95",
"V_TP5" : "110",
"V_TP6" : "125",
"V_TP7" : "140",
"ACTIVE_LINES" : "0",
"SEND_DATA" : "1",
"REJECT_HITS" : "0",
"DIG_CONTR_REG" : "19",
"AQ_BCO" : "0",
"COMMENT_DESCRIPTION" : "No Comment",
"AUTHOR" : "admin",
"RECORD_INSERTION_TIME" : "1509658379"
},
{
"DETECTOR_UID" : "FSSR_STA0_MOD3_ROC0",
"PULSER_DATA" : "0",
"PULSER_CONTROL" : "0",
"INTEGRATOR_VBN" : "139",
"SHAPER_VBP2" : "116",
"SHAPER_VBP1" : "121",
"BL_RESTORER" : "80",
"V_TN" : "0",
"V_TP0" : "32",
"V_TP1" : "50",
"V_TP2" : "65",
"V_TP3" : "80",
"V_TP4" : "95",
"V_TP5" : "110",
"V_TP6" : "125",
"V_TP7" : "140",
"ACTIVE_LINES" : "0",
"SEND_DATA" : "1",
"REJECT_HITS" : "0",
"DIG_CONTR_REG" : "19",
"AQ_BCO" : "0",
"COMMENT_DESCRIPTION" : "No Comment",
"AUTHOR" : "admin",
"RECORD_INSERTION_TIME" : "1509658379"
},
{
"DETECTOR_UID" : "FSSR_STA0_MOD3_ROC1",
"PULSER_DATA" : "0",
"PULSER_CONTROL" : "0",
"INTEGRATOR_VBN" : "139",
"SHAPER_VBP2" : "116",
"SHAPER_VBP1" : "121",
"BL_RESTORER" : "80",
"V_TN" : "0",
"V_TP0" : "32",
"V_TP1" : "50",
"V_TP2" : "65",
"V_TP3" : "80",
"V_TP4" : "95",
"V_TP5" : "110",
"V_TP6" : "125",
"V_TP7" : "140",
"ACTIVE_LINES" : "0",
"SEND_DATA" : "1",
"REJECT_HITS" : "0",
"DIG_CONTR_REG" : "19",
"AQ_BCO" : "0",
"COMMENT_DESCRIPTION" : "No Comment",
"AUTHOR" : "admin",
"RECORD_INSERTION_TIME" : "1509658379"
},
{
"DETECTOR_UID" : "FSSR_STA0_MOD3_ROC2",
"PULSER_DATA" : "0",
"PULSER_CONTROL" : "0",
"INTEGRATOR_VBN" : "139",
"SHAPER_VBP2" : "116",
"SHAPER_VBP1" : "121",
"BL_RESTORER" : "80",
"V_TN" : "0",
"V_TP0" : "32",
"V_TP1" : "50",
"V_TP2" : "65",
"V_TP3" : "80",
"V_TP4" : "95",
"V_TP5" : "110",
"V_TP6" : "125",
"V_TP7" : "140",
"ACTIVE_LINES" : "0",
"SEND_DATA" : "1",
"REJECT_HITS" : "0",
"DIG_CONTR_REG" : "19",
"AQ_BCO" : "0",
"COMMENT_DESCRIPTION" : "No Comment",
"AUTHOR" : "admin",
"RECORD_INSERTION_TIME" : "1509658379"
},
{
"DETECTOR_UID" : "FSSR_STA0_MOD3_ROC3",
"PULSER_DATA" : "0",
"PULSER_CONTROL" : "0",
"INTEGRATOR_VBN" : "139",
"SHAPER_VBP2" : "116",
"SHAPER_VBP1" : "121",
"BL_RESTORER" : "80",
"V_TN" : "0",
"V_TP0" : "32",
"V_TP1" : "50",
"V_TP2" : "65",
"V_TP3" : "80",
"V_TP4" : "95",
"V_TP5" : "110",
"V_TP6" : "125",
"V_TP7" : "140",
"ACTIVE_LINES" : "0",
"SEND_DATA" : "1",
"REJECT_HITS" : "0",
"DIG_CONTR_REG" : "19",
"AQ_BCO" : "0",
"COMMENT_DESCRIPTION" : "No Comment",
"AUTHOR" : "admin",
"RECORD_INSERTION_TIME" : "1509658379"
},
{
"DETECTOR_UID" : "FSSR_STA0_MOD3_ROC4",
"PULSER_DATA" : "0",
"PULSER_CONTROL" : "0",
"INTEGRATOR_VBN" : "139",
"SHAPER_VBP2" : "116",
"SHAPER_VBP1" : "121",
"BL_RESTORER" : "80",
"V_TN" : "0",
"V_TP0" : "32",
"V_TP1" : "50",
"V_TP2" : "65",
"V_TP3" : "80",
"V_TP4" : "95",
"V_TP5" : "110",
"V_TP6" : "125",
"V_TP7" : "140",
"ACTIVE_LINES" : "0",
"SEND_DATA" : "1",
"REJECT_HITS" : "0",
"DIG_CONTR_REG" : "19",
"AQ_BCO" : "0",
"COMMENT_DESCRIPTION" : "No Comment",
"AUTHOR" : "admin",
"RECORD_INSERTION_TIME" : "1509658379"
},
{
"DETECTOR_UID" : "FSSR_STA1_MOD0_ROC0",
"PULSER_DATA" : "0",
"PULSER_CONTROL" : "0",
"INTEGRATOR_VBN" : "139",
"SHAPER_VBP2" : "116",
"SHAPER_VBP1" : "121",
"BL_RESTORER" : "80",
"V_TN" : "0",
"V_TP0" : "32",
"V_TP1" : "50",
"V_TP2" : "65",
"V_TP3" : "80",
"V_TP4" : "95",
"V_TP5" : "110",
"V_TP6" : "125",
"V_TP7" : "140",
"ACTIVE_LINES" : "0",
"SEND_DATA" : "1",
"REJECT_HITS" : "0",
"DIG_CONTR_REG" : "19",
"AQ_BCO" : "0",
"COMMENT_DESCRIPTION" : "No Comment",
"AUTHOR" : "admin",
"RECORD_INSERTION_TIME" : "1509658379"
},
{
"DETECTOR_UID" : "FSSR_STA1_MOD0_ROC1",
"PULSER_DATA" : "0",
"PULSER_CONTROL" : "0",
"INTEGRATOR_VBN" : "139",
"SHAPER_VBP2" : "116",
"SHAPER_VBP1" : "121",
"BL_RESTORER" : "80",
"V_TN" : "0",
"V_TP0" : "32",
"V_TP1" : "50",
"V_TP2" : "65",
"V_TP3" : "80",
"V_TP4" : "95",
"V_TP5" : "110",
"V_TP6" : "125",
"V_TP7" : "140",
"ACTIVE_LINES" : "0",
"SEND_DATA" : "1",
"REJECT_HITS" : "0",
"DIG_CONTR_REG" : "19",
"AQ_BCO" : "0",
"COMMENT_DESCRIPTION" : "No Comment",
"AUTHOR" : "admin",
"RECORD_INSERTION_TIME" : "1509658379"
},
{
"DETECTOR_UID" : "FSSR_STA1_MOD0_ROC2",
"PULSER_DATA" : "0",
"PULSER_CONTROL" : "0",
"INTEGRATOR_VBN" : "139",
"SHAPER_VBP2" : "116",
"SHAPER_VBP1" : "121",
"BL_RESTORER" : "80",
"V_TN" : "0",
"V_TP0" : "32",
"V_TP1" : "50",
"V_TP2" : "65",
"V_TP3" : "80",
"V_TP4" : "95",
"V_TP5" : "110",
"V_TP6" : "125",
"V_TP7" : "140",
"ACTIVE_LINES" : "0",
"SEND_DATA" : "1",
"REJECT_HITS" : "0",
"DIG_CONTR_REG" : "19",
"AQ_BCO" : "0",
"COMMENT_DESCRIPTION" : "No Comment",
"AUTHOR" : "admin",
"RECORD_INSERTION_TIME" : "1509658379"
},
{
"DETECTOR_UID" : "FSSR_STA1_MOD0_ROC3",
"PULSER_DATA" : "0",
"PULSER_CONTROL" : "0",
"INTEGRATOR_VBN" : "139",
"SHAPER_VBP2" : "116",
"SHAPER_VBP1" : "121",
"BL_RESTORER" : "80",
"V_TN" : "0",
"V_TP0" : "32",
"V_TP1" : "50",
"V_TP2" : "65",
"V_TP3" : "80",
"V_TP4" : "95",
"V_TP5" : "110",
"V_TP6" : "125",
"V_TP7" : "140",
"ACTIVE_LINES" : "0",
"SEND_DATA" : "1",
"REJECT_HITS" : "0",
"DIG_CONTR_REG" : "19",
"AQ_BCO" : "0",
"COMMENT_DESCRIPTION" : "No Comment",
"AUTHOR" : "admin",
"RECORD_INSERTION_TIME" : "1509658379"
},
{
"DETECTOR_UID" : "FSSR_STA1_MOD0_ROC4",
"PULSER_DATA" : "0",
"PULSER_CONTROL" : "0",
"INTEGRATOR_VBN" : "139",
"SHAPER_VBP2" : "116",
"SHAPER_VBP1" : "121",
"BL_RESTORER" : "80",
"V_TN" : "0",
"V_TP0" : "32",
"V_TP1" : "50",
"V_TP2" : "65",
"V_TP3" : "80",
"V_TP4" : "95",
"V_TP5" : "110",
"V_TP6" : "125",
"V_TP7" : "140",
"ACTIVE_LINES" : "0",
"SEND_DATA" : "1",
"REJECT_HITS" : "0",
"DIG_CONTR_REG" : "19",
"AQ_BCO" : "0",
"COMMENT_DESCRIPTION" : "No Comment",
"AUTHOR" : "admin",
"RECORD_INSERTION_TIME" : "1509658379"
},
{
"DETECTOR_UID" : "FSSR_STA1_MOD1_ROC0",
"PULSER_DATA" : "0",
"PULSER_CONTROL" : "0",
"INTEGRATOR_VBN" : "139",
"SHAPER_VBP2" : "116",
"SHAPER_VBP1" : "121",
"BL_RESTORER" : "80",
"V_TN" : "0",
"V_TP0" : "32",
"V_TP1" : "50",
"V_TP2" : "65",
"V_TP3" : "80",
"V_TP4" : "95",
"V_TP5" : "110",
"V_TP6" : "125",
"V_TP7" : "140",
"ACTIVE_LINES" : "0",
"SEND_DATA" : "1",
"REJECT_HITS" : "0",
"DIG_CONTR_REG" : "19",
"AQ_BCO" : "0",
"COMMENT_DESCRIPTION" : "No Comment",
"AUTHOR" : "admin",
"RECORD_INSERTION_TIME" : "1509658379"
},
{
"DETECTOR_UID" : "FSSR_STA1_MOD1_ROC1",
"PULSER_DATA" : "0",
"PULSER_CONTROL" : "0",
"INTEGRATOR_VBN" : "139",
"SHAPER_VBP2" : "116",
"SHAPER_VBP1" : "121",
"BL_RESTORER" : "80",
"V_TN" : "0",
"V_TP0" : "32",
"V_TP1" : "50",
"V_TP2" : "65",
"V_TP3" : "80",
"V_TP4" : "95",
"V_TP5" : "110",
"V_TP6" : "125",
"V_TP7" : "140",
"ACTIVE_LINES" : "0",
"SEND_DATA" : "1",
"REJECT_HITS" : "0",
"DIG_CONTR_REG" : "19",
"AQ_BCO" : "0",
"COMMENT_DESCRIPTION" : "No Comment",
"AUTHOR" : "admin",
"RECORD_INSERTION_TIME" : "1509658379"
},
{
"DETECTOR_UID" : "FSSR_STA1_MOD1_ROC2",
"PULSER_DATA" : "0",
"PULSER_CONTROL" : "0",
"INTEGRATOR_VBN" : "139",
"SHAPER_VBP2" : "116",
"SHAPER_VBP1" : "121",
"BL_RESTORER" : "80",
"V_TN" : "0",
"V_TP0" : "32",
"V_TP1" : "50",
"V_TP2" : "65",
"V_TP3" : "80",
"V_TP4" : "95",
"V_TP5" : "110",
"V_TP6" : "125",
"V_TP7" : "140",
"ACTIVE_LINES" : "0",
"SEND_DATA" : "1",
"REJECT_HITS" : "0",
"DIG_CONTR_REG" : "19",
"AQ_BCO" : "0",
"COMMENT_DESCRIPTION" : "No Comment",
"AUTHOR" : "admin",
"RECORD_INSERTION_TIME" : "1509658379"
},
{
"DETECTOR_UID" : "FSSR_STA1_MOD1_ROC3",
"PULSER_DATA" : "0",
"PULSER_CONTROL" : "0",
"INTEGRATOR_VBN" : "139",
"SHAPER_VBP2" : "116",
"SHAPER_VBP1" : "121",
"BL_RESTORER" : "80",
"V_TN" : "0",
"V_TP0" : "32",
"V_TP1" : "50",
"V_TP2" : "65",
"V_TP3" : "80",
"V_TP4" : "95",
"V_TP5" : "110",
"V_TP6" : "125",
"V_TP7" : "140",
"ACTIVE_LINES" : "0",
"SEND_DATA" : "1",
"REJECT_HITS" : "0",
"DIG_CONTR_REG" : "19",
"AQ_BCO" : "0",
"COMMENT_DESCRIPTION" : "No Comment",
"AUTHOR" : "admin",
"RECORD_INSERTION_TIME" : "1509658379"
},
{
"DETECTOR_UID" : "FSSR_STA1_MOD1_ROC4",
"PULSER_DATA" : "0",
"PULSER_CONTROL" : "0",
"INTEGRATOR_VBN" : "139",
"SHAPER_VBP2" : "116",
"SHAPER_VBP1" : "121",
"BL_RESTORER" : "80",
"V_TN" : "0",
"V_TP0" : "32",
"V_TP1" : "50",
"V_TP2" : "65",
"V_TP3" : "80",
"V_TP4" : "95",
"V_TP5" : "110",
"V_TP6" : "125",
"V_TP7" : "140",
"ACTIVE_LINES" : "0",
"SEND_DATA" : "1",
"REJECT_HITS" : "0",
"DIG_CONTR_REG" : "19",
"AQ_BCO" : "0",
"COMMENT_DESCRIPTION" : "No Comment",
"AUTHOR" : "admin",
"RECORD_INSERTION_TIME" : "1509658379"
},
{
"DETECTOR_UID" : "FSSR_STA1_MOD2_ROC0",
"PULSER_DATA" : "0",
"PULSER_CONTROL" : "0",
"INTEGRATOR_VBN" : "139",
"SHAPER_VBP2" : "116",
"SHAPER_VBP1" : "121",
"BL_RESTORER" : "80",
"V_TN" : "0",
"V_TP0" : "32",
"V_TP1" : "50",
"V_TP2" : "65",
"V_TP3" : "80",
"V_TP4" : "95",
"V_TP5" : "110",
"V_TP6" : "125",
"V_TP7" : "140",
"ACTIVE_LINES" : "0",
"SEND_DATA" : "1",
"REJECT_HITS" : "0",
"DIG_CONTR_REG" : "19",
"AQ_BCO" : "0",
"COMMENT_DESCRIPTION" : "No Comment",
"AUTHOR" : "admin",
"RECORD_INSERTION_TIME" : "1509658379"
},
{
"DETECTOR_UID" : "FSSR_STA1_MOD2_ROC1",
"PULSER_DATA" : "0",
"PULSER_CONTROL" : "0",
"INTEGRATOR_VBN" : "139",
"SHAPER_VBP2" : "116",
"SHAPER_VBP1" : "121",
"BL_RESTORER" : "80",
"V_TN" : "0",
"V_TP0" : "32",
"V_TP1" : "50",
"V_TP2" : "65",
"V_TP3" : "80",
"V_TP4" : "95",
"V_TP5" : "110",
"V_TP6" : "125",
"V_TP7" : "140",
"ACTIVE_LINES" : "0",
"SEND_DATA" : "1",
"REJECT_HITS" : "0",
"DIG_CONTR_REG" : "19",
"AQ_BCO" : "0",
"COMMENT_DESCRIPTION" : "No Comment",
"AUTHOR" : "admin",
"RECORD_INSERTION_TIME" : "1509658379"
},
{
"DETECTOR_UID" : "FSSR_STA1_MOD2_ROC2",
"PULSER_DATA" : "0",
"PULSER_CONTROL" : "0",
"INTEGRATOR_VBN" : "139",
"SHAPER_VBP2" : "116",
"SHAPER_VBP1" : "121",
"BL_RESTORER" : "80",
"V_TN" : "0",
"V_TP0" : "32",
"V_TP1" : "50",
"V_TP2" : "65",
"V_TP3" : "80",
"V_TP4" : "95",
"V_TP5" : "110",
"V_TP6" : "125",
"V_TP7" : "140",
"ACTIVE_LINES" : "0",
"SEND_DATA" : "1",
"REJECT_HITS" : "0",
"DIG_CONTR_REG" : "19",
"AQ_BCO" : "0",
"COMMENT_DESCRIPTION" : "No Comment",
"AUTHOR" : "admin",
"RECORD_INSERTION_TIME" : "1509658379"
},
{
"DETECTOR_UID" : "FSSR_STA1_MOD2_ROC3",
"PULSER_DATA" : "0",
"PULSER_CONTROL" : "0",
"INTEGRATOR_VBN" : "139",
"SHAPER_VBP2" : "116",
"SHAPER_VBP1" : "121",
"BL_RESTORER" : "80",
"V_TN" : "0",
"V_TP0" : "32",
"V_TP1" : "50",
"V_TP2" : "65",
"V_TP3" : "80",
"V_TP4" : "95",
"V_TP5" : "110",
"V_TP6" : "125",
"V_TP7" : "140",
"ACTIVE_LINES" : "0",
"SEND_DATA" : "1",
"REJECT_HITS" : "0",
"DIG_CONTR_REG" : "19",
"AQ_BCO" : "0",
"COMMENT_DESCRIPTION" : "No Comment",
"AUTHOR" : "admin",
"RECORD_INSERTION_TIME" : "1509658379"
},
{
"DETECTOR_UID" : "FSSR_STA1_MOD2_ROC4",
"PULSER_DATA" : "0",
"PULSER_CONTROL" : "0",
"INTEGRATOR_VBN" : "139",
"SHAPER_VBP2" : "116",
"SHAPER_VBP1" : "121",
"BL_RESTORER" : "80",
"V_TN" : "0",
"V_TP0" : "32",
"V_TP1" : "50",
"V_TP2" : "65",
"V_TP3" : "80",
"V_TP4" : "95",
"V_TP5" : "110",
"V_TP6" : "125",
"V_TP7" : "140",
"ACTIVE_LINES" : "0",
"SEND_DATA" : "1",
"REJECT_HITS" : "0",
"DIG_CONTR_REG" : "19",
"AQ_BCO" : "0",
"COMMENT_DESCRIPTION" : "No Comment",
"AUTHOR" : "admin",
"RECORD_INSERTION_TIME" : "1509658379"
},
{
"DETECTOR_UID" : "FSSR_STA1_MOD3_ROC0",
"PULSER_DATA" : "0",
"PULSER_CONTROL" : "0",
"INTEGRATOR_VBN" : "139",
"SHAPER_VBP2" : "116",
"SHAPER_VBP1" : "121",
"BL_RESTORER" : "80",
"V_TN" : "0",
"V_TP0" : "32",
"V_TP1" : "50",
"V_TP2" : "65",
"V_TP3" : "80",
"V_TP4" : "95",
"V_TP5" : "110",
"V_TP6" : "125",
"V_TP7" : "140",
"ACTIVE_LINES" : "0",
"SEND_DATA" : "1",
"REJECT_HITS" : "0",
"DIG_CONTR_REG" : "19",
"AQ_BCO" : "0",
"COMMENT_DESCRIPTION" : "No Comment",
"AUTHOR" : "admin",
"RECORD_INSERTION_TIME" : "1509658379"
},
{
"DETECTOR_UID" : "FSSR_STA1_MOD3_ROC1",
"PULSER_DATA" : "0",
"PULSER_CONTROL" : "0",
"INTEGRATOR_VBN" : "139",
"SHAPER_VBP2" : "116",
"SHAPER_VBP1" : "121",
"BL_RESTORER" : "80",
"V_TN" : "0",
"V_TP0" : "32",
"V_TP1" : "50",
"V_TP2" : "65",
"V_TP3" : "80",
"V_TP4" : "95",
"V_TP5" : "110",
"V_TP6" : "125",
"V_TP7" : "140",
"ACTIVE_LINES" : "0",
"SEND_DATA" : "1",
"REJECT_HITS" : "0",
"DIG_CONTR_REG" : "19",
"AQ_BCO" : "0",
"COMMENT_DESCRIPTION" : "No Comment",
"AUTHOR" : "admin",
"RECORD_INSERTION_TIME" : "1509658379"
},
{
"DETECTOR_UID" : "FSSR_STA1_MOD3_ROC2",
"PULSER_DATA" : "0",
"PULSER_CONTROL" : "0",
"INTEGRATOR_VBN" : "139",
"SHAPER_VBP2" : "116",
"SHAPER_VBP1" : "121",
"BL_RESTORER" : "80",
"V_TN" : "0",
"V_TP0" : "32",
"V_TP1" : "50",
"V_TP2" : "65",
"V_TP3" : "80",
"V_TP4" : "95",
"V_TP5" : "110",
"V_TP6" : "125",
"V_TP7" : "140",
"ACTIVE_LINES" : "0",
"SEND_DATA" : "1",
"REJECT_HITS" : "0",
"DIG_CONTR_REG" : "19",
"AQ_BCO" : "0",
"COMMENT_DESCRIPTION" : "No Comment",
"AUTHOR" : "admin",
"RECORD_INSERTION_TIME" : "1509658379"
},
{
"DETECTOR_UID" : "FSSR_STA1_MOD3_ROC3",
"PULSER_DATA" : "0",
"PULSER_CONTROL" : "0",
"INTEGRATOR_VBN" : "139",
"SHAPER_VBP2" : "116",
"SHAPER_VBP1" : "121",
"BL_RESTORER" : "80",
"V_TN" : "0",
"V_TP0" : "32",
"V_TP1" : "50",
"V_TP2" : "65",
"V_TP3" : "80",
"V_TP4" : "95",
"V_TP5" : "110",
"V_TP6" : "125",
"V_TP7" : "140",
"ACTIVE_LINES" : "0",
"SEND_DATA" : "1",
"REJECT_HITS" : "0",
"DIG_CONTR_REG" : "19",
"AQ_BCO" : "0",
"COMMENT_DESCRIPTION" : "No Comment",
"AUTHOR" : "admin",
"RECORD_INSERTION_TIME" : "1509658379"
},
{
"DETECTOR_UID" : "FSSR_STA1_MOD3_ROC4",
"PULSER_DATA" : "0",
"PULSER_CONTROL" : "0",
"INTEGRATOR_VBN" : "139",
"SHAPER_VBP2" : "116",
"SHAPER_VBP1" : "121",
"BL_RESTORER" : "80",
"V_TN" : "0",
"V_TP0" : "32",
"V_TP1" : "50",
"V_TP2" : "65",
"V_TP3" : "80",
"V_TP4" : "95",
"V_TP5" : "110",
"V_TP6" : "125",
"V_TP7" : "140",
"ACTIVE_LINES" : "0",
"SEND_DATA" : "1",
"REJECT_HITS" : "0",
"DIG_CONTR_REG" : "19",
"AQ_BCO" : "0",
"COMMENT_DESCRIPTION" : "No Comment",
"AUTHOR" : "admin",
"RECORD_INSERTION_TIME" : "1509658379"
},
{
"DETECTOR_UID" : "FSSR_STA2_MOD0_ROC0",
"PULSER_DATA" : "0",
"PULSER_CONTROL" : "0",
"INTEGRATOR_VBN" : "139",
"SHAPER_VBP2" : "116",
"SHAPER_VBP1" : "121",
"BL_RESTORER" : "80",
"V_TN" : "0",
"V_TP0" : "32",
"V_TP1" : "50",
"V_TP2" : "65",
"V_TP3" : "80",
"V_TP4" : "95",
"V_TP5" : "110",
"V_TP6" : "125",
"V_TP7" : "140",
"ACTIVE_LINES" : "0",
"SEND_DATA" : "1",
"REJECT_HITS" : "0",
"DIG_CONTR_REG" : "19",
"AQ_BCO" : "0",
"COMMENT_DESCRIPTION" : "No Comment",
"AUTHOR" : "uplegger",
"RECORD_INSERTION_TIME" : "1510963070"
},
{
"DETECTOR_UID" : "FSSR_STA2_MOD0_ROC1",
"PULSER_DATA" : "0",
"PULSER_CONTROL" : "0",
"INTEGRATOR_VBN" : "139",
"SHAPER_VBP2" : "116",
"SHAPER_VBP1" : "121",
"BL_RESTORER" : "80",
"V_TN" : "0",
"V_TP0" : "32",
"V_TP1" : "50",
"V_TP2" : "65",
"V_TP3" : "80",
"V_TP4" : "95",
"V_TP5" : "110",
"V_TP6" : "125",
"V_TP7" : "140",
"ACTIVE_LINES" : "0",
"SEND_DATA" : "1",
"REJECT_HITS" : "0",
"DIG_CONTR_REG" : "19",
"AQ_BCO" : "0",
"COMMENT_DESCRIPTION" : "No Comment",
"AUTHOR" : "admin",
"RECORD_INSERTION_TIME" : "1509658379"
},
{
"DETECTOR_UID" : "FSSR_STA2_MOD0_ROC2",
"PULSER_DATA" : "0",
"PULSER_CONTROL" : "0",
"INTEGRATOR_VBN" : "139",
"SHAPER_VBP2" : "116",
"SHAPER_VBP1" : "121",
"BL_RESTORER" : "80",
"V_TN" : "0",
"V_TP0" : "32",
"V_TP1" : "50",
"V_TP2" : "65",
"V_TP3" : "80",
"V_TP4" : "95",
"V_TP5" : "110",
"V_TP6" : "125",
"V_TP7" : "140",
"ACTIVE_LINES" : "0",
"SEND_DATA" : "1",
"REJECT_HITS" : "0",
"DIG_CONTR_REG" : "19",
"AQ_BCO" : "0",
"COMMENT_DESCRIPTION" : "No Comment",
"AUTHOR" : "admin",
"RECORD_INSERTION_TIME" : "1509658379"
},
{
"DETECTOR_UID" : "FSSR_STA2_MOD0_ROC3",
"PULSER_DATA" : "0",
"PULSER_CONTROL" : "0",
"INTEGRATOR_VBN" : "139",
"SHAPER_VBP2" : "116",
"SHAPER_VBP1" : "121",
"BL_RESTORER" : "80",
"V_TN" : "0",
"V_TP0" : "32",
"V_TP1" : "50",
"V_TP2" : "65",
"V_TP3" : "80",
"V_TP4" : "95",
"V_TP5" : "110",
"V_TP6" : "125",
"V_TP7" : "140",
"ACTIVE_LINES" : "0",
"SEND_DATA" : "1",
"REJECT_HITS" : "0",
"DIG_CONTR_REG" : "19",
"AQ_BCO" : "0",
"COMMENT_DESCRIPTION" : "No Comment",
"AUTHOR" : "admin",
"RECORD_INSERTION_TIME" : "1509658379"
},
{
"DETECTOR_UID" : "FSSR_STA2_MOD0_ROC4",
"PULSER_DATA" : "0",
"PULSER_CONTROL" : "0",
"INTEGRATOR_VBN" : "139",
"SHAPER_VBP2" : "116",
"SHAPER_VBP1" : "121",
"BL_RESTORER" : "80",
"V_TN" : "0",
"V_TP0" : "32",
"V_TP1" : "50",
"V_TP2" : "65",
"V_TP3" : "80",
"V_TP4" : "95",
"V_TP5" : "110",
"V_TP6" : "125",
"V_TP7" : "140",
"ACTIVE_LINES" : "0",
"SEND_DATA" : "1",
"REJECT_HITS" : "0",
"DIG_CONTR_REG" : "19",
"AQ_BCO" : "0",
"COMMENT_DESCRIPTION" : "No Comment",
"AUTHOR" : "admin",
"RECORD_INSERTION_TIME" : "1509658379"
},
{
"DETECTOR_UID" : "FSSR_STA2_MOD1_ROC0",
"PULSER_DATA" : "0",
"PULSER_CONTROL" : "0",
"INTEGRATOR_VBN" : "139",
"SHAPER_VBP2" : "116",
"SHAPER_VBP1" : "121",
"BL_RESTORER" : "80",
"V_TN" : "0",
"V_TP0" : "32",
"V_TP1" : "50",
"V_TP2" : "65",
"V_TP3" : "80",
"V_TP4" : "95",
"V_TP5" : "110",
"V_TP6" : "125",
"V_TP7" : "140",
"ACTIVE_LINES" : "0",
"SEND_DATA" : "1",
"REJECT_HITS" : "0",
"DIG_CONTR_REG" : "19",
"AQ_BCO" : "0",
"COMMENT_DESCRIPTION" : "No Comment",
"AUTHOR" : "admin",
"RECORD_INSERTION_TIME" : "1509658379"
},
{
"DETECTOR_UID" : "FSSR_STA2_MOD1_ROC1",
"PULSER_DATA" : "0",
"PULSER_CONTROL" : "0",
"INTEGRATOR_VBN" : "139",
"SHAPER_VBP2" : "116",
"SHAPER_VBP1" : "121",
"BL_RESTORER" : "80",
"V_TN" : "0",
"V_TP0" : "32",
"V_TP1" : "50",
"V_TP2" : "65",
"V_TP3" : "80",
"V_TP4" : "95",
"V_TP5" : "110",
"V_TP6" : "125",
"V_TP7" : "140",
"ACTIVE_LINES" : "0",
"SEND_DATA" : "1",
"REJECT_HITS" : "0",
"DIG_CONTR_REG" : "19",
"AQ_BCO" : "0",
"COMMENT_DESCRIPTION" : "No Comment",
"AUTHOR" : "admin",
"RECORD_INSERTION_TIME" : "1509658379"
},
{
"DETECTOR_UID" : "FSSR_STA2_MOD1_ROC2",
"PULSER_DATA" : "0",
"PULSER_CONTROL" : "0",
"INTEGRATOR_VBN" : "139",
"SHAPER_VBP2" : "116",
"SHAPER_VBP1" : "121",
"BL_RESTORER" : "80",
"V_TN" : "0",
"V_TP0" : "32",
"V_TP1" : "50",
"V_TP2" : "65",
"V_TP3" : "80",
"V_TP4" : "95",
"V_TP5" : "110",
"V_TP6" : "125",
"V_TP7" : "140",
"ACTIVE_LINES" : "0",
"SEND_DATA" : "1",
"REJECT_HITS" : "0",
"DIG_CONTR_REG" : "19",
"AQ_BCO" : "0",
"COMMENT_DESCRIPTION" : "No Comment",
"AUTHOR" : "admin",
"RECORD_INSERTION_TIME" : "1509658379"
},
{
"DETECTOR_UID" : "FSSR_STA2_MOD1_ROC3",
"PULSER_DATA" : "0",
"PULSER_CONTROL" : "0",
"INTEGRATOR_VBN" : "139",
"SHAPER_VBP2" : "116",
"SHAPER_VBP1" : "121",
"BL_RESTORER" : "80",
"V_TN" : "0",
"V_TP0" : "32",
"V_TP1" : "50",
"V_TP2" : "65",
"V_TP3" : "80",
"V_TP4" : "95",
"V_TP5" : "110",
"V_TP6" : "125",
"V_TP7" : "140",
"ACTIVE_LINES" : "0",
"SEND_DATA" : "1",
"REJECT_HITS" : "0",
"DIG_CONTR_REG" : "19",
"AQ_BCO" : "0",
"COMMENT_DESCRIPTION" : "No Comment",
"AUTHOR" : "admin",
"RECORD_INSERTION_TIME" : "1509658379"
},
{
"DETECTOR_UID" : "FSSR_STA2_MOD1_ROC4",
"PULSER_DATA" : "0",
"PULSER_CONTROL" : "0",
"INTEGRATOR_VBN" : "139",
"SHAPER_VBP2" : "116",
"SHAPER_VBP1" : "121",
"BL_RESTORER" : "80",
"V_TN" : "0",
"V_TP0" : "32",
"V_TP1" : "50",
"V_TP2" : "65",
"V_TP3" : "80",
"V_TP4" : "95",
"V_TP5" : "110",
"V_TP6" : "125",
"V_TP7" : "140",
"ACTIVE_LINES" : "0",
"SEND_DATA" : "1",
"REJECT_HITS" : "0",
"DIG_CONTR_REG" : "19",
"AQ_BCO" : "0",
"COMMENT_DESCRIPTION" : "No Comment",
"AUTHOR" : "admin",
"RECORD_INSERTION_TIME" : "1509658379"
},
{
"DETECTOR_UID" : "FSSR_STA2_MOD2_ROC0",
"PULSER_DATA" : "0",
"PULSER_CONTROL" : "0",
"INTEGRATOR_VBN" : "139",
"SHAPER_VBP2" : "116",
"SHAPER_VBP1" : "121",
"BL_RESTORER" : "80",
"V_TN" : "0",
"V_TP0" : "32",
"V_TP1" : "50",
"V_TP2" : "65",
"V_TP3" : "80",
"V_TP4" : "95",
"V_TP5" : "110",
"V_TP6" : "125",
"V_TP7" : "140",
"ACTIVE_LINES" : "0",
"SEND_DATA" : "1",
"REJECT_HITS" : "0",
"DIG_CONTR_REG" : "19",
"AQ_BCO" : "0",
"COMMENT_DESCRIPTION" : "No Comment",
"AUTHOR" : "admin",
"RECORD_INSERTION_TIME" : "1509658379"
},
{
"DETECTOR_UID" : "FSSR_STA2_MOD2_ROC1",
"PULSER_DATA" : "0",
"PULSER_CONTROL" : "0",
"INTEGRATOR_VBN" : "139",
"SHAPER_VBP2" : "116",
"SHAPER_VBP1" : "121",
"BL_RESTORER" : "80",
"V_TN" : "0",
"V_TP0" : "32",
"V_TP1" : "50",
"V_TP2" : "65",
"V_TP3" : "80",
"V_TP4" : "95",
"V_TP5" : "110",
"V_TP6" : "125",
"V_TP7" : "140",
"ACTIVE_LINES" : "0",
"SEND_DATA" : "1",
"REJECT_HITS" : "0",
"DIG_CONTR_REG" : "19",
"AQ_BCO" : "0",
"COMMENT_DESCRIPTION" : "No Comment",
"AUTHOR" : "admin",
"RECORD_INSERTION_TIME" : "1509658379"
},
{
"DETECTOR_UID" : "FSSR_STA2_MOD2_ROC2",
"PULSER_DATA" : "0",
"PULSER_CONTROL" : "0",
"INTEGRATOR_VBN" : "139",
"SHAPER_VBP2" : "116",
"SHAPER_VBP1" : "121",
"BL_RESTORER" : "80",
"V_TN" : "0",
"V_TP0" : "32",
"V_TP1" : "50",
"V_TP2" : "65",
"V_TP3" : "80",
"V_TP4" : "95",
"V_TP5" : "110",
"V_TP6" : "125",
"V_TP7" : "140",
"ACTIVE_LINES" : "0",
"SEND_DATA" : "1",
"REJECT_HITS" : "0",
"DIG_CONTR_REG" : "19",
"AQ_BCO" : "0",
"COMMENT_DESCRIPTION" : "No Comment",
"AUTHOR" : "admin",
"RECORD_INSERTION_TIME" : "1509658379"
},
{
"DETECTOR_UID" : "FSSR_STA2_MOD2_ROC3",
"PULSER_DATA" : "0",
"PULSER_CONTROL" : "0",
"INTEGRATOR_VBN" : "139",
"SHAPER_VBP2" : "116",
"SHAPER_VBP1" : "121",
"BL_RESTORER" : "80",
"V_TN" : "0",
"V_TP0" : "32",
"V_TP1" : "50",
"V_TP2" : "65",
"V_TP3" : "80",
"V_TP4" : "95",
"V_TP5" : "110",
"V_TP6" : "125",
"V_TP7" : "140",
"ACTIVE_LINES" : "0",
"SEND_DATA" : "1",
"REJECT_HITS" : "0",
"DIG_CONTR_REG" : "19",
"AQ_BCO" : "0",
"COMMENT_DESCRIPTION" : "No Comment",
"AUTHOR" : "admin",
"RECORD_INSERTION_TIME" : "1509658379"
},
{
"DETECTOR_UID" : "FSSR_STA2_MOD2_ROC4",
"PULSER_DATA" : "0",
"PULSER_CONTROL" : "0",
"INTEGRATOR_VBN" : "139",
"SHAPER_VBP2" : "116",
"SHAPER_VBP1" : "121",
"BL_RESTORER" : "80",
"V_TN" : "0",
"V_TP0" : "32",
"V_TP1" : "50",
"V_TP2" : "65",
"V_TP3" : "80",
"V_TP4" : "95",
"V_TP5" : "110",
"V_TP6" : "125",
"V_TP7" : "140",
"ACTIVE_LINES" : "0",
"SEND_DATA" : "1",
"REJECT_HITS" : "0",
"DIG_CONTR_REG" : "19",
"AQ_BCO" : "0",
"COMMENT_DESCRIPTION" : "No Comment",
"AUTHOR" : "admin",
"RECORD_INSERTION_TIME" : "1509658379"
},
{
"DETECTOR_UID" : "FSSR_STA2_MOD3_ROC0",
"PULSER_DATA" : "0",
"PULSER_CONTROL" : "0",
"INTEGRATOR_VBN" : "139",
"SHAPER_VBP2" : "116",
"SHAPER_VBP1" : "121",
"BL_RESTORER" : "80",
"V_TN" : "0",
"V_TP0" : "32",
"V_TP1" : "50",
"V_TP2" : "65",
"V_TP3" : "80",
"V_TP4" : "95",
"V_TP5" : "110",
"V_TP6" : "125",
"V_TP7" : "140",
"ACTIVE_LINES" : "0",
"SEND_DATA" : "1",
"REJECT_HITS" : "0",
"DIG_CONTR_REG" : "19",
"AQ_BCO" : "0",
"COMMENT_DESCRIPTION" : "No Comment",
"AUTHOR" : "admin",
"RECORD_INSERTION_TIME" : "1509658379"
},
{
"DETECTOR_UID" : "FSSR_STA2_MOD3_ROC1",
"PULSER_DATA" : "0",
"PULSER_CONTROL" : "0",
"INTEGRATOR_VBN" : "139",
"SHAPER_VBP2" : "116",
"SHAPER_VBP1" : "121",
"BL_RESTORER" : "80",
"V_TN" : "0",
"V_TP0" : "32",
"V_TP1" : "50",
"V_TP2" : "65",
"V_TP3" : "80",
"V_TP4" : "95",
"V_TP5" : "110",
"V_TP6" : "125",
"V_TP7" : "140",
"ACTIVE_LINES" : "0",
"SEND_DATA" : "1",
"REJECT_HITS" : "0",
"DIG_CONTR_REG" : "19",
"AQ_BCO" : "0",
"COMMENT_DESCRIPTION" : "No Comment",
"AUTHOR" : "admin",
"RECORD_INSERTION_TIME" : "1509658379"
},
{
"DETECTOR_UID" : "FSSR_STA2_MOD3_ROC2",
"PULSER_DATA" : "0",
"PULSER_CONTROL" : "0",
"INTEGRATOR_VBN" : "139",
"SHAPER_VBP2" : "116",
"SHAPER_VBP1" : "121",
"BL_RESTORER" : "80",
"V_TN" : "0",
"V_TP0" : "32",
"V_TP1" : "50",
"V_TP2" : "65",
"V_TP3" : "80",
"V_TP4" : "95",
"V_TP5" : "110",
"V_TP6" : "125",
"V_TP7" : "140",
"ACTIVE_LINES" : "0",
"SEND_DATA" : "1",
"REJECT_HITS" : "0",
"DIG_CONTR_REG" : "19",
"AQ_BCO" : "0",
"COMMENT_DESCRIPTION" : "No Comment",
"AUTHOR" : "admin",
"RECORD_INSERTION_TIME" : "1509658379"
},
{
"DETECTOR_UID" : "FSSR_STA2_MOD3_ROC3",
"PULSER_DATA" : "0",
"PULSER_CONTROL" : "0",
"INTEGRATOR_VBN" : "139",
"SHAPER_VBP2" : "116",
"SHAPER_VBP1" : "121",
"BL_RESTORER" : "80",
"V_TN" : "0",
"V_TP0" : "32",
"V_TP1" : "50",
"V_TP2" : "65",
"V_TP3" : "80",
"V_TP4" : "95",
"V_TP5" : "110",
"V_TP6" : "125",
"V_TP7" : "140",
"ACTIVE_LINES" : "0",
"SEND_DATA" : "1",
"REJECT_HITS" : "0",
"DIG_CONTR_REG" : "19",
"AQ_BCO" : "0",
"COMMENT_DESCRIPTION" : "No Comment",
"AUTHOR" : "admin",
"RECORD_INSERTION_TIME" : "1509658379"
},
{
"DETECTOR_UID" : "FSSR_STA2_MOD3_ROC4",
"PULSER_DATA" : "0",
"PULSER_CONTROL" : "0",
"INTEGRATOR_VBN" : "139",
"SHAPER_VBP2" : "116",
"SHAPER_VBP1" : "121",
"BL_RESTORER" : "80",
"V_TN" : "0",
"V_TP0" : "32",
"V_TP1" : "50",
"V_TP2" : "65",
"V_TP3" : "80",
"V_TP4" : "95",
"V_TP5" : "110",
"V_TP6" : "125",
"V_TP7" : "140",
"ACTIVE_LINES" : "0",
"SEND_DATA" : "1",
"REJECT_HITS" : "0",
"DIG_CONTR_REG" : "19",
"AQ_BCO" : "0",
"COMMENT_DESCRIPTION" : "No Comment",
"AUTHOR" : "admin",
"RECORD_INSERTION_TIME" : "1509658379"
},
{
"DETECTOR_UID" : "FSSR_STA2_MOD4_ROC0",
"PULSER_DATA" : "0",
"PULSER_CONTROL" : "0",
"INTEGRATOR_VBN" : "139",
"SHAPER_VBP2" : "116",
"SHAPER_VBP1" : "121",
"BL_RESTORER" : "80",
"V_TN" : "0",
"V_TP0" : "32",
"V_TP1" : "50",
"V_TP2" : "65",
"V_TP3" : "80",
"V_TP4" : "95",
"V_TP5" : "110",
"V_TP6" : "125",
"V_TP7" : "140",
"ACTIVE_LINES" : "0",
"SEND_DATA" : "1",
"REJECT_HITS" : "0",
"DIG_CONTR_REG" : "19",
"AQ_BCO" : "0",
"COMMENT_DESCRIPTION" : "No Comment",
"AUTHOR" : "admin",
"RECORD_INSERTION_TIME" : "1509658379"
},
{
"DETECTOR_UID" : "FSSR_STA2_MOD4_ROC1",
"PULSER_DATA" : "0",
"PULSER_CONTROL" : "0",
"INTEGRATOR_VBN" : "139",
"SHAPER_VBP2" : "116",
"SHAPER_VBP1" : "121",
"BL_RESTORER" : "80",
"V_TN" : "0",
"V_TP0" : "32",
"V_TP1" : "50",
"V_TP2" : "65",
"V_TP3" : "80",
"V_TP4" : "95",
"V_TP5" : "110",
"V_TP6" : "125",
"V_TP7" : "140",
"ACTIVE_LINES" : "0",
"SEND_DATA" : "1",
"REJECT_HITS" : "0",
"DIG_CONTR_REG" : "19",
"AQ_BCO" : "0",
"COMMENT_DESCRIPTION" : "No Comment",
"AUTHOR" : "admin",
"RECORD_INSERTION_TIME" : "1509658379"
},
{
"DETECTOR_UID" : "FSSR_STA2_MOD4_ROC2",
"PULSER_DATA" : "0",
"PULSER_CONTROL" : "0",
"INTEGRATOR_VBN" : "139",
"SHAPER_VBP2" : "116",
"SHAPER_VBP1" : "121",
"BL_RESTORER" : "80",
"V_TN" : "0",
"V_TP0" : "32",
"V_TP1" : "50",
"V_TP2" : "65",
"V_TP3" : "80",
"V_TP4" : "95",
"V_TP5" : "110",
"V_TP6" : "125",
"V_TP7" : "140",
"ACTIVE_LINES" : "0",
"SEND_DATA" : "1",
"REJECT_HITS" : "0",
"DIG_CONTR_REG" : "19",
"AQ_BCO" : "0",
"COMMENT_DESCRIPTION" : "No Comment",
"AUTHOR" : "admin",
"RECORD_INSERTION_TIME" : "1509658379"
},
{
"DETECTOR_UID" : "FSSR_STA2_MOD4_ROC3",
"PULSER_DATA" : "0",
"PULSER_CONTROL" : "0",
"INTEGRATOR_VBN" : "139",
"SHAPER_VBP2" : "116",
"SHAPER_VBP1" : "121",
"BL_RESTORER" : "80",
"V_TN" : "0",
"V_TP0" : "32",
"V_TP1" : "50",
"V_TP2" : "65",
"V_TP3" : "80",
"V_TP4" : "95",
"V_TP5" : "110",
"V_TP6" : "125",
"V_TP7" : "140",
"ACTIVE_LINES" : "0",
"SEND_DATA" : "1",
"REJECT_HITS" : "0",
"DIG_CONTR_REG" : "19",
"AQ_BCO" : "0",
"COMMENT_DESCRIPTION" : "No Comment",
"AUTHOR" : "admin",
"RECORD_INSERTION_TIME" : "1509658379"
},
{
"DETECTOR_UID" : "FSSR_STA2_MOD4_ROC4",
"PULSER_DATA" : "0",
"PULSER_CONTROL" : "0",
"INTEGRATOR_VBN" : "139",
"SHAPER_VBP2" : "116",
"SHAPER_VBP1" : "121",
"BL_RESTORER" : "80",
"V_TN" : "0",
"V_TP0" : "32",
"V_TP1" : "50",
"V_TP2" : "65",
"V_TP3" : "80",
"V_TP4" : "95",
"V_TP5" : "110",
"V_TP6" : "125",
"V_TP7" : "140",
"ACTIVE_LINES" : "0",
"SEND_DATA" : "1",
"REJECT_HITS" : "0",
"DIG_CONTR_REG" : "19",
"AQ_BCO" : "0",
"COMMENT_DESCRIPTION" : "No Comment",
"AUTHOR" : "admin",
"RECORD_INSERTION_TIME" : "1509658379"
},
{
"DETECTOR_UID" : "FSSR_STA2_MOD5_ROC0",
"PULSER_DATA" : "0",
"PULSER_CONTROL" : "0",
"INTEGRATOR_VBN" : "139",
"SHAPER_VBP2" : "116",
"SHAPER_VBP1" : "121",
"BL_RESTORER" : "80",
"V_TN" : "0",
"V_TP0" : "32",
"V_TP1" : "50",
"V_TP2" : "65",
"V_TP3" : "80",
"V_TP4" : "95",
"V_TP5" : "110",
"V_TP6" : "125",
"V_TP7" : "140",
"ACTIVE_LINES" : "0",
"SEND_DATA" : "1",
"REJECT_HITS" : "0",
"DIG_CONTR_REG" : "19",
"AQ_BCO" : "0",
"COMMENT_DESCRIPTION" : "No Comment",
"AUTHOR" : "admin",
"RECORD_INSERTION_TIME" : "1509658379"
},
{
"DETECTOR_UID" : "FSSR_STA2_MOD5_ROC1",
"PULSER_DATA" : "0",
"PULSER_CONTROL" : "0",
"INTEGRATOR_VBN" : "139",
"SHAPER_VBP2" : "116",
"SHAPER_VBP1" : "121",
"BL_RESTORER" : "80",
"V_TN" : "0",
"V_TP0" : "32",
"V_TP1" : "50",
"V_TP2" : "65",
"V_TP3" : "80",
"V_TP4" : "95",
"V_TP5" : "110",
"V_TP6" : "125",
"V_TP7" : "140",
"ACTIVE_LINES" : "0",
"SEND_DATA" : "1",
"REJECT_HITS" : "0",
"DIG_CONTR_REG" : "19",
"AQ_BCO" : "0",
"COMMENT_DESCRIPTION" : "No Comment",
"AUTHOR" : "admin",
"RECORD_INSERTION_TIME" : "1509658379"
},
{
"DETECTOR_UID" : "FSSR_STA2_MOD5_ROC2",
"PULSER_DATA" : "0",
"PULSER_CONTROL" : "0",
"INTEGRATOR_VBN" : "139",
"SHAPER_VBP2" : "116",
"SHAPER_VBP1" : "121",
"BL_RESTORER" : "80",
"V_TN" : "0",
"V_TP0" : "32",
"V_TP1" : "50",
"V_TP2" : "65",
"V_TP3" : "80",
"V_TP4" : "95",
"V_TP5" : "110",
"V_TP6" : "125",
"V_TP7" : "140",
"ACTIVE_LINES" : "0",
"SEND_DATA" : "1",
"REJECT_HITS" : "0",
"DIG_CONTR_REG" : "19",
"AQ_BCO" : "0",
"COMMENT_DESCRIPTION" : "No Comment",
"AUTHOR" : "admin",
"RECORD_INSERTION_TIME" : "1509658379"
},
{
"DETECTOR_UID" : "FSSR_STA2_MOD5_ROC3",
"PULSER_DATA" : "0",
"PULSER_CONTROL" : "0",
"INTEGRATOR_VBN" : "139",
"SHAPER_VBP2" : "116",
"SHAPER_VBP1" : "121",
"BL_RESTORER" : "80",
"V_TN" : "0",
"V_TP0" : "32",
"V_TP1" : "50",
"V_TP2" : "65",
"V_TP3" : "80",
"V_TP4" : "95",
"V_TP5" : "110",
"V_TP6" : "125",
"V_TP7" : "140",
"ACTIVE_LINES" : "0",
"SEND_DATA" : "1",
"REJECT_HITS" : "0",
"DIG_CONTR_REG" : "19",
"AQ_BCO" : "0",
"COMMENT_DESCRIPTION" : "No Comment",
"AUTHOR" : "admin",
"RECORD_INSERTION_TIME" : "1509658379"
},
{
"DETECTOR_UID" : "FSSR_STA2_MOD5_ROC4",
"PULSER_DATA" : "0",
"PULSER_CONTROL" : "0",
"INTEGRATOR_VBN" : "139",
"SHAPER_VBP2" : "116",
"SHAPER_VBP1" : "121",
"BL_RESTORER" : "80",
"V_TN" : "0",
"V_TP0" : "32",
"V_TP1" : "50",
"V_TP2" : "65",
"V_TP3" : "80",
"V_TP4" : "95",
"V_TP5" : "110",
"V_TP6" : "125",
"V_TP7" : "140",
"ACTIVE_LINES" : "0",
"SEND_DATA" : "1",
"REJECT_HITS" : "0",
"DIG_CONTR_REG" : "19",
"AQ_BCO" : "0",
"COMMENT_DESCRIPTION" : "No Comment",
"AUTHOR" : "admin",
"RECORD_INSERTION_TIME" : "1509658379"
}
]
},
"metadata" : {

},
"search" : [

]
},
"comments" : [

],
"origin" : {
"source" : "template",
"name" : "notprovided",
"format" : "json",
"created" : "2017-11-17T17:58:21.727-0600",
"rawdata" : [

]
},
"version" : "1",
"entities" : [
{
"name" : "OTSROOT",
"assigned" : "2017-11-17T17:58:21.756-0600"
}
],
"configurations" : [
{
"name" : "notprovided",
"assigned" : "2017-11-17T17:58:21.739-0600"
},
{
"name" : "FTBFConfig_v24",
"assigned" : "2017-11-17T17:58:27.254-0600"
},
{
"name" : "FTBFConfig_v25",
"assigned" : "2017-11-17T18:24:46.943-0600"
},
{
"name" : "FTBFConfig_v26",
"assigned" : "2017-11-17T18:32:24.967-0600"
},
{
"name" : "FTBFConfig_v27",
"assigned" : "2017-11-17T18:43:32.080-0600"
},
{
"name" : "FTBFConfig_v33",
"assigned" : "2017-11-20T18:57:31.761-0600"
},
{
"name" : "FTBFConfig_v34",
"assigned" : "2017-11-29T17:50:41.218-0600"
},
{
"name" : "FTBFConfig_v35",
"assigned" : "2017-11-29T18:00:34.261-0600"
},
{
"name" : "FTBFConfig_v36",
"assigned" : "2017-11-29T18:35:12.888-0600"
},
{
"name" : "FTBFConfig_v37",
"assigned" : "2017-12-01T09:36:19.796-0600"
},
{
"name" : "FTBFConfig_v38",
"assigned" : "2017-12-01T09:52:02.715-0600"
},
{
"name" : "FTBFConfig_v39",
"assigned" : "2017-12-01T11:51:59.970-0600"
},
{
"name" : "FTBFConfig_v40",
"assigned" : "2017-12-01T12:18:22.109-0600"
},
{
"name" : "FTBFConfig_v41",
"assigned" : "2017-12-01T12:21:04.090-0600"
},
{
"name" : "FTBFConfig_v42",
"assigned" : "2017-12-01T12:43:23.557-0600"
},
{
"name" : "FTBFConfig_v43",
"assigned" : "2017-12-01T12:58:01.493-0600"
},
{
"name" : "FTBFConfig_v44",
"assigned" : "2017-12-01T13:00:54.025-0600"
},
{
"name" : "FTBFConfig_v45",
"assigned" : "2017-12-01T13:25:50.587-0600"
},
{
"name" : "FTBFConfig_v46",
"assigned" : "2017-12-01T13:35:45.476-0600"
},
{
"name" : "FTBFConfig_v47",
"assigned" : "2017-12-01T14:00:53.573-0600"
},
{
"name" : "FTBFConfig_v48",
"assigned" : "2017-12-01T14:04:00.924-0600"
},
{
"name" : "FTBFConfig_v49",
"assigned" : "2017-12-01T15:32:01.112-0600"
},
{
"name" : "FTBFConfig_v52",
"assigned" : "2017-12-01T15:37:34.249-0600"
},
{
"name" : "FTBFConfig_v53",
"assigned" : "2017-12-01T15:41:00.630-0600"
},
{
"name" : "FTBFConfig_v54",
"assigned" : "2017-12-01T15:52:50.930-0600"
},
{
"name" : "FTBFConfig_v55",
"assigned" : "2017-12-01T15:54:36.120-0600"
},
{
"name" : "FTBFConfig_v56",
"assigned" : "2017-12-01T15:55:35.720-0600"
},
{
"name" : "FTBFConfig_v57",
"assigned" : "2017-12-01T15:56:41.562-0600"
},
{
"name" : "FTBFConfig_v58",
"assigned" : "2017-12-01T15:57:39.672-0600"
},
{
"name" : "FTBFConfig_v59",
"assigned" : "2017-12-01T15:58:31.527-0600"
},
{
"name" : "FTBFConfig_v60",
"assigned" : "2017-12-01T15:59:32.780-0600"
},
{
"name" : "FTBFConfig_v61",
"assigned" : "2017-12-01T16:19:42.638-0600"
},
{
"name" : "FTBFConfig_v62",
"assigned" : "2017-12-01T16:22:05.070-0600"
},
{
"name" : "FTBFConfig_v63",
"assigned" : "2017-12-01T16:31:25.732-0600"
},
{
"name" : "FTBFConfig_v64",
"assigned" : "2017-12-01T17:06:33.098-0600"
},
{
"name" : "FTBFConfig_v65",
"assigned" : "2017-12-01T17:32:45.287-0600"
},
{
"name" : "FTBFConfig_v66",
"assigned" : "2017-12-01T20:38:51.624-0600"
},
{
"name" : "FTBFConfig_v67",
"assigned" : "2017-12-01T21:25:02.983-0600"
},
{
"name" : "FTBFConfig_v68",
"assigned" : "2017-12-01T21:43:02.702-0600"
},
{
"name" : "FTBFConfig_v69",
"assigned" : "2017-12-01T21:45:01.295-0600"
},
{
"name" : "FTBFConfig_v70",
"assigned" : "2017-12-01T21:59:20.600-0600"
},
{
"name" : "FTBFConfigNim_v0",
"assigned" : "2017-12-01T22:00:07.321-0600"
},
{
"name" : "FTBFConfigNim_v1",
"assigned" : "2017-12-01T22:13:09.143-0600"
},
{
"name" : "FTBFConfigNim_v2",
"assigned" : "2017-12-01T22:15:56.326-0600"
},
{
"name" : "FTBFConfigNim_v3",
"assigned" : "2017-12-01T22:17:04.912-0600"
},
{
"name" : "FTBFConfigNim_v4",
"assigned" : "2017-12-01T22:19:07.441-0600"
},
{
"name" : "FTBFConfigNim_v5",
"assigned" : "2017-12-01T22:21:58.217-0600"
},
{
"name" : "FTBFConfigNim_v6",
"assigned" : "2017-12-01T22:23:16.735-0600"
},
{
"name" : "FTBFConfigNim_v7",
"assigned" : "2017-12-01T22:25:18.218-0600"
},
{
"name" : "FTBFConfigNim_v8",
"assigned" : "2017-12-01T22:27:05.911-0600"
},
{
"name" : "FTBFConfigNim_v9",
"assigned" : "2017-12-01T22:29:30.095-0600"
},
{
"name" : "FTBFConfigNim_v10",
"assigned" : "2017-12-01T22:52:35.468-0600"
},
{
"name" : "FTBFConfigNim_v11",
"assigned" : "2017-12-01T22:57:30.050-0600"
},
{
"name" : "FTBFConfigNim_v12",
"assigned" : "2017-12-01T23:00:08.246-0600"
},
{
"name" : "FTBFConfigNim_v13",
"assigned" : "2017-12-01T23:52:36.401-0600"
},
{
"name" : "FTBFConfigNim_v14",
"assigned" : "2017-12-01T23:58:10.882-0600"
},
{
"name" : "FTBFConfigNim_v15",
"assigned" : "2017-12-02T00:00:35.084-0600"
},
{
"name" : "FTBFConfigNim_v16",
"assigned" : "2017-12-02T00:13:10.325-0600"
},
{
"name" : "FTBFConfigNim_v17",
"assigned" : "2017-12-02T00:28:29.222-0600"
},
{
"name" : "FTBFConfigNim_v18",
"assigned" : "2017-12-02T00:29:35.312-0600"
},
{
"name" : "FTBFConfigNim_v19",
"assigned" : "2017-12-02T00:31:14.167-0600"
},
{
"name" : "FTBFConfigNim_v20",
"assigned" : "2017-12-02T00:57:28.355-0600"
},
{
"name" : "FTBFConfigNim_v21",
"assigned" : "2017-12-02T10:58:02.920-0600"
},
{
"name" : "FTBFConfigNim_v22",
"assigned" : "2017-12-02T11:08:19.092-0600"
},
{
"name" : "FTBFConfigNim_v23",
"assigned" : "2017-12-02T11:12:40.727-0600"
},
{
"name" : "FTBFConfigNim_v24",
"assigned" : "2017-12-02T11:18:43.608-0600"
},
{
"name" : "FTBFConfigNim_v25",
"assigned" : "2017-12-02T11:27:06.813-0600"
},
{
"name" : "FTBFConfigNim_v26",
"assigned" : "2017-12-02T11:38:37.869-0600"
},
{
"name" : "FTBFConfigNim_v27",
"assigned" : "2017-12-02T11:49:09.095-0600"
},
{
"name" : "FTBFConfigNim_v28",
"assigned" : "2017-12-02T11:55:10.600-0600"
},
{
"name" : "FTBFConfigNim_v29",
"assigned" : "2017-12-02T12:06:27.419-0600"
},
{
"name" : "FTBFConfig_v71",
"assigned" : "2017-12-02T12:24:16.051-0600"
},
{
"name" : "FTBFConfig_v72",
"assigned" : "2017-12-02T12:43:36.965-0600"
},
{
"name" : "FTBFConfig_v73",
"assigned" : "2017-12-02T13:55:36.653-0600"
},
{
"name" : "FTBFConfig_v75",
"assigned" : "2017-12-02T14:12:19.842-0600"
},
{
"name" : "FTBFConfig_v76",
"assigned" : "2017-12-02T19:05:54.858-0600"
},
{
"name" : "FTBFConfig_v77",
"assigned" : "2017-12-02T19:12:14.688-0600"
},
{
"name" : "FTBFConfig_v78",
"assigned" : "2017-12-03T14:03:49.838-0600"
},
{
"name" : "FTBFConfig_v79",
"assigned" : "2017-12-03T14:09:08.130-0600"
},
{
"name" : "FTBFConfig_v80",
"assigned" : "2017-12-03T14:11:11.919-0600"
},
{
"name" : "FTBFConfig_v81",
"assigned" : "2017-12-03T14:22:34.914-0600"
},
{
"name" : "FTBFConfig_v82",
"assigned" : "2017-12-03T14:40:39.749-0600"
},
{
"name" : "FTBFConfig_v83",
"assigned" : "2017-12-03T14:45:07.090-0600"
},
{
"name" : "FTBFConfig_v84",
"assigned" : "2017-12-04T14:51:32.366-0600"
},
{
"name" : "FTBFConfig_v85",
"assigned" : "2017-12-04T14:55:45.596-0600"
},
{
"name" : "FTBFConfig_v86",
"assigned" : "2017-12-04T16:51:08.652-0600"
},
{
"name" : "FTBFConfig_v87",
"assigned" : "2017-12-04T16:56:49.285-0600"
},
{
"name" : "FTBFConfig_v88",
"assigned" : "2017-12-04T17:01:14.053-0600"
},
{
"name" : "FTBFConfig_v89",
"assigned" : "2017-12-04T17:03:59.172-0600"
},
{
"name" : "FTBFConfig_v90",
"assigned" : "2017-12-04T17:07:18.840-0600"
},
{
"name" : "FTBFConfig_v91",
"assigned" : "2017-12-04T17:09:27.980-0600"
},
{
"name" : "FTBFConfig_v92",
"assigned" : "2017-12-04T17:11:40.502-0600"
},
{
"name" : "FTBFConfig_v93",
"assigned" : "2017-12-04T21:05:23.006-0600"
},
{
"name" : "FTBFConfig_v94",
"assigned" : "2017-12-04T21:17:14.020-0600"
},
{
"name" : "FTBFConfig_v95",
"assigned" : "2017-12-04T21:41:19.646-0600"
},
{
"name" : "FTBFConfig_v96",
"assigned" : "2017-12-04T22:39:04.318-0600"
},
{
"name" : "FTBFConfig_v97",
"assigned" : "2017-12-04T23:01:14.828-0600"
},
{
"name" : "FTBFConfig_v98",
"assigned" : "2017-12-07T11:07:48.833-0600"
},
{
"name" : "FTBFConfig_v99",
"assigned" : "2017-12-07T11:50:01.482-0600"
},
{
"name" : "FTBFConfig_v100",
"assigned" : "2017-12-07T11:58:28.235-0600"
},
{
"name" : "FTBFConfig_v101",
"assigned" : "2017-12-08T13:30:50.420-0600"
},
{
"name" : "FTBFConfig_v102",
"assigned" : "2017-12-08T13:32:37.308-0600"
},
{
"name" : "FTBFConfig_v103",
"assigned" : "2017-12-12T11:03:07.115-0600"
},
{
"name" : "FTBFConfig_v104",
"assigned" : "2017-12-12T13:51:01.697-0600"
},
{
"name" : "FTBFConfig_v105",
"assigned" : "2017-12-12T15:25:07.664-0600"
},
{
"name" : "FTBFConfig_v106",
"assigned" : "2017-12-13T10:24:25.971-0600"
},
{
"name" : "FTBFConfig_v107",
"assigned" : "2017-12-13T10:27:04.659-0600"
},
{
"name" : "FTBFConfig_v108",
"assigned" : "2018-02-01T21:14:28.408-0600"
},
{
"name" : "FTBFConfig_v109",
"assigned" : "2018-02-01T21:21:05.535-0600"
},
{
"name" : "FTBFConfig_v110",
"assigned" : "2018-02-02T11:25:36.527-0600"
},
{
"name" : "FTBFConfig_v111",
"assigned" : "2018-02-02T11:37:15.363-0600"
},
{
"name" : "FTBFConfig_v112",
"assigned" : "2018-02-02T11:47:17.864-0600"
},
{
"name" : "FTBFConfig_v113",
"assigned" : "2018-02-02T11:53:39.120-0600"
},
{
"name" : "FTBFConfig_v114",
"assigned" : "2018-02-02T12:00:55.246-0600"
},
{
"name" : "FTBFConfig_v115",
"assigned" : "2018-02-02T12:27:16.716-0600"
},
{
"name" : "FTBFConfig_v116",
"assigned" : "2018-02-02T14:28:56.239-0600"
},
{
"name" : "FTBFConfig_v117",
"assigned" : "2018-02-02T14:30:22.613-0600"
},
{
"name" : "FTBFConfig_v118",
"assigned" : "2018-02-02T14:34:03.863-0600"
},
{
"name" : "FTBFConfig_v119",
"assigned" : "2018-02-02T14:36:30.467-0600"
},
{
"name" : "FTBFConfig_v120",
"assigned" : "2018-02-02T14:38:43.885-0600"
},
{
"name" : "FTBFConfig_v121",
"assigned" : "2018-02-02T14:41:53.138-0600"
},
{
"name" : "FTBFConfig_v122",
"assigned" : "2018-02-02T14:50:27.239-0600"
},
{
"name" : "FTBFConfig_v123",
"assigned" : "2018-02-02T14:53:00.118-0600"
},
{
"name" : "FTBFConfig_v124",
"assigned" : "2018-02-02T14:59:53.436-0600"
},
{
"name" : "FTBFConfig_v125",
"assigned" : "2018-02-02T15:04:11.563-0600"
},
{
"name" : "FTBFConfig_v126",
"assigned" : "2018-02-02T15:50:14.892-0600"
},
{
"name" : "FTBFConfig_v127",
"assigned" : "2018-02-02T15:51:34.286-0600"
},
{
"name" : "FTBFConfig_v128",
"assigned" : "2018-02-02T15:52:39.450-0600"
},
{
"name" : "FTBFConfig_v129",
"assigned" : "2018-02-02T16:02:48.378-0600"
},
{
"name" : "FTBFConfig_v130",
"assigned" : "2018-02-02T16:08:47.936-0600"
},
{
"name" : "FTBFConfig_v131",
"assigned" : "2018-02-02T16:11:33.790-0600"
},
{
"name" : "FTBFConfig_v132",
"assigned" : "2018-02-02T16:13:01.663-0600"
},
{
"name" : "FTBFConfig_v133",
"assigned" : "2018-02-02T16:14:32.319-0600"
},
{
"name" : "FTBFConfig_v134",
"assigned" : "2018-02-02T16:26:25.188-0600"
},
{
"name" : "FTBFConfig_v135",
"assigned" : "2018-02-02T16:27:12.305-0600"
},
{
"name" : "FTBFConfig_v136",
"assigned" : "2018-02-02T16:29:33.671-0600"
},
{
"name" : "FTBFConfig_v137",
"assigned" : "2018-02-02T16:31:44.327-0600"
},
{
"name" : "FTBFConfig_v138",
"assigned" : "2018-02-02T16:34:16.978-0600"
},
{
"name" : "FTBFConfig_v139",
"assigned" : "2018-02-02T17:39:33.034-0600"
},
{
"name" : "FTBFConfig_v140",
"assigned" : "2018-02-02T17:42:55.237-0600"
},
{
"name" : "FTBFConfig_v141",
"assigned" : "2018-02-02T17:47:40.456-0600"
},
{
"name" : "FTBFConfig_v142",
"assigned" : "2018-02-02T17:54:04.451-0600"
}
],
"changelog" : "notprovided",
"bookkeeping" : {
"isdeleted" : false,
"isreadonly" : false,
"updates" : [
{
"event" : "addConfiguration",
"timestamp" : "2017-11-17T17:58:21.739-0600",
"value" : {
"name" : "notprovided",
"assigned" : "2017-11-17T17:58:21.739-0600"
}
},
{
"event" : "setVersion",
"timestamp" : "2017-11-17T17:58:21.745-0600",
"value" : {
"name" : "1",
"assigned" : "2017-11-17T17:58:21.745-0600"
}
},
{
"event" : "setCollection",
"timestamp" : "2017-11-17T17:58:21.750-0600",
"value" : {
"name" : "FSSRDACsConfiguration",
"assigned" : "2017-11-17T17:58:21.750-0600"
}
},
{
"event" : "addEntity",
"timestamp" : "2017-11-17T17:58:21.756-0600",
"value" : {
"name" : "OTSROOT",
"assigned" : "2017-11-17T17:58:21.756-0600"
}
},
{
"event" : "addConfiguration",
"timestamp" : "2017-11-17T17:58:27.254-0600",
"value" : {
"name" : "FTBFConfig_v24",
"assigned" : "2017-11-17T17:58:27.254-0600"
}
},
{
"event" : "addConfiguration",
"timestamp" : "2017-11-17T18:24:46.943-0600",
"value" : {
"name" : "FTBFConfig_v25",
"assigned" : "2017-11-17T18:24:46.943-0600"
}
},
{
"event" : "addConfiguration",
"timestamp" : "2017-11-17T18:32:24.968-0600",
"value" : {
"name" : "FTBFConfig_v26",
"assigned" : "2017-11-17T18:32:24.967-0600"
}
},
{
"event" : "addConfiguration",
"timestamp" : "2017-11-17T18:43:32.080-0600",
"value" : {
"name" : "FTBFConfig_v27",
"assigned" : "2017-11-17T18:43:32.080-0600"
}
},
{
"event" : "addConfiguration",
"timestamp" : "2017-11-20T18:57:31.761-0600",
"value" : {
"name" : "FTBFConfig_v33",
"assigned" : "2017-11-20T18:57:31.761-0600"
}
},
{
"event" : "addConfiguration",
"timestamp" : "2017-11-29T17:50:41.218-0600",
"value" : {
"name" : "FTBFConfig_v34",
"assigned" : "2017-11-29T17:50:41.218-0600"
}
},
{
"event" : "addConfiguration",
"timestamp" : "2017-11-29T18:00:34.261-0600",
"value" : {
"name" : "FTBFConfig_v35",
"assigned" : "2017-11-29T18:00:34.261-0600"
}
},
{
"event" : "addConfiguration",
"timestamp" : "2017-11-29T18:35:12.888-0600",
"value" : {
"name" : "FTBFConfig_v36",
"assigned" : "2017-11-29T18:35:12.888-0600"
}
},
{
"event" : "addConfiguration",
"timestamp" : "2017-12-01T09:36:19.796-0600",
"value" : {
"name" : "FTBFConfig_v37",
"assigned" : "2017-12-01T09:36:19.796-0600"
}
},
{
"event" : "addConfiguration",
"timestamp" : "2017-12-01T09:52:02.715-0600",
"value" : {
"name" : "FTBFConfig_v38",
"assigned" : "2017-12-01T09:52:02.715-0600"
}
},
{
"event" : "addConfiguration",
"timestamp" : "2017-12-01T11:51:59.970-0600",
"value" : {
"name" : "FTBFConfig_v39",
"assigned" : "2017-12-01T11:51:59.970-0600"
}
},
{
"event" : "addConfiguration",
"timestamp" : "2017-12-01T12:18:22.109-0600",
"value" : {
"name" : "FTBFConfig_v40",
"assigned" : "2017-12-01T12:18:22.109-0600"
}
},
{
"event" : "addConfiguration",
"timestamp" : "2017-12-01T12:21:04.090-0600",
"value" : {
"name" : "FTBFConfig_v41",
"assigned" : "2017-12-01T12:21:04.090-0600"
}
},
{
"event" : "addConfiguration",
"timestamp" : "2017-12-01T12:43:23.557-0600",
"value" : {
"name" : "FTBFConfig_v42",
"assigned" : "2017-12-01T12:43:23.557-0600"
}
},
{
"event" : "addConfiguration",
"timestamp" : "2017-12-01T12:58:01.493-0600",
"value" : {
"name" : "FTBFConfig_v43",
"assigned" : "2017-12-01T12:58:01.493-0600"
}
},
{
"event" : "addConfiguration",
"timestamp" : "2017-12-01T13:00:54.025-0600",
"value" : {
"name" : "FTBFConfig_v44",
"assigned" : "2017-12-01T13:00:54.025-0600"
}
},
{
"event" : "addConfiguration",
"timestamp" : "2017-12-01T13:25:50.587-0600",
"value" : {
"name" : "FTBFConfig_v45",
"assigned" : "2017-12-01T13:25:50.587-0600"
}
},
{
"event" : "addConfiguration",
"timestamp" : "2017-12-01T13:35:45.476-0600",
"value" : {
"name" : "FTBFConfig_v46",
"assigned" : "2017-12-01T13:35:45.476-0600"
}
},
{
"event" : "addConfiguration",
"timestamp" : "2017-12-01T14:00:53.573-0600",
"value" : {
"name" : "FTBFConfig_v47",
"assigned" : "2017-12-01T14:00:53.573-0600"
}
},
{
"event" : "addConfiguration",
"timestamp" : "2017-12-01T14:04:00.924-0600",
"value" : {
"name" : "FTBFConfig_v48",
"assigned" : "2017-12-01T14:04:00.924-0600"
}
},
{
"event" : "addConfiguration",
"timestamp" : "2017-12-01T15:32:01.112-0600",
"value" : {
"name" : "FTBFConfig_v49",
"assigned" : "2017-12-01T15:32:01.112-0600"
}
},
{
"event" : "addConfiguration",
"timestamp" : "2017-12-01T15:37:34.249-0600",
"value" : {
"name" : "FTBFConfig_v52",
"assigned" : "2017-12-01T15:37:34.249-0600"
}
},
{
"event" : "addConfiguration",
"timestamp" : "2017-12-01T15:41:00.630-0600",
"value" : {
"name" : "FTBFConfig_v53",
"assigned" : "2017-12-01T15:41:00.630-0600"
}
},
{
"event" : "addConfiguration",
"timestamp" : "2017-12-01T15:52:50.931-0600",
"value" : {
"name" : "FTBFConfig_v54",
"assigned" : "2017-12-01T15:52:50.930-0600"
}
},
{
"event" : "addConfiguration",
"timestamp" : "2017-12-01T15:54:36.120-0600",
"value" : {
"name" : "FTBFConfig_v55",
"assigned" : "2017-12-01T15:54:36.120-0600"
}
},
{
"event" : "addConfiguration",
"timestamp" : "2017-12-01T15:55:35.720-0600",
"value" : {
"name" : "FTBFConfig_v56",
"assigned" : "2017-12-01T15:55:35.720-0600"
}
},
{
"event" : "addConfiguration",
"timestamp" : "2017-12-01T15:56:41.562-0600",
"value" : {
"name" : "FTBFConfig_v57",
"assigned" : "2017-12-01T15:56:41.562-0600"
}
},
{
"event" : "addConfiguration",
"timestamp" : "2017-12-01T15:57:39.672-0600",
"value" : {
"name" : "FTBFConfig_v58",
"assigned" : "2017-12-01T15:57:39.672-0600"
}
},
{
"event" : "addConfiguration",
"timestamp" : "2017-12-01T15:58:31.527-0600",
"value" : {
"name" : "FTBFConfig_v59",
"assigned" : "2017-12-01T15:58:31.527-0600"
}
},
{
"event" : "addConfiguration",
"timestamp" : "2017-12-01T15:59:32.780-0600",
"value" : {
"name" : "FTBFConfig_v60",
"assigned" : "2017-12-01T15:59:32.780-0600"
}
},
{
"event" : "addConfiguration",
"timestamp" : "2017-12-01T16:19:42.638-0600",
"value" : {
"name" : "FTBFConfig_v61",
"assigned" : "2017-12-01T16:19:42.638-0600"
}
},
{
"event" : "addConfiguration",
"timestamp" : "2017-12-01T16:22:05.071-0600",
"value" : {
"name" : "FTBFConfig_v62",
"assigned" : "2017-12-01T16:22:05.070-0600"
}
},
{
"event" : "addConfiguration",
"timestamp" : "2017-12-01T16:31:25.732-0600",
"value" : {
"name" : "FTBFConfig_v63",
"assigned" : "2017-12-01T16:31:25.732-0600"
}
},
{
"event" : "addConfiguration",
"timestamp" : "2017-12-01T17:06:33.098-0600",
"value" : {
"name" : "FTBFConfig_v64",
"assigned" : "2017-12-01T17:06:33.098-0600"
}
},
{
"event" : "addConfiguration",
"timestamp" : "2017-12-01T17:32:45.287-0600",
"value" : {
"name" : "FTBFConfig_v65",
"assigned" : "2017-12-01T17:32:45.287-0600"
}
},
{
"event" : "addConfiguration",
"timestamp" : "2017-12-01T20:38:51.624-0600",
"value" : {
"name" : "FTBFConfig_v66",
"assigned" : "2017-12-01T20:38:51.624-0600"
}
},
{
"event" : "addConfiguration",
"timestamp" : "2017-12-01T21:25:02.983-0600",
"value" : {
"name" : "FTBFConfig_v67",
"assigned" : "2017-12-01T21:25:02.983-0600"
}
},
{
"event" : "addConfiguration",
"timestamp" : "2017-12-01T21:43:02.702-0600",
"value" : {
"name" : "FTBFConfig_v68",
"assigned" : "2017-12-01T21:43:02.702-0600"
}
},
{
"event" : "addConfiguration",
"timestamp" : "2017-12-01T21:45:01.295-0600",
"value" : {
"name" : "FTBFConfig_v69",
"assigned" : "2017-12-01T21:45:01.295-0600"
}
},
{
"event" : "addConfiguration",
"timestamp" : "2017-12-01T21:59:20.600-0600",
"value" : {
"name" : "FTBFConfig_v70",
"assigned" : "2017-12-01T21:59:20.600-0600"
}
},
{
"event" : "addConfiguration",
"timestamp" : "2017-12-01T22:00:07.321-0600",
"value" : {
"name" : "FTBFConfigNim_v0",
"assigned" : "2017-12-01T22:00:07.321-0600"
}
},
{
"event" : "addConfiguration",
"timestamp" : "2017-12-01T22:13:09.143-0600",
"value" : {
"name" : "FTBFConfigNim_v1",
"assigned" : "2017-12-01T22:13:09.143-0600"
}
},
{
"event" : "addConfiguration",
"timestamp" : "2017-12-01T22:15:56.326-0600",
"value" : {
"name" : "FTBFConfigNim_v2",
"assigned" : "2017-12-01T22:15:56.326-0600"
}
},
{
"event" : "addConfiguration",
"timestamp" : "2017-12-01T22:17:04.912-0600",
"value" : {
"name" : "FTBFConfigNim_v3",
"assigned" : "2017-12-01T22:17:04.912-0600"
}
},
{
"event" : "addConfiguration",
"timestamp" : "2017-12-01T22:19:07.441-0600",
"value" : {
"name" : "FTBFConfigNim_v4",
"assigned" : "2017-12-01T22:19:07.441-0600"
}
},
{
"event" : "addConfiguration",
"timestamp" : "2017-12-01T22:21:58.218-0600",
"value" : {
"name" : "FTBFConfigNim_v5",
"assigned" : "2017-12-01T22:21:58.217-0600"
}
},
{
"event" : "addConfiguration",
"timestamp" : "2017-12-01T22:23:16.735-0600",
"value" : {
"name" : "FTBFConfigNim_v6",
"assigned" : "2017-12-01T22:23:16.735-0600"
}
},
{
"event" : "addConfiguration",
"timestamp" : "2017-12-01T22:25:18.218-0600",
"value" : {
"name" : "FTBFConfigNim_v7",
"assigned" : "2017-12-01T22:25:18.218-0600"
}
},
{
"event" : "addConfiguration",
"timestamp" : "2017-12-01T22:27:05.911-0600",
"value" : {
"name" : "FTBFConfigNim_v8",
"assigned" : "2017-12-01T22:27:05.911-0600"
}
},
{
"event" : "addConfiguration",
"timestamp" : "2017-12-01T22:29:30.096-0600",
"value" : {
"name" : "FTBFConfigNim_v9",
"assigned" : "2017-12-01T22:29:30.095-0600"
}
},
{
"event" : "addConfiguration",
"timestamp" : "2017-12-01T22:52:35.468-0600",
"value" : {
"name" : "FTBFConfigNim_v10",
"assigned" : "2017-12-01T22:52:35.468-0600"
}
},
{
"event" : "addConfiguration",
"timestamp" : "2017-12-01T22:57:30.050-0600",
"value" : {
"name" : "FTBFConfigNim_v11",
"assigned" : "2017-12-01T22:57:30.050-0600"
}
},
{
"event" : "addConfiguration",
"timestamp" : "2017-12-01T23:00:08.246-0600",
"value" : {
"name" : "FTBFConfigNim_v12",
"assigned" : "2017-12-01T23:00:08.246-0600"
}
},
{
"event" : "addConfiguration",
"timestamp" : "2017-12-01T23:52:36.401-0600",
"value" : {
"name" : "FTBFConfigNim_v13",
"assigned" : "2017-12-01T23:52:36.401-0600"
}
},
{
"event" : "addConfiguration",
"timestamp" : "2017-12-01T23:58:10.882-0600",
"value" : {
"name" : "FTBFConfigNim_v14",
"assigned" : "2017-12-01T23:58:10.882-0600"
}
},
{
"event" : "addConfiguration",
"timestamp" : "2017-12-02T00:00:35.084-0600",
"value" : {
"name" : "FTBFConfigNim_v15",
"assigned" : "2017-12-02T00:00:35.084-0600"
}
},
{
"event" : "addConfiguration",
"timestamp" : "2017-12-02T00:13:10.325-0600",
"value" : {
"name" : "FTBFConfigNim_v16",
"assigned" : "2017-12-02T00:13:10.325-0600"
}
},
{
"event" : "addConfiguration",
"timestamp" : "2017-12-02T00:28:29.222-0600",
"value" : {
"name" : "FTBFConfigNim_v17",
"assigned" : "2017-12-02T00:28:29.222-0600"
}
},
{
"event" : "addConfiguration",
"timestamp" : "2017-12-02T00:29:35.312-0600",
"value" : {
"name" : "FTBFConfigNim_v18",
"assigned" : "2017-12-02T00:29:35.312-0600"
}
},
{
"event" : "addConfiguration",
"timestamp" : "2017-12-02T00:31:14.168-0600",
"value" : {
"name" : "FTBFConfigNim_v19",
"assigned" : "2017-12-02T00:31:14.167-0600"
}
},
{
"event" : "addConfiguration",
"timestamp" : "2017-12-02T00:57:28.356-0600",
"value" : {
"name" : "FTBFConfigNim_v20",
"assigned" : "2017-12-02T00:57:28.355-0600"
}
},
{
"event" : "addConfiguration",
"timestamp" : "2017-12-02T10:58:02.920-0600",
"value" : {
"name" : "FTBFConfigNim_v21",
"assigned" : "2017-12-02T10:58:02.920-0600"
}
},
{
"event" : "addConfiguration",
"timestamp" : "2017-12-02T11:08:19.092-0600",
"value" : {
"name" : "FTBFConfigNim_v22",
"assigned" : "2017-12-02T11:08:19.092-0600"
}
},
{
"event" : "addConfiguration",
"timestamp" : "2017-12-02T11:12:40.727-0600",
"value" : {
"name" : "FTBFConfigNim_v23",
"assigned" : "2017-12-02T11:12:40.727-0600"
}
},
{
"event" : "addConfiguration",
"timestamp" : "2017-12-02T11:18:43.608-0600",
"value" : {
"name" : "FTBFConfigNim_v24",
"assigned" : "2017-12-02T11:18:43.608-0600"
}
},
{
"event" : "addConfiguration",
"timestamp" : "2017-12-02T11:27:06.813-0600",
"value" : {
"name" : "FTBFConfigNim_v25",
"assigned" : "2017-12-02T11:27:06.813-0600"
}
},
{
"event" : "addConfiguration",
"timestamp" : "2017-12-02T11:38:37.869-0600",
"value" : {
"name" : "FTBFConfigNim_v26",
"assigned" : "2017-12-02T11:38:37.869-0600"
}
},
{
"event" : "addConfiguration",
"timestamp" : "2017-12-02T11:49:09.095-0600",
"value" : {
"name" : "FTBFConfigNim_v27",
"assigned" : "2017-12-02T11:49:09.095-0600"
}
},
{
"event" : "addConfiguration",
"timestamp" : "2017-12-02T11:55:10.600-0600",
"value" : {
"name" : "FTBFConfigNim_v28",
"assigned" : "2017-12-02T11:55:10.600-0600"
}
},
{
"event" : "addConfiguration",
"timestamp" : "2017-12-02T12:06:27.419-0600",
"value" : {
"name" : "FTBFConfigNim_v29",
"assigned" : "2017-12-02T12:06:27.419-0600"
}
},
{
"event" : "addConfiguration",
"timestamp" : "2017-12-02T12:24:16.051-0600",
"value" : {
"name" : "FTBFConfig_v71",
"assigned" : "2017-12-02T12:24:16.051-0600"
}
},
{
"event" : "addConfiguration",
"timestamp" : "2017-12-02T12:43:36.965-0600",
"value" : {
"name" : "FTBFConfig_v72",
"assigned" : "2017-12-02T12:43:36.965-0600"
}
},
{
"event" : "addConfiguration",
"timestamp" : "2017-12-02T13:55:36.653-0600",
"value" : {
"name" : "FTBFConfig_v73",
"assigned" : "2017-12-02T13:55:36.653-0600"
}
},
{
"event" : "addConfiguration",
"timestamp" : "2017-12-02T14:12:19.842-0600",
"value" : {
"name" : "FTBFConfig_v75",
"assigned" : "2017-12-02T14:12:19.842-0600"
}
},
{
"event" : "addConfiguration",
"timestamp" : "2017-12-02T19:05:54.858-0600",
"value" : {
"name" : "FTBFConfig_v76",
"assigned" : "2017-12-02T19:05:54.858-0600"
}
},
{
"event" : "addConfiguration",
"timestamp" : "2017-12-02T19:12:14.688-0600",
"value" : {
"name" : "FTBFConfig_v77",
"assigned" : "2017-12-02T19:12:14.688-0600"
}
},
{
"event" : "addConfiguration",
"timestamp" : "2017-12-03T14:03:49.838-0600",
"value" : {
"name" : "FTBFConfig_v78",
"assigned" : "2017-12-03T14:03:49.838-0600"
}
},
{
"event" : "addConfiguration",
"timestamp" : "2017-12-03T14:09:08.130-0600",
"value" : {
"name" : "FTBFConfig_v79",
"assigned" : "2017-12-03T14:09:08.130-0600"
}
},
{
"event" : "addConfiguration",
"timestamp" : "2017-12-03T14:11:11.919-0600",
"value" : {
"name" : "FTBFConfig_v80",
"assigned" : "2017-12-03T14:11:11.919-0600"
}
},
{
"event" : "addConfiguration",
"timestamp" : "2017-12-03T14:22:34.914-0600",
"value" : {
"name" : "FTBFConfig_v81",
"assigned" : "2017-12-03T14:22:34.914-0600"
}
},
{
"event" : "addConfiguration",
"timestamp" : "2017-12-03T14:40:39.749-0600",
"value" : {
"name" : "FTBFConfig_v82",
"assigned" : "2017-12-03T14:40:39.749-0600"
}
},
{
"event" : "addConfiguration",
"timestamp" : "2017-12-03T14:45:07.090-0600",
"value" : {
"name" : "FTBFConfig_v83",
"assigned" : "2017-12-03T14:45:07.090-0600"
}
},
{
"event" : "addConfiguration",
"timestamp" : "2017-12-04T14:51:32.367-0600",
"value" : {
"name" : "FTBFConfig_v84",
"assigned" : "2017-12-04T14:51:32.366-0600"
}
},
{
"event" : "addConfiguration",
"timestamp" : "2017-12-04T14:55:45.596-0600",
"value" : {
"name" : "FTBFConfig_v85",
"assigned" : "2017-12-04T14:55:45.596-0600"
}
},
{
"event" : "addConfiguration",
"timestamp" : "2017-12-04T16:51:08.652-0600",
"value" : {
"name" : "FTBFConfig_v86",
"assigned" : "2017-12-04T16:51:08.652-0600"
}
},
{
"event" : "addConfiguration",
"timestamp" : "2017-12-04T16:56:49.285-0600",
"value" : {
"name" : "FTBFConfig_v87",
"assigned" : "2017-12-04T16:56:49.285-0600"
}
},
{
"event" : "addConfiguration",
"timestamp" : "2017-12-04T17:01:14.053-0600",
"value" : {
"name" : "FTBFConfig_v88",
"assigned" : "2017-12-04T17:01:14.053-0600"
}
},
{
"event" : "addConfiguration",
"timestamp" : "2017-12-04T17:03:59.172-0600",
"value" : {
"name" : "FTBFConfig_v89",
"assigned" : "2017-12-04T17:03:59.172-0600"
}
},
{
"event" : "addConfiguration",
"timestamp" : "2017-12-04T17:07:18.840-0600",
"value" : {
"name" : "FTBFConfig_v90",
"assigned" : "2017-12-04T17:07:18.840-0600"
}
},
{
"event" : "addConfiguration",
"timestamp" : "2017-12-04T17:09:27.980-0600",
"value" : {
"name" : "FTBFConfig_v91",
"assigned" : "2017-12-04T17:09:27.980-0600"
}
},
{
"event" : "addConfiguration",
"timestamp" : "2017-12-04T17:11:40.502-0600",
"value" : {
"name" : "FTBFConfig_v92",
"assigned" : "2017-12-04T17:11:40.502-0600"
}
},
{
"event" : "addConfiguration",
"timestamp" : "2017-12-04T21:05:23.007-0600",
"value" : {
"name" : "FTBFConfig_v93",
"assigned" : "2017-12-04T21:05:23.006-0600"
}
},
{
"event" : "addConfiguration",
"timestamp" : "2017-12-04T21:17:14.020-0600",
"value" : {
"name" : "FTBFConfig_v94",
"assigned" : "2017-12-04T21:17:14.020-0600"
}
},
{
"event" : "addConfiguration",
"timestamp" : "2017-12-04T21:41:19.646-0600",
"value" : {
"name" : "FTBFConfig_v95",
"assigned" : "2017-12-04T21:41:19.646-0600"
}
},
{
"event" : "addConfiguration",
"timestamp" : "2017-12-04T22:39:04.318-0600",
"value" : {
"name" : "FTBFConfig_v96",
"assigned" : "2017-12-04T22:39:04.318-0600"
}
},
{
"event" : "addConfiguration",
"timestamp" : "2017-12-04T23:01:14.828-0600",
"value" : {
"name" : "FTBFConfig_v97",
"assigned" : "2017-12-04T23:01:14.828-0600"
}
},
{
"event" : "addConfiguration",
"timestamp" : "2017-12-07T11:07:48.833-0600",
"value" : {
"name" : "FTBFConfig_v98",
"assigned" : "2017-12-07T11:07:48.833-0600"
}
},
{
"event" : "addConfiguration",
"timestamp" : "2017-12-07T11:50:01.482-0600",
"value" : {
"name" : "FTBFConfig_v99",
"assigned" : "2017-12-07T11:50:01.482-0600"
}
},
{
"event" : "addConfiguration",
"timestamp" : "2017-12-07T11:58:28.236-0600",
"value" : {
"name" : "FTBFConfig_v100",
"assigned" : "2017-12-07T11:58:28.235-0600"
}
},
{
"event" : "addConfiguration",
"timestamp" : "2017-12-08T13:30:50.421-0600",
"value" : {
"name" : "FTBFConfig_v101",
"assigned" : "2017-12-08T13:30:50.420-0600"
}
},
{
"event" : "addConfiguration",
"timestamp" : "2017-12-08T13:32:37.308-0600",
"value" : {
"name" : "FTBFConfig_v102",
"assigned" : "2017-12-08T13:32:37.308-0600"
}
},
{
"event" : "addConfiguration",
"timestamp" : "2017-12-12T11:03:07.116-0600",
"value" : {
"name" : "FTBFConfig_v103",
"assigned" : "2017-12-12T11:03:07.115-0600"
}
},
{
"event" : "addConfiguration",
"timestamp" : "2017-12-12T13:51:01.697-0600",
"value" : {
"name" : "FTBFConfig_v104",
"assigned" : "2017-12-12T13:51:01.697-0600"
}
},
{
"event" : "addConfiguration",
"timestamp" : "2017-12-12T15:25:07.664-0600",
"value" : {
"name" : "FTBFConfig_v105",
"assigned" : "2017-12-12T15:25:07.664-0600"
}
},
{
"event" : "addConfiguration",
"timestamp" : "2017-12-13T10:24:25.971-0600",
"value" : {
"name" : "FTBFConfig_v106",
"assigned" : "2017-12-13T10:24:25.971-0600"
}
},
{
"event" : "addConfiguration",
"timestamp" : "2017-12-13T10:27:04.659-0600",
"value" : {
"name" : "FTBFConfig_v107",
"assigned" : "2017-12-13T10:27:04.659-0600"
}
},
{
"event" : "addConfiguration",
"timestamp" : "2018-02-01T21:14:28.408-0600",
"value" : {
"name" : "FTBFConfig_v108",
"assigned" : "2018-02-01T21:14:28.408-0600"
}
},
{
"event" : "addConfiguration",
"timestamp" : "2018-02-01T21:21:05.535-0600",
"value" : {
"name" : "FTBFConfig_v109",
"assigned" : "2018-02-01T21:21:05.535-0600"
}
},
{
"event" : "addConfiguration",
"timestamp" : "2018-02-02T11:25:36.527-0600",
"value" : {
"name" : "FTBFConfig_v110",
"assigned" : "2018-02-02T11:25:36.527-0600"
}
},
{
"event" : "addConfiguration",
"timestamp" : "2018-02-02T11:37:15.363-0600",
"value" : {
"name" : "FTBFConfig_v111",
"assigned" : "2018-02-02T11:37:15.363-0600"
}
},
{
"event" : "addConfiguration",
"timestamp" : "2018-02-02T11:47:17.864-0600",
"value" : {
"name" : "FTBFConfig_v112",
"assigned" : "2018-02-02T11:47:17.864-0600"
}
},
{
"event" : "addConfiguration",
"timestamp" : "2018-02-02T11:53:39.120-0600",
"value" : {
"name" : "FTBFConfig_v113",
"assigned" : "2018-02-02T11:53:39.120-0600"
}
},
{
"event" : "addConfiguration",
"timestamp" : "2018-02-02T12:00:55.246-0600",
"value" : {
"name" : "FTBFConfig_v114",
"assigned" : "2018-02-02T12:00:55.246-0600"
}
},
{
"event" : "addConfiguration",
"timestamp" : "2018-02-02T12:27:16.716-0600",
"value" : {
"name" : "FTBFConfig_v115",
"assigned" : "2018-02-02T12:27:16.716-0600"
}
},
{
"event" : "addConfiguration",
"timestamp" : "2018-02-02T14:28:56.239-0600",
"value" : {
"name" : "FTBFConfig_v116",
"assigned" : "2018-02-02T14:28:56.239-0600"
}
},
{
"event" : "addConfiguration",
"timestamp" : "2018-02-02T14:30:22.613-0600",
"value" : {
"name" : "FTBFConfig_v117",
"assigned" : "2018-02-02T14:30:22.613-0600"
}
},
{
"event" : "addConfiguration",
"timestamp" : "2018-02-02T14:34:03.863-0600",
"value" : {
"name" : "FTBFConfig_v118",
"assigned" : "2018-02-02T14:34:03.863-0600"
}
},
{
"event" : "addConfiguration",
"timestamp" : "2018-02-02T14:36:30.468-0600",
"value" : {
"name" : "FTBFConfig_v119",
"assigned" : "2018-02-02T14:36:30.467-0600"
}
},
{
"event" : "addConfiguration",
"timestamp" : "2018-02-02T14:38:43.885-0600",
"value" : {
"name" : "FTBFConfig_v120",
"assigned" : "2018-02-02T14:38:43.885-0600"
}
},
{
"event" : "addConfiguration",
"timestamp" : "2018-02-02T14:41:53.139-0600",
"value" : {
"name" : "FTBFConfig_v121",
"assigned" : "2018-02-02T14:41:53.138-0600"
}
},
{
"event" : "addConfiguration",
"timestamp" : "2018-02-02T14:50:27.239-0600",
"value" : {
"name" : "FTBFConfig_v122",
"assigned" : "2018-02-02T14:50:27.239-0600"
}
},
{
"event" : "addConfiguration",
"timestamp" : "2018-02-02T14:53:00.118-0600",
"value" : {
"name" : "FTBFConfig_v123",
"assigned" : "2018-02-02T14:53:00.118-0600"
}
},
{
"event" : "addConfiguration",
"timestamp" : "2018-02-02T14:59:53.436-0600",
"value" : {
"name" : "FTBFConfig_v124",
"assigned" : "2018-02-02T14:59:53.436-0600"
}
},
{
"event" : "addConfiguration",
"timestamp" : "2018-02-02T15:04:11.563-0600",
"value" : {
"name" : "FTBFConfig_v125",
"assigned" : "2018-02-02T15:04:11.563-0600"
}
},
{
"event" : "addConfiguration",
"timestamp" : "2018-02-02T15:50:14.892-0600",
"value" : {
"name" : "FTBFConfig_v126",
"assigned" : "2018-02-02T15:50:14.892-0600"
}
},
{
"event" : "addConfiguration",
"timestamp" : "2018-02-02T15:51:34.286-0600",
"value" : {
"name" : "FTBFConfig_v127",
"assigned" : "2018-02-02T15:51:34.286-0600"
}
},
{
"event" : "addConfiguration",
"timestamp" : "2018-02-02T15:52:39.450-0600",
"value" : {
"name" : "FTBFConfig_v128",
"assigned" : "2018-02-02T15:52:39.450-0600"
}
},
{
"event" : "addConfiguration",
"timestamp" : "2018-02-02T16:02:48.378-0600",
"value" : {
"name" : "FTBFConfig_v129",
"assigned" : "2018-02-02T16:02:48.378-0600"
}
},
{
"event" : "addConfiguration",
"timestamp" : "2018-02-02T16:08:47.936-0600",
"value" : {
"name" : "FTBFConfig_v130",
"assigned" : "2018-02-02T16:08:47.936-0600"
}
},
{
"event" : "addConfiguration",
"timestamp" : "2018-02-02T16:11:33.790-0600",
"value" : {
"name" : "FTBFConfig_v131",
"assigned" : "2018-02-02T16:11:33.790-0600"
}
},
{
"event" : "addConfiguration",
"timestamp" : "2018-02-02T16:13:01.663-0600",
"value" : {
"name" : "FTBFConfig_v132",
"assigned" : "2018-02-02T16:13:01.663-0600"
}
},
{
"event" : "addConfiguration",
"timestamp" : "2018-02-02T16:14:32.320-0600",
"value" : {
"name" : "FTBFConfig_v133",
"assigned" : "2018-02-02T16:14:32.319-0600"
}
},
{
"event" : "addConfiguration",
"timestamp" : "2018-02-02T16:26:25.188-0600",
"value" : {
"name" : "FTBFConfig_v134",
"assigned" : "2018-02-02T16:26:25.188-0600"
}
},
{
"event" : "addConfiguration",
"timestamp" : "2018-02-02T16:27:12.305-0600",
"value" : {
"name" : "FTBFConfig_v135",
"assigned" : "2018-02-02T16:27:12.305-0600"
}
},
{
"event" : "addConfiguration",
"timestamp" : "2018-02-02T16:29:33.671-0600",
"value" : {
"name" : "FTBFConfig_v136",
"assigned" : "2018-02-02T16:29:33.671-0600"
}
},
{
"event" : "addConfiguration",
"timestamp" : "2018-02-02T16:31:44.327-0600",
"value" : {
"name" : "FTBFConfig_v137",
"assigned" : "2018-02-02T16:31:44.327-0600"
}
},
{
"event" : "addConfiguration",
"timestamp" : "2018-02-02T16:34:16.978-0600",
"value" : {
"name" : "FTBFConfig_v138",
"assigned" : "2018-02-02T16:34:16.978-0600"
}
},
{
"event" : "addConfiguration",
"timestamp" : "2018-02-02T17:39:33.034-0600",
"value" : {
"name" : "FTBFConfig_v139",
"assigned" : "2018-02-02T17:39:33.034-0600"
}
},
{
"event" : "addConfiguration",
"timestamp" : "2018-02-02T17:42:55.237-0600",
"value" : {
"name" : "FTBFConfig_v140",
"assigned" : "2018-02-02T17:42:55.237-0600"
}
},
{
"event" : "addConfiguration",
"timestamp" : "2018-02-02T17:47:40.456-0600",
"value" : {
"name" : "FTBFConfig_v141",
"assigned" : "2018-02-02T17:47:40.456-0600"
}
},
{
"event" : "addConfiguration",
"timestamp" : "2018-02-02T17:54:04.451-0600",
"value" : {
"name" : "FTBFConfig_v142",
"assigned" : "2018-02-02T17:54:04.451-0600"
}
}
],
"created" : "2017-11-17T17:58:21.727-0600"
},
"_id" : {
"$oid" : "a6209eba8762475bb62c472a"
},
"collection" : "FSSRDACsConfiguration",
"aliases" : {
"active" : [

],
"history" : [

]
},
"runs" : [

],
"attachments" : [

],
"configtype" : "notprovided"
}