{
"ouid" : [
"42f0dd9626474e80b79531dd",
"d76b720a8390455d9408b028"
],
"version" : {
"2" : [
"42f0dd9626474e80b79531dd"
],
"4" : [
"d76b720a8390455d9408b028"
]
},
"configurations.name" : {
"notprovided" : [
"42f0dd9626474e80b79531dd",
"d76b720a8390455d9408b028"
],
"GroupAliasTreeEditWizBackbone_v2" : [
"42f0dd9626474e80b79531dd"
],
"GroupAliasTreeEditWizBackbone_v4" : [
"d76b720a8390455d9408b028"
],
"GroupAliasTreeEditWizBackbone_v5" : [
"d76b720a8390455d9408b028"
],
"GroupAliasTreeEditWizBackbone_v6" : [
"d76b720a8390455d9408b028"
],
"GroupAliasTreeEditWizBackbone_v7" : [
"d76b720a8390455d9408b028"
],
"GroupAliasTreeEditWizBackbone_v8" : [
"d76b720a8390455d9408b028"
],
"GroupAliasTreeEditWizBackbone_v9" : [
"d76b720a8390455d9408b028"
]
},
"entities.name" : {
"OTSROOT" : [
"42f0dd9626474e80b79531dd",
"d76b720a8390455d9408b028"
]
},
"aliases.active.name" : {

},
"runs.name" : {

},
"configurations.assigned" : {
"notprovided" : [
"2020-09-08T15:08:31.859-0500",
"2020-09-08T15:08:33.188-0500"
],
"GroupAliasTreeEditWizBackbone_v2" : [
"2020-09-08T15:08:31.988-0500"
],
"GroupAliasTreeEditWizBackbone_v4" : [
"2020-09-08T15:08:33.245-0500"
],
"GroupAliasTreeEditWizBackbone_v5" : [
"2020-09-08T15:11:11.942-0500"
],
"GroupAliasTreeEditWizBackbone_v6" : [
"2020-09-08T15:38:46.899-0500"
],
"GroupAliasTreeEditWizBackbone_v7" : [
"2020-09-08T16:11:32.565-0500"
],
"GroupAliasTreeEditWizBackbone_v8" : [
"2020-09-08T17:51:45.827-0500"
],
"GroupAliasTreeEditWizBackbone_v9" : [
"2020-09-08T17:53:12.762-0500"
]
}
}