{
"ouid" : [
"267b26cc80ff47d1a1e15ed4"
],
"version" : {
"0" : [
"267b26cc80ff47d1a1e15ed4"
]
},
"configurations.name" : {
"notprovided" : [
"267b26cc80ff47d1a1e15ed4"
],
"DefaultContext_v16" : [
"267b26cc80ff47d1a1e15ed4"
],
"DefaultContext_v17" : [
"267b26cc80ff47d1a1e15ed4"
],
"DefaultContext_v18" : [
"267b26cc80ff47d1a1e15ed4"
],
"DefaultContext_v19" : [
"267b26cc80ff47d1a1e15ed4"
],
"DefaultContext_v20" : [
"267b26cc80ff47d1a1e15ed4"
],
"DefaultContext_v21" : [
"267b26cc80ff47d1a1e15ed4"
],
"DefaultContext_v22" : [
"267b26cc80ff47d1a1e15ed4"
],
"DefaultContext_v23" : [
"267b26cc80ff47d1a1e15ed4"
],
"DefaultContext_v24" : [
"267b26cc80ff47d1a1e15ed4"
],
"DefaultContext_v25" : [
"267b26cc80ff47d1a1e15ed4"
],
"DefaultContext_v26" : [
"267b26cc80ff47d1a1e15ed4"
],
"DefaultContext_v27" : [
"267b26cc80ff47d1a1e15ed4"
],
"DefaultContext_v28" : [
"267b26cc80ff47d1a1e15ed4"
],
"DefaultContext_v29" : [
"267b26cc80ff47d1a1e15ed4"
]
},
"entities.name" : {
"OTSROOT" : [
"267b26cc80ff47d1a1e15ed4"
]
},
"aliases.active.name" : {

},
"runs.name" : {

},
"configurations.assigned" : {
"notprovided" : [
"2021-04-29T11:04:16.075-0500"
],
"DefaultContext_v16" : [
"2021-04-29T11:04:33.115-0500"
],
"DefaultContext_v17" : [
"2021-04-29T12:14:45.768-0500"
],
"DefaultContext_v18" : [
"2021-04-29T12:25:33.265-0500"
],
"DefaultContext_v19" : [
"2021-04-29T12:25:52.741-0500"
],
"DefaultContext_v20" : [
"2021-04-29T12:40:04.021-0500"
],
"DefaultContext_v21" : [
"2021-04-29T13:20:40.242-0500"
],
"DefaultContext_v22" : [
"2021-05-10T11:39:30.104-0500"
],
"DefaultContext_v23" : [
"2021-05-12T15:51:58.235-0500"
],
"DefaultContext_v24" : [
"2021-05-14T15:34:25.986-0500"
],
"DefaultContext_v25" : [
"2021-05-14T16:41:02.661-0500"
],
"DefaultContext_v26" : [
"2021-05-25T12:01:04.841-0500"
],
"DefaultContext_v27" : [
"2021-05-25T12:57:26.433-0500"
],
"DefaultContext_v28" : [
"2021-05-25T13:06:03.303-0500"
],
"DefaultContext_v29" : [
"2021-05-25T13:51:13.226-0500"
]
}
}