{
"ouid" : [
"bf2e870abd8e451eab952e47",
"eafced8bbed940fd97f26659"
],
"version" : {
"0" : [
"bf2e870abd8e451eab952e47"
],
"1" : [
"eafced8bbed940fd97f26659"
]
},
"configurations.name" : {
"notprovided" : [
"bf2e870abd8e451eab952e47",
"eafced8bbed940fd97f26659"
],
"FTBFConfig_v0" : [
"bf2e870abd8e451eab952e47"
],
"FTBFConfig_v1" : [
"bf2e870abd8e451eab952e47"
],
"FTBFConfig_v2" : [
"bf2e870abd8e451eab952e47"
],
"FTBFConfig_v3" : [
"bf2e870abd8e451eab952e47"
],
"FTBFConfig_v4" : [
"bf2e870abd8e451eab952e47"
],
"FTBFConfig_v5" : [
"bf2e870abd8e451eab952e47"
],
"FTBFConfig_v6" : [
"bf2e870abd8e451eab952e47"
],
"FTBFConfig_v7" : [
"bf2e870abd8e451eab952e47"
],
"FTBFConfig_v8" : [
"bf2e870abd8e451eab952e47"
],
"FTBFConfig_v9" : [
"bf2e870abd8e451eab952e47"
],
"FTBFConfig_v10" : [
"bf2e870abd8e451eab952e47"
],
"FTBFConfig_v11" : [
"bf2e870abd8e451eab952e47"
],
"FTBFConfig_v12" : [
"bf2e870abd8e451eab952e47"
],
"FTBFConfig_v13" : [
"bf2e870abd8e451eab952e47"
],
"FTBFConfig_v14" : [
"bf2e870abd8e451eab952e47"
],
"FTBFConfig_v15" : [
"bf2e870abd8e451eab952e47"
],
"FTBFConfig_v16" : [
"bf2e870abd8e451eab952e47"
],
"FTBFConfig_v17" : [
"bf2e870abd8e451eab952e47"
],
"FTBFConfig_v18" : [
"bf2e870abd8e451eab952e47"
],
"FTBFConfig_v19" : [
"bf2e870abd8e451eab952e47"
],
"FTBFConfig_v20" : [
"bf2e870abd8e451eab952e47"
],
"FTBFConfig_v21" : [
"bf2e870abd8e451eab952e47"
],
"FTBFConfig_v22" : [
"bf2e870abd8e451eab952e47"
],
"FTBFConfig_v23" : [
"bf2e870abd8e451eab952e47"
],
"FTBFConfig_v24" : [
"bf2e870abd8e451eab952e47"
],
"FTBFConfig_v25" : [
"bf2e870abd8e451eab952e47"
],
"FTBFConfig_v26" : [
"bf2e870abd8e451eab952e47"
],
"FTBFConfig_v27" : [
"bf2e870abd8e451eab952e47"
],
"FTBFConfig_v28" : [
"bf2e870abd8e451eab952e47"
],
"FTBFConfig_v29" : [
"bf2e870abd8e451eab952e47"
],
"FTBFConfig_v30" : [
"bf2e870abd8e451eab952e47"
],
"FTBFConfig_v31" : [
"bf2e870abd8e451eab952e47"
],
"FTBFConfig_v32" : [
"bf2e870abd8e451eab952e47"
],
"FTBFConfig_v33" : [
"bf2e870abd8e451eab952e47"
],
"FTBFConfig_v34" : [
"bf2e870abd8e451eab952e47"
],
"FTBFConfig_v35" : [
"bf2e870abd8e451eab952e47"
],
"FTBFConfig_v36" : [
"bf2e870abd8e451eab952e47"
],
"FTBFConfig_v37" : [
"bf2e870abd8e451eab952e47"
],
"FTBFConfig_v38" : [
"bf2e870abd8e451eab952e47"
],
"FTBFConfig_v39" : [
"bf2e870abd8e451eab952e47"
],
"FTBFConfig_v40" : [
"bf2e870abd8e451eab952e47"
],
"FTBFConfig_v41" : [
"bf2e870abd8e451eab952e47"
],
"FTBFConfig_v42" : [
"bf2e870abd8e451eab952e47"
],
"FTBFConfig_v43" : [
"bf2e870abd8e451eab952e47"
],
"FTBFConfig_v44" : [
"bf2e870abd8e451eab952e47"
],
"FTBFConfig_v45" : [
"bf2e870abd8e451eab952e47"
],
"FTBFConfig_v46" : [
"bf2e870abd8e451eab952e47"
],
"FTBFConfig_v47" : [
"bf2e870abd8e451eab952e47"
],
"FTBFConfig_v48" : [
"bf2e870abd8e451eab952e47"
],
"FTBFConfig_v49" : [
"bf2e870abd8e451eab952e47"
],
"FTBFConfig_v52" : [
"bf2e870abd8e451eab952e47"
],
"FTBFConfig_v53" : [
"bf2e870abd8e451eab952e47"
],
"FTBFConfig_v54" : [
"bf2e870abd8e451eab952e47"
],
"FTBFConfig_v55" : [
"bf2e870abd8e451eab952e47"
],
"FTBFConfig_v56" : [
"bf2e870abd8e451eab952e47"
],
"FTBFConfig_v57" : [
"bf2e870abd8e451eab952e47"
],
"FTBFConfig_v58" : [
"bf2e870abd8e451eab952e47"
],
"FTBFConfig_v59" : [
"bf2e870abd8e451eab952e47"
],
"FTBFConfig_v60" : [
"bf2e870abd8e451eab952e47"
],
"FTBFConfig_v61" : [
"bf2e870abd8e451eab952e47"
],
"FTBFConfig_v62" : [
"bf2e870abd8e451eab952e47"
],
"FTBFConfig_v63" : [
"bf2e870abd8e451eab952e47"
],
"FTBFConfig_v64" : [
"bf2e870abd8e451eab952e47"
],
"FTBFConfig_v67" : [
"bf2e870abd8e451eab952e47"
],
"FTBFConfig_v68" : [
"bf2e870abd8e451eab952e47"
],
"FTBFConfig_v69" : [
"bf2e870abd8e451eab952e47"
],
"FTBFConfig_v70" : [
"bf2e870abd8e451eab952e47"
],
"FTBFConfigNim_v0" : [
"bf2e870abd8e451eab952e47"
],
"FTBFConfigNim_v1" : [
"bf2e870abd8e451eab952e47"
],
"FTBFConfigNim_v2" : [
"bf2e870abd8e451eab952e47"
],
"FTBFConfigNim_v3" : [
"bf2e870abd8e451eab952e47"
],
"FTBFConfigNim_v4" : [
"bf2e870abd8e451eab952e47"
],
"FTBFConfigNim_v5" : [
"bf2e870abd8e451eab952e47"
],
"FTBFConfigNim_v6" : [
"bf2e870abd8e451eab952e47"
],
"FTBFConfigNim_v7" : [
"bf2e870abd8e451eab952e47"
],
"FTBFConfigNim_v8" : [
"bf2e870abd8e451eab952e47"
],
"FTBFConfigNim_v9" : [
"bf2e870abd8e451eab952e47"
],
"FTBFConfigNim_v10" : [
"bf2e870abd8e451eab952e47"
],
"FTBFConfigNim_v11" : [
"bf2e870abd8e451eab952e47"
],
"FTBFConfigNim_v12" : [
"bf2e870abd8e451eab952e47"
],
"FTBFConfigNim_v13" : [
"bf2e870abd8e451eab952e47"
],
"FTBFConfigNim_v14" : [
"bf2e870abd8e451eab952e47"
],
"FTBFConfigNim_v15" : [
"bf2e870abd8e451eab952e47"
],
"FTBFConfigNim_v16" : [
"bf2e870abd8e451eab952e47"
],
"FTBFConfigNim_v17" : [
"bf2e870abd8e451eab952e47"
],
"FTBFConfigNim_v18" : [
"bf2e870abd8e451eab952e47"
],
"FTBFConfigNim_v19" : [
"bf2e870abd8e451eab952e47"
],
"FTBFConfigNim_v20" : [
"bf2e870abd8e451eab952e47"
],
"FTBFConfigNim_v21" : [
"bf2e870abd8e451eab952e47"
],
"FTBFConfigNim_v22" : [
"bf2e870abd8e451eab952e47"
],
"FTBFConfigNim_v23" : [
"bf2e870abd8e451eab952e47"
],
"FTBFConfigNim_v24" : [
"bf2e870abd8e451eab952e47"
],
"FTBFConfigNim_v25" : [
"bf2e870abd8e451eab952e47"
],
"FTBFConfigNim_v26" : [
"bf2e870abd8e451eab952e47"
],
"FTBFConfigNim_v27" : [
"bf2e870abd8e451eab952e47"
],
"FTBFConfigNim_v28" : [
"bf2e870abd8e451eab952e47"
],
"FTBFConfigNim_v29" : [
"bf2e870abd8e451eab952e47"
],
"FTBFConfig_v71" : [
"bf2e870abd8e451eab952e47"
],
"FTBFConfig_v65" : [
"eafced8bbed940fd97f26659"
],
"FTBFConfig_v66" : [
"eafced8bbed940fd97f26659"
],
"FTBFConfig_v72" : [
"eafced8bbed940fd97f26659"
],
"FTBFConfig_v73" : [
"eafced8bbed940fd97f26659"
],
"FTBFConfig_v75" : [
"eafced8bbed940fd97f26659"
],
"FTBFConfig_v76" : [
"eafced8bbed940fd97f26659"
],
"FTBFConfig_v77" : [
"eafced8bbed940fd97f26659"
],
"FTBFConfig_v78" : [
"eafced8bbed940fd97f26659"
],
"FTBFConfig_v79" : [
"eafced8bbed940fd97f26659"
],
"FTBFConfig_v80" : [
"eafced8bbed940fd97f26659"
],
"FTBFConfig_v81" : [
"eafced8bbed940fd97f26659"
],
"FTBFConfig_v82" : [
"eafced8bbed940fd97f26659"
],
"FTBFConfig_v83" : [
"eafced8bbed940fd97f26659"
],
"FTBFConfig_v84" : [
"eafced8bbed940fd97f26659"
],
"FTBFConfig_v85" : [
"eafced8bbed940fd97f26659"
],
"FTBFConfig_v86" : [
"eafced8bbed940fd97f26659"
],
"FTBFConfig_v87" : [
"eafced8bbed940fd97f26659"
],
"FTBFConfig_v88" : [
"eafced8bbed940fd97f26659"
],
"FTBFConfig_v89" : [
"eafced8bbed940fd97f26659"
],
"FTBFConfig_v90" : [
"eafced8bbed940fd97f26659"
],
"FTBFConfig_v91" : [
"eafced8bbed940fd97f26659"
],
"FTBFConfig_v92" : [
"eafced8bbed940fd97f26659"
],
"FTBFConfig_v93" : [
"eafced8bbed940fd97f26659"
],
"FTBFConfig_v94" : [
"eafced8bbed940fd97f26659"
],
"FTBFConfig_v95" : [
"eafced8bbed940fd97f26659"
],
"FTBFConfig_v96" : [
"eafced8bbed940fd97f26659"
],
"FTBFConfig_v97" : [
"eafced8bbed940fd97f26659"
],
"FTBFConfig_v98" : [
"eafced8bbed940fd97f26659"
],
"FTBFConfig_v99" : [
"eafced8bbed940fd97f26659"
],
"FTBFConfig_v100" : [
"eafced8bbed940fd97f26659"
],
"FTBFConfig_v101" : [
"eafced8bbed940fd97f26659"
],
"FTBFConfig_v102" : [
"eafced8bbed940fd97f26659"
],
"FTBFConfig_v103" : [
"eafced8bbed940fd97f26659"
],
"FTBFConfig_v104" : [
"eafced8bbed940fd97f26659"
],
"FTBFConfig_v105" : [
"eafced8bbed940fd97f26659"
],
"FTBFConfig_v106" : [
"eafced8bbed940fd97f26659"
],
"FTBFConfig_v107" : [
"eafced8bbed940fd97f26659"
],
"FTBFConfig_v108" : [
"eafced8bbed940fd97f26659"
],
"FTBFConfig_v109" : [
"eafced8bbed940fd97f26659"
],
"FTBFConfig_v110" : [
"eafced8bbed940fd97f26659"
],
"FTBFConfig_v111" : [
"eafced8bbed940fd97f26659"
],
"FTBFConfig_v112" : [
"eafced8bbed940fd97f26659"
],
"FTBFConfig_v113" : [
"eafced8bbed940fd97f26659"
],
"FTBFConfig_v114" : [
"eafced8bbed940fd97f26659"
],
"FTBFConfig_v115" : [
"eafced8bbed940fd97f26659"
],
"FTBFConfig_v116" : [
"eafced8bbed940fd97f26659"
],
"FTBFConfig_v117" : [
"eafced8bbed940fd97f26659"
],
"FTBFConfig_v118" : [
"eafced8bbed940fd97f26659"
],
"FTBFConfig_v119" : [
"eafced8bbed940fd97f26659"
],
"FTBFConfig_v120" : [
"eafced8bbed940fd97f26659"
],
"FTBFConfig_v121" : [
"eafced8bbed940fd97f26659"
],
"FTBFConfig_v122" : [
"eafced8bbed940fd97f26659"
],
"FTBFConfig_v123" : [
"eafced8bbed940fd97f26659"
],
"FTBFConfig_v124" : [
"eafced8bbed940fd97f26659"
],
"FTBFConfig_v125" : [
"eafced8bbed940fd97f26659"
],
"FTBFConfig_v126" : [
"eafced8bbed940fd97f26659"
],
"FTBFConfig_v127" : [
"eafced8bbed940fd97f26659"
],
"FTBFConfig_v128" : [
"eafced8bbed940fd97f26659"
],
"FTBFConfig_v129" : [
"eafced8bbed940fd97f26659"
],
"FTBFConfig_v130" : [
"eafced8bbed940fd97f26659"
],
"FTBFConfig_v131" : [
"eafced8bbed940fd97f26659"
],
"FTBFConfig_v132" : [
"eafced8bbed940fd97f26659"
],
"FTBFConfig_v133" : [
"eafced8bbed940fd97f26659"
],
"FTBFConfig_v134" : [
"eafced8bbed940fd97f26659"
],
"FTBFConfig_v135" : [
"eafced8bbed940fd97f26659"
],
"FTBFConfig_v136" : [
"eafced8bbed940fd97f26659"
],
"FTBFConfig_v137" : [
"eafced8bbed940fd97f26659"
],
"FTBFConfig_v138" : [
"eafced8bbed940fd97f26659"
],
"FTBFConfig_v139" : [
"eafced8bbed940fd97f26659"
],
"FTBFConfig_v140" : [
"eafced8bbed940fd97f26659"
],
"FTBFConfig_v141" : [
"eafced8bbed940fd97f26659"
],
"FTBFConfig_v142" : [
"eafced8bbed940fd97f26659"
]
},
"entities.name" : {
"OTSROOT" : [
"bf2e870abd8e451eab952e47",
"eafced8bbed940fd97f26659"
]
},
"aliases.active.name" : {

},
"runs.name" : {

},
"configurations.assigned" : {
"notprovided" : [
"2017-11-08T15:56:04.369-0600",
"2017-12-01T17:32:33.642-0600"
],
"FTBFConfig_v0" : [
"2017-11-08T15:56:07.357-0600"
],
"FTBFConfig_v1" : [
"2017-11-09T09:56:32.245-0600"
],
"FTBFConfig_v2" : [
"2017-11-09T10:06:01.235-0600"
],
"FTBFConfig_v3" : [
"2017-11-09T10:37:12.824-0600"
],
"FTBFConfig_v4" : [
"2017-11-15T11:30:11.692-0600"
],
"FTBFConfig_v5" : [
"2017-11-15T11:54:58.572-0600"
],
"FTBFConfig_v6" : [
"2017-11-15T11:57:51.175-0600"
],
"FTBFConfig_v7" : [
"2017-11-15T12:42:33.636-0600"
],
"FTBFConfig_v8" : [
"2017-11-15T13:01:04.686-0600"
],
"FTBFConfig_v9" : [
"2017-11-15T13:02:58.082-0600"
],
"FTBFConfig_v10" : [
"2017-11-15T13:04:25.640-0600"
],
"FTBFConfig_v11" : [
"2017-11-15T13:07:53.193-0600"
],
"FTBFConfig_v12" : [
"2017-11-15T13:12:00.630-0600"
],
"FTBFConfig_v13" : [
"2017-11-15T13:13:54.631-0600"
],
"FTBFConfig_v14" : [
"2017-11-15T13:27:35.631-0600"
],
"FTBFConfig_v15" : [
"2017-11-15T13:35:48.633-0600"
],
"FTBFConfig_v16" : [
"2017-11-15T13:36:53.225-0600"
],
"FTBFConfig_v17" : [
"2017-11-15T15:33:31.813-0600"
],
"FTBFConfig_v18" : [
"2017-11-15T15:35:35.450-0600"
],
"FTBFConfig_v19" : [
"2017-11-15T15:38:04.298-0600"
],
"FTBFConfig_v20" : [
"2017-11-15T16:26:32.308-0600"
],
"FTBFConfig_v21" : [
"2017-11-16T09:22:33.150-0600"
],
"FTBFConfig_v22" : [
"2017-11-17T10:23:29.354-0600"
],
"FTBFConfig_v23" : [
"2017-11-17T17:26:47.006-0600"
],
"FTBFConfig_v24" : [
"2017-11-17T17:58:27.557-0600"
],
"FTBFConfig_v25" : [
"2017-11-17T18:24:47.275-0600"
],
"FTBFConfig_v26" : [
"2017-11-17T18:32:25.354-0600"
],
"FTBFConfig_v27" : [
"2017-11-17T18:43:32.483-0600"
],
"FTBFConfig_v28" : [
"2017-11-17T18:48:34.623-0600"
],
"FTBFConfig_v29" : [
"2017-11-20T14:48:32.720-0600"
],
"FTBFConfig_v30" : [
"2017-11-20T15:39:57.767-0600"
],
"FTBFConfig_v31" : [
"2017-11-20T16:41:03.800-0600"
],
"FTBFConfig_v32" : [
"2017-11-20T18:55:36.747-0600"
],
"FTBFConfig_v33" : [
"2017-11-20T18:57:32.079-0600"
],
"FTBFConfig_v34" : [
"2017-11-29T17:50:41.537-0600"
],
"FTBFConfig_v35" : [
"2017-11-29T18:00:34.589-0600"
],
"FTBFConfig_v36" : [
"2017-11-29T18:35:13.205-0600"
],
"FTBFConfig_v37" : [
"2017-12-01T09:36:20.143-0600"
],
"FTBFConfig_v38" : [
"2017-12-01T09:52:03.057-0600"
],
"FTBFConfig_v39" : [
"2017-12-01T11:52:00.329-0600"
],
"FTBFConfig_v40" : [
"2017-12-01T12:18:22.489-0600"
],
"FTBFConfig_v41" : [
"2017-12-01T12:21:04.433-0600"
],
"FTBFConfig_v42" : [
"2017-12-01T12:43:23.931-0600"
],
"FTBFConfig_v43" : [
"2017-12-01T12:58:01.937-0600"
],
"FTBFConfig_v44" : [
"2017-12-01T13:00:54.384-0600"
],
"FTBFConfig_v45" : [
"2017-12-01T13:25:51.020-0600"
],
"FTBFConfig_v46" : [
"2017-12-01T13:35:45.853-0600"
],
"FTBFConfig_v47" : [
"2017-12-01T14:00:53.943-0600"
],
"FTBFConfig_v48" : [
"2017-12-01T14:04:01.302-0600"
],
"FTBFConfig_v49" : [
"2017-12-01T15:32:01.484-0600"
],
"FTBFConfig_v52" : [
"2017-12-01T15:37:34.816-0600"
],
"FTBFConfig_v53" : [
"2017-12-01T15:41:01.020-0600"
],
"FTBFConfig_v54" : [
"2017-12-01T15:52:51.312-0600"
],
"FTBFConfig_v55" : [
"2017-12-01T15:54:36.534-0600"
],
"FTBFConfig_v56" : [
"2017-12-01T15:55:36.098-0600"
],
"FTBFConfig_v57" : [
"2017-12-01T15:56:41.942-0600"
],
"FTBFConfig_v58" : [
"2017-12-01T15:57:40.067-0600"
],
"FTBFConfig_v59" : [
"2017-12-01T15:58:31.904-0600"
],
"FTBFConfig_v60" : [
"2017-12-01T15:59:33.170-0600"
],
"FTBFConfig_v61" : [
"2017-12-01T16:19:43.034-0600"
],
"FTBFConfig_v62" : [
"2017-12-01T16:22:05.465-0600"
],
"FTBFConfig_v63" : [
"2017-12-01T16:31:26.128-0600"
],
"FTBFConfig_v64" : [
"2017-12-01T17:06:33.500-0600"
],
"FTBFConfig_v67" : [
"2017-12-01T21:25:03.395-0600"
],
"FTBFConfig_v68" : [
"2017-12-01T21:43:03.127-0600"
],
"FTBFConfig_v69" : [
"2017-12-01T21:45:01.710-0600"
],
"FTBFConfig_v70" : [
"2017-12-01T21:59:21.020-0600"
],
"FTBFConfigNim_v0" : [
"2017-12-01T22:00:07.743-0600"
],
"FTBFConfigNim_v1" : [
"2017-12-01T22:13:09.613-0600"
],
"FTBFConfigNim_v2" : [
"2017-12-01T22:15:56.768-0600"
],
"FTBFConfigNim_v3" : [
"2017-12-01T22:17:05.346-0600"
],
"FTBFConfigNim_v4" : [
"2017-12-01T22:19:07.874-0600"
],
"FTBFConfigNim_v5" : [
"2017-12-01T22:21:58.663-0600"
],
"FTBFConfigNim_v6" : [
"2017-12-01T22:23:17.176-0600"
],
"FTBFConfigNim_v7" : [
"2017-12-01T22:25:18.661-0600"
],
"FTBFConfigNim_v8" : [
"2017-12-01T22:27:06.356-0600"
],
"FTBFConfigNim_v9" : [
"2017-12-01T22:29:30.574-0600"
],
"FTBFConfigNim_v10" : [
"2017-12-01T22:52:36.011-0600"
],
"FTBFConfigNim_v11" : [
"2017-12-01T22:57:30.500-0600"
],
"FTBFConfigNim_v12" : [
"2017-12-01T23:00:08.700-0600"
],
"FTBFConfigNim_v13" : [
"2017-12-01T23:52:36.858-0600"
],
"FTBFConfigNim_v14" : [
"2017-12-01T23:58:11.334-0600"
],
"FTBFConfigNim_v15" : [
"2017-12-02T00:00:35.547-0600"
],
"FTBFConfigNim_v16" : [
"2017-12-02T00:13:10.787-0600"
],
"FTBFConfigNim_v17" : [
"2017-12-02T00:28:29.684-0600"
],
"FTBFConfigNim_v18" : [
"2017-12-02T00:29:35.774-0600"
],
"FTBFConfigNim_v19" : [
"2017-12-02T00:31:14.642-0600"
],
"FTBFConfigNim_v20" : [
"2017-12-02T00:57:28.825-0600"
],
"FTBFConfigNim_v21" : [
"2017-12-02T10:58:03.393-0600"
],
"FTBFConfigNim_v22" : [
"2017-12-02T11:08:19.565-0600"
],
"FTBFConfigNim_v23" : [
"2017-12-02T11:12:41.204-0600"
],
"FTBFConfigNim_v24" : [
"2017-12-02T11:18:44.088-0600"
],
"FTBFConfigNim_v25" : [
"2017-12-02T11:27:07.299-0600"
],
"FTBFConfigNim_v26" : [
"2017-12-02T11:38:38.358-0600"
],
"FTBFConfigNim_v27" : [
"2017-12-02T11:49:09.587-0600"
],
"FTBFConfigNim_v28" : [
"2017-12-02T11:55:11.132-0600"
],
"FTBFConfigNim_v29" : [
"2017-12-02T12:06:27.913-0600"
],
"FTBFConfig_v71" : [
"2017-12-02T12:24:16.551-0600"
],
"FTBFConfig_v65" : [
"2017-12-01T17:32:45.687-0600"
],
"FTBFConfig_v66" : [
"2017-12-01T20:38:52.072-0600"
],
"FTBFConfig_v72" : [
"2017-12-02T12:43:37.472-0600"
],
"FTBFConfig_v73" : [
"2017-12-02T13:55:37.164-0600"
],
"FTBFConfig_v75" : [
"2017-12-02T14:12:20.360-0600"
],
"FTBFConfig_v76" : [
"2017-12-02T19:05:55.370-0600"
],
"FTBFConfig_v77" : [
"2017-12-02T19:12:15.198-0600"
],
"FTBFConfig_v78" : [
"2017-12-03T14:03:50.351-0600"
],
"FTBFConfig_v79" : [
"2017-12-03T14:09:08.661-0600"
],
"FTBFConfig_v80" : [
"2017-12-03T14:11:12.442-0600"
],
"FTBFConfig_v81" : [
"2017-12-03T14:22:35.449-0600"
],
"FTBFConfig_v82" : [
"2017-12-03T14:40:40.289-0600"
],
"FTBFConfig_v83" : [
"2017-12-03T14:45:07.648-0600"
],
"FTBFConfig_v84" : [
"2017-12-04T14:51:32.886-0600"
],
"FTBFConfig_v85" : [
"2017-12-04T14:55:46.118-0600"
],
"FTBFConfig_v86" : [
"2017-12-04T16:51:09.182-0600"
],
"FTBFConfig_v87" : [
"2017-12-04T16:56:49.818-0600"
],
"FTBFConfig_v88" : [
"2017-12-04T17:01:14.596-0600"
],
"FTBFConfig_v89" : [
"2017-12-04T17:03:59.716-0600"
],
"FTBFConfig_v90" : [
"2017-12-04T17:07:19.382-0600"
],
"FTBFConfig_v91" : [
"2017-12-04T17:09:28.538-0600"
],
"FTBFConfig_v92" : [
"2017-12-04T17:11:41.055-0600"
],
"FTBFConfig_v93" : [
"2017-12-04T21:05:23.564-0600"
],
"FTBFConfig_v94" : [
"2017-12-04T21:17:14.596-0600"
],
"FTBFConfig_v95" : [
"2017-12-04T21:41:20.200-0600"
],
"FTBFConfig_v96" : [
"2017-12-04T22:39:04.878-0600"
],
"FTBFConfig_v97" : [
"2017-12-04T23:01:15.397-0600"
],
"FTBFConfig_v98" : [
"2017-12-07T11:07:49.381-0600"
],
"FTBFConfig_v99" : [
"2017-12-07T11:50:02.048-0600"
],
"FTBFConfig_v100" : [
"2017-12-07T11:58:28.793-0600"
],
"FTBFConfig_v101" : [
"2017-12-08T13:30:50.978-0600"
],
"FTBFConfig_v102" : [
"2017-12-08T13:32:37.873-0600"
],
"FTBFConfig_v103" : [
"2017-12-12T11:03:07.686-0600"
],
"FTBFConfig_v104" : [
"2017-12-12T13:51:02.288-0600"
],
"FTBFConfig_v105" : [
"2017-12-12T15:25:08.250-0600"
],
"FTBFConfig_v106" : [
"2017-12-13T10:24:26.557-0600"
],
"FTBFConfig_v107" : [
"2017-12-13T10:27:05.227-0600"
],
"FTBFConfig_v108" : [
"2018-02-01T21:14:29.017-0600"
],
"FTBFConfig_v109" : [
"2018-02-01T21:21:06.148-0600"
],
"FTBFConfig_v110" : [
"2018-02-02T11:25:37.180-0600"
],
"FTBFConfig_v111" : [
"2018-02-02T11:37:15.981-0600"
],
"FTBFConfig_v112" : [
"2018-02-02T11:47:18.495-0600"
],
"FTBFConfig_v113" : [
"2018-02-02T11:53:39.745-0600"
],
"FTBFConfig_v114" : [
"2018-02-02T12:00:55.885-0600"
],
"FTBFConfig_v115" : [
"2018-02-02T12:27:17.341-0600"
],
"FTBFConfig_v116" : [
"2018-02-02T14:28:56.879-0600"
],
"FTBFConfig_v117" : [
"2018-02-02T14:30:23.245-0600"
],
"FTBFConfig_v118" : [
"2018-02-02T14:34:04.494-0600"
],
"FTBFConfig_v119" : [
"2018-02-02T14:36:31.099-0600"
],
"FTBFConfig_v120" : [
"2018-02-02T14:38:44.519-0600"
],
"FTBFConfig_v121" : [
"2018-02-02T14:41:53.786-0600"
],
"FTBFConfig_v122" : [
"2018-02-02T14:50:27.879-0600"
],
"FTBFConfig_v123" : [
"2018-02-02T14:53:00.761-0600"
],
"FTBFConfig_v124" : [
"2018-02-02T14:59:54.081-0600"
],
"FTBFConfig_v125" : [
"2018-02-02T15:04:12.209-0600"
],
"FTBFConfig_v126" : [
"2018-02-02T15:50:15.540-0600"
],
"FTBFConfig_v127" : [
"2018-02-02T15:51:34.937-0600"
],
"FTBFConfig_v128" : [
"2018-02-02T15:52:40.108-0600"
],
"FTBFConfig_v129" : [
"2018-02-02T16:02:49.048-0600"
],
"FTBFConfig_v130" : [
"2018-02-02T16:08:48.600-0600"
],
"FTBFConfig_v131" : [
"2018-02-02T16:11:34.454-0600"
],
"FTBFConfig_v132" : [
"2018-02-02T16:13:02.342-0600"
],
"FTBFConfig_v133" : [
"2018-02-02T16:14:32.991-0600"
],
"FTBFConfig_v134" : [
"2018-02-02T16:26:25.877-0600"
],
"FTBFConfig_v135" : [
"2018-02-02T16:27:12.988-0600"
],
"FTBFConfig_v136" : [
"2018-02-02T16:29:34.348-0600"
],
"FTBFConfig_v137" : [
"2018-02-02T16:31:45.008-0600"
],
"FTBFConfig_v138" : [
"2018-02-02T16:34:17.662-0600"
],
"FTBFConfig_v139" : [
"2018-02-02T17:39:33.722-0600"
],
"FTBFConfig_v140" : [
"2018-02-02T17:42:55.926-0600"
],
"FTBFConfig_v141" : [
"2018-02-02T17:47:41.145-0600"
],
"FTBFConfig_v142" : [
"2018-02-02T17:54:05.156-0600"
]
}
}