{
"ouid" : [
"4787c4da9f0e4a15856df90e",
"7504bbad079c43b9a4dfdad8",
"83c2377a15be4fb5a2c2f203",
"8819f53a8c5d43f89322003b",
"92ff4769c4ff47c2ad3c879a",
"ad9e1f56c970480e8b13ee2a",
"b573842f4c0c4dadb8a736c5",
"efd865ac56e84482abc7432e"
],
"version" : {
"1" : [
"efd865ac56e84482abc7432e"
],
"2" : [
"ad9e1f56c970480e8b13ee2a"
],
"3" : [
"b573842f4c0c4dadb8a736c5"
],
"4" : [
"4787c4da9f0e4a15856df90e"
],
"5" : [
"83c2377a15be4fb5a2c2f203"
],
"6" : [
"92ff4769c4ff47c2ad3c879a"
],
"7" : [
"7504bbad079c43b9a4dfdad8"
],
"8" : [
"8819f53a8c5d43f89322003b"
]
},
"configurations.name" : {
"notprovided" : [
"4787c4da9f0e4a15856df90e",
"7504bbad079c43b9a4dfdad8",
"83c2377a15be4fb5a2c2f203",
"8819f53a8c5d43f89322003b",
"92ff4769c4ff47c2ad3c879a",
"ad9e1f56c970480e8b13ee2a",
"b573842f4c0c4dadb8a736c5",
"efd865ac56e84482abc7432e"
],
"DefaultConfig_v1" : [
"efd865ac56e84482abc7432e"
],
"DefaultConfig_v2" : [
"ad9e1f56c970480e8b13ee2a"
],
"DefaultConfig_v3" : [
"ad9e1f56c970480e8b13ee2a"
],
"DefaultConfig_v4" : [
"ad9e1f56c970480e8b13ee2a"
],
"DefaultConfig_v5" : [
"ad9e1f56c970480e8b13ee2a"
],
"DefaultConfig_v6" : [
"ad9e1f56c970480e8b13ee2a"
],
"DefaultConfig_v7" : [
"ad9e1f56c970480e8b13ee2a"
],
"DefaultConfig_v8" : [
"ad9e1f56c970480e8b13ee2a"
],
"DefaultConfig_v9" : [
"ad9e1f56c970480e8b13ee2a"
],
"DefaultConfig_v10" : [
"ad9e1f56c970480e8b13ee2a"
],
"DefaultConfig_v11" : [
"ad9e1f56c970480e8b13ee2a"
],
"DefaultConfig_v12" : [
"ad9e1f56c970480e8b13ee2a"
],
"DefaultConfig_v13" : [
"ad9e1f56c970480e8b13ee2a"
],
"DefaultConfig_v14" : [
"ad9e1f56c970480e8b13ee2a"
],
"DefaultConfig_v15" : [
"ad9e1f56c970480e8b13ee2a"
],
"DefaultConfig_v16" : [
"ad9e1f56c970480e8b13ee2a"
],
"DefaultConfig_v17" : [
"ad9e1f56c970480e8b13ee2a"
],
"DefaultConfig_v18" : [
"ad9e1f56c970480e8b13ee2a"
],
"DefaultConfig_v19" : [
"b573842f4c0c4dadb8a736c5"
],
"DefaultConfig_v20" : [
"b573842f4c0c4dadb8a736c5"
],
"DefaultConfig_v21" : [
"b573842f4c0c4dadb8a736c5"
],
"DefaultConfig_v22" : [
"b573842f4c0c4dadb8a736c5"
],
"DefaultConfig_v23" : [
"b573842f4c0c4dadb8a736c5"
],
"DefaultConfig_v24" : [
"b573842f4c0c4dadb8a736c5"
],
"DefaultConfig_v25" : [
"b573842f4c0c4dadb8a736c5"
],
"DefaultConfig_v26" : [
"b573842f4c0c4dadb8a736c5"
],
"DefaultConfig_v27" : [
"b573842f4c0c4dadb8a736c5"
],
"DefaultConfig_v28" : [
"b573842f4c0c4dadb8a736c5"
],
"DefaultConfig_v29" : [
"b573842f4c0c4dadb8a736c5"
],
"DefaultConfig_v30" : [
"4787c4da9f0e4a15856df90e"
],
"DefaultConfig_v31" : [
"83c2377a15be4fb5a2c2f203"
],
"DefaultConfig_v32" : [
"92ff4769c4ff47c2ad3c879a"
],
"DefaultConfig_v33" : [
"7504bbad079c43b9a4dfdad8"
],
"DefaultConfig_v34" : [
"8819f53a8c5d43f89322003b"
],
"DefaultConfig_v35" : [
"8819f53a8c5d43f89322003b"
],
"DefaultConfig_v36" : [
"8819f53a8c5d43f89322003b"
],
"DefaultConfig_v37" : [
"8819f53a8c5d43f89322003b"
]
},
"entities.name" : {
"OTSROOT" : [
"4787c4da9f0e4a15856df90e",
"7504bbad079c43b9a4dfdad8",
"83c2377a15be4fb5a2c2f203",
"8819f53a8c5d43f89322003b",
"92ff4769c4ff47c2ad3c879a",
"ad9e1f56c970480e8b13ee2a",
"b573842f4c0c4dadb8a736c5",
"efd865ac56e84482abc7432e"
]
},
"aliases.active.name" : {

},
"runs.name" : {

},
"configurations.assigned" : {
"notprovided" : [
"2019-02-22T16:11:42.752-0600",
"2019-07-22T11:26:59.860-0500",
"2021-04-29T11:28:50.900-0500",
"2021-04-30T12:11:37.827-0500",
"2021-05-06T17:42:14.333-0500",
"2021-05-10T10:42:46.015-0500",
"2021-05-10T11:08:51.691-0500",
"2021-05-12T15:49:18.270-0500"
],
"DefaultConfig_v1" : [
"2019-02-22T16:11:43.034-0600"
],
"DefaultConfig_v2" : [
"2019-07-22T11:27:30.321-0500"
],
"DefaultConfig_v3" : [
"2019-07-22T14:43:10.190-0500"
],
"DefaultConfig_v4" : [
"2019-07-22T14:47:01.363-0500"
],
"DefaultConfig_v5" : [
"2019-07-22T15:05:41.426-0500"
],
"DefaultConfig_v6" : [
"2019-07-23T09:00:31.900-0500"
],
"DefaultConfig_v7" : [
"2019-07-23T09:04:43.621-0500"
],
"DefaultConfig_v8" : [
"2019-07-23T09:48:11.724-0500"
],
"DefaultConfig_v9" : [
"2019-08-07T11:00:29.325-0500"
],
"DefaultConfig_v10" : [
"2019-11-20T15:25:38.511-0600"
],
"DefaultConfig_v11" : [
"2019-11-20T15:28:12.537-0600"
],
"DefaultConfig_v12" : [
"2019-11-20T15:58:29.833-0600"
],
"DefaultConfig_v13" : [
"2019-11-20T16:23:03.536-0600"
],
"DefaultConfig_v14" : [
"2019-11-20T16:24:45.660-0600"
],
"DefaultConfig_v15" : [
"2019-11-20T16:27:46.495-0600"
],
"DefaultConfig_v16" : [
"2019-11-20T16:42:11.042-0600"
],
"DefaultConfig_v17" : [
"2019-12-09T19:33:37.620-0600"
],
"DefaultConfig_v18" : [
"2019-12-10T14:21:51.414-0600"
],
"DefaultConfig_v19" : [
"2021-04-29T11:28:51.832-0500"
],
"DefaultConfig_v20" : [
"2021-04-29T11:36:29.843-0500"
],
"DefaultConfig_v21" : [
"2021-04-29T11:56:50.188-0500"
],
"DefaultConfig_v22" : [
"2021-04-29T12:03:11.843-0500"
],
"DefaultConfig_v23" : [
"2021-04-29T12:06:21.670-0500"
],
"DefaultConfig_v24" : [
"2021-04-29T13:06:39.322-0500"
],
"DefaultConfig_v25" : [
"2021-04-30T09:33:57.132-0500"
],
"DefaultConfig_v26" : [
"2021-04-30T09:34:32.713-0500"
],
"DefaultConfig_v27" : [
"2021-04-30T09:36:19.469-0500"
],
"DefaultConfig_v28" : [
"2021-04-30T11:59:06.080-0500"
],
"DefaultConfig_v29" : [
"2021-04-30T12:10:52.568-0500"
],
"DefaultConfig_v30" : [
"2021-04-30T12:11:38.869-0500"
],
"DefaultConfig_v31" : [
"2021-05-06T17:42:15.389-0500"
],
"DefaultConfig_v32" : [
"2021-05-10T10:42:47.208-0500"
],
"DefaultConfig_v33" : [
"2021-05-10T11:08:53.002-0500"
],
"DefaultConfig_v34" : [
"2021-05-12T15:51:23.082-0500"
],
"DefaultConfig_v35" : [
"2021-05-12T16:11:01.266-0500"
],
"DefaultConfig_v36" : [
"2021-05-14T15:34:24.645-0500"
],
"DefaultConfig_v37" : [
"2021-05-14T16:41:01.276-0500"
]
}
}