{
"ouid" : [
"7a770390d1884ce9b0023db4"
],
"version" : {
"1" : [
"7a770390d1884ce9b0023db4"
]
},
"configurations.name" : {
"notprovided" : [
"7a770390d1884ce9b0023db4"
],
"DefaultContext_v1" : [
"7a770390d1884ce9b0023db4"
],
"DefaultContext_v2" : [
"7a770390d1884ce9b0023db4"
],
"DefaultContext_v3" : [
"7a770390d1884ce9b0023db4"
]
},
"entities.name" : {
"OTSROOT" : [
"7a770390d1884ce9b0023db4"
]
},
"aliases.active.name" : {

},
"runs.name" : {

},
"configurations.assigned" : {
"notprovided" : [
"2020-09-08T15:08:31.141-0500"
],
"DefaultContext_v1" : [
"2020-09-08T15:08:31.539-0500"
],
"DefaultContext_v2" : [
"2020-09-08T15:11:11.040-0500"
],
"DefaultContext_v3" : [
"2020-09-08T15:38:45.596-0500"
]
}
}