{
"ouid" : [
"47de6ee05fef4793b225b366",
"7fe3d2180ed84cdd900d3fc4",
"948f3d3f1b3d4acfad9ab52f",
"d69eff3c0b104e609c91a380",
"e61c755c40a644b6b062a9f3"
],
"version" : {
"0" : [
"7fe3d2180ed84cdd900d3fc4"
],
"1" : [
"e61c755c40a644b6b062a9f3"
],
"2" : [
"47de6ee05fef4793b225b366"
],
"3" : [
"d69eff3c0b104e609c91a380"
],
"4" : [
"948f3d3f1b3d4acfad9ab52f"
]
},
"configurations.name" : {
"notprovided" : [
"47de6ee05fef4793b225b366",
"7fe3d2180ed84cdd900d3fc4",
"948f3d3f1b3d4acfad9ab52f",
"d69eff3c0b104e609c91a380",
"e61c755c40a644b6b062a9f3"
],
"iterateDefaultGroup_v0" : [
"7fe3d2180ed84cdd900d3fc4"
],
"iterateDefaultGroup_v1" : [
"7fe3d2180ed84cdd900d3fc4"
],
"iterateDefaultGroup_v2" : [
"7fe3d2180ed84cdd900d3fc4"
],
"iterateDefaultGroup_v3" : [
"e61c755c40a644b6b062a9f3"
],
"iterateDefaultGroup_v4" : [
"e61c755c40a644b6b062a9f3"
],
"iterateDefaultGroup_v5" : [
"e61c755c40a644b6b062a9f3"
],
"iterateDefaultGroup_v6" : [
"e61c755c40a644b6b062a9f3"
],
"iterateDefaultGroup_v7" : [
"e61c755c40a644b6b062a9f3"
],
"iterateDefaultGroup_v8" : [
"47de6ee05fef4793b225b366"
],
"iterateDefaultGroup_v9" : [
"d69eff3c0b104e609c91a380"
],
"iterateDefaultGroup_v10" : [
"d69eff3c0b104e609c91a380"
],
"iterateDefaultGroup_v11" : [
"d69eff3c0b104e609c91a380"
],
"iterateDefaultGroup_v12" : [
"948f3d3f1b3d4acfad9ab52f"
]
},
"entities.name" : {
"OTSROOT" : [
"47de6ee05fef4793b225b366",
"7fe3d2180ed84cdd900d3fc4",
"948f3d3f1b3d4acfad9ab52f",
"d69eff3c0b104e609c91a380",
"e61c755c40a644b6b062a9f3"
]
},
"aliases.active.name" : {

},
"runs.name" : {

},
"configurations.assigned" : {
"notprovided" : [
"2020-07-21T14:47:39.220-0500",
"2020-07-21T15:42:19.778-0500",
"2020-07-28T13:03:26.426-0500",
"2020-07-28T13:12:24.131-0500",
"2020-07-28T13:25:36.679-0500"
],
"iterateDefaultGroup_v0" : [
"2020-07-21T14:47:39.756-0500"
],
"iterateDefaultGroup_v1" : [
"2020-07-21T15:25:08.141-0500"
],
"iterateDefaultGroup_v2" : [
"2020-07-21T15:28:04.540-0500"
],
"iterateDefaultGroup_v3" : [
"2020-07-21T15:42:20.893-0500"
],
"iterateDefaultGroup_v4" : [
"2020-07-21T15:45:03.888-0500"
],
"iterateDefaultGroup_v5" : [
"2020-07-21T15:57:33.856-0500"
],
"iterateDefaultGroup_v6" : [
"2020-07-28T10:52:35.338-0500"
],
"iterateDefaultGroup_v7" : [
"2020-07-28T13:01:37.037-0500"
],
"iterateDefaultGroup_v8" : [
"2020-07-28T13:03:27.238-0500"
],
"iterateDefaultGroup_v9" : [
"2020-07-28T13:12:58.224-0500"
],
"iterateDefaultGroup_v10" : [
"2020-07-28T13:15:25.456-0500"
],
"iterateDefaultGroup_v11" : [
"2020-07-28T13:20:57.401-0500"
],
"iterateDefaultGroup_v12" : [
"2020-07-28T13:27:37.979-0500"
]
}
}