{
"document" : {
"data" : {
"NAME" : "TCP_DATA_LISTENER_PRODUCER_TABLE",
"COMMENT" : "No comment.",
"AUTHOR" : "admin",
"CREATION_TIME" : 1598288396,
"COL_TYPES" : {
"PROCESSOR_UID" : "STRING",
"BUFFER_SIZE" : "NUMBER",
"SERVER_IP_ADDRESS" : "STRING",
"SERVER_PORT" : "NUMBER",
"DATA_TYPE" : "STRING",
"COMMENT_DESCRIPTION" : "STRING",
"AUTHOR" : "STRING",
"RECORD_INSERTION_TIME" : "TIMESTAMP WITH TIMEZONE"
},
"DATA_SET" : [
{
"PROCESSOR_UID" : "VisualDataBufferListener",
"BUFFER_SIZE" : "1000",
"SERVER_IP_ADDRESS" : "127.0.0.1",
"SERVER_PORT" : "1900",
"DATA_TYPE" : "Raw",
"COMMENT_DESCRIPTION" : "No Comment",
"AUTHOR" : "admin",
"RECORD_INSERTION_TIME" : "1598288365"
}
]
},
"metadata" : {

},
"search" : [

]
},
"comments" : [

],
"origin" : {
"source" : "template",
"name" : "notprovided",
"format" : "json",
"created" : "2020-08-24T11:59:56.033-0500",
"rawdata" : [

]
},
"version" : "2",
"entities" : [
{
"name" : "OTSROOT",
"assigned" : "2020-08-24T11:59:56.034-0500"
}
],
"configurations" : [
{
"name" : "notprovided",
"assigned" : "2020-08-24T11:59:56.034-0500"
},
{
"name" : "DefaultConfig_v5",
"assigned" : "2020-08-24T11:59:57.035-0500"
},
{
"name" : "DefaultConfig_v6",
"assigned" : "2020-08-24T16:05:13.601-0500"
},
{
"name" : "DefaultConfig_v7",
"assigned" : "2020-08-26T10:33:56.984-0500"
},
{
"name" : "DefaultConfig_v8",
"assigned" : "2020-08-26T10:45:54.783-0500"
},
{
"name" : "DefaultConfig_v9",
"assigned" : "2020-08-26T14:49:52.967-0500"
},
{
"name" : "DefaultConfig_v10",
"assigned" : "2020-08-26T14:52:00.592-0500"
},
{
"name" : "DefaultConfig_v11",
"assigned" : "2020-08-26T15:00:04.077-0500"
},
{
"name" : "DefaultConfig_v12",
"assigned" : "2020-08-26T16:18:15.808-0500"
},
{
"name" : "DefaultConfig_v13",
"assigned" : "2020-08-28T21:40:23.171-0500"
},
{
"name" : "DefaultConfig_v14",
"assigned" : "2020-08-31T15:19:59.092-0500"
},
{
"name" : "DefaultConfig_v15",
"assigned" : "2020-09-03T10:43:22.632-0500"
}
],
"changelog" : "notprovided",
"bookkeeping" : {
"isdeleted" : false,
"isreadonly" : false,
"updates" : [
{
"event" : "addConfiguration",
"timestamp" : "2020-08-24T11:59:56.034-0500",
"value" : {
"name" : "notprovided",
"assigned" : "2020-08-24T11:59:56.034-0500"
}
},
{
"event" : "setVersion",
"timestamp" : "2020-08-24T11:59:56.034-0500",
"value" : {
"name" : "2",
"assigned" : "2020-08-24T11:59:56.034-0500"
}
},
{
"event" : "setCollection",
"timestamp" : "2020-08-24T11:59:56.034-0500",
"value" : {
"name" : "TCPDataListenerProducerTable",
"assigned" : "2020-08-24T11:59:56.034-0500"
}
},
{
"event" : "addEntity",
"timestamp" : "2020-08-24T11:59:56.034-0500",
"value" : {
"name" : "OTSROOT",
"assigned" : "2020-08-24T11:59:56.034-0500"
}
},
{
"event" : "addConfiguration",
"timestamp" : "2020-08-24T11:59:57.035-0500",
"value" : {
"name" : "DefaultConfig_v5",
"assigned" : "2020-08-24T11:59:57.035-0500"
}
},
{
"event" : "addConfiguration",
"timestamp" : "2020-08-24T16:05:13.601-0500",
"value" : {
"name" : "DefaultConfig_v6",
"assigned" : "2020-08-24T16:05:13.601-0500"
}
},
{
"event" : "addConfiguration",
"timestamp" : "2020-08-26T10:33:56.984-0500",
"value" : {
"name" : "DefaultConfig_v7",
"assigned" : "2020-08-26T10:33:56.984-0500"
}
},
{
"event" : "addConfiguration",
"timestamp" : "2020-08-26T10:45:54.783-0500",
"value" : {
"name" : "DefaultConfig_v8",
"assigned" : "2020-08-26T10:45:54.783-0500"
}
},
{
"event" : "addConfiguration",
"timestamp" : "2020-08-26T14:49:52.967-0500",
"value" : {
"name" : "DefaultConfig_v9",
"assigned" : "2020-08-26T14:49:52.967-0500"
}
},
{
"event" : "addConfiguration",
"timestamp" : "2020-08-26T14:52:00.592-0500",
"value" : {
"name" : "DefaultConfig_v10",
"assigned" : "2020-08-26T14:52:00.592-0500"
}
},
{
"event" : "addConfiguration",
"timestamp" : "2020-08-26T15:00:04.077-0500",
"value" : {
"name" : "DefaultConfig_v11",
"assigned" : "2020-08-26T15:00:04.077-0500"
}
},
{
"event" : "addConfiguration",
"timestamp" : "2020-08-26T16:18:15.808-0500",
"value" : {
"name" : "DefaultConfig_v12",
"assigned" : "2020-08-26T16:18:15.808-0500"
}
},
{
"event" : "addConfiguration",
"timestamp" : "2020-08-28T21:40:23.171-0500",
"value" : {
"name" : "DefaultConfig_v13",
"assigned" : "2020-08-28T21:40:23.171-0500"
}
},
{
"event" : "addConfiguration",
"timestamp" : "2020-08-31T15:19:59.092-0500",
"value" : {
"name" : "DefaultConfig_v14",
"assigned" : "2020-08-31T15:19:59.092-0500"
}
},
{
"event" : "addConfiguration",
"timestamp" : "2020-09-03T10:43:22.632-0500",
"value" : {
"name" : "DefaultConfig_v15",
"assigned" : "2020-09-03T10:43:22.632-0500"
}
}
],
"created" : "2020-08-24T11:59:56.033-0500"
},
"_id" : {
"$oid" : "ae5a823b26594f63868b5f80"
},
"collection" : "TCPDataListenerProducerTable",
"aliases" : {
"active" : [

],
"history" : [

]
},
"runs" : [

],
"attachments" : [

],
"configtype" : "notprovided"
}