{
"document" : {
"data" : {
"NAME" : "TCP_DATA_LISTENER_PRODUCER_TABLE",
"COMMENT" : "No comment.",
"AUTHOR" : "admin",
"CREATION_TIME" : 1599148142,
"COL_TYPES" : {
"PROCESSOR_UID" : "STRING",
"BUFFER_SIZE" : "NUMBER",
"SERVER_IP_ADDRESS" : "STRING",
"SERVER_PORT" : "NUMBER",
"DATA_TYPE" : "STRING",
"COMMENT_DESCRIPTION" : "STRING",
"AUTHOR" : "STRING",
"RECORD_INSERTION_TIME" : "TIMESTAMP WITH TIMEZONE"
},
"DATA_SET" : [
{
"PROCESSOR_UID" : "VisualDataBufferListener",
"BUFFER_SIZE" : "1000",
"SERVER_IP_ADDRESS" : "127.0.0.1",
"SERVER_PORT" : "60000",
"DATA_TYPE" : "Packet",
"COMMENT_DESCRIPTION" : "No Comment",
"AUTHOR" : "admin",
"RECORD_INSERTION_TIME" : "1599148142"
}
]
},
"metadata" : {

},
"search" : [

]
},
"comments" : [

],
"origin" : {
"source" : "template",
"name" : "notprovided",
"format" : "json",
"created" : "2020-09-03T10:49:02.183-0500",
"rawdata" : [

]
},
"version" : "3",
"entities" : [
{
"name" : "OTSROOT",
"assigned" : "2020-09-03T10:49:02.183-0500"
}
],
"configurations" : [
{
"name" : "notprovided",
"assigned" : "2020-09-03T10:49:02.183-0500"
},
{
"name" : "DefaultConfig_v16",
"assigned" : "2020-09-03T10:49:03.655-0500"
},
{
"name" : "DefaultConfig_v17",
"assigned" : "2020-09-08T17:07:21.946-0500"
},
{
"name" : "DefaultConfig_v18",
"assigned" : "2020-09-11T16:02:29.514-0500"
},
{
"name" : "DefaultConfig_v19",
"assigned" : "2020-09-14T17:47:19.725-0500"
},
{
"name" : "DefaultConfig_v20",
"assigned" : "2020-09-14T18:00:24.043-0500"
},
{
"name" : "DefaultConfig_v21",
"assigned" : "2020-09-15T15:14:57.537-0500"
},
{
"name" : "DefaultConfig_v22",
"assigned" : "2020-09-15T15:18:54.653-0500"
},
{
"name" : "DefaultConfig_v23",
"assigned" : "2020-09-15T15:27:51.586-0500"
},
{
"name" : "DefaultConfig_v24",
"assigned" : "2020-09-15T15:52:13.065-0500"
},
{
"name" : "DefaultConfig_v25",
"assigned" : "2020-09-21T11:41:58.777-0500"
},
{
"name" : "DefaultConfig_v26",
"assigned" : "2020-09-21T11:54:29.615-0500"
},
{
"name" : "DefaultConfig_v27",
"assigned" : "2020-10-06T14:45:41.709-0500"
},
{
"name" : "DefaultConfig_v28",
"assigned" : "2020-10-06T15:04:20.248-0500"
},
{
"name" : "DefaultConfig_v31",
"assigned" : "2020-11-04T20:42:37.546-0600"
},
{
"name" : "DefaultConfig_v32",
"assigned" : "2020-11-11T11:26:55.208-0600"
},
{
"name" : "DefaultConfig_v33",
"assigned" : "2021-01-18T20:04:39.556-0600"
},
{
"name" : "DefaultConfig_v34",
"assigned" : "2021-01-18T20:05:20.024-0600"
}
],
"changelog" : "notprovided",
"bookkeeping" : {
"isdeleted" : false,
"isreadonly" : false,
"updates" : [
{
"event" : "addConfiguration",
"timestamp" : "2020-09-03T10:49:02.183-0500",
"value" : {
"name" : "notprovided",
"assigned" : "2020-09-03T10:49:02.183-0500"
}
},
{
"event" : "setVersion",
"timestamp" : "2020-09-03T10:49:02.183-0500",
"value" : {
"name" : "3",
"assigned" : "2020-09-03T10:49:02.183-0500"
}
},
{
"event" : "setCollection",
"timestamp" : "2020-09-03T10:49:02.183-0500",
"value" : {
"name" : "TCPDataListenerProducerTable",
"assigned" : "2020-09-03T10:49:02.183-0500"
}
},
{
"event" : "addEntity",
"timestamp" : "2020-09-03T10:49:02.183-0500",
"value" : {
"name" : "OTSROOT",
"assigned" : "2020-09-03T10:49:02.183-0500"
}
},
{
"event" : "addConfiguration",
"timestamp" : "2020-09-03T10:49:03.655-0500",
"value" : {
"name" : "DefaultConfig_v16",
"assigned" : "2020-09-03T10:49:03.655-0500"
}
},
{
"event" : "addConfiguration",
"timestamp" : "2020-09-08T17:07:21.947-0500",
"value" : {
"name" : "DefaultConfig_v17",
"assigned" : "2020-09-08T17:07:21.946-0500"
}
},
{
"event" : "addConfiguration",
"timestamp" : "2020-09-11T16:02:29.514-0500",
"value" : {
"name" : "DefaultConfig_v18",
"assigned" : "2020-09-11T16:02:29.514-0500"
}
},
{
"event" : "addConfiguration",
"timestamp" : "2020-09-14T17:47:19.726-0500",
"value" : {
"name" : "DefaultConfig_v19",
"assigned" : "2020-09-14T17:47:19.725-0500"
}
},
{
"event" : "addConfiguration",
"timestamp" : "2020-09-14T18:00:24.043-0500",
"value" : {
"name" : "DefaultConfig_v20",
"assigned" : "2020-09-14T18:00:24.043-0500"
}
},
{
"event" : "addConfiguration",
"timestamp" : "2020-09-15T15:14:57.537-0500",
"value" : {
"name" : "DefaultConfig_v21",
"assigned" : "2020-09-15T15:14:57.537-0500"
}
},
{
"event" : "addConfiguration",
"timestamp" : "2020-09-15T15:18:54.653-0500",
"value" : {
"name" : "DefaultConfig_v22",
"assigned" : "2020-09-15T15:18:54.653-0500"
}
},
{
"event" : "addConfiguration",
"timestamp" : "2020-09-15T15:27:51.586-0500",
"value" : {
"name" : "DefaultConfig_v23",
"assigned" : "2020-09-15T15:27:51.586-0500"
}
},
{
"event" : "addConfiguration",
"timestamp" : "2020-09-15T15:52:13.065-0500",
"value" : {
"name" : "DefaultConfig_v24",
"assigned" : "2020-09-15T15:52:13.065-0500"
}
},
{
"event" : "addConfiguration",
"timestamp" : "2020-09-21T11:41:58.777-0500",
"value" : {
"name" : "DefaultConfig_v25",
"assigned" : "2020-09-21T11:41:58.777-0500"
}
},
{
"event" : "addConfiguration",
"timestamp" : "2020-09-21T11:54:29.615-0500",
"value" : {
"name" : "DefaultConfig_v26",
"assigned" : "2020-09-21T11:54:29.615-0500"
}
},
{
"event" : "addConfiguration",
"timestamp" : "2020-10-06T14:45:41.709-0500",
"value" : {
"name" : "DefaultConfig_v27",
"assigned" : "2020-10-06T14:45:41.709-0500"
}
},
{
"event" : "addConfiguration",
"timestamp" : "2020-10-06T15:04:20.249-0500",
"value" : {
"name" : "DefaultConfig_v28",
"assigned" : "2020-10-06T15:04:20.248-0500"
}
},
{
"event" : "addConfiguration",
"timestamp" : "2020-11-04T20:42:37.546-0600",
"value" : {
"name" : "DefaultConfig_v31",
"assigned" : "2020-11-04T20:42:37.546-0600"
}
},
{
"event" : "addConfiguration",
"timestamp" : "2020-11-11T11:26:55.208-0600",
"value" : {
"name" : "DefaultConfig_v32",
"assigned" : "2020-11-11T11:26:55.208-0600"
}
},
{
"event" : "addConfiguration",
"timestamp" : "2021-01-18T20:04:39.556-0600",
"value" : {
"name" : "DefaultConfig_v33",
"assigned" : "2021-01-18T20:04:39.556-0600"
}
},
{
"event" : "addConfiguration",
"timestamp" : "2021-01-18T20:05:20.024-0600",
"value" : {
"name" : "DefaultConfig_v34",
"assigned" : "2021-01-18T20:05:20.024-0600"
}
}
],
"created" : "2020-09-03T10:49:02.183-0500"
},
"_id" : {
"$oid" : "b1f67e4ee8de4f8ba1de2590"
},
"collection" : "TCPDataListenerProducerTable",
"aliases" : {
"active" : [

],
"history" : [

]
},
"runs" : [

],
"attachments" : [

],
"configtype" : "notprovided"
}