{
"document" : {
"data" : {
"NAME" : "TCP_DATA_LISTENER_PRODUCER_TABLE",
"COMMENT" : "No comment.",
"AUTHOR" : "admin",
"CREATION_TIME" : 1602107134,
"COL_TYPES" : {
"PROCESSOR_UID" : "STRING",
"BUFFER_SIZE" : "NUMBER",
"SERVER_IP_ADDRESS" : "STRING",
"SERVER_PORT" : "NUMBER",
"DATA_TYPE" : "STRING",
"COMMENT_DESCRIPTION" : "STRING",
"AUTHOR" : "STRING",
"RECORD_INSERTION_TIME" : "TIMESTAMP WITH TIMEZONE"
},
"DATA_SET" : [
{
"PROCESSOR_UID" : "VisualDataBufferListener",
"BUFFER_SIZE" : "1000",
"SERVER_IP_ADDRESS" : "127.0.0.1",
"SERVER_PORT" : "60000",
"DATA_TYPE" : "Raw",
"COMMENT_DESCRIPTION" : "No Comment",
"AUTHOR" : "admin",
"RECORD_INSERTION_TIME" : "1602107134"
}
]
},
"metadata" : {

},
"search" : [

]
},
"comments" : [

],
"origin" : {
"source" : "template",
"name" : "notprovided",
"format" : "json",
"created" : "2020-10-07T16:45:34.162-0500",
"rawdata" : [

]
},
"version" : "4",
"entities" : [
{
"name" : "OTSROOT",
"assigned" : "2020-10-07T16:45:34.163-0500"
}
],
"configurations" : [
{
"name" : "notprovided",
"assigned" : "2020-10-07T16:45:34.162-0500"
},
{
"name" : "DefaultConfig_v29",
"assigned" : "2020-10-07T16:45:36.401-0500"
}
],
"changelog" : "notprovided",
"bookkeeping" : {
"isdeleted" : false,
"isreadonly" : false,
"updates" : [
{
"event" : "addConfiguration",
"timestamp" : "2020-10-07T16:45:34.162-0500",
"value" : {
"name" : "notprovided",
"assigned" : "2020-10-07T16:45:34.162-0500"
}
},
{
"event" : "setVersion",
"timestamp" : "2020-10-07T16:45:34.163-0500",
"value" : {
"name" : "4",
"assigned" : "2020-10-07T16:45:34.163-0500"
}
},
{
"event" : "setCollection",
"timestamp" : "2020-10-07T16:45:34.163-0500",
"value" : {
"name" : "TCPDataListenerProducerTable",
"assigned" : "2020-10-07T16:45:34.163-0500"
}
},
{
"event" : "addEntity",
"timestamp" : "2020-10-07T16:45:34.163-0500",
"value" : {
"name" : "OTSROOT",
"assigned" : "2020-10-07T16:45:34.163-0500"
}
},
{
"event" : "addConfiguration",
"timestamp" : "2020-10-07T16:45:36.402-0500",
"value" : {
"name" : "DefaultConfig_v29",
"assigned" : "2020-10-07T16:45:36.401-0500"
}
}
],
"created" : "2020-10-07T16:45:34.162-0500"
},
"_id" : {
"$oid" : "ff0f242669084f59b3b22694"
},
"collection" : "TCPDataListenerProducerTable",
"aliases" : {
"active" : [

],
"history" : [

]
},
"runs" : [

],
"attachments" : [

],
"configtype" : "notprovided"
}