{
"ouid" : [
"6f9c737e0a694445b63191f5",
"84dc930c44e549b9b6d3a449",
"ae5a823b26594f63868b5f80",
"b1f67e4ee8de4f8ba1de2590",
"ff0f242669084f59b3b22694"
],
"version" : {
"1" : [
"6f9c737e0a694445b63191f5"
],
"2" : [
"ae5a823b26594f63868b5f80"
],
"3" : [
"b1f67e4ee8de4f8ba1de2590"
],
"4" : [
"ff0f242669084f59b3b22694"
],
"5" : [
"84dc930c44e549b9b6d3a449"
]
},
"configurations.name" : {
"notprovided" : [
"6f9c737e0a694445b63191f5",
"84dc930c44e549b9b6d3a449",
"ae5a823b26594f63868b5f80",
"b1f67e4ee8de4f8ba1de2590",
"ff0f242669084f59b3b22694"
],
"DefaultConfig_v1" : [
"6f9c737e0a694445b63191f5"
],
"DefaultConfig_v2" : [
"6f9c737e0a694445b63191f5"
],
"DefaultConfig_v3" : [
"6f9c737e0a694445b63191f5"
],
"DefaultConfig_v4" : [
"6f9c737e0a694445b63191f5"
],
"DefaultConfig_v5" : [
"ae5a823b26594f63868b5f80"
],
"DefaultConfig_v6" : [
"ae5a823b26594f63868b5f80"
],
"DefaultConfig_v7" : [
"ae5a823b26594f63868b5f80"
],
"DefaultConfig_v8" : [
"ae5a823b26594f63868b5f80"
],
"DefaultConfig_v9" : [
"ae5a823b26594f63868b5f80"
],
"DefaultConfig_v10" : [
"ae5a823b26594f63868b5f80"
],
"DefaultConfig_v11" : [
"ae5a823b26594f63868b5f80"
],
"DefaultConfig_v12" : [
"ae5a823b26594f63868b5f80"
],
"DefaultConfig_v13" : [
"ae5a823b26594f63868b5f80"
],
"DefaultConfig_v14" : [
"ae5a823b26594f63868b5f80"
],
"DefaultConfig_v15" : [
"ae5a823b26594f63868b5f80"
],
"DefaultConfig_v16" : [
"b1f67e4ee8de4f8ba1de2590"
],
"DefaultConfig_v17" : [
"b1f67e4ee8de4f8ba1de2590"
],
"DefaultConfig_v18" : [
"b1f67e4ee8de4f8ba1de2590"
],
"DefaultConfig_v19" : [
"b1f67e4ee8de4f8ba1de2590"
],
"DefaultConfig_v20" : [
"b1f67e4ee8de4f8ba1de2590"
],
"DefaultConfig_v21" : [
"b1f67e4ee8de4f8ba1de2590"
],
"DefaultConfig_v22" : [
"b1f67e4ee8de4f8ba1de2590"
],
"DefaultConfig_v23" : [
"b1f67e4ee8de4f8ba1de2590"
],
"DefaultConfig_v24" : [
"b1f67e4ee8de4f8ba1de2590"
],
"DefaultConfig_v25" : [
"b1f67e4ee8de4f8ba1de2590"
],
"DefaultConfig_v26" : [
"b1f67e4ee8de4f8ba1de2590"
],
"DefaultConfig_v27" : [
"b1f67e4ee8de4f8ba1de2590"
],
"DefaultConfig_v28" : [
"b1f67e4ee8de4f8ba1de2590"
],
"DefaultConfig_v29" : [
"ff0f242669084f59b3b22694"
],
"DefaultConfig_v30" : [
"84dc930c44e549b9b6d3a449"
],
"DefaultConfig_v31" : [
"b1f67e4ee8de4f8ba1de2590"
],
"DefaultConfig_v32" : [
"b1f67e4ee8de4f8ba1de2590"
],
"DefaultConfig_v33" : [
"b1f67e4ee8de4f8ba1de2590"
],
"DefaultConfig_v34" : [
"b1f67e4ee8de4f8ba1de2590"
]
},
"entities.name" : {
"OTSROOT" : [
"6f9c737e0a694445b63191f5",
"84dc930c44e549b9b6d3a449",
"ae5a823b26594f63868b5f80",
"b1f67e4ee8de4f8ba1de2590",
"ff0f242669084f59b3b22694"
]
},
"aliases.active.name" : {

},
"runs.name" : {

},
"configurations.assigned" : {
"notprovided" : [
"2020-07-21T14:27:46.581-0500",
"2020-08-24T11:59:56.034-0500",
"2020-09-03T10:49:02.183-0500",
"2020-10-07T16:45:34.162-0500",
"2020-10-07T17:03:28.269-0500"
],
"DefaultConfig_v1" : [
"2020-07-21T14:27:47.044-0500"
],
"DefaultConfig_v2" : [
"2020-07-21T14:44:16.750-0500"
],
"DefaultConfig_v3" : [
"2020-07-21T14:57:50.649-0500"
],
"DefaultConfig_v4" : [
"2020-07-28T10:52:34.593-0500"
],
"DefaultConfig_v5" : [
"2020-08-24T11:59:57.035-0500"
],
"DefaultConfig_v6" : [
"2020-08-24T16:05:13.601-0500"
],
"DefaultConfig_v7" : [
"2020-08-26T10:33:56.984-0500"
],
"DefaultConfig_v8" : [
"2020-08-26T10:45:54.783-0500"
],
"DefaultConfig_v9" : [
"2020-08-26T14:49:52.967-0500"
],
"DefaultConfig_v10" : [
"2020-08-26T14:52:00.592-0500"
],
"DefaultConfig_v11" : [
"2020-08-26T15:00:04.077-0500"
],
"DefaultConfig_v12" : [
"2020-08-26T16:18:15.808-0500"
],
"DefaultConfig_v13" : [
"2020-08-28T21:40:23.171-0500"
],
"DefaultConfig_v14" : [
"2020-08-31T15:19:59.092-0500"
],
"DefaultConfig_v15" : [
"2020-09-03T10:43:22.632-0500"
],
"DefaultConfig_v16" : [
"2020-09-03T10:49:03.655-0500"
],
"DefaultConfig_v17" : [
"2020-09-08T17:07:21.946-0500"
],
"DefaultConfig_v18" : [
"2020-09-11T16:02:29.514-0500"
],
"DefaultConfig_v19" : [
"2020-09-14T17:47:19.725-0500"
],
"DefaultConfig_v20" : [
"2020-09-14T18:00:24.043-0500"
],
"DefaultConfig_v21" : [
"2020-09-15T15:14:57.537-0500"
],
"DefaultConfig_v22" : [
"2020-09-15T15:18:54.653-0500"
],
"DefaultConfig_v23" : [
"2020-09-15T15:27:51.586-0500"
],
"DefaultConfig_v24" : [
"2020-09-15T15:52:13.065-0500"
],
"DefaultConfig_v25" : [
"2020-09-21T11:41:58.777-0500"
],
"DefaultConfig_v26" : [
"2020-09-21T11:54:29.615-0500"
],
"DefaultConfig_v27" : [
"2020-10-06T14:45:41.709-0500"
],
"DefaultConfig_v28" : [
"2020-10-06T15:04:20.248-0500"
],
"DefaultConfig_v29" : [
"2020-10-07T16:45:36.401-0500"
],
"DefaultConfig_v30" : [
"2020-10-07T17:03:30.542-0500"
],
"DefaultConfig_v31" : [
"2020-11-04T20:42:37.546-0600"
],
"DefaultConfig_v32" : [
"2020-11-11T11:26:55.208-0600"
],
"DefaultConfig_v33" : [
"2021-01-18T20:04:39.556-0600"
],
"DefaultConfig_v34" : [
"2021-01-18T20:05:20.024-0600"
]
}
}