{
"document" : {
"data" : {
"NAME" : "GROUP_ALIASES_CONFIGURATION",
"COMMENT" : "Default Backbone.",
"AUTHOR" : "admin",
"CREATION_TIME" : 1512182957,
"COL_TYPES" : {
"GROUP_KEY_ALIAS" : "VARCHAR2",
"GROUP_NAME" : "VARCHAR2",
"GROUP_KEY" : "VARCHAR2",
"COMMENT_DESCRIPTION" : "VARCHAR2",
"AUTHOR" : "VARCHAR2",
"RECORD_INSERTION_TIME" : "TIMESTAMP WITH TIMEZONE"
},
"DATA_SET" : [
{
"GROUP_KEY_ALIAS" : "FTBFContextAlias",
"GROUP_NAME" : "FTBFContext",
"GROUP_KEY" : "47",
"COMMENT_DESCRIPTION" : "FTBF \"facility daq\" context alias.",
"AUTHOR" : "admin",
"RECORD_INSERTION_TIME" : "1512179530"
},
{
"GROUP_KEY_ALIAS" : "FTBFSystemAlias",
"GROUP_NAME" : "FTBFConfig",
"GROUP_KEY" : "63",
"COMMENT_DESCRIPTION" : "FTBF \"facility daq\" configuration system alias.",
"AUTHOR" : "admin",
"RECORD_INSERTION_TIME" : "1512182957"
},
{
"GROUP_KEY_ALIAS" : "FTBFNIMPlusTestContext",
"GROUP_NAME" : "FTBFContext",
"GROUP_KEY" : "43",
"COMMENT_DESCRIPTION" : "This Group Alias was automatically setup by the server.",
"AUTHOR" : "admin",
"RECORD_INSERTION_TIME" : "1512164987"
},
{
"GROUP_KEY_ALIAS" : "FTBFNIMPlusTestConfig",
"GROUP_NAME" : "FTBFConfig",
"GROUP_KEY" : "58",
"COMMENT_DESCRIPTION" : "This Group Alias was automatically setup by the server.",
"AUTHOR" : "admin",
"RECORD_INSERTION_TIME" : "1512182758"
}
]
},
"metadata" : {

},
"search" : [

]
},
"comments" : [

],
"origin" : {
"source" : "template",
"name" : "notprovided",
"format" : "json",
"created" : "2017-12-01T20:49:17.884-0600",
"rawdata" : [

]
},
"version" : "113",
"entities" : [
{
"name" : "OTSROOT",
"assigned" : "2017-12-01T20:49:17.886-0600"
}
],
"configurations" : [
{
"name" : "notprovided",
"assigned" : "2017-12-01T20:49:17.885-0600"
},
{
"name" : "GroupAliasSaveWizBackbone_v37",
"assigned" : "2017-12-01T20:49:21.719-0600"
},
{
"name" : "GroupAliasTreeEditWizBackbone_v25",
"assigned" : "2017-12-01T21:12:22.957-0600"
}
],
"changelog" : "notprovided",
"bookkeeping" : {
"isdeleted" : false,
"isreadonly" : false,
"updates" : [
{
"event" : "addConfiguration",
"timestamp" : "2017-12-01T20:49:17.885-0600",
"value" : {
"name" : "notprovided",
"assigned" : "2017-12-01T20:49:17.885-0600"
}
},
{
"event" : "setVersion",
"timestamp" : "2017-12-01T20:49:17.885-0600",
"value" : {
"name" : "113",
"assigned" : "2017-12-01T20:49:17.885-0600"
}
},
{
"event" : "setCollection",
"timestamp" : "2017-12-01T20:49:17.886-0600",
"value" : {
"name" : "GroupAliasesConfiguration",
"assigned" : "2017-12-01T20:49:17.886-0600"
}
},
{
"event" : "addEntity",
"timestamp" : "2017-12-01T20:49:17.886-0600",
"value" : {
"name" : "OTSROOT",
"assigned" : "2017-12-01T20:49:17.886-0600"
}
},
{
"event" : "addConfiguration",
"timestamp" : "2017-12-01T20:49:21.719-0600",
"value" : {
"name" : "GroupAliasSaveWizBackbone_v37",
"assigned" : "2017-12-01T20:49:21.719-0600"
}
},
{
"event" : "addConfiguration",
"timestamp" : "2017-12-01T21:12:22.957-0600",
"value" : {
"name" : "GroupAliasTreeEditWizBackbone_v25",
"assigned" : "2017-12-01T21:12:22.957-0600"
}
}
],
"created" : "2017-12-01T20:49:17.884-0600"
},
"_id" : {
"$oid" : "af90c71a94b9436bbace4137"
},
"collection" : "GroupAliasesConfiguration",
"aliases" : {
"active" : [

],
"history" : [

]
},
"runs" : [

],
"attachments" : [

],
"configtype" : "notprovided"
}