{
"document" : {
"data" : {
"NAME" : "GROUP_ALIASES_CONFIGURATION",
"COMMENT" : "Default Backbone.",
"AUTHOR" : "uplegger",
"CREATION_TIME" : 1510965147,
"COL_TYPES" : {
"GROUP_KEY_ALIAS" : "VARCHAR2",
"GROUP_NAME" : "VARCHAR2",
"GROUP_KEY" : "VARCHAR2",
"COMMENT_DESCRIPTION" : "VARCHAR2",
"AUTHOR" : "VARCHAR2",
"RECORD_INSERTION_TIME" : "TIMESTAMP WITH TIMEZONE"
},
"DATA_SET" : [
{
"GROUP_KEY_ALIAS" : "FTBFContextAlias",
"GROUP_NAME" : "FTBFContext",
"GROUP_KEY" : "29",
"COMMENT_DESCRIPTION" : "FTBF \"facility daq\" context alias.",
"AUTHOR" : "uplegger",
"RECORD_INSERTION_TIME" : "1510961076"
},
{
"GROUP_KEY_ALIAS" : "FTBFSystemAlias",
"GROUP_NAME" : "FTBFConfig",
"GROUP_KEY" : "26",
"COMMENT_DESCRIPTION" : "FTBF \"facility daq\" configuration system alias.",
"AUTHOR" : "uplegger",
"RECORD_INSERTION_TIME" : "1510965147"
}
]
},
"metadata" : {

},
"search" : [

]
},
"comments" : [

],
"origin" : {
"source" : "template",
"name" : "notprovided",
"format" : "json",
"created" : "2017-11-17T18:32:27.767-0600",
"rawdata" : [

]
},
"version" : "55",
"entities" : [
{
"name" : "OTSROOT",
"assigned" : "2017-11-17T18:32:27.768-0600"
}
],
"configurations" : [
{
"name" : "notprovided",
"assigned" : "2017-11-17T18:32:27.768-0600"
},
{
"name" : "GroupAliasTreeEditWizBackbone_v14",
"assigned" : "2017-11-17T18:32:30.456-0600"
}
],
"changelog" : "notprovided",
"bookkeeping" : {
"isdeleted" : false,
"isreadonly" : false,
"updates" : [
{
"event" : "addConfiguration",
"timestamp" : "2017-11-17T18:32:27.768-0600",
"value" : {
"name" : "notprovided",
"assigned" : "2017-11-17T18:32:27.768-0600"
}
},
{
"event" : "setVersion",
"timestamp" : "2017-11-17T18:32:27.768-0600",
"value" : {
"name" : "55",
"assigned" : "2017-11-17T18:32:27.768-0600"
}
},
{
"event" : "setCollection",
"timestamp" : "2017-11-17T18:32:27.768-0600",
"value" : {
"name" : "GroupAliasesConfiguration",
"assigned" : "2017-11-17T18:32:27.768-0600"
}
},
{
"event" : "addEntity",
"timestamp" : "2017-11-17T18:32:27.768-0600",
"value" : {
"name" : "OTSROOT",
"assigned" : "2017-11-17T18:32:27.768-0600"
}
},
{
"event" : "addConfiguration",
"timestamp" : "2017-11-17T18:32:30.456-0600",
"value" : {
"name" : "GroupAliasTreeEditWizBackbone_v14",
"assigned" : "2017-11-17T18:32:30.456-0600"
}
}
],
"created" : "2017-11-17T18:32:27.767-0600"
},
"_id" : {
"$oid" : "c51412a2e33b4212bdc22c50"
},
"collection" : "GroupAliasesConfiguration",
"aliases" : {
"active" : [

],
"history" : [

]
},
"runs" : [

],
"attachments" : [

],
"configtype" : "notprovided"
}