{
"ouid" : [
"63ca554a7dad4fc7a6c97ea9",
"84a6436bcabc4836a733bcfa"
],
"version" : {
"0" : [
"84a6436bcabc4836a733bcfa"
],
"1" : [
"63ca554a7dad4fc7a6c97ea9"
]
},
"configurations.name" : {
"notprovided" : [
"63ca554a7dad4fc7a6c97ea9",
"84a6436bcabc4836a733bcfa"
],
"DefaultConfig_v33" : [
"84a6436bcabc4836a733bcfa"
],
"DefaultConfig_v34" : [
"63ca554a7dad4fc7a6c97ea9"
]
},
"entities.name" : {
"OTSROOT" : [
"63ca554a7dad4fc7a6c97ea9",
"84a6436bcabc4836a733bcfa"
]
},
"aliases.active.name" : {

},
"runs.name" : {

},
"configurations.assigned" : {
"notprovided" : [
"2021-01-18T20:04:37.808-0600",
"2021-01-18T20:05:17.898-0600"
],
"DefaultConfig_v33" : [
"2021-01-18T20:04:39.675-0600"
],
"DefaultConfig_v34" : [
"2021-01-18T20:05:20.171-0600"
]
}
}