{
"document" : {
"data" : {
"NAME" : "ARTDAQ_PHYSICS_PRODUCER_PARAMETER_CONFIGURATION",
"COMMENT" : "",
"AUTHOR" : "admin",
"CREATION_TIME" : 1504820386,
"COL_TYPES" : {
"PRODUCER_PARAMETER_GROUP_ID" : "VARCHAR2",
"PRODUCER_PARAMETER_UID" : "VARCHAR2",
"STATUS" : "VARCHAR2",
"PRODUCER_PARAMETER_KEY" : "VARCHAR2",
"PRODUCER_PARAMETER_VALUE" : "VARCHAR2",
"COMMENT_DESCRIPTION" : "VARCHAR2",
"AUTHOR" : "VARCHAR2",
"RECORD_INSERTION_TIME" : "TIMESTAMP WITH TIMEZONE"
},
"DATA_SET" : [
{
"PRODUCER_PARAMETER_GROUP_ID" : "builder0PhysicsProducer0PGroup",
"PRODUCER_PARAMETER_UID" : "builderPhysicsProducerModuleP0",
"STATUS" : "On",
"PRODUCER_PARAMETER_KEY" : "instance_name",
"PRODUCER_PARAMETER_VALUE" : "ArtdaqDemo",
"COMMENT_DESCRIPTION" : "No Comment",
"AUTHOR" : "DEFAULT",
"RECORD_INSERTION_TIME" : "0"
}
]
},
"metadata" : {

},
"search" : [

]
},
"comments" : [

],
"origin" : {
"source" : "template",
"name" : "notprovided",
"format" : "json",
"created" : "2017-11-08T15:56:03.310-0600",
"rawdata" : [

]
},
"version" : "0",
"entities" : [
{
"name" : "OTSROOT",
"assigned" : "2017-11-08T15:56:03.312-0600"
}
],
"configurations" : [
{
"name" : "notprovided",
"assigned" : "2017-11-08T15:56:03.311-0600"
},
{
"name" : "FTBFConfig_v0",
"assigned" : "2017-11-08T15:56:06.050-0600"
},
{
"name" : "FTBFConfig_v1",
"assigned" : "2017-11-09T09:56:30.743-0600"
},
{
"name" : "FTBFConfig_v2",
"assigned" : "2017-11-09T10:05:59.715-0600"
},
{
"name" : "FTBFConfig_v3",
"assigned" : "2017-11-09T10:37:11.280-0600"
},
{
"name" : "FTBFConfig_v4",
"assigned" : "2017-11-15T11:30:10.082-0600"
},
{
"name" : "FTBFConfig_v5",
"assigned" : "2017-11-15T11:54:56.882-0600"
},
{
"name" : "FTBFConfig_v6",
"assigned" : "2017-11-15T11:57:49.507-0600"
},
{
"name" : "FTBFConfig_v7",
"assigned" : "2017-11-15T12:42:31.909-0600"
},
{
"name" : "FTBFConfig_v8",
"assigned" : "2017-11-15T13:01:02.986-0600"
},
{
"name" : "FTBFConfig_v9",
"assigned" : "2017-11-15T13:02:56.315-0600"
},
{
"name" : "FTBFConfig_v10",
"assigned" : "2017-11-15T13:04:23.900-0600"
},
{
"name" : "FTBFConfig_v11",
"assigned" : "2017-11-15T13:07:51.394-0600"
},
{
"name" : "FTBFConfig_v12",
"assigned" : "2017-11-15T13:11:58.864-0600"
},
{
"name" : "FTBFConfig_v13",
"assigned" : "2017-11-15T13:13:52.801-0600"
},
{
"name" : "FTBFConfig_v14",
"assigned" : "2017-11-15T13:27:28.732-0600"
},
{
"name" : "FTBFConfig_v15",
"assigned" : "2017-11-15T13:35:46.806-0600"
},
{
"name" : "FTBFConfig_v16",
"assigned" : "2017-11-15T13:36:51.408-0600"
},
{
"name" : "FTBFConfig_v17",
"assigned" : "2017-11-15T15:33:29.955-0600"
},
{
"name" : "FTBFConfig_v18",
"assigned" : "2017-11-15T15:35:33.573-0600"
},
{
"name" : "FTBFConfig_v19",
"assigned" : "2017-11-15T15:38:02.427-0600"
},
{
"name" : "FTBFConfig_v20",
"assigned" : "2017-11-15T16:26:30.251-0600"
},
{
"name" : "FTBFConfig_v21",
"assigned" : "2017-11-16T09:22:31.230-0600"
},
{
"name" : "FTBFConfig_v22",
"assigned" : "2017-11-17T10:23:27.445-0600"
},
{
"name" : "FTBFConfig_v23",
"assigned" : "2017-11-17T17:26:44.990-0600"
},
{
"name" : "FTBFConfig_v24",
"assigned" : "2017-11-17T17:58:25.495-0600"
},
{
"name" : "FTBFConfig_v25",
"assigned" : "2017-11-17T18:24:45.153-0600"
},
{
"name" : "FTBFConfig_v26",
"assigned" : "2017-11-17T18:32:22.570-0600"
},
{
"name" : "FTBFConfig_v27",
"assigned" : "2017-11-17T18:43:29.717-0600"
},
{
"name" : "FTBFConfig_v28",
"assigned" : "2017-11-17T18:48:31.759-0600"
},
{
"name" : "FTBFConfig_v29",
"assigned" : "2017-11-20T14:48:30.533-0600"
},
{
"name" : "FTBFConfig_v30",
"assigned" : "2017-11-20T15:39:55.673-0600"
},
{
"name" : "FTBFConfig_v31",
"assigned" : "2017-11-20T16:41:01.671-0600"
},
{
"name" : "FTBFConfig_v32",
"assigned" : "2017-11-20T18:55:34.600-0600"
},
{
"name" : "FTBFConfig_v33",
"assigned" : "2017-11-20T18:57:29.872-0600"
},
{
"name" : "FTBFConfig_v34",
"assigned" : "2017-11-29T17:50:39.364-0600"
},
{
"name" : "FTBFConfig_v35",
"assigned" : "2017-11-29T18:00:32.317-0600"
},
{
"name" : "FTBFConfig_v36",
"assigned" : "2017-11-29T18:35:11.040-0600"
},
{
"name" : "FTBFConfig_v37",
"assigned" : "2017-12-01T09:36:17.306-0600"
},
{
"name" : "FTBFConfig_v38",
"assigned" : "2017-12-01T09:52:00.720-0600"
},
{
"name" : "FTBFConfig_v39",
"assigned" : "2017-12-01T11:51:57.972-0600"
},
{
"name" : "FTBFConfig_v40",
"assigned" : "2017-12-01T12:18:19.946-0600"
},
{
"name" : "FTBFConfig_v41",
"assigned" : "2017-12-01T12:21:02.074-0600"
},
{
"name" : "FTBFConfig_v42",
"assigned" : "2017-12-01T12:43:21.271-0600"
},
{
"name" : "FTBFConfig_v43",
"assigned" : "2017-12-01T12:57:58.845-0600"
},
{
"name" : "FTBFConfig_v44",
"assigned" : "2017-12-01T13:00:51.680-0600"
},
{
"name" : "FTBFConfig_v45",
"assigned" : "2017-12-01T13:25:48.375-0600"
},
{
"name" : "FTBFConfig_v46",
"assigned" : "2017-12-01T13:35:43.140-0600"
},
{
"name" : "FTBFConfig_v47",
"assigned" : "2017-12-01T14:00:51.444-0600"
},
{
"name" : "FTBFConfig_v48",
"assigned" : "2017-12-01T14:03:58.774-0600"
},
{
"name" : "FTBFConfig_v49",
"assigned" : "2017-12-01T15:31:58.923-0600"
},
{
"name" : "FTBFConfig_v52",
"assigned" : "2017-12-01T15:37:30.868-0600"
},
{
"name" : "FTBFConfig_v53",
"assigned" : "2017-12-01T15:40:58.439-0600"
},
{
"name" : "FTBFConfig_v54",
"assigned" : "2017-12-01T15:52:48.761-0600"
},
{
"name" : "FTBFConfig_v55",
"assigned" : "2017-12-01T15:54:33.905-0600"
},
{
"name" : "FTBFConfig_v56",
"assigned" : "2017-12-01T15:55:33.472-0600"
},
{
"name" : "FTBFConfig_v57",
"assigned" : "2017-12-01T15:56:39.297-0600"
},
{
"name" : "FTBFConfig_v58",
"assigned" : "2017-12-01T15:57:37.353-0600"
},
{
"name" : "FTBFConfig_v59",
"assigned" : "2017-12-01T15:58:29.266-0600"
},
{
"name" : "FTBFConfig_v60",
"assigned" : "2017-12-01T15:59:30.463-0600"
},
{
"name" : "FTBFConfig_v61",
"assigned" : "2017-12-01T16:19:40.220-0600"
},
{
"name" : "FTBFConfig_v62",
"assigned" : "2017-12-01T16:22:02.773-0600"
},
{
"name" : "FTBFConfig_v63",
"assigned" : "2017-12-01T16:31:23.396-0600"
},
{
"name" : "FTBFConfig_v64",
"assigned" : "2017-12-01T17:06:30.610-0600"
},
{
"name" : "FTBFConfig_v65",
"assigned" : "2017-12-01T17:32:42.731-0600"
},
{
"name" : "FTBFConfig_v66",
"assigned" : "2017-12-01T20:38:49.155-0600"
},
{
"name" : "FTBFConfig_v67",
"assigned" : "2017-12-01T21:25:00.569-0600"
},
{
"name" : "FTBFConfig_v68",
"assigned" : "2017-12-01T21:43:00.242-0600"
},
{
"name" : "FTBFConfig_v69",
"assigned" : "2017-12-01T21:44:58.861-0600"
},
{
"name" : "FTBFConfig_v70",
"assigned" : "2017-12-01T21:59:18.099-0600"
},
{
"name" : "FTBFConfigNim_v0",
"assigned" : "2017-12-01T22:00:04.816-0600"
},
{
"name" : "FTBFConfigNim_v1",
"assigned" : "2017-12-01T22:13:06.578-0600"
},
{
"name" : "FTBFConfigNim_v2",
"assigned" : "2017-12-01T22:15:53.810-0600"
},
{
"name" : "FTBFConfigNim_v3",
"assigned" : "2017-12-01T22:17:02.081-0600"
},
{
"name" : "FTBFConfigNim_v4",
"assigned" : "2017-12-01T22:19:04.893-0600"
},
{
"name" : "FTBFConfigNim_v5",
"assigned" : "2017-12-01T22:21:55.636-0600"
},
{
"name" : "FTBFConfigNim_v6",
"assigned" : "2017-12-01T22:23:11.782-0600"
},
{
"name" : "FTBFConfigNim_v7",
"assigned" : "2017-12-01T22:25:15.586-0600"
},
{
"name" : "FTBFConfigNim_v8",
"assigned" : "2017-12-01T22:27:03.235-0600"
},
{
"name" : "FTBFConfigNim_v9",
"assigned" : "2017-12-01T22:29:27.396-0600"
},
{
"name" : "FTBFConfigNim_v10",
"assigned" : "2017-12-01T22:52:32.519-0600"
},
{
"name" : "FTBFConfigNim_v11",
"assigned" : "2017-12-01T22:57:27.367-0600"
},
{
"name" : "FTBFConfigNim_v12",
"assigned" : "2017-12-01T23:00:05.585-0600"
},
{
"name" : "FTBFConfigNim_v13",
"assigned" : "2017-12-01T23:52:33.704-0600"
},
{
"name" : "FTBFConfigNim_v14",
"assigned" : "2017-12-01T23:58:08.123-0600"
},
{
"name" : "FTBFConfigNim_v15",
"assigned" : "2017-12-02T00:00:32.384-0600"
},
{
"name" : "FTBFConfigNim_v16",
"assigned" : "2017-12-02T00:13:07.533-0600"
},
{
"name" : "FTBFConfigNim_v17",
"assigned" : "2017-12-02T00:28:26.488-0600"
},
{
"name" : "FTBFConfigNim_v18",
"assigned" : "2017-12-02T00:29:32.556-0600"
},
{
"name" : "FTBFConfigNim_v19",
"assigned" : "2017-12-02T00:31:09.939-0600"
},
{
"name" : "FTBFConfigNim_v20",
"assigned" : "2017-12-02T00:57:25.593-0600"
},
{
"name" : "FTBFConfigNim_v21",
"assigned" : "2017-12-02T10:58:00.114-0600"
},
{
"name" : "FTBFConfigNim_v22",
"assigned" : "2017-12-02T11:08:16.303-0600"
},
{
"name" : "FTBFConfigNim_v23",
"assigned" : "2017-12-02T11:12:37.857-0600"
},
{
"name" : "FTBFConfigNim_v24",
"assigned" : "2017-12-02T11:18:40.768-0600"
},
{
"name" : "FTBFConfigNim_v25",
"assigned" : "2017-12-02T11:27:03.946-0600"
},
{
"name" : "FTBFConfigNim_v26",
"assigned" : "2017-12-02T11:38:34.990-0600"
},
{
"name" : "FTBFConfigNim_v27",
"assigned" : "2017-12-02T11:49:06.176-0600"
},
{
"name" : "FTBFConfigNim_v28",
"assigned" : "2017-12-02T11:55:07.623-0600"
},
{
"name" : "FTBFConfigNim_v29",
"assigned" : "2017-12-02T12:06:24.464-0600"
},
{
"name" : "FTBFConfig_v71",
"assigned" : "2017-12-02T12:24:13.110-0600"
},
{
"name" : "FTBFConfig_v72",
"assigned" : "2017-12-02T12:43:33.961-0600"
},
{
"name" : "FTBFConfig_v73",
"assigned" : "2017-12-02T13:55:33.600-0600"
},
{
"name" : "FTBFConfig_v74",
"assigned" : "2017-12-02T14:09:05.929-0600"
},
{
"name" : "FTBFConfig_v75",
"assigned" : "2017-12-02T14:12:16.724-0600"
},
{
"name" : "FTBFConfig_v76",
"assigned" : "2017-12-02T19:05:51.800-0600"
},
{
"name" : "FTBFConfig_v77",
"assigned" : "2017-12-02T19:12:11.681-0600"
},
{
"name" : "FTBFConfig_v78",
"assigned" : "2017-12-03T14:03:46.816-0600"
},
{
"name" : "FTBFConfig_v79",
"assigned" : "2017-12-03T14:09:05.065-0600"
},
{
"name" : "FTBFConfig_v80",
"assigned" : "2017-12-03T14:11:08.791-0600"
},
{
"name" : "FTBFConfig_v81",
"assigned" : "2017-12-03T14:22:31.841-0600"
},
{
"name" : "FTBFConfig_v82",
"assigned" : "2017-12-03T14:40:36.621-0600"
},
{
"name" : "FTBFConfig_v83",
"assigned" : "2017-12-03T14:45:03.985-0600"
},
{
"name" : "FTBFConfig_v84",
"assigned" : "2017-12-04T14:51:29.334-0600"
},
{
"name" : "FTBFConfig_v85",
"assigned" : "2017-12-04T14:55:42.499-0600"
},
{
"name" : "FTBFConfig_v86",
"assigned" : "2017-12-04T16:51:05.504-0600"
},
{
"name" : "FTBFConfig_v87",
"assigned" : "2017-12-04T16:56:46.137-0600"
},
{
"name" : "FTBFConfig_v88",
"assigned" : "2017-12-04T17:01:10.864-0600"
},
{
"name" : "FTBFConfig_v89",
"assigned" : "2017-12-04T17:03:55.973-0600"
},
{
"name" : "FTBFConfig_v90",
"assigned" : "2017-12-04T17:07:15.599-0600"
},
{
"name" : "FTBFConfig_v91",
"assigned" : "2017-12-04T17:09:24.726-0600"
},
{
"name" : "FTBFConfig_v92",
"assigned" : "2017-12-04T17:11:37.213-0600"
},
{
"name" : "FTBFConfig_v93",
"assigned" : "2017-12-04T21:05:19.810-0600"
},
{
"name" : "FTBFConfig_v94",
"assigned" : "2017-12-04T21:17:10.724-0600"
},
{
"name" : "FTBFConfig_v95",
"assigned" : "2017-12-04T21:41:16.403-0600"
},
{
"name" : "FTBFConfig_v96",
"assigned" : "2017-12-04T22:39:01.034-0600"
},
{
"name" : "FTBFConfig_v97",
"assigned" : "2017-12-04T23:01:11.542-0600"
},
{
"name" : "FTBFConfig_v98",
"assigned" : "2017-12-07T11:07:45.557-0600"
},
{
"name" : "FTBFConfig_v99",
"assigned" : "2017-12-07T11:49:58.236-0600"
},
{
"name" : "FTBFConfig_v100",
"assigned" : "2017-12-07T11:58:24.951-0600"
},
{
"name" : "FTBFConfig_v101",
"assigned" : "2017-12-08T13:30:47.114-0600"
},
{
"name" : "FTBFConfig_v102",
"assigned" : "2017-12-08T13:32:33.978-0600"
},
{
"name" : "FTBFConfig_v103",
"assigned" : "2017-12-12T11:03:03.776-0600"
},
{
"name" : "FTBFConfig_v104",
"assigned" : "2017-12-12T13:50:58.161-0600"
},
{
"name" : "FTBFConfig_v105",
"assigned" : "2017-12-12T15:25:04.203-0600"
},
{
"name" : "FTBFConfig_v106",
"assigned" : "2017-12-13T10:24:22.552-0600"
},
{
"name" : "FTBFConfig_v107",
"assigned" : "2017-12-13T10:27:01.306-0600"
},
{
"name" : "FTBFConfig_v108",
"assigned" : "2018-02-01T21:14:24.804-0600"
},
{
"name" : "FTBFConfig_v109",
"assigned" : "2018-02-01T21:21:01.915-0600"
},
{
"name" : "FTBFConfig_v110",
"assigned" : "2018-02-02T11:25:32.883-0600"
},
{
"name" : "FTBFConfig_v111",
"assigned" : "2018-02-02T11:37:11.704-0600"
},
{
"name" : "FTBFConfig_v112",
"assigned" : "2018-02-02T11:47:14.197-0600"
},
{
"name" : "FTBFConfig_v113",
"assigned" : "2018-02-02T11:53:35.443-0600"
},
{
"name" : "FTBFConfig_v114",
"assigned" : "2018-02-02T12:00:51.547-0600"
},
{
"name" : "FTBFConfig_v115",
"assigned" : "2018-02-02T12:27:13.020-0600"
},
{
"name" : "FTBFConfig_v116",
"assigned" : "2018-02-02T14:28:52.542-0600"
},
{
"name" : "FTBFConfig_v117",
"assigned" : "2018-02-02T14:30:18.877-0600"
},
{
"name" : "FTBFConfig_v118",
"assigned" : "2018-02-02T14:34:00.080-0600"
},
{
"name" : "FTBFConfig_v119",
"assigned" : "2018-02-02T14:36:26.729-0600"
},
{
"name" : "FTBFConfig_v120",
"assigned" : "2018-02-02T14:38:40.071-0600"
},
{
"name" : "FTBFConfig_v121",
"assigned" : "2018-02-02T14:41:49.383-0600"
},
{
"name" : "FTBFConfig_v122",
"assigned" : "2018-02-02T14:50:23.463-0600"
},
{
"name" : "FTBFConfig_v123",
"assigned" : "2018-02-02T14:52:56.270-0600"
},
{
"name" : "FTBFConfig_v124",
"assigned" : "2018-02-02T14:59:49.624-0600"
},
{
"name" : "FTBFConfig_v125",
"assigned" : "2018-02-02T15:04:07.732-0600"
},
{
"name" : "FTBFConfig_v126",
"assigned" : "2018-02-02T15:50:10.913-0600"
},
{
"name" : "FTBFConfig_v127",
"assigned" : "2018-02-02T15:51:30.422-0600"
},
{
"name" : "FTBFConfig_v128",
"assigned" : "2018-02-02T15:52:35.573-0600"
},
{
"name" : "FTBFConfig_v129",
"assigned" : "2018-02-02T16:02:44.476-0600"
},
{
"name" : "FTBFConfig_v130",
"assigned" : "2018-02-02T16:08:44.010-0600"
},
{
"name" : "FTBFConfig_v131",
"assigned" : "2018-02-02T16:11:29.860-0600"
},
{
"name" : "FTBFConfig_v132",
"assigned" : "2018-02-02T16:12:57.708-0600"
},
{
"name" : "FTBFConfig_v133",
"assigned" : "2018-02-02T16:14:28.304-0600"
},
{
"name" : "FTBFConfig_v134",
"assigned" : "2018-02-02T16:26:21.178-0600"
},
{
"name" : "FTBFConfig_v135",
"assigned" : "2018-02-02T16:27:08.299-0600"
},
{
"name" : "FTBFConfig_v136",
"assigned" : "2018-02-02T16:29:29.668-0600"
},
{
"name" : "FTBFConfig_v137",
"assigned" : "2018-02-02T16:31:40.259-0600"
},
{
"name" : "FTBFConfig_v138",
"assigned" : "2018-02-02T16:34:12.939-0600"
},
{
"name" : "FTBFConfig_v139",
"assigned" : "2018-02-02T17:39:28.977-0600"
},
{
"name" : "FTBFConfig_v140",
"assigned" : "2018-02-02T17:42:51.149-0600"
},
{
"name" : "FTBFConfig_v141",
"assigned" : "2018-02-02T17:47:36.333-0600"
},
{
"name" : "FTBFConfig_v142",
"assigned" : "2018-02-02T17:54:00.354-0600"
}
],
"changelog" : "notprovided",
"bookkeeping" : {
"isdeleted" : false,
"isreadonly" : false,
"updates" : [
{
"event" : "addConfiguration",
"timestamp" : "2017-11-08T15:56:03.311-0600",
"value" : {
"name" : "notprovided",
"assigned" : "2017-11-08T15:56:03.311-0600"
}
},
{
"event" : "setVersion",
"timestamp" : "2017-11-08T15:56:03.311-0600",
"value" : {
"name" : "0",
"assigned" : "2017-11-08T15:56:03.311-0600"
}
},
{
"event" : "setCollection",
"timestamp" : "2017-11-08T15:56:03.312-0600",
"value" : {
"name" : "ARTDAQPhysicsProducerParameterConfiguration",
"assigned" : "2017-11-08T15:56:03.312-0600"
}
},
{
"event" : "addEntity",
"timestamp" : "2017-11-08T15:56:03.312-0600",
"value" : {
"name" : "OTSROOT",
"assigned" : "2017-11-08T15:56:03.312-0600"
}
},
{
"event" : "addConfiguration",
"timestamp" : "2017-11-08T15:56:06.050-0600",
"value" : {
"name" : "FTBFConfig_v0",
"assigned" : "2017-11-08T15:56:06.050-0600"
}
},
{
"event" : "addConfiguration",
"timestamp" : "2017-11-09T09:56:30.743-0600",
"value" : {
"name" : "FTBFConfig_v1",
"assigned" : "2017-11-09T09:56:30.743-0600"
}
},
{
"event" : "addConfiguration",
"timestamp" : "2017-11-09T10:05:59.715-0600",
"value" : {
"name" : "FTBFConfig_v2",
"assigned" : "2017-11-09T10:05:59.715-0600"
}
},
{
"event" : "addConfiguration",
"timestamp" : "2017-11-09T10:37:11.280-0600",
"value" : {
"name" : "FTBFConfig_v3",
"assigned" : "2017-11-09T10:37:11.280-0600"
}
},
{
"event" : "addConfiguration",
"timestamp" : "2017-11-15T11:30:10.082-0600",
"value" : {
"name" : "FTBFConfig_v4",
"assigned" : "2017-11-15T11:30:10.082-0600"
}
},
{
"event" : "addConfiguration",
"timestamp" : "2017-11-15T11:54:56.882-0600",
"value" : {
"name" : "FTBFConfig_v5",
"assigned" : "2017-11-15T11:54:56.882-0600"
}
},
{
"event" : "addConfiguration",
"timestamp" : "2017-11-15T11:57:49.507-0600",
"value" : {
"name" : "FTBFConfig_v6",
"assigned" : "2017-11-15T11:57:49.507-0600"
}
},
{
"event" : "addConfiguration",
"timestamp" : "2017-11-15T12:42:31.909-0600",
"value" : {
"name" : "FTBFConfig_v7",
"assigned" : "2017-11-15T12:42:31.909-0600"
}
},
{
"event" : "addConfiguration",
"timestamp" : "2017-11-15T13:01:02.987-0600",
"value" : {
"name" : "FTBFConfig_v8",
"assigned" : "2017-11-15T13:01:02.986-0600"
}
},
{
"event" : "addConfiguration",
"timestamp" : "2017-11-15T13:02:56.315-0600",
"value" : {
"name" : "FTBFConfig_v9",
"assigned" : "2017-11-15T13:02:56.315-0600"
}
},
{
"event" : "addConfiguration",
"timestamp" : "2017-11-15T13:04:23.900-0600",
"value" : {
"name" : "FTBFConfig_v10",
"assigned" : "2017-11-15T13:04:23.900-0600"
}
},
{
"event" : "addConfiguration",
"timestamp" : "2017-11-15T13:07:51.394-0600",
"value" : {
"name" : "FTBFConfig_v11",
"assigned" : "2017-11-15T13:07:51.394-0600"
}
},
{
"event" : "addConfiguration",
"timestamp" : "2017-11-15T13:11:58.865-0600",
"value" : {
"name" : "FTBFConfig_v12",
"assigned" : "2017-11-15T13:11:58.864-0600"
}
},
{
"event" : "addConfiguration",
"timestamp" : "2017-11-15T13:13:52.801-0600",
"value" : {
"name" : "FTBFConfig_v13",
"assigned" : "2017-11-15T13:13:52.801-0600"
}
},
{
"event" : "addConfiguration",
"timestamp" : "2017-11-15T13:27:28.732-0600",
"value" : {
"name" : "FTBFConfig_v14",
"assigned" : "2017-11-15T13:27:28.732-0600"
}
},
{
"event" : "addConfiguration",
"timestamp" : "2017-11-15T13:35:46.806-0600",
"value" : {
"name" : "FTBFConfig_v15",
"assigned" : "2017-11-15T13:35:46.806-0600"
}
},
{
"event" : "addConfiguration",
"timestamp" : "2017-11-15T13:36:51.408-0600",
"value" : {
"name" : "FTBFConfig_v16",
"assigned" : "2017-11-15T13:36:51.408-0600"
}
},
{
"event" : "addConfiguration",
"timestamp" : "2017-11-15T15:33:29.955-0600",
"value" : {
"name" : "FTBFConfig_v17",
"assigned" : "2017-11-15T15:33:29.955-0600"
}
},
{
"event" : "addConfiguration",
"timestamp" : "2017-11-15T15:35:33.573-0600",
"value" : {
"name" : "FTBFConfig_v18",
"assigned" : "2017-11-15T15:35:33.573-0600"
}
},
{
"event" : "addConfiguration",
"timestamp" : "2017-11-15T15:38:02.427-0600",
"value" : {
"name" : "FTBFConfig_v19",
"assigned" : "2017-11-15T15:38:02.427-0600"
}
},
{
"event" : "addConfiguration",
"timestamp" : "2017-11-15T16:26:30.251-0600",
"value" : {
"name" : "FTBFConfig_v20",
"assigned" : "2017-11-15T16:26:30.251-0600"
}
},
{
"event" : "addConfiguration",
"timestamp" : "2017-11-16T09:22:31.230-0600",
"value" : {
"name" : "FTBFConfig_v21",
"assigned" : "2017-11-16T09:22:31.230-0600"
}
},
{
"event" : "addConfiguration",
"timestamp" : "2017-11-17T10:23:27.445-0600",
"value" : {
"name" : "FTBFConfig_v22",
"assigned" : "2017-11-17T10:23:27.445-0600"
}
},
{
"event" : "addConfiguration",
"timestamp" : "2017-11-17T17:26:44.990-0600",
"value" : {
"name" : "FTBFConfig_v23",
"assigned" : "2017-11-17T17:26:44.990-0600"
}
},
{
"event" : "addConfiguration",
"timestamp" : "2017-11-17T17:58:25.495-0600",
"value" : {
"name" : "FTBFConfig_v24",
"assigned" : "2017-11-17T17:58:25.495-0600"
}
},
{
"event" : "addConfiguration",
"timestamp" : "2017-11-17T18:24:45.153-0600",
"value" : {
"name" : "FTBFConfig_v25",
"assigned" : "2017-11-17T18:24:45.153-0600"
}
},
{
"event" : "addConfiguration",
"timestamp" : "2017-11-17T18:32:22.570-0600",
"value" : {
"name" : "FTBFConfig_v26",
"assigned" : "2017-11-17T18:32:22.570-0600"
}
},
{
"event" : "addConfiguration",
"timestamp" : "2017-11-17T18:43:29.717-0600",
"value" : {
"name" : "FTBFConfig_v27",
"assigned" : "2017-11-17T18:43:29.717-0600"
}
},
{
"event" : "addConfiguration",
"timestamp" : "2017-11-17T18:48:31.759-0600",
"value" : {
"name" : "FTBFConfig_v28",
"assigned" : "2017-11-17T18:48:31.759-0600"
}
},
{
"event" : "addConfiguration",
"timestamp" : "2017-11-20T14:48:30.533-0600",
"value" : {
"name" : "FTBFConfig_v29",
"assigned" : "2017-11-20T14:48:30.533-0600"
}
},
{
"event" : "addConfiguration",
"timestamp" : "2017-11-20T15:39:55.673-0600",
"value" : {
"name" : "FTBFConfig_v30",
"assigned" : "2017-11-20T15:39:55.673-0600"
}
},
{
"event" : "addConfiguration",
"timestamp" : "2017-11-20T16:41:01.671-0600",
"value" : {
"name" : "FTBFConfig_v31",
"assigned" : "2017-11-20T16:41:01.671-0600"
}
},
{
"event" : "addConfiguration",
"timestamp" : "2017-11-20T18:55:34.600-0600",
"value" : {
"name" : "FTBFConfig_v32",
"assigned" : "2017-11-20T18:55:34.600-0600"
}
},
{
"event" : "addConfiguration",
"timestamp" : "2017-11-20T18:57:29.872-0600",
"value" : {
"name" : "FTBFConfig_v33",
"assigned" : "2017-11-20T18:57:29.872-0600"
}
},
{
"event" : "addConfiguration",
"timestamp" : "2017-11-29T17:50:39.364-0600",
"value" : {
"name" : "FTBFConfig_v34",
"assigned" : "2017-11-29T17:50:39.364-0600"
}
},
{
"event" : "addConfiguration",
"timestamp" : "2017-11-29T18:00:32.317-0600",
"value" : {
"name" : "FTBFConfig_v35",
"assigned" : "2017-11-29T18:00:32.317-0600"
}
},
{
"event" : "addConfiguration",
"timestamp" : "2017-11-29T18:35:11.040-0600",
"value" : {
"name" : "FTBFConfig_v36",
"assigned" : "2017-11-29T18:35:11.040-0600"
}
},
{
"event" : "addConfiguration",
"timestamp" : "2017-12-01T09:36:17.306-0600",
"value" : {
"name" : "FTBFConfig_v37",
"assigned" : "2017-12-01T09:36:17.306-0600"
}
},
{
"event" : "addConfiguration",
"timestamp" : "2017-12-01T09:52:00.720-0600",
"value" : {
"name" : "FTBFConfig_v38",
"assigned" : "2017-12-01T09:52:00.720-0600"
}
},
{
"event" : "addConfiguration",
"timestamp" : "2017-12-01T11:51:57.972-0600",
"value" : {
"name" : "FTBFConfig_v39",
"assigned" : "2017-12-01T11:51:57.972-0600"
}
},
{
"event" : "addConfiguration",
"timestamp" : "2017-12-01T12:18:19.946-0600",
"value" : {
"name" : "FTBFConfig_v40",
"assigned" : "2017-12-01T12:18:19.946-0600"
}
},
{
"event" : "addConfiguration",
"timestamp" : "2017-12-01T12:21:02.074-0600",
"value" : {
"name" : "FTBFConfig_v41",
"assigned" : "2017-12-01T12:21:02.074-0600"
}
},
{
"event" : "addConfiguration",
"timestamp" : "2017-12-01T12:43:21.272-0600",
"value" : {
"name" : "FTBFConfig_v42",
"assigned" : "2017-12-01T12:43:21.271-0600"
}
},
{
"event" : "addConfiguration",
"timestamp" : "2017-12-01T12:57:58.845-0600",
"value" : {
"name" : "FTBFConfig_v43",
"assigned" : "2017-12-01T12:57:58.845-0600"
}
},
{
"event" : "addConfiguration",
"timestamp" : "2017-12-01T13:00:51.680-0600",
"value" : {
"name" : "FTBFConfig_v44",
"assigned" : "2017-12-01T13:00:51.680-0600"
}
},
{
"event" : "addConfiguration",
"timestamp" : "2017-12-01T13:25:48.375-0600",
"value" : {
"name" : "FTBFConfig_v45",
"assigned" : "2017-12-01T13:25:48.375-0600"
}
},
{
"event" : "addConfiguration",
"timestamp" : "2017-12-01T13:35:43.140-0600",
"value" : {
"name" : "FTBFConfig_v46",
"assigned" : "2017-12-01T13:35:43.140-0600"
}
},
{
"event" : "addConfiguration",
"timestamp" : "2017-12-01T14:00:51.444-0600",
"value" : {
"name" : "FTBFConfig_v47",
"assigned" : "2017-12-01T14:00:51.444-0600"
}
},
{
"event" : "addConfiguration",
"timestamp" : "2017-12-01T14:03:58.775-0600",
"value" : {
"name" : "FTBFConfig_v48",
"assigned" : "2017-12-01T14:03:58.774-0600"
}
},
{
"event" : "addConfiguration",
"timestamp" : "2017-12-01T15:31:58.923-0600",
"value" : {
"name" : "FTBFConfig_v49",
"assigned" : "2017-12-01T15:31:58.923-0600"
}
},
{
"event" : "addConfiguration",
"timestamp" : "2017-12-01T15:37:30.868-0600",
"value" : {
"name" : "FTBFConfig_v52",
"assigned" : "2017-12-01T15:37:30.868-0600"
}
},
{
"event" : "addConfiguration",
"timestamp" : "2017-12-01T15:40:58.439-0600",
"value" : {
"name" : "FTBFConfig_v53",
"assigned" : "2017-12-01T15:40:58.439-0600"
}
},
{
"event" : "addConfiguration",
"timestamp" : "2017-12-01T15:52:48.761-0600",
"value" : {
"name" : "FTBFConfig_v54",
"assigned" : "2017-12-01T15:52:48.761-0600"
}
},
{
"event" : "addConfiguration",
"timestamp" : "2017-12-01T15:54:33.905-0600",
"value" : {
"name" : "FTBFConfig_v55",
"assigned" : "2017-12-01T15:54:33.905-0600"
}
},
{
"event" : "addConfiguration",
"timestamp" : "2017-12-01T15:55:33.472-0600",
"value" : {
"name" : "FTBFConfig_v56",
"assigned" : "2017-12-01T15:55:33.472-0600"
}
},
{
"event" : "addConfiguration",
"timestamp" : "2017-12-01T15:56:39.297-0600",
"value" : {
"name" : "FTBFConfig_v57",
"assigned" : "2017-12-01T15:56:39.297-0600"
}
},
{
"event" : "addConfiguration",
"timestamp" : "2017-12-01T15:57:37.353-0600",
"value" : {
"name" : "FTBFConfig_v58",
"assigned" : "2017-12-01T15:57:37.353-0600"
}
},
{
"event" : "addConfiguration",
"timestamp" : "2017-12-01T15:58:29.266-0600",
"value" : {
"name" : "FTBFConfig_v59",
"assigned" : "2017-12-01T15:58:29.266-0600"
}
},
{
"event" : "addConfiguration",
"timestamp" : "2017-12-01T15:59:30.463-0600",
"value" : {
"name" : "FTBFConfig_v60",
"assigned" : "2017-12-01T15:59:30.463-0600"
}
},
{
"event" : "addConfiguration",
"timestamp" : "2017-12-01T16:19:40.220-0600",
"value" : {
"name" : "FTBFConfig_v61",
"assigned" : "2017-12-01T16:19:40.220-0600"
}
},
{
"event" : "addConfiguration",
"timestamp" : "2017-12-01T16:22:02.773-0600",
"value" : {
"name" : "FTBFConfig_v62",
"assigned" : "2017-12-01T16:22:02.773-0600"
}
},
{
"event" : "addConfiguration",
"timestamp" : "2017-12-01T16:31:23.396-0600",
"value" : {
"name" : "FTBFConfig_v63",
"assigned" : "2017-12-01T16:31:23.396-0600"
}
},
{
"event" : "addConfiguration",
"timestamp" : "2017-12-01T17:06:30.610-0600",
"value" : {
"name" : "FTBFConfig_v64",
"assigned" : "2017-12-01T17:06:30.610-0600"
}
},
{
"event" : "addConfiguration",
"timestamp" : "2017-12-01T17:32:42.731-0600",
"value" : {
"name" : "FTBFConfig_v65",
"assigned" : "2017-12-01T17:32:42.731-0600"
}
},
{
"event" : "addConfiguration",
"timestamp" : "2017-12-01T20:38:49.155-0600",
"value" : {
"name" : "FTBFConfig_v66",
"assigned" : "2017-12-01T20:38:49.155-0600"
}
},
{
"event" : "addConfiguration",
"timestamp" : "2017-12-01T21:25:00.569-0600",
"value" : {
"name" : "FTBFConfig_v67",
"assigned" : "2017-12-01T21:25:00.569-0600"
}
},
{
"event" : "addConfiguration",
"timestamp" : "2017-12-01T21:43:00.242-0600",
"value" : {
"name" : "FTBFConfig_v68",
"assigned" : "2017-12-01T21:43:00.242-0600"
}
},
{
"event" : "addConfiguration",
"timestamp" : "2017-12-01T21:44:58.861-0600",
"value" : {
"name" : "FTBFConfig_v69",
"assigned" : "2017-12-01T21:44:58.861-0600"
}
},
{
"event" : "addConfiguration",
"timestamp" : "2017-12-01T21:59:18.100-0600",
"value" : {
"name" : "FTBFConfig_v70",
"assigned" : "2017-12-01T21:59:18.099-0600"
}
},
{
"event" : "addConfiguration",
"timestamp" : "2017-12-01T22:00:04.817-0600",
"value" : {
"name" : "FTBFConfigNim_v0",
"assigned" : "2017-12-01T22:00:04.816-0600"
}
},
{
"event" : "addConfiguration",
"timestamp" : "2017-12-01T22:13:06.578-0600",
"value" : {
"name" : "FTBFConfigNim_v1",
"assigned" : "2017-12-01T22:13:06.578-0600"
}
},
{
"event" : "addConfiguration",
"timestamp" : "2017-12-01T22:15:53.810-0600",
"value" : {
"name" : "FTBFConfigNim_v2",
"assigned" : "2017-12-01T22:15:53.810-0600"
}
},
{
"event" : "addConfiguration",
"timestamp" : "2017-12-01T22:17:02.081-0600",
"value" : {
"name" : "FTBFConfigNim_v3",
"assigned" : "2017-12-01T22:17:02.081-0600"
}
},
{
"event" : "addConfiguration",
"timestamp" : "2017-12-01T22:19:04.893-0600",
"value" : {
"name" : "FTBFConfigNim_v4",
"assigned" : "2017-12-01T22:19:04.893-0600"
}
},
{
"event" : "addConfiguration",
"timestamp" : "2017-12-01T22:21:55.636-0600",
"value" : {
"name" : "FTBFConfigNim_v5",
"assigned" : "2017-12-01T22:21:55.636-0600"
}
},
{
"event" : "addConfiguration",
"timestamp" : "2017-12-01T22:23:11.782-0600",
"value" : {
"name" : "FTBFConfigNim_v6",
"assigned" : "2017-12-01T22:23:11.782-0600"
}
},
{
"event" : "addConfiguration",
"timestamp" : "2017-12-01T22:25:15.586-0600",
"value" : {
"name" : "FTBFConfigNim_v7",
"assigned" : "2017-12-01T22:25:15.586-0600"
}
},
{
"event" : "addConfiguration",
"timestamp" : "2017-12-01T22:27:03.235-0600",
"value" : {
"name" : "FTBFConfigNim_v8",
"assigned" : "2017-12-01T22:27:03.235-0600"
}
},
{
"event" : "addConfiguration",
"timestamp" : "2017-12-01T22:29:27.396-0600",
"value" : {
"name" : "FTBFConfigNim_v9",
"assigned" : "2017-12-01T22:29:27.396-0600"
}
},
{
"event" : "addConfiguration",
"timestamp" : "2017-12-01T22:52:32.520-0600",
"value" : {
"name" : "FTBFConfigNim_v10",
"assigned" : "2017-12-01T22:52:32.519-0600"
}
},
{
"event" : "addConfiguration",
"timestamp" : "2017-12-01T22:57:27.367-0600",
"value" : {
"name" : "FTBFConfigNim_v11",
"assigned" : "2017-12-01T22:57:27.367-0600"
}
},
{
"event" : "addConfiguration",
"timestamp" : "2017-12-01T23:00:05.585-0600",
"value" : {
"name" : "FTBFConfigNim_v12",
"assigned" : "2017-12-01T23:00:05.585-0600"
}
},
{
"event" : "addConfiguration",
"timestamp" : "2017-12-01T23:52:33.704-0600",
"value" : {
"name" : "FTBFConfigNim_v13",
"assigned" : "2017-12-01T23:52:33.704-0600"
}
},
{
"event" : "addConfiguration",
"timestamp" : "2017-12-01T23:58:08.123-0600",
"value" : {
"name" : "FTBFConfigNim_v14",
"assigned" : "2017-12-01T23:58:08.123-0600"
}
},
{
"event" : "addConfiguration",
"timestamp" : "2017-12-02T00:00:32.385-0600",
"value" : {
"name" : "FTBFConfigNim_v15",
"assigned" : "2017-12-02T00:00:32.384-0600"
}
},
{
"event" : "addConfiguration",
"timestamp" : "2017-12-02T00:13:07.533-0600",
"value" : {
"name" : "FTBFConfigNim_v16",
"assigned" : "2017-12-02T00:13:07.533-0600"
}
},
{
"event" : "addConfiguration",
"timestamp" : "2017-12-02T00:28:26.488-0600",
"value" : {
"name" : "FTBFConfigNim_v17",
"assigned" : "2017-12-02T00:28:26.488-0600"
}
},
{
"event" : "addConfiguration",
"timestamp" : "2017-12-02T00:29:32.556-0600",
"value" : {
"name" : "FTBFConfigNim_v18",
"assigned" : "2017-12-02T00:29:32.556-0600"
}
},
{
"event" : "addConfiguration",
"timestamp" : "2017-12-02T00:31:09.940-0600",
"value" : {
"name" : "FTBFConfigNim_v19",
"assigned" : "2017-12-02T00:31:09.939-0600"
}
},
{
"event" : "addConfiguration",
"timestamp" : "2017-12-02T00:57:25.593-0600",
"value" : {
"name" : "FTBFConfigNim_v20",
"assigned" : "2017-12-02T00:57:25.593-0600"
}
},
{
"event" : "addConfiguration",
"timestamp" : "2017-12-02T10:58:00.114-0600",
"value" : {
"name" : "FTBFConfigNim_v21",
"assigned" : "2017-12-02T10:58:00.114-0600"
}
},
{
"event" : "addConfiguration",
"timestamp" : "2017-12-02T11:08:16.303-0600",
"value" : {
"name" : "FTBFConfigNim_v22",
"assigned" : "2017-12-02T11:08:16.303-0600"
}
},
{
"event" : "addConfiguration",
"timestamp" : "2017-12-02T11:12:37.857-0600",
"value" : {
"name" : "FTBFConfigNim_v23",
"assigned" : "2017-12-02T11:12:37.857-0600"
}
},
{
"event" : "addConfiguration",
"timestamp" : "2017-12-02T11:18:40.768-0600",
"value" : {
"name" : "FTBFConfigNim_v24",
"assigned" : "2017-12-02T11:18:40.768-0600"
}
},
{
"event" : "addConfiguration",
"timestamp" : "2017-12-02T11:27:03.946-0600",
"value" : {
"name" : "FTBFConfigNim_v25",
"assigned" : "2017-12-02T11:27:03.946-0600"
}
},
{
"event" : "addConfiguration",
"timestamp" : "2017-12-02T11:38:34.990-0600",
"value" : {
"name" : "FTBFConfigNim_v26",
"assigned" : "2017-12-02T11:38:34.990-0600"
}
},
{
"event" : "addConfiguration",
"timestamp" : "2017-12-02T11:49:06.176-0600",
"value" : {
"name" : "FTBFConfigNim_v27",
"assigned" : "2017-12-02T11:49:06.176-0600"
}
},
{
"event" : "addConfiguration",
"timestamp" : "2017-12-02T11:55:07.624-0600",
"value" : {
"name" : "FTBFConfigNim_v28",
"assigned" : "2017-12-02T11:55:07.623-0600"
}
},
{
"event" : "addConfiguration",
"timestamp" : "2017-12-02T12:06:24.464-0600",
"value" : {
"name" : "FTBFConfigNim_v29",
"assigned" : "2017-12-02T12:06:24.464-0600"
}
},
{
"event" : "addConfiguration",
"timestamp" : "2017-12-02T12:24:13.110-0600",
"value" : {
"name" : "FTBFConfig_v71",
"assigned" : "2017-12-02T12:24:13.110-0600"
}
},
{
"event" : "addConfiguration",
"timestamp" : "2017-12-02T12:43:33.961-0600",
"value" : {
"name" : "FTBFConfig_v72",
"assigned" : "2017-12-02T12:43:33.961-0600"
}
},
{
"event" : "addConfiguration",
"timestamp" : "2017-12-02T13:55:33.600-0600",
"value" : {
"name" : "FTBFConfig_v73",
"assigned" : "2017-12-02T13:55:33.600-0600"
}
},
{
"event" : "addConfiguration",
"timestamp" : "2017-12-02T14:09:05.929-0600",
"value" : {
"name" : "FTBFConfig_v74",
"assigned" : "2017-12-02T14:09:05.929-0600"
}
},
{
"event" : "addConfiguration",
"timestamp" : "2017-12-02T14:12:16.724-0600",
"value" : {
"name" : "FTBFConfig_v75",
"assigned" : "2017-12-02T14:12:16.724-0600"
}
},
{
"event" : "addConfiguration",
"timestamp" : "2017-12-02T19:05:51.800-0600",
"value" : {
"name" : "FTBFConfig_v76",
"assigned" : "2017-12-02T19:05:51.800-0600"
}
},
{
"event" : "addConfiguration",
"timestamp" : "2017-12-02T19:12:11.682-0600",
"value" : {
"name" : "FTBFConfig_v77",
"assigned" : "2017-12-02T19:12:11.681-0600"
}
},
{
"event" : "addConfiguration",
"timestamp" : "2017-12-03T14:03:46.816-0600",
"value" : {
"name" : "FTBFConfig_v78",
"assigned" : "2017-12-03T14:03:46.816-0600"
}
},
{
"event" : "addConfiguration",
"timestamp" : "2017-12-03T14:09:05.065-0600",
"value" : {
"name" : "FTBFConfig_v79",
"assigned" : "2017-12-03T14:09:05.065-0600"
}
},
{
"event" : "addConfiguration",
"timestamp" : "2017-12-03T14:11:08.791-0600",
"value" : {
"name" : "FTBFConfig_v80",
"assigned" : "2017-12-03T14:11:08.791-0600"
}
},
{
"event" : "addConfiguration",
"timestamp" : "2017-12-03T14:22:31.842-0600",
"value" : {
"name" : "FTBFConfig_v81",
"assigned" : "2017-12-03T14:22:31.841-0600"
}
},
{
"event" : "addConfiguration",
"timestamp" : "2017-12-03T14:40:36.621-0600",
"value" : {
"name" : "FTBFConfig_v82",
"assigned" : "2017-12-03T14:40:36.621-0600"
}
},
{
"event" : "addConfiguration",
"timestamp" : "2017-12-03T14:45:03.985-0600",
"value" : {
"name" : "FTBFConfig_v83",
"assigned" : "2017-12-03T14:45:03.985-0600"
}
},
{
"event" : "addConfiguration",
"timestamp" : "2017-12-04T14:51:29.334-0600",
"value" : {
"name" : "FTBFConfig_v84",
"assigned" : "2017-12-04T14:51:29.334-0600"
}
},
{
"event" : "addConfiguration",
"timestamp" : "2017-12-04T14:55:42.499-0600",
"value" : {
"name" : "FTBFConfig_v85",
"assigned" : "2017-12-04T14:55:42.499-0600"
}
},
{
"event" : "addConfiguration",
"timestamp" : "2017-12-04T16:51:05.504-0600",
"value" : {
"name" : "FTBFConfig_v86",
"assigned" : "2017-12-04T16:51:05.504-0600"
}
},
{
"event" : "addConfiguration",
"timestamp" : "2017-12-04T16:56:46.137-0600",
"value" : {
"name" : "FTBFConfig_v87",
"assigned" : "2017-12-04T16:56:46.137-0600"
}
},
{
"event" : "addConfiguration",
"timestamp" : "2017-12-04T17:01:10.864-0600",
"value" : {
"name" : "FTBFConfig_v88",
"assigned" : "2017-12-04T17:01:10.864-0600"
}
},
{
"event" : "addConfiguration",
"timestamp" : "2017-12-04T17:03:55.973-0600",
"value" : {
"name" : "FTBFConfig_v89",
"assigned" : "2017-12-04T17:03:55.973-0600"
}
},
{
"event" : "addConfiguration",
"timestamp" : "2017-12-04T17:07:15.599-0600",
"value" : {
"name" : "FTBFConfig_v90",
"assigned" : "2017-12-04T17:07:15.599-0600"
}
},
{
"event" : "addConfiguration",
"timestamp" : "2017-12-04T17:09:24.726-0600",
"value" : {
"name" : "FTBFConfig_v91",
"assigned" : "2017-12-04T17:09:24.726-0600"
}
},
{
"event" : "addConfiguration",
"timestamp" : "2017-12-04T17:11:37.213-0600",
"value" : {
"name" : "FTBFConfig_v92",
"assigned" : "2017-12-04T17:11:37.213-0600"
}
},
{
"event" : "addConfiguration",
"timestamp" : "2017-12-04T21:05:19.810-0600",
"value" : {
"name" : "FTBFConfig_v93",
"assigned" : "2017-12-04T21:05:19.810-0600"
}
},
{
"event" : "addConfiguration",
"timestamp" : "2017-12-04T21:17:10.724-0600",
"value" : {
"name" : "FTBFConfig_v94",
"assigned" : "2017-12-04T21:17:10.724-0600"
}
},
{
"event" : "addConfiguration",
"timestamp" : "2017-12-04T21:41:16.404-0600",
"value" : {
"name" : "FTBFConfig_v95",
"assigned" : "2017-12-04T21:41:16.403-0600"
}
},
{
"event" : "addConfiguration",
"timestamp" : "2017-12-04T22:39:01.034-0600",
"value" : {
"name" : "FTBFConfig_v96",
"assigned" : "2017-12-04T22:39:01.034-0600"
}
},
{
"event" : "addConfiguration",
"timestamp" : "2017-12-04T23:01:11.542-0600",
"value" : {
"name" : "FTBFConfig_v97",
"assigned" : "2017-12-04T23:01:11.542-0600"
}
},
{
"event" : "addConfiguration",
"timestamp" : "2017-12-07T11:07:45.557-0600",
"value" : {
"name" : "FTBFConfig_v98",
"assigned" : "2017-12-07T11:07:45.557-0600"
}
},
{
"event" : "addConfiguration",
"timestamp" : "2017-12-07T11:49:58.236-0600",
"value" : {
"name" : "FTBFConfig_v99",
"assigned" : "2017-12-07T11:49:58.236-0600"
}
},
{
"event" : "addConfiguration",
"timestamp" : "2017-12-07T11:58:24.951-0600",
"value" : {
"name" : "FTBFConfig_v100",
"assigned" : "2017-12-07T11:58:24.951-0600"
}
},
{
"event" : "addConfiguration",
"timestamp" : "2017-12-08T13:30:47.114-0600",
"value" : {
"name" : "FTBFConfig_v101",
"assigned" : "2017-12-08T13:30:47.114-0600"
}
},
{
"event" : "addConfiguration",
"timestamp" : "2017-12-08T13:32:33.979-0600",
"value" : {
"name" : "FTBFConfig_v102",
"assigned" : "2017-12-08T13:32:33.978-0600"
}
},
{
"event" : "addConfiguration",
"timestamp" : "2017-12-12T11:03:03.776-0600",
"value" : {
"name" : "FTBFConfig_v103",
"assigned" : "2017-12-12T11:03:03.776-0600"
}
},
{
"event" : "addConfiguration",
"timestamp" : "2017-12-12T13:50:58.161-0600",
"value" : {
"name" : "FTBFConfig_v104",
"assigned" : "2017-12-12T13:50:58.161-0600"
}
},
{
"event" : "addConfiguration",
"timestamp" : "2017-12-12T15:25:04.203-0600",
"value" : {
"name" : "FTBFConfig_v105",
"assigned" : "2017-12-12T15:25:04.203-0600"
}
},
{
"event" : "addConfiguration",
"timestamp" : "2017-12-13T10:24:22.552-0600",
"value" : {
"name" : "FTBFConfig_v106",
"assigned" : "2017-12-13T10:24:22.552-0600"
}
},
{
"event" : "addConfiguration",
"timestamp" : "2017-12-13T10:27:01.307-0600",
"value" : {
"name" : "FTBFConfig_v107",
"assigned" : "2017-12-13T10:27:01.306-0600"
}
},
{
"event" : "addConfiguration",
"timestamp" : "2018-02-01T21:14:24.805-0600",
"value" : {
"name" : "FTBFConfig_v108",
"assigned" : "2018-02-01T21:14:24.804-0600"
}
},
{
"event" : "addConfiguration",
"timestamp" : "2018-02-01T21:21:01.915-0600",
"value" : {
"name" : "FTBFConfig_v109",
"assigned" : "2018-02-01T21:21:01.915-0600"
}
},
{
"event" : "addConfiguration",
"timestamp" : "2018-02-02T11:25:32.883-0600",
"value" : {
"name" : "FTBFConfig_v110",
"assigned" : "2018-02-02T11:25:32.883-0600"
}
},
{
"event" : "addConfiguration",
"timestamp" : "2018-02-02T11:37:11.704-0600",
"value" : {
"name" : "FTBFConfig_v111",
"assigned" : "2018-02-02T11:37:11.704-0600"
}
},
{
"event" : "addConfiguration",
"timestamp" : "2018-02-02T11:47:14.198-0600",
"value" : {
"name" : "FTBFConfig_v112",
"assigned" : "2018-02-02T11:47:14.197-0600"
}
},
{
"event" : "addConfiguration",
"timestamp" : "2018-02-02T11:53:35.443-0600",
"value" : {
"name" : "FTBFConfig_v113",
"assigned" : "2018-02-02T11:53:35.443-0600"
}
},
{
"event" : "addConfiguration",
"timestamp" : "2018-02-02T12:00:51.547-0600",
"value" : {
"name" : "FTBFConfig_v114",
"assigned" : "2018-02-02T12:00:51.547-0600"
}
},
{
"event" : "addConfiguration",
"timestamp" : "2018-02-02T12:27:13.020-0600",
"value" : {
"name" : "FTBFConfig_v115",
"assigned" : "2018-02-02T12:27:13.020-0600"
}
},
{
"event" : "addConfiguration",
"timestamp" : "2018-02-02T14:28:52.542-0600",
"value" : {
"name" : "FTBFConfig_v116",
"assigned" : "2018-02-02T14:28:52.542-0600"
}
},
{
"event" : "addConfiguration",
"timestamp" : "2018-02-02T14:30:18.878-0600",
"value" : {
"name" : "FTBFConfig_v117",
"assigned" : "2018-02-02T14:30:18.877-0600"
}
},
{
"event" : "addConfiguration",
"timestamp" : "2018-02-02T14:34:00.080-0600",
"value" : {
"name" : "FTBFConfig_v118",
"assigned" : "2018-02-02T14:34:00.080-0600"
}
},
{
"event" : "addConfiguration",
"timestamp" : "2018-02-02T14:36:26.730-0600",
"value" : {
"name" : "FTBFConfig_v119",
"assigned" : "2018-02-02T14:36:26.729-0600"
}
},
{
"event" : "addConfiguration",
"timestamp" : "2018-02-02T14:38:40.071-0600",
"value" : {
"name" : "FTBFConfig_v120",
"assigned" : "2018-02-02T14:38:40.071-0600"
}
},
{
"event" : "addConfiguration",
"timestamp" : "2018-02-02T14:41:49.383-0600",
"value" : {
"name" : "FTBFConfig_v121",
"assigned" : "2018-02-02T14:41:49.383-0600"
}
},
{
"event" : "addConfiguration",
"timestamp" : "2018-02-02T14:50:23.463-0600",
"value" : {
"name" : "FTBFConfig_v122",
"assigned" : "2018-02-02T14:50:23.463-0600"
}
},
{
"event" : "addConfiguration",
"timestamp" : "2018-02-02T14:52:56.270-0600",
"value" : {
"name" : "FTBFConfig_v123",
"assigned" : "2018-02-02T14:52:56.270-0600"
}
},
{
"event" : "addConfiguration",
"timestamp" : "2018-02-02T14:59:49.624-0600",
"value" : {
"name" : "FTBFConfig_v124",
"assigned" : "2018-02-02T14:59:49.624-0600"
}
},
{
"event" : "addConfiguration",
"timestamp" : "2018-02-02T15:04:07.732-0600",
"value" : {
"name" : "FTBFConfig_v125",
"assigned" : "2018-02-02T15:04:07.732-0600"
}
},
{
"event" : "addConfiguration",
"timestamp" : "2018-02-02T15:50:10.914-0600",
"value" : {
"name" : "FTBFConfig_v126",
"assigned" : "2018-02-02T15:50:10.913-0600"
}
},
{
"event" : "addConfiguration",
"timestamp" : "2018-02-02T15:51:30.422-0600",
"value" : {
"name" : "FTBFConfig_v127",
"assigned" : "2018-02-02T15:51:30.422-0600"
}
},
{
"event" : "addConfiguration",
"timestamp" : "2018-02-02T15:52:35.573-0600",
"value" : {
"name" : "FTBFConfig_v128",
"assigned" : "2018-02-02T15:52:35.573-0600"
}
},
{
"event" : "addConfiguration",
"timestamp" : "2018-02-02T16:02:44.476-0600",
"value" : {
"name" : "FTBFConfig_v129",
"assigned" : "2018-02-02T16:02:44.476-0600"
}
},
{
"event" : "addConfiguration",
"timestamp" : "2018-02-02T16:08:44.010-0600",
"value" : {
"name" : "FTBFConfig_v130",
"assigned" : "2018-02-02T16:08:44.010-0600"
}
},
{
"event" : "addConfiguration",
"timestamp" : "2018-02-02T16:11:29.860-0600",
"value" : {
"name" : "FTBFConfig_v131",
"assigned" : "2018-02-02T16:11:29.860-0600"
}
},
{
"event" : "addConfiguration",
"timestamp" : "2018-02-02T16:12:57.708-0600",
"value" : {
"name" : "FTBFConfig_v132",
"assigned" : "2018-02-02T16:12:57.708-0600"
}
},
{
"event" : "addConfiguration",
"timestamp" : "2018-02-02T16:14:28.304-0600",
"value" : {
"name" : "FTBFConfig_v133",
"assigned" : "2018-02-02T16:14:28.304-0600"
}
},
{
"event" : "addConfiguration",
"timestamp" : "2018-02-02T16:26:21.178-0600",
"value" : {
"name" : "FTBFConfig_v134",
"assigned" : "2018-02-02T16:26:21.178-0600"
}
},
{
"event" : "addConfiguration",
"timestamp" : "2018-02-02T16:27:08.300-0600",
"value" : {
"name" : "FTBFConfig_v135",
"assigned" : "2018-02-02T16:27:08.299-0600"
}
},
{
"event" : "addConfiguration",
"timestamp" : "2018-02-02T16:29:29.668-0600",
"value" : {
"name" : "FTBFConfig_v136",
"assigned" : "2018-02-02T16:29:29.668-0600"
}
},
{
"event" : "addConfiguration",
"timestamp" : "2018-02-02T16:31:40.259-0600",
"value" : {
"name" : "FTBFConfig_v137",
"assigned" : "2018-02-02T16:31:40.259-0600"
}
},
{
"event" : "addConfiguration",
"timestamp" : "2018-02-02T16:34:12.939-0600",
"value" : {
"name" : "FTBFConfig_v138",
"assigned" : "2018-02-02T16:34:12.939-0600"
}
},
{
"event" : "addConfiguration",
"timestamp" : "2018-02-02T17:39:28.978-0600",
"value" : {
"name" : "FTBFConfig_v139",
"assigned" : "2018-02-02T17:39:28.977-0600"
}
},
{
"event" : "addConfiguration",
"timestamp" : "2018-02-02T17:42:51.149-0600",
"value" : {
"name" : "FTBFConfig_v140",
"assigned" : "2018-02-02T17:42:51.149-0600"
}
},
{
"event" : "addConfiguration",
"timestamp" : "2018-02-02T17:47:36.333-0600",
"value" : {
"name" : "FTBFConfig_v141",
"assigned" : "2018-02-02T17:47:36.333-0600"
}
},
{
"event" : "addConfiguration",
"timestamp" : "2018-02-02T17:54:00.355-0600",
"value" : {
"name" : "FTBFConfig_v142",
"assigned" : "2018-02-02T17:54:00.354-0600"
}
}
],
"created" : "2017-11-08T15:56:03.311-0600"
},
"_id" : {
"$oid" : "849298ed8e75460c81cf897c"
},
"collection" : "ARTDAQPhysicsProducerParameterConfiguration",
"aliases" : {
"active" : [

],
"history" : [

]
},
"runs" : [

],
"attachments" : [

],
"configtype" : "notprovided"
}