{
"document" : {
"data" : {
"NAME" : "ARTDAQ_DAQ_METRIC_PARAMETER_CONFIGURATION",
"COMMENT" : "No comment.",
"AUTHOR" : "admin",
"CREATION_TIME" : 1504822217,
"COL_TYPES" : {
"METRIC_PARAMETER_GROUP_ID" : "VARCHAR2",
"METRIC_PARAMETER_UID" : "VARCHAR2",
"STATUS" : "VARCHAR2",
"METRIC_PARAMETER_KEY" : "VARCHAR2",
"METRIC_PARAMETER_VALUE" : "VARCHAR2",
"COMMENT_DESCRIPTION" : "VARCHAR2",
"AUTHOR" : "VARCHAR2",
"RECORD_INSERTION_TIME" : "TIMESTAMP WITH TIMEZONE"
},
"DATA_SET" : [
{
"METRIC_PARAMETER_GROUP_ID" : "reader0MetricPGroup",
"METRIC_PARAMETER_UID" : "readerFileP0",
"STATUS" : "On",
"METRIC_PARAMETER_KEY" : "fileName",
"METRIC_PARAMETER_VALUE" : "\"/tmp/boardreader/br_%UID%_metrics.log\"",
"COMMENT_DESCRIPTION" : "No Comment",
"AUTHOR" : "DEFAULT",
"RECORD_INSERTION_TIME" : "0"
},
{
"METRIC_PARAMETER_GROUP_ID" : "reader0MetricPGroup",
"METRIC_PARAMETER_UID" : "readerMetricP0",
"STATUS" : "On",
"METRIC_PARAMETER_KEY" : "uniquify",
"METRIC_PARAMETER_VALUE" : "true",
"COMMENT_DESCRIPTION" : "No Comment",
"AUTHOR" : "DEFAULT",
"RECORD_INSERTION_TIME" : "0"
},
{
"METRIC_PARAMETER_GROUP_ID" : "builder0MetricPGroup",
"METRIC_PARAMETER_UID" : "builderFileP0",
"STATUS" : "On",
"METRIC_PARAMETER_KEY" : "fileName",
"METRIC_PARAMETER_VALUE" : "\"/tmp/eventbuilder/evb_%UID%_metrics.log\"",
"COMMENT_DESCRIPTION" : "No Comment",
"AUTHOR" : "DEFAULT",
"RECORD_INSERTION_TIME" : "0"
},
{
"METRIC_PARAMETER_GROUP_ID" : "builder0MetricPGroup",
"METRIC_PARAMETER_UID" : "builderMetricP0",
"STATUS" : "On",
"METRIC_PARAMETER_KEY" : "uniquify",
"METRIC_PARAMETER_VALUE" : "true",
"COMMENT_DESCRIPTION" : "No Comment",
"AUTHOR" : "DEFAULT",
"RECORD_INSERTION_TIME" : "0"
},
{
"METRIC_PARAMETER_GROUP_ID" : "builder0GangliaPGroup",
"METRIC_PARAMETER_UID" : "gangliaMetricP1",
"STATUS" : "On",
"METRIC_PARAMETER_KEY" : "reporting_interval",
"METRIC_PARAMETER_VALUE" : "15.0",
"COMMENT_DESCRIPTION" : "No Comment",
"AUTHOR" : "DEFAULT",
"RECORD_INSERTION_TIME" : "0"
},
{
"METRIC_PARAMETER_GROUP_ID" : "builder0GangliaPGroup",
"METRIC_PARAMETER_UID" : "gangliaFileP1",
"STATUS" : "On",
"METRIC_PARAMETER_KEY" : "configFile",
"METRIC_PARAMETER_VALUE" : "\"/etc/ganglia/gmond.conf\"",
"COMMENT_DESCRIPTION" : "No Comment",
"AUTHOR" : "DEFAULT",
"RECORD_INSERTION_TIME" : "0"
},
{
"METRIC_PARAMETER_GROUP_ID" : "builder0GangliaPGroup",
"METRIC_PARAMETER_UID" : "gangliaMetricP2",
"STATUS" : "On",
"METRIC_PARAMETER_KEY" : "group",
"METRIC_PARAMETER_VALUE" : "\"ARTDAQ\"",
"COMMENT_DESCRIPTION" : "No Comment",
"AUTHOR" : "DEFAULT",
"RECORD_INSERTION_TIME" : "0"
},
{
"METRIC_PARAMETER_GROUP_ID" : "builder0MessageFacilityPGroup",
"METRIC_PARAMETER_UID" : "builderMessageFacilityMetricP0",
"STATUS" : "On",
"METRIC_PARAMETER_KEY" : "output_message_application_name",
"METRIC_PARAMETER_VALUE" : "\"ARTDAQ Metric\"",
"COMMENT_DESCRIPTION" : "No Comment",
"AUTHOR" : "admin",
"RECORD_INSERTION_TIME" : "1504818676"
},
{
"METRIC_PARAMETER_GROUP_ID" : "builder0MessageFacilityPGroup",
"METRIC_PARAMETER_UID" : "builderMessageFacilityMetricP1",
"STATUS" : "On",
"METRIC_PARAMETER_KEY" : "output_message_severity",
"METRIC_PARAMETER_VALUE" : "0",
"COMMENT_DESCRIPTION" : "No Comment",
"AUTHOR" : "admin",
"RECORD_INSERTION_TIME" : "1504818676"
},
{
"METRIC_PARAMETER_GROUP_ID" : "builder0GraphiteMetricPGroup",
"METRIC_PARAMETER_UID" : "builderGraphiteMetricP0",
"STATUS" : "On",
"METRIC_PARAMETER_KEY" : "DEFAULT",
"METRIC_PARAMETER_VALUE" : "DEFAULT",
"COMMENT_DESCRIPTION" : "No Comment",
"AUTHOR" : "DEFAULT",
"RECORD_INSERTION_TIME" : "0"
},
{
"METRIC_PARAMETER_GROUP_ID" : "builder0GraphiteMetricPGroup",
"METRIC_PARAMETER_UID" : "builderGraphiteMetricP1",
"STATUS" : "On",
"METRIC_PARAMETER_KEY" : "DEFAULT",
"METRIC_PARAMETER_VALUE" : "DEFAULT",
"COMMENT_DESCRIPTION" : "No Comment",
"AUTHOR" : "DEFAULT",
"RECORD_INSERTION_TIME" : "0"
},
{
"METRIC_PARAMETER_GROUP_ID" : "builder0GraphiteMetricPGroup",
"METRIC_PARAMETER_UID" : "builderGraphiteMetricP2",
"STATUS" : "On",
"METRIC_PARAMETER_KEY" : "DEFAULT",
"METRIC_PARAMETER_VALUE" : "DEFAULT",
"COMMENT_DESCRIPTION" : "No Comment",
"AUTHOR" : "DEFAULT",
"RECORD_INSERTION_TIME" : "0"
},
{
"METRIC_PARAMETER_GROUP_ID" : "aggregator0Metric0PGroup",
"METRIC_PARAMETER_UID" : "aggregatorFileP0",
"STATUS" : "On",
"METRIC_PARAMETER_KEY" : "fileName",
"METRIC_PARAMETER_VALUE" : "\"/tmp/aggregator/agg_%UID%_metrics.log\"",
"COMMENT_DESCRIPTION" : "No Comment",
"AUTHOR" : "DEFAULT",
"RECORD_INSERTION_TIME" : "0"
},
{
"METRIC_PARAMETER_GROUP_ID" : "aggregator0Metric0PGroup",
"METRIC_PARAMETER_UID" : "aggregatorFileP1",
"STATUS" : "On",
"METRIC_PARAMETER_KEY" : "uniquify",
"METRIC_PARAMETER_VALUE" : "true",
"COMMENT_DESCRIPTION" : "No Comment",
"AUTHOR" : "DEFAULT",
"RECORD_INSERTION_TIME" : "0"
}
]
},
"metadata" : {

},
"search" : [

]
},
"comments" : [

],
"origin" : {
"source" : "template",
"name" : "notprovided",
"format" : "json",
"created" : "2017-11-08T15:56:02.815-0600",
"rawdata" : [

]
},
"version" : "0",
"entities" : [
{
"name" : "OTSROOT",
"assigned" : "2017-11-08T15:56:02.818-0600"
}
],
"configurations" : [
{
"name" : "notprovided",
"assigned" : "2017-11-08T15:56:02.816-0600"
},
{
"name" : "FTBFConfig_v0",
"assigned" : "2017-11-08T15:56:05.465-0600"
},
{
"name" : "FTBFConfig_v1",
"assigned" : "2017-11-09T09:56:29.994-0600"
},
{
"name" : "FTBFConfig_v2",
"assigned" : "2017-11-09T10:05:58.953-0600"
},
{
"name" : "FTBFConfig_v3",
"assigned" : "2017-11-09T10:37:10.517-0600"
},
{
"name" : "FTBFConfig_v4",
"assigned" : "2017-11-15T11:30:09.281-0600"
},
{
"name" : "FTBFConfig_v5",
"assigned" : "2017-11-15T11:54:56.065-0600"
},
{
"name" : "FTBFConfig_v6",
"assigned" : "2017-11-15T11:57:48.690-0600"
},
{
"name" : "FTBFConfig_v7",
"assigned" : "2017-11-15T12:42:31.089-0600"
},
{
"name" : "FTBFConfig_v8",
"assigned" : "2017-11-15T13:01:02.068-0600"
},
{
"name" : "FTBFConfig_v9",
"assigned" : "2017-11-15T13:02:55.455-0600"
},
{
"name" : "FTBFConfig_v10",
"assigned" : "2017-11-15T13:04:23.043-0600"
},
{
"name" : "FTBFConfig_v11",
"assigned" : "2017-11-15T13:07:50.529-0600"
},
{
"name" : "FTBFConfig_v12",
"assigned" : "2017-11-15T13:11:57.950-0600"
},
{
"name" : "FTBFConfig_v13",
"assigned" : "2017-11-15T13:13:51.905-0600"
},
{
"name" : "FTBFConfig_v14",
"assigned" : "2017-11-15T13:27:26.046-0600"
},
{
"name" : "FTBFConfig_v15",
"assigned" : "2017-11-15T13:35:45.861-0600"
},
{
"name" : "FTBFConfig_v16",
"assigned" : "2017-11-15T13:36:50.494-0600"
},
{
"name" : "FTBFConfig_v17",
"assigned" : "2017-11-15T15:33:29.039-0600"
},
{
"name" : "FTBFConfig_v18",
"assigned" : "2017-11-15T15:35:32.646-0600"
},
{
"name" : "FTBFConfig_v19",
"assigned" : "2017-11-15T15:38:01.479-0600"
},
{
"name" : "FTBFConfig_v20",
"assigned" : "2017-11-15T16:26:29.175-0600"
},
{
"name" : "FTBFConfig_v21",
"assigned" : "2017-11-16T09:22:30.277-0600"
},
{
"name" : "FTBFConfig_v22",
"assigned" : "2017-11-17T10:23:26.474-0600"
},
{
"name" : "FTBFConfig_v23",
"assigned" : "2017-11-17T17:26:43.992-0600"
},
{
"name" : "FTBFConfig_v24",
"assigned" : "2017-11-17T17:58:24.456-0600"
},
{
"name" : "FTBFConfig_v25",
"assigned" : "2017-11-17T18:24:44.138-0600"
},
{
"name" : "FTBFConfig_v26",
"assigned" : "2017-11-17T18:32:21.169-0600"
},
{
"name" : "FTBFConfig_v27",
"assigned" : "2017-11-17T18:43:28.310-0600"
},
{
"name" : "FTBFConfig_v28",
"assigned" : "2017-11-17T18:48:30.276-0600"
},
{
"name" : "FTBFConfig_v29",
"assigned" : "2017-11-20T14:48:29.437-0600"
},
{
"name" : "FTBFConfig_v30",
"assigned" : "2017-11-20T15:39:54.622-0600"
},
{
"name" : "FTBFConfig_v31",
"assigned" : "2017-11-20T16:41:00.599-0600"
},
{
"name" : "FTBFConfig_v32",
"assigned" : "2017-11-20T18:55:33.432-0600"
},
{
"name" : "FTBFConfig_v33",
"assigned" : "2017-11-20T18:57:28.718-0600"
},
{
"name" : "FTBFConfig_v34",
"assigned" : "2017-11-29T17:50:38.210-0600"
},
{
"name" : "FTBFConfig_v35",
"assigned" : "2017-11-29T18:00:31.066-0600"
},
{
"name" : "FTBFConfig_v36",
"assigned" : "2017-11-29T18:35:09.914-0600"
},
{
"name" : "FTBFConfig_v37",
"assigned" : "2017-12-01T09:36:16.131-0600"
},
{
"name" : "FTBFConfig_v38",
"assigned" : "2017-12-01T09:51:59.511-0600"
},
{
"name" : "FTBFConfig_v39",
"assigned" : "2017-12-01T11:51:56.725-0600"
},
{
"name" : "FTBFConfig_v40",
"assigned" : "2017-12-01T12:18:18.711-0600"
},
{
"name" : "FTBFConfig_v41",
"assigned" : "2017-12-01T12:21:00.853-0600"
},
{
"name" : "FTBFConfig_v42",
"assigned" : "2017-12-01T12:43:19.988-0600"
},
{
"name" : "FTBFConfig_v43",
"assigned" : "2017-12-01T12:57:57.224-0600"
},
{
"name" : "FTBFConfig_v44",
"assigned" : "2017-12-01T13:00:50.107-0600"
},
{
"name" : "FTBFConfig_v45",
"assigned" : "2017-12-01T13:25:46.965-0600"
},
{
"name" : "FTBFConfig_v46",
"assigned" : "2017-12-01T13:35:41.830-0600"
},
{
"name" : "FTBFConfig_v47",
"assigned" : "2017-12-01T14:00:50.125-0600"
},
{
"name" : "FTBFConfig_v48",
"assigned" : "2017-12-01T14:03:57.383-0600"
},
{
"name" : "FTBFConfig_v49",
"assigned" : "2017-12-01T15:31:57.590-0600"
},
{
"name" : "FTBFConfig_v51",
"assigned" : "2017-12-01T15:37:24.036-0600"
},
{
"name" : "FTBFConfig_v53",
"assigned" : "2017-12-01T15:40:57.113-0600"
},
{
"name" : "FTBFConfig_v54",
"assigned" : "2017-12-01T15:52:47.417-0600"
},
{
"name" : "FTBFConfig_v55",
"assigned" : "2017-12-01T15:54:32.555-0600"
},
{
"name" : "FTBFConfig_v56",
"assigned" : "2017-12-01T15:55:32.085-0600"
},
{
"name" : "FTBFConfig_v57",
"assigned" : "2017-12-01T15:56:37.876-0600"
},
{
"name" : "FTBFConfig_v58",
"assigned" : "2017-12-01T15:57:35.958-0600"
},
{
"name" : "FTBFConfig_v59",
"assigned" : "2017-12-01T15:58:27.859-0600"
},
{
"name" : "FTBFConfig_v60",
"assigned" : "2017-12-01T15:59:29.045-0600"
},
{
"name" : "FTBFConfig_v61",
"assigned" : "2017-12-01T16:19:38.782-0600"
},
{
"name" : "FTBFConfig_v62",
"assigned" : "2017-12-01T16:22:01.332-0600"
},
{
"name" : "FTBFConfig_v63",
"assigned" : "2017-12-01T16:31:21.946-0600"
},
{
"name" : "FTBFConfig_v64",
"assigned" : "2017-12-01T17:06:28.873-0600"
},
{
"name" : "FTBFConfig_v65",
"assigned" : "2017-12-01T17:32:41.209-0600"
},
{
"name" : "FTBFConfig_v66",
"assigned" : "2017-12-01T20:38:47.569-0600"
},
{
"name" : "FTBFConfig_v67",
"assigned" : "2017-12-01T21:24:59.044-0600"
},
{
"name" : "FTBFConfig_v68",
"assigned" : "2017-12-01T21:42:58.696-0600"
},
{
"name" : "FTBFConfig_v69",
"assigned" : "2017-12-01T21:44:57.342-0600"
},
{
"name" : "FTBFConfig_v70",
"assigned" : "2017-12-01T21:59:16.550-0600"
},
{
"name" : "FTBFConfigNim_v0",
"assigned" : "2017-12-01T22:00:03.269-0600"
},
{
"name" : "FTBFConfigNim_v1",
"assigned" : "2017-12-01T22:13:04.991-0600"
},
{
"name" : "FTBFConfigNim_v2",
"assigned" : "2017-12-01T22:15:52.209-0600"
},
{
"name" : "FTBFConfigNim_v3",
"assigned" : "2017-12-01T22:17:00.353-0600"
},
{
"name" : "FTBFConfigNim_v4",
"assigned" : "2017-12-01T22:19:03.302-0600"
},
{
"name" : "FTBFConfigNim_v5",
"assigned" : "2017-12-01T22:21:54.007-0600"
},
{
"name" : "FTBFConfigNim_v6",
"assigned" : "2017-12-01T22:23:10.159-0600"
},
{
"name" : "FTBFConfigNim_v7",
"assigned" : "2017-12-01T22:25:13.943-0600"
},
{
"name" : "FTBFConfigNim_v8",
"assigned" : "2017-12-01T22:27:01.505-0600"
},
{
"name" : "FTBFConfigNim_v9",
"assigned" : "2017-12-01T22:29:25.755-0600"
},
{
"name" : "FTBFConfigNim_v10",
"assigned" : "2017-12-01T22:52:30.874-0600"
},
{
"name" : "FTBFConfigNim_v11",
"assigned" : "2017-12-01T22:57:25.649-0600"
},
{
"name" : "FTBFConfigNim_v12",
"assigned" : "2017-12-01T23:00:03.922-0600"
},
{
"name" : "FTBFConfigNim_v13",
"assigned" : "2017-12-01T23:52:32.034-0600"
},
{
"name" : "FTBFConfigNim_v14",
"assigned" : "2017-12-01T23:58:06.420-0600"
},
{
"name" : "FTBFConfigNim_v15",
"assigned" : "2017-12-02T00:00:30.698-0600"
},
{
"name" : "FTBFConfigNim_v16",
"assigned" : "2017-12-02T00:13:05.834-0600"
},
{
"name" : "FTBFConfigNim_v17",
"assigned" : "2017-12-02T00:28:24.793-0600"
},
{
"name" : "FTBFConfigNim_v18",
"assigned" : "2017-12-02T00:29:30.836-0600"
},
{
"name" : "FTBFConfigNim_v19",
"assigned" : "2017-12-02T00:31:07.657-0600"
},
{
"name" : "FTBFConfigNim_v20",
"assigned" : "2017-12-02T00:57:23.814-0600"
},
{
"name" : "FTBFConfigNim_v21",
"assigned" : "2017-12-02T10:57:58.366-0600"
},
{
"name" : "FTBFConfigNim_v22",
"assigned" : "2017-12-02T11:08:14.541-0600"
},
{
"name" : "FTBFConfigNim_v23",
"assigned" : "2017-12-02T11:12:36.103-0600"
},
{
"name" : "FTBFConfigNim_v24",
"assigned" : "2017-12-02T11:18:38.914-0600"
},
{
"name" : "FTBFConfigNim_v25",
"assigned" : "2017-12-02T11:27:02.155-0600"
},
{
"name" : "FTBFConfigNim_v26",
"assigned" : "2017-12-02T11:38:33.196-0600"
},
{
"name" : "FTBFConfigNim_v27",
"assigned" : "2017-12-02T11:49:04.329-0600"
},
{
"name" : "FTBFConfigNim_v28",
"assigned" : "2017-12-02T11:55:05.790-0600"
},
{
"name" : "FTBFConfigNim_v29",
"assigned" : "2017-12-02T12:06:22.610-0600"
},
{
"name" : "FTBFConfig_v71",
"assigned" : "2017-12-02T12:24:11.251-0600"
},
{
"name" : "FTBFConfig_v72",
"assigned" : "2017-12-02T12:43:32.062-0600"
},
{
"name" : "FTBFConfig_v73",
"assigned" : "2017-12-02T13:55:31.660-0600"
},
{
"name" : "FTBFConfig_v74",
"assigned" : "2017-12-02T14:09:03.954-0600"
},
{
"name" : "FTBFConfig_v75",
"assigned" : "2017-12-02T14:12:14.795-0600"
},
{
"name" : "FTBFConfig_v76",
"assigned" : "2017-12-02T19:05:49.888-0600"
},
{
"name" : "FTBFConfig_v77",
"assigned" : "2017-12-02T19:12:09.704-0600"
},
{
"name" : "FTBFConfig_v78",
"assigned" : "2017-12-03T14:03:44.886-0600"
},
{
"name" : "FTBFConfig_v79",
"assigned" : "2017-12-03T14:09:03.077-0600"
},
{
"name" : "FTBFConfig_v80",
"assigned" : "2017-12-03T14:11:06.843-0600"
},
{
"name" : "FTBFConfig_v81",
"assigned" : "2017-12-03T14:22:29.862-0600"
},
{
"name" : "FTBFConfig_v82",
"assigned" : "2017-12-03T14:40:34.641-0600"
},
{
"name" : "FTBFConfig_v83",
"assigned" : "2017-12-03T14:45:01.984-0600"
},
{
"name" : "FTBFConfig_v84",
"assigned" : "2017-12-04T14:51:27.368-0600"
},
{
"name" : "FTBFConfig_v85",
"assigned" : "2017-12-04T14:55:40.538-0600"
},
{
"name" : "FTBFConfig_v86",
"assigned" : "2017-12-04T16:51:03.504-0600"
},
{
"name" : "FTBFConfig_v87",
"assigned" : "2017-12-04T16:56:44.118-0600"
},
{
"name" : "FTBFConfig_v88",
"assigned" : "2017-12-04T17:01:08.828-0600"
},
{
"name" : "FTBFConfig_v89",
"assigned" : "2017-12-04T17:03:53.921-0600"
},
{
"name" : "FTBFConfig_v90",
"assigned" : "2017-12-04T17:07:13.547-0600"
},
{
"name" : "FTBFConfig_v91",
"assigned" : "2017-12-04T17:09:22.660-0600"
},
{
"name" : "FTBFConfig_v92",
"assigned" : "2017-12-04T17:11:35.142-0600"
},
{
"name" : "FTBFConfig_v93",
"assigned" : "2017-12-04T21:05:17.764-0600"
},
{
"name" : "FTBFConfig_v94",
"assigned" : "2017-12-04T21:17:08.596-0600"
},
{
"name" : "FTBFConfig_v95",
"assigned" : "2017-12-04T21:41:14.318-0600"
},
{
"name" : "FTBFConfig_v96",
"assigned" : "2017-12-04T22:38:58.932-0600"
},
{
"name" : "FTBFConfig_v97",
"assigned" : "2017-12-04T23:01:09.443-0600"
},
{
"name" : "FTBFConfig_v98",
"assigned" : "2017-12-07T11:07:43.457-0600"
},
{
"name" : "FTBFConfig_v99",
"assigned" : "2017-12-07T11:49:56.138-0600"
},
{
"name" : "FTBFConfig_v100",
"assigned" : "2017-12-07T11:58:22.857-0600"
},
{
"name" : "FTBFConfig_v101",
"assigned" : "2017-12-08T13:30:44.944-0600"
},
{
"name" : "FTBFConfig_v102",
"assigned" : "2017-12-08T13:32:31.839-0600"
},
{
"name" : "FTBFConfig_v103",
"assigned" : "2017-12-12T11:03:01.617-0600"
},
{
"name" : "FTBFConfig_v104",
"assigned" : "2017-12-12T13:50:55.925-0600"
},
{
"name" : "FTBFConfig_v105",
"assigned" : "2017-12-12T15:25:01.943-0600"
},
{
"name" : "FTBFConfig_v106",
"assigned" : "2017-12-13T10:24:20.372-0600"
},
{
"name" : "FTBFConfig_v107",
"assigned" : "2017-12-13T10:26:59.121-0600"
},
{
"name" : "FTBFConfig_v108",
"assigned" : "2018-02-01T21:14:22.486-0600"
},
{
"name" : "FTBFConfig_v109",
"assigned" : "2018-02-01T21:20:59.595-0600"
},
{
"name" : "FTBFConfig_v110",
"assigned" : "2018-02-02T11:25:30.536-0600"
},
{
"name" : "FTBFConfig_v111",
"assigned" : "2018-02-02T11:37:09.367-0600"
},
{
"name" : "FTBFConfig_v112",
"assigned" : "2018-02-02T11:47:11.831-0600"
},
{
"name" : "FTBFConfig_v113",
"assigned" : "2018-02-02T11:53:33.073-0600"
},
{
"name" : "FTBFConfig_v114",
"assigned" : "2018-02-02T12:00:49.135-0600"
},
{
"name" : "FTBFConfig_v115",
"assigned" : "2018-02-02T12:27:10.627-0600"
},
{
"name" : "FTBFConfig_v116",
"assigned" : "2018-02-02T14:28:50.164-0600"
},
{
"name" : "FTBFConfig_v117",
"assigned" : "2018-02-02T14:30:16.472-0600"
},
{
"name" : "FTBFConfig_v118",
"assigned" : "2018-02-02T14:33:57.677-0600"
},
{
"name" : "FTBFConfig_v119",
"assigned" : "2018-02-02T14:36:24.290-0600"
},
{
"name" : "FTBFConfig_v120",
"assigned" : "2018-02-02T14:38:37.649-0600"
},
{
"name" : "FTBFConfig_v121",
"assigned" : "2018-02-02T14:41:46.964-0600"
},
{
"name" : "FTBFConfig_v122",
"assigned" : "2018-02-02T14:50:21.024-0600"
},
{
"name" : "FTBFConfig_v123",
"assigned" : "2018-02-02T14:52:53.827-0600"
},
{
"name" : "FTBFConfig_v124",
"assigned" : "2018-02-02T14:59:47.151-0600"
},
{
"name" : "FTBFConfig_v125",
"assigned" : "2018-02-02T15:04:05.251-0600"
},
{
"name" : "FTBFConfig_v126",
"assigned" : "2018-02-02T15:50:08.445-0600"
},
{
"name" : "FTBFConfig_v127",
"assigned" : "2018-02-02T15:51:27.924-0600"
},
{
"name" : "FTBFConfig_v128",
"assigned" : "2018-02-02T15:52:33.094-0600"
},
{
"name" : "FTBFConfig_v129",
"assigned" : "2018-02-02T16:02:41.969-0600"
},
{
"name" : "FTBFConfig_v130",
"assigned" : "2018-02-02T16:08:41.492-0600"
},
{
"name" : "FTBFConfig_v131",
"assigned" : "2018-02-02T16:11:27.298-0600"
},
{
"name" : "FTBFConfig_v132",
"assigned" : "2018-02-02T16:12:55.134-0600"
},
{
"name" : "FTBFConfig_v133",
"assigned" : "2018-02-02T16:14:25.699-0600"
},
{
"name" : "FTBFConfig_v134",
"assigned" : "2018-02-02T16:26:18.621-0600"
},
{
"name" : "FTBFConfig_v135",
"assigned" : "2018-02-02T16:27:05.735-0600"
},
{
"name" : "FTBFConfig_v136",
"assigned" : "2018-02-02T16:29:27.086-0600"
},
{
"name" : "FTBFConfig_v137",
"assigned" : "2018-02-02T16:31:37.557-0600"
},
{
"name" : "FTBFConfig_v138",
"assigned" : "2018-02-02T16:34:10.291-0600"
},
{
"name" : "FTBFConfig_v139",
"assigned" : "2018-02-02T17:39:26.335-0600"
},
{
"name" : "FTBFConfig_v140",
"assigned" : "2018-02-02T17:42:48.495-0600"
},
{
"name" : "FTBFConfig_v141",
"assigned" : "2018-02-02T17:47:33.672-0600"
},
{
"name" : "FTBFConfig_v142",
"assigned" : "2018-02-02T17:53:57.664-0600"
}
],
"changelog" : "notprovided",
"bookkeeping" : {
"isdeleted" : false,
"isreadonly" : false,
"updates" : [
{
"event" : "addConfiguration",
"timestamp" : "2017-11-08T15:56:02.816-0600",
"value" : {
"name" : "notprovided",
"assigned" : "2017-11-08T15:56:02.816-0600"
}
},
{
"event" : "setVersion",
"timestamp" : "2017-11-08T15:56:02.817-0600",
"value" : {
"name" : "0",
"assigned" : "2017-11-08T15:56:02.817-0600"
}
},
{
"event" : "setCollection",
"timestamp" : "2017-11-08T15:56:02.818-0600",
"value" : {
"name" : "ARTDAQDaqMetricParameterConfiguration",
"assigned" : "2017-11-08T15:56:02.818-0600"
}
},
{
"event" : "addEntity",
"timestamp" : "2017-11-08T15:56:02.818-0600",
"value" : {
"name" : "OTSROOT",
"assigned" : "2017-11-08T15:56:02.818-0600"
}
},
{
"event" : "addConfiguration",
"timestamp" : "2017-11-08T15:56:05.465-0600",
"value" : {
"name" : "FTBFConfig_v0",
"assigned" : "2017-11-08T15:56:05.465-0600"
}
},
{
"event" : "addConfiguration",
"timestamp" : "2017-11-09T09:56:29.994-0600",
"value" : {
"name" : "FTBFConfig_v1",
"assigned" : "2017-11-09T09:56:29.994-0600"
}
},
{
"event" : "addConfiguration",
"timestamp" : "2017-11-09T10:05:58.953-0600",
"value" : {
"name" : "FTBFConfig_v2",
"assigned" : "2017-11-09T10:05:58.953-0600"
}
},
{
"event" : "addConfiguration",
"timestamp" : "2017-11-09T10:37:10.518-0600",
"value" : {
"name" : "FTBFConfig_v3",
"assigned" : "2017-11-09T10:37:10.517-0600"
}
},
{
"event" : "addConfiguration",
"timestamp" : "2017-11-15T11:30:09.281-0600",
"value" : {
"name" : "FTBFConfig_v4",
"assigned" : "2017-11-15T11:30:09.281-0600"
}
},
{
"event" : "addConfiguration",
"timestamp" : "2017-11-15T11:54:56.066-0600",
"value" : {
"name" : "FTBFConfig_v5",
"assigned" : "2017-11-15T11:54:56.065-0600"
}
},
{
"event" : "addConfiguration",
"timestamp" : "2017-11-15T11:57:48.690-0600",
"value" : {
"name" : "FTBFConfig_v6",
"assigned" : "2017-11-15T11:57:48.690-0600"
}
},
{
"event" : "addConfiguration",
"timestamp" : "2017-11-15T12:42:31.089-0600",
"value" : {
"name" : "FTBFConfig_v7",
"assigned" : "2017-11-15T12:42:31.089-0600"
}
},
{
"event" : "addConfiguration",
"timestamp" : "2017-11-15T13:01:02.068-0600",
"value" : {
"name" : "FTBFConfig_v8",
"assigned" : "2017-11-15T13:01:02.068-0600"
}
},
{
"event" : "addConfiguration",
"timestamp" : "2017-11-15T13:02:55.455-0600",
"value" : {
"name" : "FTBFConfig_v9",
"assigned" : "2017-11-15T13:02:55.455-0600"
}
},
{
"event" : "addConfiguration",
"timestamp" : "2017-11-15T13:04:23.043-0600",
"value" : {
"name" : "FTBFConfig_v10",
"assigned" : "2017-11-15T13:04:23.043-0600"
}
},
{
"event" : "addConfiguration",
"timestamp" : "2017-11-15T13:07:50.529-0600",
"value" : {
"name" : "FTBFConfig_v11",
"assigned" : "2017-11-15T13:07:50.529-0600"
}
},
{
"event" : "addConfiguration",
"timestamp" : "2017-11-15T13:11:57.950-0600",
"value" : {
"name" : "FTBFConfig_v12",
"assigned" : "2017-11-15T13:11:57.950-0600"
}
},
{
"event" : "addConfiguration",
"timestamp" : "2017-11-15T13:13:51.905-0600",
"value" : {
"name" : "FTBFConfig_v13",
"assigned" : "2017-11-15T13:13:51.905-0600"
}
},
{
"event" : "addConfiguration",
"timestamp" : "2017-11-15T13:27:26.046-0600",
"value" : {
"name" : "FTBFConfig_v14",
"assigned" : "2017-11-15T13:27:26.046-0600"
}
},
{
"event" : "addConfiguration",
"timestamp" : "2017-11-15T13:35:45.861-0600",
"value" : {
"name" : "FTBFConfig_v15",
"assigned" : "2017-11-15T13:35:45.861-0600"
}
},
{
"event" : "addConfiguration",
"timestamp" : "2017-11-15T13:36:50.495-0600",
"value" : {
"name" : "FTBFConfig_v16",
"assigned" : "2017-11-15T13:36:50.494-0600"
}
},
{
"event" : "addConfiguration",
"timestamp" : "2017-11-15T15:33:29.039-0600",
"value" : {
"name" : "FTBFConfig_v17",
"assigned" : "2017-11-15T15:33:29.039-0600"
}
},
{
"event" : "addConfiguration",
"timestamp" : "2017-11-15T15:35:32.646-0600",
"value" : {
"name" : "FTBFConfig_v18",
"assigned" : "2017-11-15T15:35:32.646-0600"
}
},
{
"event" : "addConfiguration",
"timestamp" : "2017-11-15T15:38:01.479-0600",
"value" : {
"name" : "FTBFConfig_v19",
"assigned" : "2017-11-15T15:38:01.479-0600"
}
},
{
"event" : "addConfiguration",
"timestamp" : "2017-11-15T16:26:29.176-0600",
"value" : {
"name" : "FTBFConfig_v20",
"assigned" : "2017-11-15T16:26:29.175-0600"
}
},
{
"event" : "addConfiguration",
"timestamp" : "2017-11-16T09:22:30.277-0600",
"value" : {
"name" : "FTBFConfig_v21",
"assigned" : "2017-11-16T09:22:30.277-0600"
}
},
{
"event" : "addConfiguration",
"timestamp" : "2017-11-17T10:23:26.474-0600",
"value" : {
"name" : "FTBFConfig_v22",
"assigned" : "2017-11-17T10:23:26.474-0600"
}
},
{
"event" : "addConfiguration",
"timestamp" : "2017-11-17T17:26:43.992-0600",
"value" : {
"name" : "FTBFConfig_v23",
"assigned" : "2017-11-17T17:26:43.992-0600"
}
},
{
"event" : "addConfiguration",
"timestamp" : "2017-11-17T17:58:24.456-0600",
"value" : {
"name" : "FTBFConfig_v24",
"assigned" : "2017-11-17T17:58:24.456-0600"
}
},
{
"event" : "addConfiguration",
"timestamp" : "2017-11-17T18:24:44.139-0600",
"value" : {
"name" : "FTBFConfig_v25",
"assigned" : "2017-11-17T18:24:44.138-0600"
}
},
{
"event" : "addConfiguration",
"timestamp" : "2017-11-17T18:32:21.169-0600",
"value" : {
"name" : "FTBFConfig_v26",
"assigned" : "2017-11-17T18:32:21.169-0600"
}
},
{
"event" : "addConfiguration",
"timestamp" : "2017-11-17T18:43:28.310-0600",
"value" : {
"name" : "FTBFConfig_v27",
"assigned" : "2017-11-17T18:43:28.310-0600"
}
},
{
"event" : "addConfiguration",
"timestamp" : "2017-11-17T18:48:30.277-0600",
"value" : {
"name" : "FTBFConfig_v28",
"assigned" : "2017-11-17T18:48:30.276-0600"
}
},
{
"event" : "addConfiguration",
"timestamp" : "2017-11-20T14:48:29.437-0600",
"value" : {
"name" : "FTBFConfig_v29",
"assigned" : "2017-11-20T14:48:29.437-0600"
}
},
{
"event" : "addConfiguration",
"timestamp" : "2017-11-20T15:39:54.622-0600",
"value" : {
"name" : "FTBFConfig_v30",
"assigned" : "2017-11-20T15:39:54.622-0600"
}
},
{
"event" : "addConfiguration",
"timestamp" : "2017-11-20T16:41:00.599-0600",
"value" : {
"name" : "FTBFConfig_v31",
"assigned" : "2017-11-20T16:41:00.599-0600"
}
},
{
"event" : "addConfiguration",
"timestamp" : "2017-11-20T18:55:33.432-0600",
"value" : {
"name" : "FTBFConfig_v32",
"assigned" : "2017-11-20T18:55:33.432-0600"
}
},
{
"event" : "addConfiguration",
"timestamp" : "2017-11-20T18:57:28.718-0600",
"value" : {
"name" : "FTBFConfig_v33",
"assigned" : "2017-11-20T18:57:28.718-0600"
}
},
{
"event" : "addConfiguration",
"timestamp" : "2017-11-29T17:50:38.210-0600",
"value" : {
"name" : "FTBFConfig_v34",
"assigned" : "2017-11-29T17:50:38.210-0600"
}
},
{
"event" : "addConfiguration",
"timestamp" : "2017-11-29T18:00:31.066-0600",
"value" : {
"name" : "FTBFConfig_v35",
"assigned" : "2017-11-29T18:00:31.066-0600"
}
},
{
"event" : "addConfiguration",
"timestamp" : "2017-11-29T18:35:09.914-0600",
"value" : {
"name" : "FTBFConfig_v36",
"assigned" : "2017-11-29T18:35:09.914-0600"
}
},
{
"event" : "addConfiguration",
"timestamp" : "2017-12-01T09:36:16.131-0600",
"value" : {
"name" : "FTBFConfig_v37",
"assigned" : "2017-12-01T09:36:16.131-0600"
}
},
{
"event" : "addConfiguration",
"timestamp" : "2017-12-01T09:51:59.511-0600",
"value" : {
"name" : "FTBFConfig_v38",
"assigned" : "2017-12-01T09:51:59.511-0600"
}
},
{
"event" : "addConfiguration",
"timestamp" : "2017-12-01T11:51:56.725-0600",
"value" : {
"name" : "FTBFConfig_v39",
"assigned" : "2017-12-01T11:51:56.725-0600"
}
},
{
"event" : "addConfiguration",
"timestamp" : "2017-12-01T12:18:18.711-0600",
"value" : {
"name" : "FTBFConfig_v40",
"assigned" : "2017-12-01T12:18:18.711-0600"
}
},
{
"event" : "addConfiguration",
"timestamp" : "2017-12-01T12:21:00.853-0600",
"value" : {
"name" : "FTBFConfig_v41",
"assigned" : "2017-12-01T12:21:00.853-0600"
}
},
{
"event" : "addConfiguration",
"timestamp" : "2017-12-01T12:43:19.989-0600",
"value" : {
"name" : "FTBFConfig_v42",
"assigned" : "2017-12-01T12:43:19.988-0600"
}
},
{
"event" : "addConfiguration",
"timestamp" : "2017-12-01T12:57:57.224-0600",
"value" : {
"name" : "FTBFConfig_v43",
"assigned" : "2017-12-01T12:57:57.224-0600"
}
},
{
"event" : "addConfiguration",
"timestamp" : "2017-12-01T13:00:50.107-0600",
"value" : {
"name" : "FTBFConfig_v44",
"assigned" : "2017-12-01T13:00:50.107-0600"
}
},
{
"event" : "addConfiguration",
"timestamp" : "2017-12-01T13:25:46.965-0600",
"value" : {
"name" : "FTBFConfig_v45",
"assigned" : "2017-12-01T13:25:46.965-0600"
}
},
{
"event" : "addConfiguration",
"timestamp" : "2017-12-01T13:35:41.831-0600",
"value" : {
"name" : "FTBFConfig_v46",
"assigned" : "2017-12-01T13:35:41.830-0600"
}
},
{
"event" : "addConfiguration",
"timestamp" : "2017-12-01T14:00:50.125-0600",
"value" : {
"name" : "FTBFConfig_v47",
"assigned" : "2017-12-01T14:00:50.125-0600"
}
},
{
"event" : "addConfiguration",
"timestamp" : "2017-12-01T14:03:57.383-0600",
"value" : {
"name" : "FTBFConfig_v48",
"assigned" : "2017-12-01T14:03:57.383-0600"
}
},
{
"event" : "addConfiguration",
"timestamp" : "2017-12-01T15:31:57.591-0600",
"value" : {
"name" : "FTBFConfig_v49",
"assigned" : "2017-12-01T15:31:57.590-0600"
}
},
{
"event" : "addConfiguration",
"timestamp" : "2017-12-01T15:37:24.036-0600",
"value" : {
"name" : "FTBFConfig_v51",
"assigned" : "2017-12-01T15:37:24.036-0600"
}
},
{
"event" : "addConfiguration",
"timestamp" : "2017-12-01T15:40:57.113-0600",
"value" : {
"name" : "FTBFConfig_v53",
"assigned" : "2017-12-01T15:40:57.113-0600"
}
},
{
"event" : "addConfiguration",
"timestamp" : "2017-12-01T15:52:47.417-0600",
"value" : {
"name" : "FTBFConfig_v54",
"assigned" : "2017-12-01T15:52:47.417-0600"
}
},
{
"event" : "addConfiguration",
"timestamp" : "2017-12-01T15:54:32.555-0600",
"value" : {
"name" : "FTBFConfig_v55",
"assigned" : "2017-12-01T15:54:32.555-0600"
}
},
{
"event" : "addConfiguration",
"timestamp" : "2017-12-01T15:55:32.085-0600",
"value" : {
"name" : "FTBFConfig_v56",
"assigned" : "2017-12-01T15:55:32.085-0600"
}
},
{
"event" : "addConfiguration",
"timestamp" : "2017-12-01T15:56:37.876-0600",
"value" : {
"name" : "FTBFConfig_v57",
"assigned" : "2017-12-01T15:56:37.876-0600"
}
},
{
"event" : "addConfiguration",
"timestamp" : "2017-12-01T15:57:35.958-0600",
"value" : {
"name" : "FTBFConfig_v58",
"assigned" : "2017-12-01T15:57:35.958-0600"
}
},
{
"event" : "addConfiguration",
"timestamp" : "2017-12-01T15:58:27.859-0600",
"value" : {
"name" : "FTBFConfig_v59",
"assigned" : "2017-12-01T15:58:27.859-0600"
}
},
{
"event" : "addConfiguration",
"timestamp" : "2017-12-01T15:59:29.045-0600",
"value" : {
"name" : "FTBFConfig_v60",
"assigned" : "2017-12-01T15:59:29.045-0600"
}
},
{
"event" : "addConfiguration",
"timestamp" : "2017-12-01T16:19:38.782-0600",
"value" : {
"name" : "FTBFConfig_v61",
"assigned" : "2017-12-01T16:19:38.782-0600"
}
},
{
"event" : "addConfiguration",
"timestamp" : "2017-12-01T16:22:01.332-0600",
"value" : {
"name" : "FTBFConfig_v62",
"assigned" : "2017-12-01T16:22:01.332-0600"
}
},
{
"event" : "addConfiguration",
"timestamp" : "2017-12-01T16:31:21.946-0600",
"value" : {
"name" : "FTBFConfig_v63",
"assigned" : "2017-12-01T16:31:21.946-0600"
}
},
{
"event" : "addConfiguration",
"timestamp" : "2017-12-01T17:06:28.873-0600",
"value" : {
"name" : "FTBFConfig_v64",
"assigned" : "2017-12-01T17:06:28.873-0600"
}
},
{
"event" : "addConfiguration",
"timestamp" : "2017-12-01T17:32:41.210-0600",
"value" : {
"name" : "FTBFConfig_v65",
"assigned" : "2017-12-01T17:32:41.209-0600"
}
},
{
"event" : "addConfiguration",
"timestamp" : "2017-12-01T20:38:47.569-0600",
"value" : {
"name" : "FTBFConfig_v66",
"assigned" : "2017-12-01T20:38:47.569-0600"
}
},
{
"event" : "addConfiguration",
"timestamp" : "2017-12-01T21:24:59.044-0600",
"value" : {
"name" : "FTBFConfig_v67",
"assigned" : "2017-12-01T21:24:59.044-0600"
}
},
{
"event" : "addConfiguration",
"timestamp" : "2017-12-01T21:42:58.696-0600",
"value" : {
"name" : "FTBFConfig_v68",
"assigned" : "2017-12-01T21:42:58.696-0600"
}
},
{
"event" : "addConfiguration",
"timestamp" : "2017-12-01T21:44:57.342-0600",
"value" : {
"name" : "FTBFConfig_v69",
"assigned" : "2017-12-01T21:44:57.342-0600"
}
},
{
"event" : "addConfiguration",
"timestamp" : "2017-12-01T21:59:16.550-0600",
"value" : {
"name" : "FTBFConfig_v70",
"assigned" : "2017-12-01T21:59:16.550-0600"
}
},
{
"event" : "addConfiguration",
"timestamp" : "2017-12-01T22:00:03.269-0600",
"value" : {
"name" : "FTBFConfigNim_v0",
"assigned" : "2017-12-01T22:00:03.269-0600"
}
},
{
"event" : "addConfiguration",
"timestamp" : "2017-12-01T22:13:04.991-0600",
"value" : {
"name" : "FTBFConfigNim_v1",
"assigned" : "2017-12-01T22:13:04.991-0600"
}
},
{
"event" : "addConfiguration",
"timestamp" : "2017-12-01T22:15:52.209-0600",
"value" : {
"name" : "FTBFConfigNim_v2",
"assigned" : "2017-12-01T22:15:52.209-0600"
}
},
{
"event" : "addConfiguration",
"timestamp" : "2017-12-01T22:17:00.353-0600",
"value" : {
"name" : "FTBFConfigNim_v3",
"assigned" : "2017-12-01T22:17:00.353-0600"
}
},
{
"event" : "addConfiguration",
"timestamp" : "2017-12-01T22:19:03.302-0600",
"value" : {
"name" : "FTBFConfigNim_v4",
"assigned" : "2017-12-01T22:19:03.302-0600"
}
},
{
"event" : "addConfiguration",
"timestamp" : "2017-12-01T22:21:54.007-0600",
"value" : {
"name" : "FTBFConfigNim_v5",
"assigned" : "2017-12-01T22:21:54.007-0600"
}
},
{
"event" : "addConfiguration",
"timestamp" : "2017-12-01T22:23:10.160-0600",
"value" : {
"name" : "FTBFConfigNim_v6",
"assigned" : "2017-12-01T22:23:10.159-0600"
}
},
{
"event" : "addConfiguration",
"timestamp" : "2017-12-01T22:25:13.943-0600",
"value" : {
"name" : "FTBFConfigNim_v7",
"assigned" : "2017-12-01T22:25:13.943-0600"
}
},
{
"event" : "addConfiguration",
"timestamp" : "2017-12-01T22:27:01.505-0600",
"value" : {
"name" : "FTBFConfigNim_v8",
"assigned" : "2017-12-01T22:27:01.505-0600"
}
},
{
"event" : "addConfiguration",
"timestamp" : "2017-12-01T22:29:25.755-0600",
"value" : {
"name" : "FTBFConfigNim_v9",
"assigned" : "2017-12-01T22:29:25.755-0600"
}
},
{
"event" : "addConfiguration",
"timestamp" : "2017-12-01T22:52:30.874-0600",
"value" : {
"name" : "FTBFConfigNim_v10",
"assigned" : "2017-12-01T22:52:30.874-0600"
}
},
{
"event" : "addConfiguration",
"timestamp" : "2017-12-01T22:57:25.649-0600",
"value" : {
"name" : "FTBFConfigNim_v11",
"assigned" : "2017-12-01T22:57:25.649-0600"
}
},
{
"event" : "addConfiguration",
"timestamp" : "2017-12-01T23:00:03.922-0600",
"value" : {
"name" : "FTBFConfigNim_v12",
"assigned" : "2017-12-01T23:00:03.922-0600"
}
},
{
"event" : "addConfiguration",
"timestamp" : "2017-12-01T23:52:32.034-0600",
"value" : {
"name" : "FTBFConfigNim_v13",
"assigned" : "2017-12-01T23:52:32.034-0600"
}
},
{
"event" : "addConfiguration",
"timestamp" : "2017-12-01T23:58:06.420-0600",
"value" : {
"name" : "FTBFConfigNim_v14",
"assigned" : "2017-12-01T23:58:06.420-0600"
}
},
{
"event" : "addConfiguration",
"timestamp" : "2017-12-02T00:00:30.698-0600",
"value" : {
"name" : "FTBFConfigNim_v15",
"assigned" : "2017-12-02T00:00:30.698-0600"
}
},
{
"event" : "addConfiguration",
"timestamp" : "2017-12-02T00:13:05.834-0600",
"value" : {
"name" : "FTBFConfigNim_v16",
"assigned" : "2017-12-02T00:13:05.834-0600"
}
},
{
"event" : "addConfiguration",
"timestamp" : "2017-12-02T00:28:24.793-0600",
"value" : {
"name" : "FTBFConfigNim_v17",
"assigned" : "2017-12-02T00:28:24.793-0600"
}
},
{
"event" : "addConfiguration",
"timestamp" : "2017-12-02T00:29:30.836-0600",
"value" : {
"name" : "FTBFConfigNim_v18",
"assigned" : "2017-12-02T00:29:30.836-0600"
}
},
{
"event" : "addConfiguration",
"timestamp" : "2017-12-02T00:31:07.657-0600",
"value" : {
"name" : "FTBFConfigNim_v19",
"assigned" : "2017-12-02T00:31:07.657-0600"
}
},
{
"event" : "addConfiguration",
"timestamp" : "2017-12-02T00:57:23.814-0600",
"value" : {
"name" : "FTBFConfigNim_v20",
"assigned" : "2017-12-02T00:57:23.814-0600"
}
},
{
"event" : "addConfiguration",
"timestamp" : "2017-12-02T10:57:58.366-0600",
"value" : {
"name" : "FTBFConfigNim_v21",
"assigned" : "2017-12-02T10:57:58.366-0600"
}
},
{
"event" : "addConfiguration",
"timestamp" : "2017-12-02T11:08:14.541-0600",
"value" : {
"name" : "FTBFConfigNim_v22",
"assigned" : "2017-12-02T11:08:14.541-0600"
}
},
{
"event" : "addConfiguration",
"timestamp" : "2017-12-02T11:12:36.104-0600",
"value" : {
"name" : "FTBFConfigNim_v23",
"assigned" : "2017-12-02T11:12:36.103-0600"
}
},
{
"event" : "addConfiguration",
"timestamp" : "2017-12-02T11:18:38.914-0600",
"value" : {
"name" : "FTBFConfigNim_v24",
"assigned" : "2017-12-02T11:18:38.914-0600"
}
},
{
"event" : "addConfiguration",
"timestamp" : "2017-12-02T11:27:02.155-0600",
"value" : {
"name" : "FTBFConfigNim_v25",
"assigned" : "2017-12-02T11:27:02.155-0600"
}
},
{
"event" : "addConfiguration",
"timestamp" : "2017-12-02T11:38:33.196-0600",
"value" : {
"name" : "FTBFConfigNim_v26",
"assigned" : "2017-12-02T11:38:33.196-0600"
}
},
{
"event" : "addConfiguration",
"timestamp" : "2017-12-02T11:49:04.329-0600",
"value" : {
"name" : "FTBFConfigNim_v27",
"assigned" : "2017-12-02T11:49:04.329-0600"
}
},
{
"event" : "addConfiguration",
"timestamp" : "2017-12-02T11:55:05.790-0600",
"value" : {
"name" : "FTBFConfigNim_v28",
"assigned" : "2017-12-02T11:55:05.790-0600"
}
},
{
"event" : "addConfiguration",
"timestamp" : "2017-12-02T12:06:22.611-0600",
"value" : {
"name" : "FTBFConfigNim_v29",
"assigned" : "2017-12-02T12:06:22.610-0600"
}
},
{
"event" : "addConfiguration",
"timestamp" : "2017-12-02T12:24:11.251-0600",
"value" : {
"name" : "FTBFConfig_v71",
"assigned" : "2017-12-02T12:24:11.251-0600"
}
},
{
"event" : "addConfiguration",
"timestamp" : "2017-12-02T12:43:32.062-0600",
"value" : {
"name" : "FTBFConfig_v72",
"assigned" : "2017-12-02T12:43:32.062-0600"
}
},
{
"event" : "addConfiguration",
"timestamp" : "2017-12-02T13:55:31.660-0600",
"value" : {
"name" : "FTBFConfig_v73",
"assigned" : "2017-12-02T13:55:31.660-0600"
}
},
{
"event" : "addConfiguration",
"timestamp" : "2017-12-02T14:09:03.954-0600",
"value" : {
"name" : "FTBFConfig_v74",
"assigned" : "2017-12-02T14:09:03.954-0600"
}
},
{
"event" : "addConfiguration",
"timestamp" : "2017-12-02T14:12:14.795-0600",
"value" : {
"name" : "FTBFConfig_v75",
"assigned" : "2017-12-02T14:12:14.795-0600"
}
},
{
"event" : "addConfiguration",
"timestamp" : "2017-12-02T19:05:49.888-0600",
"value" : {
"name" : "FTBFConfig_v76",
"assigned" : "2017-12-02T19:05:49.888-0600"
}
},
{
"event" : "addConfiguration",
"timestamp" : "2017-12-02T19:12:09.704-0600",
"value" : {
"name" : "FTBFConfig_v77",
"assigned" : "2017-12-02T19:12:09.704-0600"
}
},
{
"event" : "addConfiguration",
"timestamp" : "2017-12-03T14:03:44.887-0600",
"value" : {
"name" : "FTBFConfig_v78",
"assigned" : "2017-12-03T14:03:44.886-0600"
}
},
{
"event" : "addConfiguration",
"timestamp" : "2017-12-03T14:09:03.077-0600",
"value" : {
"name" : "FTBFConfig_v79",
"assigned" : "2017-12-03T14:09:03.077-0600"
}
},
{
"event" : "addConfiguration",
"timestamp" : "2017-12-03T14:11:06.843-0600",
"value" : {
"name" : "FTBFConfig_v80",
"assigned" : "2017-12-03T14:11:06.843-0600"
}
},
{
"event" : "addConfiguration",
"timestamp" : "2017-12-03T14:22:29.862-0600",
"value" : {
"name" : "FTBFConfig_v81",
"assigned" : "2017-12-03T14:22:29.862-0600"
}
},
{
"event" : "addConfiguration",
"timestamp" : "2017-12-03T14:40:34.641-0600",
"value" : {
"name" : "FTBFConfig_v82",
"assigned" : "2017-12-03T14:40:34.641-0600"
}
},
{
"event" : "addConfiguration",
"timestamp" : "2017-12-03T14:45:01.984-0600",
"value" : {
"name" : "FTBFConfig_v83",
"assigned" : "2017-12-03T14:45:01.984-0600"
}
},
{
"event" : "addConfiguration",
"timestamp" : "2017-12-04T14:51:27.368-0600",
"value" : {
"name" : "FTBFConfig_v84",
"assigned" : "2017-12-04T14:51:27.368-0600"
}
},
{
"event" : "addConfiguration",
"timestamp" : "2017-12-04T14:55:40.538-0600",
"value" : {
"name" : "FTBFConfig_v85",
"assigned" : "2017-12-04T14:55:40.538-0600"
}
},
{
"event" : "addConfiguration",
"timestamp" : "2017-12-04T16:51:03.505-0600",
"value" : {
"name" : "FTBFConfig_v86",
"assigned" : "2017-12-04T16:51:03.504-0600"
}
},
{
"event" : "addConfiguration",
"timestamp" : "2017-12-04T16:56:44.119-0600",
"value" : {
"name" : "FTBFConfig_v87",
"assigned" : "2017-12-04T16:56:44.118-0600"
}
},
{
"event" : "addConfiguration",
"timestamp" : "2017-12-04T17:01:08.828-0600",
"value" : {
"name" : "FTBFConfig_v88",
"assigned" : "2017-12-04T17:01:08.828-0600"
}
},
{
"event" : "addConfiguration",
"timestamp" : "2017-12-04T17:03:53.921-0600",
"value" : {
"name" : "FTBFConfig_v89",
"assigned" : "2017-12-04T17:03:53.921-0600"
}
},
{
"event" : "addConfiguration",
"timestamp" : "2017-12-04T17:07:13.547-0600",
"value" : {
"name" : "FTBFConfig_v90",
"assigned" : "2017-12-04T17:07:13.547-0600"
}
},
{
"event" : "addConfiguration",
"timestamp" : "2017-12-04T17:09:22.660-0600",
"value" : {
"name" : "FTBFConfig_v91",
"assigned" : "2017-12-04T17:09:22.660-0600"
}
},
{
"event" : "addConfiguration",
"timestamp" : "2017-12-04T17:11:35.142-0600",
"value" : {
"name" : "FTBFConfig_v92",
"assigned" : "2017-12-04T17:11:35.142-0600"
}
},
{
"event" : "addConfiguration",
"timestamp" : "2017-12-04T21:05:17.764-0600",
"value" : {
"name" : "FTBFConfig_v93",
"assigned" : "2017-12-04T21:05:17.764-0600"
}
},
{
"event" : "addConfiguration",
"timestamp" : "2017-12-04T21:17:08.597-0600",
"value" : {
"name" : "FTBFConfig_v94",
"assigned" : "2017-12-04T21:17:08.596-0600"
}
},
{
"event" : "addConfiguration",
"timestamp" : "2017-12-04T21:41:14.318-0600",
"value" : {
"name" : "FTBFConfig_v95",
"assigned" : "2017-12-04T21:41:14.318-0600"
}
},
{
"event" : "addConfiguration",
"timestamp" : "2017-12-04T22:38:58.933-0600",
"value" : {
"name" : "FTBFConfig_v96",
"assigned" : "2017-12-04T22:38:58.932-0600"
}
},
{
"event" : "addConfiguration",
"timestamp" : "2017-12-04T23:01:09.443-0600",
"value" : {
"name" : "FTBFConfig_v97",
"assigned" : "2017-12-04T23:01:09.443-0600"
}
},
{
"event" : "addConfiguration",
"timestamp" : "2017-12-07T11:07:43.457-0600",
"value" : {
"name" : "FTBFConfig_v98",
"assigned" : "2017-12-07T11:07:43.457-0600"
}
},
{
"event" : "addConfiguration",
"timestamp" : "2017-12-07T11:49:56.138-0600",
"value" : {
"name" : "FTBFConfig_v99",
"assigned" : "2017-12-07T11:49:56.138-0600"
}
},
{
"event" : "addConfiguration",
"timestamp" : "2017-12-07T11:58:22.857-0600",
"value" : {
"name" : "FTBFConfig_v100",
"assigned" : "2017-12-07T11:58:22.857-0600"
}
},
{
"event" : "addConfiguration",
"timestamp" : "2017-12-08T13:30:44.945-0600",
"value" : {
"name" : "FTBFConfig_v101",
"assigned" : "2017-12-08T13:30:44.944-0600"
}
},
{
"event" : "addConfiguration",
"timestamp" : "2017-12-08T13:32:31.839-0600",
"value" : {
"name" : "FTBFConfig_v102",
"assigned" : "2017-12-08T13:32:31.839-0600"
}
},
{
"event" : "addConfiguration",
"timestamp" : "2017-12-12T11:03:01.618-0600",
"value" : {
"name" : "FTBFConfig_v103",
"assigned" : "2017-12-12T11:03:01.617-0600"
}
},
{
"event" : "addConfiguration",
"timestamp" : "2017-12-12T13:50:55.926-0600",
"value" : {
"name" : "FTBFConfig_v104",
"assigned" : "2017-12-12T13:50:55.925-0600"
}
},
{
"event" : "addConfiguration",
"timestamp" : "2017-12-12T15:25:01.944-0600",
"value" : {
"name" : "FTBFConfig_v105",
"assigned" : "2017-12-12T15:25:01.943-0600"
}
},
{
"event" : "addConfiguration",
"timestamp" : "2017-12-13T10:24:20.372-0600",
"value" : {
"name" : "FTBFConfig_v106",
"assigned" : "2017-12-13T10:24:20.372-0600"
}
},
{
"event" : "addConfiguration",
"timestamp" : "2017-12-13T10:26:59.122-0600",
"value" : {
"name" : "FTBFConfig_v107",
"assigned" : "2017-12-13T10:26:59.121-0600"
}
},
{
"event" : "addConfiguration",
"timestamp" : "2018-02-01T21:14:22.486-0600",
"value" : {
"name" : "FTBFConfig_v108",
"assigned" : "2018-02-01T21:14:22.486-0600"
}
},
{
"event" : "addConfiguration",
"timestamp" : "2018-02-01T21:20:59.595-0600",
"value" : {
"name" : "FTBFConfig_v109",
"assigned" : "2018-02-01T21:20:59.595-0600"
}
},
{
"event" : "addConfiguration",
"timestamp" : "2018-02-02T11:25:30.536-0600",
"value" : {
"name" : "FTBFConfig_v110",
"assigned" : "2018-02-02T11:25:30.536-0600"
}
},
{
"event" : "addConfiguration",
"timestamp" : "2018-02-02T11:37:09.368-0600",
"value" : {
"name" : "FTBFConfig_v111",
"assigned" : "2018-02-02T11:37:09.367-0600"
}
},
{
"event" : "addConfiguration",
"timestamp" : "2018-02-02T11:47:11.831-0600",
"value" : {
"name" : "FTBFConfig_v112",
"assigned" : "2018-02-02T11:47:11.831-0600"
}
},
{
"event" : "addConfiguration",
"timestamp" : "2018-02-02T11:53:33.074-0600",
"value" : {
"name" : "FTBFConfig_v113",
"assigned" : "2018-02-02T11:53:33.073-0600"
}
},
{
"event" : "addConfiguration",
"timestamp" : "2018-02-02T12:00:49.136-0600",
"value" : {
"name" : "FTBFConfig_v114",
"assigned" : "2018-02-02T12:00:49.135-0600"
}
},
{
"event" : "addConfiguration",
"timestamp" : "2018-02-02T12:27:10.627-0600",
"value" : {
"name" : "FTBFConfig_v115",
"assigned" : "2018-02-02T12:27:10.627-0600"
}
},
{
"event" : "addConfiguration",
"timestamp" : "2018-02-02T14:28:50.164-0600",
"value" : {
"name" : "FTBFConfig_v116",
"assigned" : "2018-02-02T14:28:50.164-0600"
}
},
{
"event" : "addConfiguration",
"timestamp" : "2018-02-02T14:30:16.472-0600",
"value" : {
"name" : "FTBFConfig_v117",
"assigned" : "2018-02-02T14:30:16.472-0600"
}
},
{
"event" : "addConfiguration",
"timestamp" : "2018-02-02T14:33:57.677-0600",
"value" : {
"name" : "FTBFConfig_v118",
"assigned" : "2018-02-02T14:33:57.677-0600"
}
},
{
"event" : "addConfiguration",
"timestamp" : "2018-02-02T14:36:24.291-0600",
"value" : {
"name" : "FTBFConfig_v119",
"assigned" : "2018-02-02T14:36:24.290-0600"
}
},
{
"event" : "addConfiguration",
"timestamp" : "2018-02-02T14:38:37.649-0600",
"value" : {
"name" : "FTBFConfig_v120",
"assigned" : "2018-02-02T14:38:37.649-0600"
}
},
{
"event" : "addConfiguration",
"timestamp" : "2018-02-02T14:41:46.964-0600",
"value" : {
"name" : "FTBFConfig_v121",
"assigned" : "2018-02-02T14:41:46.964-0600"
}
},
{
"event" : "addConfiguration",
"timestamp" : "2018-02-02T14:50:21.024-0600",
"value" : {
"name" : "FTBFConfig_v122",
"assigned" : "2018-02-02T14:50:21.024-0600"
}
},
{
"event" : "addConfiguration",
"timestamp" : "2018-02-02T14:52:53.827-0600",
"value" : {
"name" : "FTBFConfig_v123",
"assigned" : "2018-02-02T14:52:53.827-0600"
}
},
{
"event" : "addConfiguration",
"timestamp" : "2018-02-02T14:59:47.151-0600",
"value" : {
"name" : "FTBFConfig_v124",
"assigned" : "2018-02-02T14:59:47.151-0600"
}
},
{
"event" : "addConfiguration",
"timestamp" : "2018-02-02T15:04:05.252-0600",
"value" : {
"name" : "FTBFConfig_v125",
"assigned" : "2018-02-02T15:04:05.251-0600"
}
},
{
"event" : "addConfiguration",
"timestamp" : "2018-02-02T15:50:08.445-0600",
"value" : {
"name" : "FTBFConfig_v126",
"assigned" : "2018-02-02T15:50:08.445-0600"
}
},
{
"event" : "addConfiguration",
"timestamp" : "2018-02-02T15:51:27.924-0600",
"value" : {
"name" : "FTBFConfig_v127",
"assigned" : "2018-02-02T15:51:27.924-0600"
}
},
{
"event" : "addConfiguration",
"timestamp" : "2018-02-02T15:52:33.094-0600",
"value" : {
"name" : "FTBFConfig_v128",
"assigned" : "2018-02-02T15:52:33.094-0600"
}
},
{
"event" : "addConfiguration",
"timestamp" : "2018-02-02T16:02:41.970-0600",
"value" : {
"name" : "FTBFConfig_v129",
"assigned" : "2018-02-02T16:02:41.969-0600"
}
},
{
"event" : "addConfiguration",
"timestamp" : "2018-02-02T16:08:41.492-0600",
"value" : {
"name" : "FTBFConfig_v130",
"assigned" : "2018-02-02T16:08:41.492-0600"
}
},
{
"event" : "addConfiguration",
"timestamp" : "2018-02-02T16:11:27.298-0600",
"value" : {
"name" : "FTBFConfig_v131",
"assigned" : "2018-02-02T16:11:27.298-0600"
}
},
{
"event" : "addConfiguration",
"timestamp" : "2018-02-02T16:12:55.135-0600",
"value" : {
"name" : "FTBFConfig_v132",
"assigned" : "2018-02-02T16:12:55.134-0600"
}
},
{
"event" : "addConfiguration",
"timestamp" : "2018-02-02T16:14:25.699-0600",
"value" : {
"name" : "FTBFConfig_v133",
"assigned" : "2018-02-02T16:14:25.699-0600"
}
},
{
"event" : "addConfiguration",
"timestamp" : "2018-02-02T16:26:18.621-0600",
"value" : {
"name" : "FTBFConfig_v134",
"assigned" : "2018-02-02T16:26:18.621-0600"
}
},
{
"event" : "addConfiguration",
"timestamp" : "2018-02-02T16:27:05.735-0600",
"value" : {
"name" : "FTBFConfig_v135",
"assigned" : "2018-02-02T16:27:05.735-0600"
}
},
{
"event" : "addConfiguration",
"timestamp" : "2018-02-02T16:29:27.086-0600",
"value" : {
"name" : "FTBFConfig_v136",
"assigned" : "2018-02-02T16:29:27.086-0600"
}
},
{
"event" : "addConfiguration",
"timestamp" : "2018-02-02T16:31:37.558-0600",
"value" : {
"name" : "FTBFConfig_v137",
"assigned" : "2018-02-02T16:31:37.557-0600"
}
},
{
"event" : "addConfiguration",
"timestamp" : "2018-02-02T16:34:10.291-0600",
"value" : {
"name" : "FTBFConfig_v138",
"assigned" : "2018-02-02T16:34:10.291-0600"
}
},
{
"event" : "addConfiguration",
"timestamp" : "2018-02-02T17:39:26.335-0600",
"value" : {
"name" : "FTBFConfig_v139",
"assigned" : "2018-02-02T17:39:26.335-0600"
}
},
{
"event" : "addConfiguration",
"timestamp" : "2018-02-02T17:42:48.495-0600",
"value" : {
"name" : "FTBFConfig_v140",
"assigned" : "2018-02-02T17:42:48.495-0600"
}
},
{
"event" : "addConfiguration",
"timestamp" : "2018-02-02T17:47:33.672-0600",
"value" : {
"name" : "FTBFConfig_v141",
"assigned" : "2018-02-02T17:47:33.672-0600"
}
},
{
"event" : "addConfiguration",
"timestamp" : "2018-02-02T17:53:57.664-0600",
"value" : {
"name" : "FTBFConfig_v142",
"assigned" : "2018-02-02T17:53:57.664-0600"
}
}
],
"created" : "2017-11-08T15:56:02.815-0600"
},
"_id" : {
"$oid" : "b564b967795c443ba72d1cb0"
},
"collection" : "ARTDAQDaqMetricParameterConfiguration",
"aliases" : {
"active" : [

],
"history" : [

]
},
"runs" : [

],
"attachments" : [

],
"configtype" : "notprovided"
}