08 Sep 2020 20:35:11.490 [140013140605120] INFO  gov.fnal.dhcp.kenny01.p:2021 <> - xdaq version: 05.03.01, compiled on Apr 19 2019 at 09:27:21, 64bit
08 Sep 2020 20:35:11.491 [140013140605120] INFO  gov.fnal.dhcp.kenny01.p:2021 <> - Loaded profile: /home/otsdaq/Programming/otsdaq/srcs/otsdaq_cmsoutertracker/DataIterator/XDAQConfigurations/otsConfiguration_CMake.xml
08 Sep 2020 20:35:11.491 [140013140605120] INFO  gov.fnal.dhcp.kenny01.p:2021 <> - b2innub version: 02.05.01, compiled on Apr 19 2019 at 09:30:32
08 Sep 2020 20:35:11.492 [140013140605120] INFO  gov.fnal.dhcp.kenny01.p:2021 <> - executive version: 04.00.06, compiled on Apr 19 2019 at 09:29:54
08 Sep 2020 20:35:11.494 [140013140605120] INFO  gov.fnal.dhcp.kenny01.p:2021 <> - b2inutils version: 04.04.05, compiled on Apr 19 2019 at 09:30:40
08 Sep 2020 20:35:11.495 [140013140605120] INFO  gov.fnal.dhcp.kenny01.p:2021 <> - pthttp version: 04.05.07, compiled on Apr 19 2019 at 09:28:34
08 Sep 2020 20:35:11.496 [140013140605120] INFO  gov.fnal.dhcp.kenny01.p:2021 <> - ptfifo version: 04.03.01, compiled on Apr 19 2019 at 09:29:26
08 Sep 2020 20:35:11.497 [140013140605120] INFO  gov.fnal.dhcp.kenny01.p:2021 <> - xrelay version: 04.01.00, compiled on Apr 19 2019 at 09:30:24
08 Sep 2020 20:35:11.498 [140013140605120] INFO  gov.fnal.dhcp.kenny01.p:2021 <> - hyperdaq version: 05.02.01, compiled on Apr 19 2019 at 09:30:21
08 Sep 2020 20:35:11.498 [140013140605120] DEBUG gov.fnal.dhcp.kenny01.p:2021 <> - Create application descriptor for class: executive::Application id: 0
08 Sep 2020 20:35:11.509 [140013140605120] INFO  gov.fnal.dhcp.kenny01.p:2021.executive::Application.lid(0) <> - Log URL not set (was already console)
08 Sep 2020 20:35:11.509 [140013140605120] INFO  gov.fnal.dhcp.kenny01.p:2021.executive::Application.lid(0) <> - Changed Log level to INFO
08 Sep 2020 20:35:11.512 [140013140605120] INFO  gov.fnal.dhcp.kenny01.p:2021.pt::http::PeerTransportHTTP.lid(1) <> - No security policies on this server
08 Sep 2020 20:35:11.657 [140013140605120] INFO  gov.fnal.dhcp.kenny01.p:2021 <> - CoreSupervisors version: 02.05.04, compiled on Sep  8 2020 at 11:51:19
09-08 15:35:11.660866                    MessageFacility.h dbg Configuring message facility with /home/otsdaq/Programming/otsdaq/srcs/otsdaq_cmsoutertracker/DataIterator/MessageFacilityConfigurations/MessageFacilityGen.fcl
otsConsole: {
	type: UDP
	threshold: DEBUG
	port: 30000
	host: "127.0.0.1"
}
console: {
	type: "OTS"
	threshold: "DEBUG"
	filename_delimit: "/srcs/"
	format_string: "|%L:%N:%f [%u]	%m"

}

file: ""

|Info:configureMessageFacility:configureMessageFacility.cc [316]	Message Facility Application . configured with: destinations:{console:{filename_delimit:"/srcs/" format_string:"|%L:%N:%f [%u]\t%m" threshold:"DEBUG" type:"OTS"} file:"" otsConsole:{host:"127.0.0.1" port:30000 threshold:"DEBUG" type:"UDP"}}
|Info:_TCPConnect:TCPConnect.cc [344]	Resolving host 127.0.0.1, on port 30000
|Info:_TCPConnect:TCPConnect.cc [371]	Host resolved as 127.0.0.1
|Info:_TCPConnect:TCPConnect.cc [247]	Resolving ip kenny01.dhcp.fnal.gov
|Debug:CorePropertySupervisorBase.cc:otsdaq/otsdaq/CoreSupervisors/CorePropertySupervisorBase.cc [24]	FESupervisor:UNINITIALIZED_supervisorApplicationUID	<> application->getApplicationContext()->getContextDescriptor()->getURL() = http://kenny01.dhcp.fnal.gov:2021
|Debug:CorePropertySupervisorBase.cc:otsdaq/otsdaq/CoreSupervisors/CorePropertySupervisorBase.cc [25]	FESupervisor:UNINITIALIZED_supervisorApplicationUID	<> application->getApplicationDescriptor()->getLocalId() = 284
|Debug:CorePropertySupervisorBase.cc:otsdaq/otsdaq/CoreSupervisors/CorePropertySupervisorBase.cc [26]	FESupervisor:UNINITIALIZED_supervisorApplicationUID	<> supervisorClass_ = ots::FESupervisor
|Debug:CorePropertySupervisorBase.cc:otsdaq/otsdaq/CoreSupervisors/CorePropertySupervisorBase.cc [27]	FESupervisor:UNINITIALIZED_supervisorApplicationUID	<> supervisorClassNoNamespace_ = FESupervisor
|Debug:AllSupervisorInfo.cc:otsdaq/otsdaq/SupervisorInfo/AllSupervisorInfo.cc [48]	Initializing info based on XDAQ context...
|Debug:SupervisorDescriptorInfoBase.cc:otsdaq/otsdaq/SupervisorInfo/SupervisorDescriptorInfoBase.cc [33]	Init
|Debug:AllSupervisorInfo.cc:otsdaq/otsdaq/SupervisorInfo/AllSupervisorInfo.cc [107]	Initializing info for Normal mode XDAQ context...
|Debug:TableBase:otsdaq/otsdaq/TableCore/TableBase.cc [90]	TableBase-TableGroupMetadata	<> Special table 'TableGroupMetadata' constructed. 1
|Debug:ConfigurationManager:otsdaq/otsdaq/ConfigurationInterface/ConfigurationManager.cc [179]	username_ = READONLY_USER
|Debug:ConfigurationManager:otsdaq/otsdaq/ConfigurationInterface/ConfigurationManager.cc [225]	ACTIVE_GROUPS_FILENAME = /home/otsdaq/Programming/otsdaq/srcs/otsdaq_cmsoutertracker/DataIterator/ServiceData/ActiveTableGroups.cfg
|Debug:ConfigurationManager:otsdaq/otsdaq/ConfigurationInterface/ConfigurationManager.cc [226]	ARTDAQ_DATABASE_URI = filesystemdb:///home/otsdaq/Programming/otsdaq/srcs/otsdaq_cmsoutertracker/databases/filesystemdb/iterator_db
|Debug:ConfigurationManager:otsdaq/otsdaq/ConfigurationInterface/ConfigurationManager.cc [1346]	doNotLoadMembers = 0
|Debug:ConfigurationManager:otsdaq/otsdaq/ConfigurationInterface/ConfigurationManager.cc [1347]	group 'DefaultContext(1)' := DesktopIconTable: 1, DesktopWindowParameterTable: 1, GatewaySupervisorTable: 1, MessageFacilityTable: 1, SlowControlsDashboardSupervisorTable: 1, StateMachineTable: 1, XDAQApplicationPropertyTable: 1, XDAQApplicationTable: 1, XDAQContextTable: 1
|Debug:ConfigurationManager:otsdaq/otsdaq/ConfigurationInterface/ConfigurationManager.cc [1365]	------------------------------------- init start    	 [for all plug-ins in Context group 'DefaultContext(1)']
|Debug:MessageFacilityTable_table.cc:otsdaq/otsdaq/TablePlugins/MessageFacilityTable_table.cc [111]	Forwarding to Web GUI with UDP forward MesageFacility table.
|Debug:MessageFacilityTable_table.cc:otsdaq/otsdaq/TablePlugins/MessageFacilityTable_table.cc [233]	Opened.. /home/otsdaq/Programming/otsdaq/srcs/otsdaq_cmsoutertracker/DataIterator/MessageFacilityConfigurations/MessageFacilityGen.fcl
|Debug:MessageFacilityTable_table.cc:otsdaq/otsdaq/TablePlugins/MessageFacilityTable_table.cc [244]	Opened for artdaq.. /home/otsdaq/Programming/otsdaq/srcs/otsdaq_cmsoutertracker/DataIterator/MessageFacilityConfigurations/ARTDAQInterfaceMessageFacilityGen.fcl
|Debug:XDAQContextTable_table.cc:otsdaq/otsdaq/TablePlugins/XDAQContextTable_table.cc [249]	Fixing deprecated Supervisor class from ots::Supervisor to ots::GatewaySupervisor
|Debug:ConfigurationManager:otsdaq/otsdaq/ConfigurationInterface/ConfigurationManager.cc [1531]	------------------------------------- init complete 	 [for all plug-ins in Context group 'DefaultContext(1)']
|Debug:ConfigurationManager:otsdaq/otsdaq/ConfigurationInterface/ConfigurationManager.cc [1346]	doNotLoadMembers = 0
|Debug:ConfigurationManager:otsdaq/otsdaq/ConfigurationInterface/ConfigurationManager.cc [1347]	group 'GroupAliasTreeEditWizBackbone(4)' := GroupAliasesTable: 4, VersionAliasesTable: 4
|Debug:ConfigurationManager:otsdaq/otsdaq/ConfigurationInterface/ConfigurationManager.cc [1365]	------------------------------------- init start    	 [for all plug-ins in Backbone group 'GroupAliasTreeEditWizBackbone(4)']
|Debug:ConfigurationManager:otsdaq/otsdaq/ConfigurationInterface/ConfigurationManager.cc [1531]	------------------------------------- init complete 	 [for all plug-ins in Backbone group 'GroupAliasTreeEditWizBackbone(4)']
|Debug:ConfigurationManager:otsdaq/otsdaq/ConfigurationInterface/ConfigurationManager.cc [1346]	doNotLoadMembers = 0
|Debug:ConfigurationManager:otsdaq/otsdaq/ConfigurationInterface/ConfigurationManager.cc [1347]	group 'iterateDefaultGroup(3)' := IterateTable: 3, IterationCommandBeginLabelTable: 3, IterationCommandChooseFSMTable: 3, IterationCommandConfigureAliasTable: 3, IterationCommandConfigureGroupTable: 3, IterationCommandExecuteFEMacroTable: 3, IterationCommandExecuteMacroTable: 3, IterationCommandMacroDimensionalLoopParameterTable: 3, IterationCommandMacroDimensionalLoopTable: 3, IterationCommandModifyGroupTable: 3, IterationCommandRepeatLabelTable: 3, IterationCommandRunTable: 3, IterationPlanTable: 3, IterationTargetTable: 3
|Warning:ConfigurationManager:otsdaq/otsdaq/ConfigurationInterface/ConfigurationManager.cc [1358]	Not loading group because it is not of type Context or Backbone (it is type 'Iterate').
|Debug:ConfigurationManager:otsdaq/otsdaq/ConfigurationInterface/ConfigurationManager.cc [1346]	doNotLoadMembers = 0
|Debug:ConfigurationManager:otsdaq/otsdaq/ConfigurationInterface/ConfigurationManager.cc [1347]	group 'DefaultConfig(0)' := DQMHistoMakerConsumerTable: 0, DataBufferTable: 0, DataManagerSupervisorTable: 0, DataProcessorTable: 0, FEHistoMakerInterfaceTable: 0, FEInterfaceTable: 0, FEMiddlewareInterfaceTable: 0, FESlowControlsTable: 0, FESupervisorTable: 0, OTDQMHistosConsumerTable: 0, RawDataSaverConsumerTable: 0, TCPDataListenerProducerTable: 0, UDPDataListenerProducerTable: 0
|Warning:ConfigurationManager:otsdaq/otsdaq/ConfigurationInterface/ConfigurationManager.cc [1358]	Not loading group because it is not of type Context or Backbone (it is type 'Configuration').
|Debug:AllSupervisorInfo.cc:otsdaq/otsdaq/SupervisorInfo/AllSupervisorInfo.cc [288]	TRACE app for hostname 'kenny01.dhcp.fnal.gov' is CLASS:LID = ots::GatewaySupervisor:200
|Debug:AllSupervisorInfo.cc:otsdaq/otsdaq/SupervisorInfo/AllSupervisorInfo.cc [298]	TRACE app count = 1
|Debug:AllSupervisorInfo.cc:otsdaq/otsdaq/SupervisorInfo/AllSupervisorInfo.cc [304]	Supervisor Info initialization complete!
|Debug:ConfigurationManager:otsdaq/otsdaq/ConfigurationInterface/ConfigurationManager.cc [442]	Destroying Backbone Key: 4
|Debug:ConfigurationManager:otsdaq/otsdaq/ConfigurationInterface/ConfigurationManager.cc [460]	Destroying Context Key: 1
|Debug:CorePropertySupervisorBase.cc:otsdaq/otsdaq/CoreSupervisors/CorePropertySupervisorBase.cc [68]	FESupervisor:UNINITIALIZED_supervisorApplicationUID	<> Getting configuration specific info for supervisor 'HistoMakerFESupervisor' of class ots::FESupervisor.
|Debug:TableBase:otsdaq/otsdaq/TableCore/TableBase.cc [90]	TableBase-TableGroupMetadata	<> Special table 'TableGroupMetadata' constructed. 1
|Debug:ConfigurationManager:otsdaq/otsdaq/ConfigurationInterface/ConfigurationManager.cc [179]	username_ = READONLY_USER
|Debug:ConfigurationManager:otsdaq/otsdaq/ConfigurationInterface/ConfigurationManager.cc [225]	ACTIVE_GROUPS_FILENAME = /home/otsdaq/Programming/otsdaq/srcs/otsdaq_cmsoutertracker/DataIterator/ServiceData/ActiveTableGroups.cfg
|Debug:ConfigurationManager:otsdaq/otsdaq/ConfigurationInterface/ConfigurationManager.cc [226]	ARTDAQ_DATABASE_URI = filesystemdb:///home/otsdaq/Programming/otsdaq/srcs/otsdaq_cmsoutertracker/databases/filesystemdb/iterator_db
|Debug:ConfigurationManager:otsdaq/otsdaq/ConfigurationInterface/ConfigurationManager.cc [1346]	doNotLoadMembers = 0
|Debug:ConfigurationManager:otsdaq/otsdaq/ConfigurationInterface/ConfigurationManager.cc [1347]	group 'DefaultContext(1)' := DesktopIconTable: 1, DesktopWindowParameterTable: 1, GatewaySupervisorTable: 1, MessageFacilityTable: 1, SlowControlsDashboardSupervisorTable: 1, StateMachineTable: 1, XDAQApplicationPropertyTable: 1, XDAQApplicationTable: 1, XDAQContextTable: 1
|Debug:ConfigurationManager:otsdaq/otsdaq/ConfigurationInterface/ConfigurationManager.cc [1365]	------------------------------------- init start    	 [for all plug-ins in Context group 'DefaultContext(1)']
|Debug:MessageFacilityTable_table.cc:otsdaq/otsdaq/TablePlugins/MessageFacilityTable_table.cc [111]	Forwarding to Web GUI with UDP forward MesageFacility table.
|Debug:MessageFacilityTable_table.cc:otsdaq/otsdaq/TablePlugins/MessageFacilityTable_table.cc [233]	Opened.. /home/otsdaq/Programming/otsdaq/srcs/otsdaq_cmsoutertracker/DataIterator/MessageFacilityConfigurations/MessageFacilityGen.fcl
|Debug:MessageFacilityTable_table.cc:otsdaq/otsdaq/TablePlugins/MessageFacilityTable_table.cc [244]	Opened for artdaq.. /home/otsdaq/Programming/otsdaq/srcs/otsdaq_cmsoutertracker/DataIterator/MessageFacilityConfigurations/ARTDAQInterfaceMessageFacilityGen.fcl
|Debug:XDAQContextTable_table.cc:otsdaq/otsdaq/TablePlugins/XDAQContextTable_table.cc [249]	Fixing deprecated Supervisor class from ots::Supervisor to ots::GatewaySupervisor
|Debug:ConfigurationManager:otsdaq/otsdaq/ConfigurationInterface/ConfigurationManager.cc [1531]	------------------------------------- init complete 	 [for all plug-ins in Context group 'DefaultContext(1)']
|Debug:ConfigurationManager:otsdaq/otsdaq/ConfigurationInterface/ConfigurationManager.cc [1346]	doNotLoadMembers = 0
|Debug:ConfigurationManager:otsdaq/otsdaq/ConfigurationInterface/ConfigurationManager.cc [1347]	group 'GroupAliasTreeEditWizBackbone(4)' := GroupAliasesTable: 4, VersionAliasesTable: 4
|Debug:ConfigurationManager:otsdaq/otsdaq/ConfigurationInterface/ConfigurationManager.cc [1365]	------------------------------------- init start    	 [for all plug-ins in Backbone group 'GroupAliasTreeEditWizBackbone(4)']
|Debug:ConfigurationManager:otsdaq/otsdaq/ConfigurationInterface/ConfigurationManager.cc [1531]	------------------------------------- init complete 	 [for all plug-ins in Backbone group 'GroupAliasTreeEditWizBackbone(4)']
|Debug:ConfigurationManager:otsdaq/otsdaq/ConfigurationInterface/ConfigurationManager.cc [1346]	doNotLoadMembers = 0
|Debug:ConfigurationManager:otsdaq/otsdaq/ConfigurationInterface/ConfigurationManager.cc [1347]	group 'iterateDefaultGroup(3)' := IterateTable: 3, IterationCommandBeginLabelTable: 3, IterationCommandChooseFSMTable: 3, IterationCommandConfigureAliasTable: 3, IterationCommandConfigureGroupTable: 3, IterationCommandExecuteFEMacroTable: 3, IterationCommandExecuteMacroTable: 3, IterationCommandMacroDimensionalLoopParameterTable: 3, IterationCommandMacroDimensionalLoopTable: 3, IterationCommandModifyGroupTable: 3, IterationCommandRepeatLabelTable: 3, IterationCommandRunTable: 3, IterationPlanTable: 3, IterationTargetTable: 3
|Warning:ConfigurationManager:otsdaq/otsdaq/ConfigurationInterface/ConfigurationManager.cc [1358]	Not loading group because it is not of type Context or Backbone (it is type 'Iterate').
|Debug:ConfigurationManager:otsdaq/otsdaq/ConfigurationInterface/ConfigurationManager.cc [1346]	doNotLoadMembers = 0
|Debug:ConfigurationManager:otsdaq/otsdaq/ConfigurationInterface/ConfigurationManager.cc [1347]	group 'DefaultConfig(0)' := DQMHistoMakerConsumerTable: 0, DataBufferTable: 0, DataManagerSupervisorTable: 0, DataProcessorTable: 0, FEHistoMakerInterfaceTable: 0, FEInterfaceTable: 0, FEMiddlewareInterfaceTable: 0, FESlowControlsTable: 0, FESupervisorTable: 0, OTDQMHistosConsumerTable: 0, RawDataSaverConsumerTable: 0, TCPDataListenerProducerTable: 0, UDPDataListenerProducerTable: 0
|Warning:ConfigurationManager:otsdaq/otsdaq/ConfigurationInterface/ConfigurationManager.cc [1358]	Not loading group because it is not of type Context or Backbone (it is type 'Configuration').
|Debug:CorePropertySupervisorBase.cc:otsdaq/otsdaq/CoreSupervisors/CorePropertySupervisorBase.cc [106]	FESupervisor:HistoMakerFESupervisor	<> CorePropertySupervisorBase::supervisorContextUID_ = TestContext
|Debug:CorePropertySupervisorBase.cc:otsdaq/otsdaq/CoreSupervisors/CorePropertySupervisorBase.cc [107]	FESupervisor:HistoMakerFESupervisor	<> CorePropertySupervisorBase::supervisorApplicationUID_ = HistoMakerFESupervisor
|Debug:CorePropertySupervisorBase.cc:otsdaq/otsdaq/CoreSupervisors/CorePropertySupervisorBase.cc [108]	FESupervisor:HistoMakerFESupervisor	<> CorePropertySupervisorBase::supervisorConfigurationPath_ = /TestContext/LinkToApplicationTable/HistoMakerFESupervisor/LinkToSupervisorTable
|Debug:CorePropertySupervisorBase.cc:otsdaq/otsdaq/CoreSupervisors/CorePropertySupervisorBase.cc [154]	hostname = kenny01.dhcp.fnal.gov
|Debug:CorePropertySupervisorBase.cc:otsdaq/otsdaq/CoreSupervisors/CorePropertySupervisorBase.cc [168]	Marked alive: /home/otsdaq/Programming/otsdaq/srcs/otsdaq_cmsoutertracker/DataIterator/Logs/otsdaq_is_alive-kenny01.dhcp.fnal.gov-2021.dat
|Debug:FSM:otsdaq/otsdaq/FiniteStateMachine/FiniteStateMachine.cc [19]	FSM-FESupervisor:HistoMakerFESupervisor	<> Constructing FiniteStateMachine
|Debug:FSM:otsdaq/otsdaq/FiniteStateMachine/RunControlStateMachine.cc [101]	FSM-FESupervisor:HistoMakerFESupervisor	<> Resetting RunControlStateMachine with name 'FESupervisor:HistoMakerFESupervisor'...
|Debug:WorkLoopManager.cc:otsdaq/otsdaq/WorkLoopManager/WorkLoopManager.cc [19]	Request name: StateMachine jobName: StateMachine
|Debug:CoreSupervisorBase.cc:otsdaq/otsdaq/CoreSupervisors/CoreSupervisorBase.cc [26]	FESupervisor:HistoMakerFESupervisor	<> Constructor.
|Debug:CoreSupervisorBase.cc:otsdaq/otsdaq/CoreSupervisors/CoreSupervisorBase.cc [41]	FESupervisor:HistoMakerFESupervisor	<> Constructed.
|Debug:FESupervisor.cc:otsdaq/otsdaq/CoreSupervisors/FESupervisor.cc [40]	FESupervisor:HistoMakerFESupervisor	<> Constructing...
|Debug:Configurable.cc:otsdaq/otsdaq/Configurable/Configurable.cc [16]	HistoMakerFESupervisor0	<>  Configurable class constructed. 
|Debug:FEVInterfacesManager.cc:otsdaq/otsdaq/FECore/FEVInterfacesManager.cc [23]	HistoMakerFESupervisor0	<> Constructed.
|Debug:FESupervisor.cc:otsdaq/otsdaq/CoreSupervisors/FESupervisor.cc [843]	FESupervisor:HistoMakerFESupervisor	<> State Machine 0 WAS of type FEVInterfacesManager
|Debug:FESupervisor.cc:otsdaq/otsdaq/CoreSupervisors/FESupervisor.cc [853]	FESupervisor:HistoMakerFESupervisor	<> theFEInterfacesManager pointer = 0x24c9710
|Debug:FESupervisor.cc:otsdaq/otsdaq/CoreSupervisors/FESupervisor.cc [68]	FESupervisor:HistoMakerFESupervisor	<> Constructed.
08 Sep 2020 20:35:11.850 [140013140605120] INFO  gov.fnal.dhcp.kenny01.p:2021 <> - Ready.
|Debug:FSM:otsdaq/otsdaq/FiniteStateMachine/RunControlStateMachine.cc [144]	FSM-FESupervisor:HistoMakerFESupervisor	<> Received... 	Command: Initialize Par 0 Name: commandId Value: 2, Par 0 Name: xmlns:xdaq Value: urn:xdaq-soap:3.0,
|Debug:FSM:otsdaq/otsdaq/FiniteStateMachine/RunControlStateMachine.cc [155]	FSM-FESupervisor:HistoMakerFESupervisor	<> Defaulting iteration index to 0.
|Debug:FSM:otsdaq/otsdaq/FiniteStateMachine/RunControlStateMachine.cc [165]	FSM-FESupervisor:HistoMakerFESupervisor	<> Defaulting subIterationIndex_ index to 0.
|Debug:FSM:otsdaq/otsdaq/FiniteStateMachine/RunControlStateMachine.cc [201]	FSM-FESupervisor:HistoMakerFESupervisor	<> Starting state for FESupervisor:HistoMakerFESupervisor is Initial and attempting to Initialize
|Debug:FSM:otsdaq/otsdaq/FiniteStateMachine/RunControlStateMachine.cc [299]	FSM-FESupervisor:HistoMakerFESupervisor	<> command = Initialize
|Debug:FSM:otsdaq/otsdaq/FiniteStateMachine/RunControlStateMachine.cc [300]	FSM-FESupervisor:HistoMakerFESupervisor	<> currentState = Initial
|Debug:FSM:otsdaq/otsdaq/FiniteStateMachine/FiniteStateMachine.cc [114]	FSM-FESupervisor:HistoMakerFESupervisor	<> transition = Initialize
|Debug:CoreSupervisorBase.cc:otsdaq/otsdaq/CoreSupervisors/CoreSupervisorBase.cc [646]	FESupervisor:HistoMakerFESupervisor	<> transitionInitializing
|Debug:CoreSupervisorBase.cc:otsdaq/otsdaq/CoreSupervisors/CoreSupervisorBase.cc [374]	FESupervisor:HistoMakerFESupervisor	<> CoreSupervisorBase::stateHalted
|Debug:FSM:otsdaq/otsdaq/FiniteStateMachine/RunControlStateMachine.cc [409]	FSM-FESupervisor:HistoMakerFESupervisor	<> Ending state for FESupervisor:HistoMakerFESupervisor is Halted
|Debug:FSM:otsdaq/otsdaq/FiniteStateMachine/RunControlStateMachine.cc [410]	FSM-FESupervisor:HistoMakerFESupervisor	<> result = InitializeDone
|Debug:FSM:otsdaq/otsdaq/FiniteStateMachine/RunControlStateMachine.cc [144]	FSM-FESupervisor:HistoMakerFESupervisor	<> Received... 	Command: Configure Par 0 Name: ConfigurationAlias Value: OuterTrackerConfiguration, Par 0 Name: ConfigurationTableGroupKey Value: 0, Par 0 Name: ConfigurationTableGroupName Value: DefaultConfig, Par 0 Name: commandId Value: 5, Par 0 Name: xmlns:xdaq Value: urn:xdaq-soap:3.0,
|Debug:FSM:otsdaq/otsdaq/FiniteStateMachine/RunControlStateMachine.cc [155]	FSM-FESupervisor:HistoMakerFESupervisor	<> Defaulting iteration index to 0.
|Debug:FSM:otsdaq/otsdaq/FiniteStateMachine/RunControlStateMachine.cc [165]	FSM-FESupervisor:HistoMakerFESupervisor	<> Defaulting subIterationIndex_ index to 0.
|Debug:FSM:otsdaq/otsdaq/FiniteStateMachine/RunControlStateMachine.cc [201]	FSM-FESupervisor:HistoMakerFESupervisor	<> Starting state for FESupervisor:HistoMakerFESupervisor is Halted and attempting to Configure
|Debug:FSM:otsdaq/otsdaq/FiniteStateMachine/RunControlStateMachine.cc [299]	FSM-FESupervisor:HistoMakerFESupervisor	<> command = Configure
|Debug:FSM:otsdaq/otsdaq/FiniteStateMachine/RunControlStateMachine.cc [300]	FSM-FESupervisor:HistoMakerFESupervisor	<> currentState = Halted
|Debug:FSM:otsdaq/otsdaq/FiniteStateMachine/FiniteStateMachine.cc [114]	FSM-FESupervisor:HistoMakerFESupervisor	<> transition = Configure
|Debug:FESupervisor.cc:otsdaq/otsdaq/CoreSupervisors/FESupervisor.cc [861]	FESupervisor:HistoMakerFESupervisor	<> transitionConfiguring
|Debug:FESupervisor.cc:otsdaq/otsdaq/CoreSupervisors/FESupervisor.cc [871]	FESupervisor:HistoMakerFESupervisor	<> Configuration table group name: DefaultConfig key: 0
|Debug:ConfigurationManager:otsdaq/otsdaq/ConfigurationInterface/ConfigurationManager.cc [1346]	doNotLoadMembers = 0
|Debug:ConfigurationManager:otsdaq/otsdaq/ConfigurationInterface/ConfigurationManager.cc [1347]	group 'DefaultConfig(0)' := DQMHistoMakerConsumerTable: 0, DataBufferTable: 0, DataManagerSupervisorTable: 0, DataProcessorTable: 0, FEHistoMakerInterfaceTable: 0, FEInterfaceTable: 0, FEMiddlewareInterfaceTable: 0, FESlowControlsTable: 0, FESupervisorTable: 0, OTDQMHistosConsumerTable: 0, RawDataSaverConsumerTable: 0, TCPDataListenerProducerTable: 0, UDPDataListenerProducerTable: 0
|Debug:ConfigurationManager:otsdaq/otsdaq/ConfigurationInterface/ConfigurationManager.cc [1365]	------------------------------------- init start    	 [for all plug-ins in Configuration group 'DefaultConfig(0)']
|Debug:FESlowControlsTable_table.cc:otsdaq/otsdaq/TablePlugins/FESlowControlsTable_table.cc [25]	isFirstAppInContext = 0
|Debug:ConfigurationManager:otsdaq/otsdaq/ConfigurationInterface/ConfigurationManager.cc [1531]	------------------------------------- init complete 	 [for all plug-ins in Configuration group 'DefaultConfig(0)']
|Debug:FESupervisor.cc:otsdaq/otsdaq/CoreSupervisors/FESupervisor.cc [882]	CorePropertySupervisorBase::getSupervisorConfigurationPath() = /TestContext/LinkToApplicationTable/HistoMakerFESupervisor/LinkToSupervisorTable
|Debug:FESupervisor.cc:otsdaq/otsdaq/CoreSupervisors/FESupervisor.cc [916]	FESupervisor:HistoMakerFESupervisor	<> Metric Manager disabled.
|Debug:CoreSupervisorBase.cc:otsdaq/otsdaq/CoreSupervisors/CoreSupervisorBase.cc [522]	FESupervisor:HistoMakerFESupervisor	<> Configuring all state machine implementations...
|Debug:CoreSupervisorBase.cc:otsdaq/otsdaq/CoreSupervisors/CoreSupervisorBase.cc [446]	FESupervisor:HistoMakerFESupervisor	<> theStateMachineImplementation Iteration 0.0
|Debug:FEVInterfacesManager.cc:otsdaq/otsdaq/FECore/FEVInterfacesManager.cc [167]	HistoMakerFESupervisor0	<> Configuring FEVInterfacesManager 
|Debug:FEVInterfacesManager.cc:otsdaq/otsdaq/FECore/FEVInterfacesManager.cc [53]	HistoMakerFESupervisor0	<> Path: /TestContext/LinkToApplicationTable/HistoMakerFESupervisor/LinkToSupervisorTable/LinkToFEInterfaceTable
|Debug:FEVInterfacesManager.cc:otsdaq/otsdaq/FECore/FEVInterfacesManager.cc [59]	HistoMakerFESupervisor0	<> appNode.getValueAsString() = HistoMakerFESupervisor
|Debug:FEVInterfacesManager.cc:otsdaq/otsdaq/FECore/FEVInterfacesManager.cc [62]	HistoMakerFESupervisor0	<> StringMacros::vectorToString(fes) = HistoMakerFEInterface0
|Debug:FEVInterfacesManager.cc:otsdaq/otsdaq/FECore/FEVInterfacesManager.cc [71]	HistoMakerFESupervisor0	<> StringMacros::vectorToString(theFENamesByPriority_) = HistoMakerFEInterface0
|Debug:FEVInterfacesManager.cc:otsdaq/otsdaq/FECore/FEVInterfacesManager.cc [85]	HistoMakerFESupervisor0	<> Interface Plugin Name: FEHistoMakerInterface
|Debug:FEVInterfacesManager.cc:otsdaq/otsdaq/FECore/FEVInterfacesManager.cc [86]	HistoMakerFESupervisor0	<> Interface Name: HistoMakerFEInterface0
|Debug:FEVInterfacesManager.cc:otsdaq/otsdaq/FECore/FEVInterfacesManager.cc [87]	HistoMakerFESupervisor0	<> XDAQContext Node: XDAQContextTable
|Debug:FEVInterfacesManager.cc:otsdaq/otsdaq/FECore/FEVInterfacesManager.cc [88]	HistoMakerFESupervisor0	<> Path to configuration: /TestContext/LinkToApplicationTable/HistoMakerFESupervisor/LinkToSupervisorTable/LinkToFEInterfaceTable/HistoMakerFEInterface0/LinkToFETypeTable
|Debug:Workloop:otsdaq/otsdaq/WorkLoopManager/WorkLoop.cc [25]	Workloop-HistoMakerFEInterface0	<>Constructed.
|Debug:Configurable.cc:otsdaq/otsdaq/Configurable/Configurable.cc [16]	HistoMakerFEInterface0	<>  Configurable class constructed. 
|Debug:Workloop:otsdaq/otsdaq/WorkLoopManager/WorkLoop.cc [25]	Workloop-HistoMakerFEInterface0-SlowControls	<>Constructed.
|Debug:FEVInterface.cc:FEVInterface.cc [29]	HistoMakerFEInterface0	<> Constructed.
void ots::TCPServerBase::startAccept()Begin startAccept
void ots::TCPServerBase::startAccept()Done startAccept
ots::FEHistoMakerInterface::FEHistoMakerInterface(const string&, const ots::ConfigurationTree&, const string&)ConstructorDone!!!
|Debug:FEVInterfacesManager.cc:otsdaq/otsdaq/FECore/FEVInterfacesManager.cc [129]	HistoMakerFESupervisor0	<> Done creating interfaces
int ots::TCPServerBase::accept(bool)Now server accept connections on socket: 8
|Debug:FEVInterfacesManager.cc:otsdaq/otsdaq/FECore/FEVInterfacesManager.cc [2045]	HistoMakerFESupervisor0	<> Number of front ends to transition: 1
|Debug:FEVInterfacesManager.cc:otsdaq/otsdaq/FECore/FEVInterfacesManager.cc [190]	HistoMakerFESupervisor0	<> Configuring interface HistoMakerFEInterface0
|Debug:FEVInterfacesManager.cc:otsdaq/otsdaq/FECore/FEVInterfacesManager.cc [191]	HistoMakerFESupervisor0	<> Configuring interface HistoMakerFEInterface0
|Debug:FEVInterfacesManager.cc:otsdaq/otsdaq/FECore/FEVInterfacesManager.cc [192]	HistoMakerFESupervisor0	<> Configuring interface HistoMakerFEInterface0
|Debug:FEVInterfacesManager.cc:otsdaq/otsdaq/FECore/FEVInterfacesManager.cc [2082]	HistoMakerFESupervisor0	<> theStateMachineImplementation Iteration 0.0
virtual void ots::FEHistoMakerInterface::configure()ConfigureDone!
|Debug:FEVInterface.cc:FEVInterface.cc [52]	HistoMakerFEInterface0	<> Metric manager could not be started! metricMan: 0x2355c00 Initialized()= 0
|Debug:FEVInterface.cc:FEVInterface.cc [74]	FE:FEHistoMakerInterface:HistoMakerFEInterface0:HistoMakerFEInterface0	<> slowControlsGroupLink is disconnected, so done configuring slow controls.
|Debug:Workloop:otsdaq/otsdaq/WorkLoopManager/WorkLoop.cc [40]	Workloop-HistoMakerFEInterface0-SlowControls	<>Starting WorkLoop: HistoMakerFEInterface0-SlowControls
|Debug:FEVInterfacesManager.cc:otsdaq/otsdaq/FECore/FEVInterfacesManager.cc [203]	HistoMakerFESupervisor0	<> Done Configuring interface HistoMakerFEInterface0
|Debug:FEVInterfacesManager.cc:otsdaq/otsdaq/FECore/FEVInterfacesManager.cc [204]	HistoMakerFESupervisor0	<> Done Configuring interface HistoMakerFEInterface0
|Debug:FEVInterfacesManager.cc:otsdaq/otsdaq/FECore/FEVInterfacesManager.cc [205]	HistoMakerFESupervisor0	<> Done Configuring interface HistoMakerFEInterface0
|Debug:FEVInterfacesManager.cc:otsdaq/otsdaq/FECore/FEVInterfacesManager.cc [2143]	HistoMakerFESupervisor0	<> Done transitioning all state machine implementations...
|Debug:FEVInterfacesManager.cc:otsdaq/otsdaq/FECore/FEVInterfacesManager.cc [209]	HistoMakerFESupervisor0	<> Done Configuring all interfaces.
|Debug:CoreSupervisorBase.cc:otsdaq/otsdaq/CoreSupervisors/CoreSupervisorBase.cc [489]	FESupervisor:HistoMakerFESupervisor	<> Done configuration all state machine implementations...
|Debug:FESupervisor.cc:otsdaq/otsdaq/CoreSupervisors/FESupervisor.cc [951]	FESupervisor:HistoMakerFESupervisor	<> transitionConfiguring done.
|Debug:CoreSupervisorBase.cc:otsdaq/otsdaq/CoreSupervisors/CoreSupervisorBase.cc [380]	FESupervisor:HistoMakerFESupervisor	<> CoreSupervisorBase::stateConfigured
|Debug:FEVInterface.cc:FEVInterface.cc [148]	FE:FEHistoMakerInterface:HistoMakerFEInterface0:HistoMakerFEInterface0	<> slowControlsRunning
|Debug:FEVInterface.cc:FEVInterface.cc [152]	FE:FEHistoMakerInterface:HistoMakerFEInterface0:HistoMakerFEInterface0	<> No slow controls channels to monitor, exiting slow controls workloop.
|Debug:FSM:otsdaq/otsdaq/FiniteStateMachine/RunControlStateMachine.cc [409]	FSM-FESupervisor:HistoMakerFESupervisor	<> Ending state for FESupervisor:HistoMakerFESupervisor is Configured
|Debug:FSM:otsdaq/otsdaq/FiniteStateMachine/RunControlStateMachine.cc [410]	FSM-FESupervisor:HistoMakerFESupervisor	<> result = ConfigureDone
110] int ots::TCPServerBase::accept(bool)fAccept? 1
int ots::TCPServerBase::accept(bool)Server just accepted a connection on socket: 8 Client socket: 9
int ots::TCPServerBase::accept(bool)Now server accept connections on socket: 8
|Debug:FSM:otsdaq/otsdaq/FiniteStateMachine/RunControlStateMachine.cc [144]	FSM-FESupervisor:HistoMakerFESupervisor	<> Received... 	Command: Start Par 0 Name: RunNumber Value: 432, Par 0 Name: commandId Value: 8, Par 0 Name: xmlns:xdaq Value: urn:xdaq-soap:3.0,
|Debug:FSM:otsdaq/otsdaq/FiniteStateMachine/RunControlStateMachine.cc [155]	FSM-FESupervisor:HistoMakerFESupervisor	<> Defaulting iteration index to 0.
|Debug:FSM:otsdaq/otsdaq/FiniteStateMachine/RunControlStateMachine.cc [165]	FSM-FESupervisor:HistoMakerFESupervisor	<> Defaulting subIterationIndex_ index to 0.
|Debug:FSM:otsdaq/otsdaq/FiniteStateMachine/RunControlStateMachine.cc [201]	FSM-FESupervisor:HistoMakerFESupervisor	<> Starting state for FESupervisor:HistoMakerFESupervisor is Configured and attempting to Start
|Debug:FSM:otsdaq/otsdaq/FiniteStateMachine/RunControlStateMachine.cc [299]	FSM-FESupervisor:HistoMakerFESupervisor	<> command = Start
|Debug:FSM:otsdaq/otsdaq/FiniteStateMachine/RunControlStateMachine.cc [300]	FSM-FESupervisor:HistoMakerFESupervisor	<> currentState = Configured
|Debug:FSM:otsdaq/otsdaq/FiniteStateMachine/FiniteStateMachine.cc [114]	FSM-FESupervisor:HistoMakerFESupervisor	<> transition = Start
|Debug:CoreSupervisorBase.cc:otsdaq/otsdaq/CoreSupervisors/CoreSupervisorBase.cc [767]	FESupervisor:HistoMakerFESupervisor	<> Configuring all state machine implementations...
|Debug:CoreSupervisorBase.cc:otsdaq/otsdaq/CoreSupervisors/CoreSupervisorBase.cc [446]	FESupervisor:HistoMakerFESupervisor	<> theStateMachineImplementation Iteration 0.0
|Debug:FEVInterfacesManager.cc:otsdaq/otsdaq/FECore/FEVInterfacesManager.cc [2045]	HistoMakerFESupervisor0	<> Number of front ends to transition: 1
|Debug:FEVInterfacesManager.cc:otsdaq/otsdaq/FECore/FEVInterfacesManager.cc [382]	HistoMakerFESupervisor0	<> Starting interface HistoMakerFEInterface0
|Debug:FEVInterfacesManager.cc:otsdaq/otsdaq/FECore/FEVInterfacesManager.cc [383]	HistoMakerFESupervisor0	<> Starting interface HistoMakerFEInterface0
|Debug:FEVInterfacesManager.cc:otsdaq/otsdaq/FECore/FEVInterfacesManager.cc [384]	HistoMakerFESupervisor0	<> Starting interface HistoMakerFEInterface0
|Debug:FEVInterfacesManager.cc:otsdaq/otsdaq/FECore/FEVInterfacesManager.cc [2082]	HistoMakerFESupervisor0	<> theStateMachineImplementation Iteration 0.0
|Debug:Workloop:otsdaq/otsdaq/WorkLoopManager/WorkLoop.cc [40]	Workloop-HistoMakerFEInterface0	<>Starting WorkLoop: HistoMakerFEInterface0
|Debug:FEVInterfacesManager.cc:otsdaq/otsdaq/FECore/FEVInterfacesManager.cc [392]	HistoMakerFESupervisor0	<> Done Starting interface HistoMakerFEInterface0
|Debug:FEVInterfacesManager.cc:otsdaq/otsdaq/FECore/FEVInterfacesManager.cc [393]	HistoMakerFESupervisor0	<> Done Starting interface HistoMakerFEInterface0
|Debug:FEVInterfacesManager.cc:otsdaq/otsdaq/FECore/FEVInterfacesManager.cc [394]	HistoMakerFESupervisor0	<> Done Starting interface HistoMakerFEInterface0
|Debug:FEVInterfacesManager.cc:otsdaq/otsdaq/FECore/FEVInterfacesManager.cc [2143]	HistoMakerFESupervisor0	<> Done transitioning all state machine implementations...
|Debug:FEVInterfacesManager.cc:otsdaq/otsdaq/FECore/FEVInterfacesManager.cc [398]	HistoMakerFESupervisor0	<> Done Starting all interfaces.
|Debug:CoreSupervisorBase.cc:otsdaq/otsdaq/CoreSupervisors/CoreSupervisorBase.cc [489]	FESupervisor:HistoMakerFESupervisor	<> Done configuration all state machine implementations...
|Debug:CoreSupervisorBase.cc:otsdaq/otsdaq/CoreSupervisors/CoreSupervisorBase.cc [377]	FESupervisor:HistoMakerFESupervisor	<> CoreSupervisorBase::stateRunning
|Debug:FSM:otsdaq/otsdaq/FiniteStateMachine/RunControlStateMachine.cc [409]	FSM-FESupervisor:HistoMakerFESupervisor	<> Ending state for FESupervisor:HistoMakerFESupervisor is Running
|Debug:FSM:otsdaq/otsdaq/FiniteStateMachine/RunControlStateMachine.cc [410]	FSM-FESupervisor:HistoMakerFESupervisor	<> result = StartDone
|Debug:FSM:otsdaq/otsdaq/FiniteStateMachine/RunControlStateMachine.cc [144]	FSM-FESupervisor:HistoMakerFESupervisor	<> Received... 	Command: Stop Par 0 Name: commandId Value: 11, Par 0 Name: xmlns:xdaq Value: urn:xdaq-soap:3.0,
|Debug:FSM:otsdaq/otsdaq/FiniteStateMachine/RunControlStateMachine.cc [155]	FSM-FESupervisor:HistoMakerFESupervisor	<> Defaulting iteration index to 0.
|Debug:FSM:otsdaq/otsdaq/FiniteStateMachine/RunControlStateMachine.cc [165]	FSM-FESupervisor:HistoMakerFESupervisor	<> Defaulting subIterationIndex_ index to 0.
|Debug:FSM:otsdaq/otsdaq/FiniteStateMachine/RunControlStateMachine.cc [201]	FSM-FESupervisor:HistoMakerFESupervisor	<> Starting state for FESupervisor:HistoMakerFESupervisor is Running and attempting to Stop
|Debug:FSM:otsdaq/otsdaq/FiniteStateMachine/RunControlStateMachine.cc [299]	FSM-FESupervisor:HistoMakerFESupervisor	<> command = Stop
|Debug:FSM:otsdaq/otsdaq/FiniteStateMachine/RunControlStateMachine.cc [300]	FSM-FESupervisor:HistoMakerFESupervisor	<> currentState = Running
|Debug:FSM:otsdaq/otsdaq/FiniteStateMachine/FiniteStateMachine.cc [114]	FSM-FESupervisor:HistoMakerFESupervisor	<> transition = Stop
|Debug:CoreSupervisorBase.cc:otsdaq/otsdaq/CoreSupervisors/CoreSupervisorBase.cc [819]	FESupervisor:HistoMakerFESupervisor	<> Configuring all state machine implementations...
|Debug:CoreSupervisorBase.cc:otsdaq/otsdaq/CoreSupervisors/CoreSupervisorBase.cc [446]	FESupervisor:HistoMakerFESupervisor	<> theStateMachineImplementation Iteration 0.0
|Debug:FEVInterfacesManager.cc:otsdaq/otsdaq/FECore/FEVInterfacesManager.cc [2045]	HistoMakerFESupervisor0	<> Number of front ends to transition: 1
|Debug:FEVInterfacesManager.cc:otsdaq/otsdaq/FECore/FEVInterfacesManager.cc [422]	HistoMakerFESupervisor0	<> Starting interface HistoMakerFEInterface0
|Debug:FEVInterfacesManager.cc:otsdaq/otsdaq/FECore/FEVInterfacesManager.cc [423]	HistoMakerFESupervisor0	<> Starting interface HistoMakerFEInterface0
|Debug:FEVInterfacesManager.cc:otsdaq/otsdaq/FECore/FEVInterfacesManager.cc [424]	HistoMakerFESupervisor0	<> Starting interface HistoMakerFEInterface0
|Debug:FEVInterfacesManager.cc:otsdaq/otsdaq/FECore/FEVInterfacesManager.cc [2082]	HistoMakerFESupervisor0	<> theStateMachineImplementation Iteration 0.0
|Debug:Workloop:otsdaq/otsdaq/WorkLoopManager/WorkLoop.cc [81]	Workloop-HistoMakerFEInterface0	<>Stopping WorkLoop: HistoMakerFEInterface0
|Debug:Workloop:otsdaq/otsdaq/WorkLoopManager/WorkLoop.cc [90]	Workloop-HistoMakerFEInterface0	<>initially workLoop_->isActive() yes
|Debug:Workloop:otsdaq/otsdaq/WorkLoopManager/WorkLoop.cc [116]	Workloop-HistoMakerFEInterface0	<>WARNING: Can't remove request WorkLoop: HistoMakerFEInterface0
|Debug:Workloop:otsdaq/otsdaq/WorkLoopManager/WorkLoop.cc [117]	Workloop-HistoMakerFEInterface0	<>workLoop_->isActive() no
|Debug:Workloop:otsdaq/otsdaq/WorkLoopManager/WorkLoop.cc [120]	Workloop-HistoMakerFEInterface0	<>Stopped WorkLoop: HistoMakerFEInterface0
|Debug:Workloop:otsdaq/otsdaq/WorkLoopManager/WorkLoop.cc [121]	Workloop-HistoMakerFEInterface0	<>workLoop_->isActive() no
|Debug:FEVInterfacesManager.cc:otsdaq/otsdaq/FECore/FEVInterfacesManager.cc [431]	HistoMakerFESupervisor0	<> Done Starting interface HistoMakerFEInterface0
|Debug:FEVInterfacesManager.cc:otsdaq/otsdaq/FECore/FEVInterfacesManager.cc [432]	HistoMakerFESupervisor0	<> Done Starting interface HistoMakerFEInterface0
|Debug:FEVInterfacesManager.cc:otsdaq/otsdaq/FECore/FEVInterfacesManager.cc [433]	HistoMakerFESupervisor0	<> Done Starting interface HistoMakerFEInterface0
|Debug:FEVInterfacesManager.cc:otsdaq/otsdaq/FECore/FEVInterfacesManager.cc [2143]	HistoMakerFESupervisor0	<> Done transitioning all state machine implementations...
|Debug:FEVInterfacesManager.cc:otsdaq/otsdaq/FECore/FEVInterfacesManager.cc [437]	HistoMakerFESupervisor0	<> Done Starting all interfaces.
|Debug:CoreSupervisorBase.cc:otsdaq/otsdaq/CoreSupervisors/CoreSupervisorBase.cc [489]	FESupervisor:HistoMakerFESupervisor	<> Done configuration all state machine implementations...
|Debug:CoreSupervisorBase.cc:otsdaq/otsdaq/CoreSupervisors/CoreSupervisorBase.cc [380]	FESupervisor:HistoMakerFESupervisor	<> CoreSupervisorBase::stateConfigured
|Debug:FSM:otsdaq/otsdaq/FiniteStateMachine/RunControlStateMachine.cc [409]	FSM-FESupervisor:HistoMakerFESupervisor	<> Ending state for FESupervisor:HistoMakerFESupervisor is Configured
|Debug:FSM:otsdaq/otsdaq/FiniteStateMachine/RunControlStateMachine.cc [410]	FSM-FESupervisor:HistoMakerFESupervisor	<> result = StopDone
Terminating...
|Debug:MetricManager:MetricManager.cc [188]	MetricManager is shutting down...
|Debug:MetricManager:MetricManager.cc [154]	Stopping Metrics
|Debug:MetricManager:MetricManager.cc [157]	Joining Metric-Sending thread
|Debug:MetricManager:MetricManager.cc [170]	do_stop Complete
