{
"document" : {
"data" : {
"NAME" : "FE_SUPERVISOR_TABLE",
"COMMENT" : "Front-end Supervisor records.",
"AUTHOR" : "admin",
"CREATION_TIME" : 1574284214,
"COL_TYPES" : {
"SUPERVISOR_UID" : "STRING",
"LINK_TO_FE_INTERFACE_TABLE" : "STRING",
"LINK_TO_FE_INTERFACE_GROUP_ID" : "STRING",
"COMMENT_DESCRIPTION" : "STRING",
"AUTHOR" : "STRING",
"RECORD_INSERTION_TIME" : "TIMESTAMP WITH TIMEZONE"
},
"DATA_SET" : [
{
"SUPERVISOR_UID" : "OuterTrackerFESupervisor0",
"LINK_TO_FE_INTERFACE_TABLE" : "FEInterfaceTable",
"LINK_TO_FE_INTERFACE_GROUP_ID" : "OuterTrackerFESupervisor0",
"COMMENT_DESCRIPTION" : "No Comment",
"AUTHOR" : "admin",
"RECORD_INSERTION_TIME" : "1550767758"
},
{
"SUPERVISOR_UID" : "HistoMakerFESupervisor0",
"LINK_TO_FE_INTERFACE_TABLE" : "FEInterfaceTable",
"LINK_TO_FE_INTERFACE_GROUP_ID" : "HistoMakerFESupervisor0",
"COMMENT_DESCRIPTION" : "No Comment",
"AUTHOR" : "admin",
"RECORD_INSERTION_TIME" : "1574284213"
}
]
},
"metadata" : {

},
"search" : [

]
},
"comments" : [

],
"origin" : {
"source" : "template",
"name" : "notprovided",
"format" : "json",
"created" : "2020-07-21T14:27:46.452-0500",
"rawdata" : [

]
},
"version" : "1",
"entities" : [
{
"name" : "OTSROOT",
"assigned" : "2020-07-21T14:27:46.452-0500"
}
],
"configurations" : [
{
"name" : "notprovided",
"assigned" : "2020-07-21T14:27:46.452-0500"
},
{
"name" : "DefaultConfig_v1",
"assigned" : "2020-07-21T14:27:46.953-0500"
},
{
"name" : "DefaultConfig_v2",
"assigned" : "2020-07-21T14:44:16.650-0500"
},
{
"name" : "DefaultConfig_v3",
"assigned" : "2020-07-21T14:57:50.524-0500"
},
{
"name" : "DefaultConfig_v4",
"assigned" : "2020-07-28T10:52:34.413-0500"
}
],
"changelog" : "notprovided",
"bookkeeping" : {
"isdeleted" : false,
"isreadonly" : false,
"updates" : [
{
"event" : "addConfiguration",
"timestamp" : "2020-07-21T14:27:46.452-0500",
"value" : {
"name" : "notprovided",
"assigned" : "2020-07-21T14:27:46.452-0500"
}
},
{
"event" : "setVersion",
"timestamp" : "2020-07-21T14:27:46.452-0500",
"value" : {
"name" : "1",
"assigned" : "2020-07-21T14:27:46.452-0500"
}
},
{
"event" : "setCollection",
"timestamp" : "2020-07-21T14:27:46.452-0500",
"value" : {
"name" : "FESupervisorTable",
"assigned" : "2020-07-21T14:27:46.452-0500"
}
},
{
"event" : "addEntity",
"timestamp" : "2020-07-21T14:27:46.452-0500",
"value" : {
"name" : "OTSROOT",
"assigned" : "2020-07-21T14:27:46.452-0500"
}
},
{
"event" : "addConfiguration",
"timestamp" : "2020-07-21T14:27:46.953-0500",
"value" : {
"name" : "DefaultConfig_v1",
"assigned" : "2020-07-21T14:27:46.953-0500"
}
},
{
"event" : "addConfiguration",
"timestamp" : "2020-07-21T14:44:16.650-0500",
"value" : {
"name" : "DefaultConfig_v2",
"assigned" : "2020-07-21T14:44:16.650-0500"
}
},
{
"event" : "addConfiguration",
"timestamp" : "2020-07-21T14:57:50.524-0500",
"value" : {
"name" : "DefaultConfig_v3",
"assigned" : "2020-07-21T14:57:50.524-0500"
}
},
{
"event" : "addConfiguration",
"timestamp" : "2020-07-28T10:52:34.413-0500",
"value" : {
"name" : "DefaultConfig_v4",
"assigned" : "2020-07-28T10:52:34.413-0500"
}
}
],
"created" : "2020-07-21T14:27:46.452-0500"
},
"_id" : {
"$oid" : "204fb63e8a8d4b408d2e5040"
},
"collection" : "FESupervisorTable",
"aliases" : {
"active" : [

],
"history" : [

]
},
"runs" : [

],
"attachments" : [

],
"configtype" : "notprovided"
}