{
"document" : {
"data" : {
"NAME" : "DQM_HISTO_MAKER_CONSUMER_TABLE",
"COMMENT" : "No comment.",
"AUTHOR" : "admin",
"CREATION_TIME" : 1574284759,
"COL_TYPES" : {
"PROCESSOR_UID" : "STRING",
"FILE_PATH" : "STRING",
"RADIX_FILE_NAME" : "STRING",
"SAVE_FILE" : "STRING",
"COMMENT_DESCRIPTION" : "STRING",
"AUTHOR" : "STRING",
"RECORD_INSERTION_TIME" : "TIMESTAMP WITH TIMEZONE"
},
"DATA_SET" : [
{
"PROCESSOR_UID" : "DQMHistoMakerHistos",
"FILE_PATH" : "${OTSDAQ_DATA}/OtsHistos",
"RADIX_FILE_NAME" : "HistoMaker",
"SAVE_FILE" : "Yes",
"COMMENT_DESCRIPTION" : "No Comment",
"AUTHOR" : "admin",
"RECORD_INSERTION_TIME" : "1574284759"
}
]
},
"metadata" : {

},
"search" : [

]
},
"comments" : [

],
"origin" : {
"source" : "template",
"name" : "notprovided",
"format" : "json",
"created" : "2019-11-20T15:19:19.992-0600",
"rawdata" : [

]
},
"version" : "0",
"entities" : [
{
"name" : "OTSROOT",
"assigned" : "2019-11-20T15:19:19.992-0600"
}
],
"configurations" : [
{
"name" : "notprovided",
"assigned" : "2019-11-20T15:19:19.992-0600"
}
],
"changelog" : "notprovided",
"bookkeeping" : {
"isdeleted" : false,
"isreadonly" : false,
"updates" : [
{
"event" : "addConfiguration",
"timestamp" : "2019-11-20T15:19:19.992-0600",
"value" : {
"name" : "notprovided",
"assigned" : "2019-11-20T15:19:19.992-0600"
}
},
{
"event" : "setVersion",
"timestamp" : "2019-11-20T15:19:19.992-0600",
"value" : {
"name" : "0",
"assigned" : "2019-11-20T15:19:19.992-0600"
}
},
{
"event" : "setCollection",
"timestamp" : "2019-11-20T15:19:19.992-0600",
"value" : {
"name" : "DQMHistoMakerConsumerTable",
"assigned" : "2019-11-20T15:19:19.992-0600"
}
},
{
"event" : "addEntity",
"timestamp" : "2019-11-20T15:19:19.992-0600",
"value" : {
"name" : "OTSROOT",
"assigned" : "2019-11-20T15:19:19.992-0600"
}
}
],
"created" : "2019-11-20T15:19:19.992-0600"
},
"_id" : {
"$oid" : "2390039c1bac4c018d5a8c13"
},
"collection" : "DQMHistoMakerConsumerTable",
"aliases" : {
"active" : [

],
"history" : [

]
},
"runs" : [

],
"attachments" : [

],
"configtype" : "notprovided"
}