{
"ouid" : [
"2390039c1bac4c018d5a8c13",
"7cf4e79be7004aba9ffca989",
"8f0c7bed19b44fa0be375c73"
],
"version" : {
"0" : [
"2390039c1bac4c018d5a8c13"
],
"1" : [
"8f0c7bed19b44fa0be375c73"
],
"2" : [
"7cf4e79be7004aba9ffca989"
]
},
"configurations.name" : {
"notprovided" : [
"2390039c1bac4c018d5a8c13",
"7cf4e79be7004aba9ffca989",
"8f0c7bed19b44fa0be375c73"
],
"DefaultConfig_v10" : [
"8f0c7bed19b44fa0be375c73"
],
"DefaultConfig_v11" : [
"8f0c7bed19b44fa0be375c73"
],
"DefaultConfig_v12" : [
"8f0c7bed19b44fa0be375c73"
],
"DefaultConfig_v13" : [
"8f0c7bed19b44fa0be375c73"
],
"DefaultConfig_v14" : [
"8f0c7bed19b44fa0be375c73"
],
"DefaultConfig_v15" : [
"8f0c7bed19b44fa0be375c73"
],
"DefaultConfig_v16" : [
"8f0c7bed19b44fa0be375c73"
],
"DefaultConfig_v17" : [
"8f0c7bed19b44fa0be375c73"
],
"DefaultConfig_v18" : [
"8f0c7bed19b44fa0be375c73"
],
"DefaultConfig_v19" : [
"8f0c7bed19b44fa0be375c73"
],
"DefaultConfig_v20" : [
"8f0c7bed19b44fa0be375c73"
],
"DefaultConfig_v21" : [
"8f0c7bed19b44fa0be375c73"
],
"DefaultConfig_v22" : [
"8f0c7bed19b44fa0be375c73"
],
"DefaultConfig_v23" : [
"8f0c7bed19b44fa0be375c73"
],
"DefaultConfig_v24" : [
"8f0c7bed19b44fa0be375c73"
],
"DefaultConfig_v25" : [
"8f0c7bed19b44fa0be375c73"
],
"DefaultConfig_v26" : [
"8f0c7bed19b44fa0be375c73"
],
"DefaultConfig_v27" : [
"8f0c7bed19b44fa0be375c73"
],
"DefaultConfig_v28" : [
"8f0c7bed19b44fa0be375c73"
],
"DefaultConfig_v29" : [
"8f0c7bed19b44fa0be375c73"
],
"DefaultConfig_v30" : [
"8f0c7bed19b44fa0be375c73"
],
"DefaultConfig_v31" : [
"8f0c7bed19b44fa0be375c73"
],
"DefaultConfig_v32" : [
"8f0c7bed19b44fa0be375c73"
],
"DefaultConfig_v33" : [
"8f0c7bed19b44fa0be375c73"
],
"DefaultConfig_v34" : [
"8f0c7bed19b44fa0be375c73"
],
"DefaultConfig_v35" : [
"7cf4e79be7004aba9ffca989"
],
"DefaultConfig_v36" : [
"7cf4e79be7004aba9ffca989"
],
"DefaultConfig_v37" : [
"7cf4e79be7004aba9ffca989"
]
},
"entities.name" : {
"OTSROOT" : [
"2390039c1bac4c018d5a8c13",
"7cf4e79be7004aba9ffca989",
"8f0c7bed19b44fa0be375c73"
]
},
"aliases.active.name" : {

},
"runs.name" : {

},
"configurations.assigned" : {
"notprovided" : [
"2019-11-20T15:19:19.992-0600",
"2019-11-20T15:22:04.489-0600",
"2021-05-12T16:10:08.009-0500"
],
"DefaultConfig_v10" : [
"2019-11-20T15:25:38.286-0600"
],
"DefaultConfig_v11" : [
"2019-11-20T15:28:12.296-0600"
],
"DefaultConfig_v12" : [
"2019-11-20T15:58:29.560-0600"
],
"DefaultConfig_v13" : [
"2019-11-20T16:23:03.301-0600"
],
"DefaultConfig_v14" : [
"2019-11-20T16:24:45.432-0600"
],
"DefaultConfig_v15" : [
"2019-11-20T16:27:46.241-0600"
],
"DefaultConfig_v16" : [
"2019-11-20T16:42:10.773-0600"
],
"DefaultConfig_v17" : [
"2019-12-09T19:33:37.378-0600"
],
"DefaultConfig_v18" : [
"2019-12-10T14:21:49.331-0600"
],
"DefaultConfig_v19" : [
"2021-04-29T11:28:51.571-0500"
],
"DefaultConfig_v20" : [
"2021-04-29T11:36:29.580-0500"
],
"DefaultConfig_v21" : [
"2021-04-29T11:56:49.931-0500"
],
"DefaultConfig_v22" : [
"2021-04-29T12:03:11.597-0500"
],
"DefaultConfig_v23" : [
"2021-04-29T12:06:21.422-0500"
],
"DefaultConfig_v24" : [
"2021-04-29T13:06:39.051-0500"
],
"DefaultConfig_v25" : [
"2021-04-30T09:33:56.887-0500"
],
"DefaultConfig_v26" : [
"2021-04-30T09:34:32.444-0500"
],
"DefaultConfig_v27" : [
"2021-04-30T09:36:19.188-0500"
],
"DefaultConfig_v28" : [
"2021-04-30T11:59:05.764-0500"
],
"DefaultConfig_v29" : [
"2021-04-30T12:10:52.326-0500"
],
"DefaultConfig_v30" : [
"2021-04-30T12:11:38.587-0500"
],
"DefaultConfig_v31" : [
"2021-05-06T17:42:15.136-0500"
],
"DefaultConfig_v32" : [
"2021-05-10T10:42:46.904-0500"
],
"DefaultConfig_v33" : [
"2021-05-10T11:08:52.672-0500"
],
"DefaultConfig_v34" : [
"2021-05-12T15:51:22.757-0500"
],
"DefaultConfig_v35" : [
"2021-05-12T16:11:00.942-0500"
],
"DefaultConfig_v36" : [
"2021-05-14T15:34:24.331-0500"
],
"DefaultConfig_v37" : [
"2021-05-14T16:41:00.961-0500"
]
}
}