{
"document" : {
"data" : {
"NAME" : "TABLE_GROUP_METADATA",
"COMMENT" : "",
"AUTHOR" : "",
"CREATION_TIME" : 1550763300,
"COL_TYPES" : {
"UNUSED_UID" : "NUMBER",
"GROUP_ALIASES" : "STRING",
"COMMENT_DESCRIPTION" : "STRING",
"AUTHOR" : "STRING",
"GROUP_CREATION_TIME" : "TIMESTAMP WITH TIMEZONE"
},
"DATA_SET" : [
{
"UNUSED_UID" : "0",
"GROUP_ALIASES" : "",
"COMMENT_DESCRIPTION" : "No%20comment.",
"AUTHOR" : "admin",
"GROUP_CREATION_TIME" : "1595960857"
}
]
},
"metadata" : {

},
"search" : [

]
},
"comments" : [

],
"origin" : {
"source" : "template",
"name" : "notprovided",
"format" : "json",
"created" : "2020-09-08T15:08:32.629-0500",
"rawdata" : [

]
},
"version" : "3",
"entities" : [
{
"name" : "OTSROOT",
"assigned" : "2020-09-08T15:08:32.630-0500"
}
],
"configurations" : [
{
"name" : "notprovided",
"assigned" : "2020-09-08T15:08:32.629-0500"
},
{
"name" : "iterateDefaultGroup_v3",
"assigned" : "2020-09-08T15:08:33.118-0500"
}
],
"changelog" : "notprovided",
"bookkeeping" : {
"isdeleted" : false,
"isreadonly" : false,
"updates" : [
{
"event" : "addConfiguration",
"timestamp" : "2020-09-08T15:08:32.629-0500",
"value" : {
"name" : "notprovided",
"assigned" : "2020-09-08T15:08:32.629-0500"
}
},
{
"event" : "setVersion",
"timestamp" : "2020-09-08T15:08:32.629-0500",
"value" : {
"name" : "3",
"assigned" : "2020-09-08T15:08:32.630-0500"
}
},
{
"event" : "setCollection",
"timestamp" : "2020-09-08T15:08:32.630-0500",
"value" : {
"name" : "TableGroupMetadata",
"assigned" : "2020-09-08T15:08:32.630-0500"
}
},
{
"event" : "addEntity",
"timestamp" : "2020-09-08T15:08:32.630-0500",
"value" : {
"name" : "OTSROOT",
"assigned" : "2020-09-08T15:08:32.630-0500"
}
},
{
"event" : "addConfiguration",
"timestamp" : "2020-09-08T15:08:33.118-0500",
"value" : {
"name" : "iterateDefaultGroup_v3",
"assigned" : "2020-09-08T15:08:33.118-0500"
}
}
],
"created" : "2020-09-08T15:08:32.629-0500"
},
"_id" : {
"$oid" : "71840baee5b94ad6bd389893"
},
"collection" : "TableGroupMetadata",
"aliases" : {
"active" : [

],
"history" : [

]
},
"runs" : [

],
"attachments" : [

],
"configtype" : "notprovided"
}