{
"ouid" : [
"2390039c1bac4c018d5a8c13",
"8f0c7bed19b44fa0be375c73"
],
"version" : {
"0" : [
"2390039c1bac4c018d5a8c13"
],
"1" : [
"8f0c7bed19b44fa0be375c73"
]
},
"configurations.name" : {
"notprovided" : [
"2390039c1bac4c018d5a8c13",
"8f0c7bed19b44fa0be375c73"
],
"DefaultConfig_v10" : [
"8f0c7bed19b44fa0be375c73"
],
"DefaultConfig_v11" : [
"8f0c7bed19b44fa0be375c73"
],
"DefaultConfig_v12" : [
"8f0c7bed19b44fa0be375c73"
],
"DefaultConfig_v13" : [
"8f0c7bed19b44fa0be375c73"
],
"DefaultConfig_v14" : [
"8f0c7bed19b44fa0be375c73"
],
"DefaultConfig_v15" : [
"8f0c7bed19b44fa0be375c73"
],
"DefaultConfig_v16" : [
"8f0c7bed19b44fa0be375c73"
],
"DefaultConfig_v17" : [
"8f0c7bed19b44fa0be375c73"
],
"DefaultConfig_v18" : [
"8f0c7bed19b44fa0be375c73"
]
},
"entities.name" : {
"OTSROOT" : [
"2390039c1bac4c018d5a8c13",
"8f0c7bed19b44fa0be375c73"
]
},
"aliases.active.name" : {

},
"runs.name" : {

},
"configurations.assigned" : {
"notprovided" : [
"2019-11-20T15:19:19.992-0600",
"2019-11-20T15:22:04.489-0600"
],
"DefaultConfig_v10" : [
"2019-11-20T15:25:38.286-0600"
],
"DefaultConfig_v11" : [
"2019-11-20T15:28:12.296-0600"
],
"DefaultConfig_v12" : [
"2019-11-20T15:58:29.560-0600"
],
"DefaultConfig_v13" : [
"2019-11-20T16:23:03.301-0600"
],
"DefaultConfig_v14" : [
"2019-11-20T16:24:45.432-0600"
],
"DefaultConfig_v15" : [
"2019-11-20T16:27:46.241-0600"
],
"DefaultConfig_v16" : [
"2019-11-20T16:42:10.773-0600"
],
"DefaultConfig_v17" : [
"2019-12-09T19:33:37.378-0600"
],
"DefaultConfig_v18" : [
"2019-12-10T14:21:49.331-0600"
]
}
}