{
"ouid" : [
"f8e640822ee8494d9a3e92dd"
],
"version" : {
"1" : [
"f8e640822ee8494d9a3e92dd"
]
},
"configurations.name" : {
"notprovided" : [
"f8e640822ee8494d9a3e92dd"
],
"DefaultConfig_v1" : [
"f8e640822ee8494d9a3e92dd"
],
"DefaultConfig_v2" : [
"f8e640822ee8494d9a3e92dd"
],
"DefaultConfig_v3" : [
"f8e640822ee8494d9a3e92dd"
],
"DefaultConfig_v4" : [
"f8e640822ee8494d9a3e92dd"
],
"DefaultConfig_v5" : [
"f8e640822ee8494d9a3e92dd"
],
"DefaultConfig_v6" : [
"f8e640822ee8494d9a3e92dd"
],
"DefaultConfig_v7" : [
"f8e640822ee8494d9a3e92dd"
],
"DefaultConfig_v8" : [
"f8e640822ee8494d9a3e92dd"
],
"DefaultConfig_v9" : [
"f8e640822ee8494d9a3e92dd"
],
"DefaultConfig_v10" : [
"f8e640822ee8494d9a3e92dd"
],
"DefaultConfig_v11" : [
"f8e640822ee8494d9a3e92dd"
],
"DefaultConfig_v12" : [
"f8e640822ee8494d9a3e92dd"
],
"DefaultConfig_v13" : [
"f8e640822ee8494d9a3e92dd"
],
"DefaultConfig_v14" : [
"f8e640822ee8494d9a3e92dd"
],
"DefaultConfig_v15" : [
"f8e640822ee8494d9a3e92dd"
],
"DefaultConfig_v16" : [
"f8e640822ee8494d9a3e92dd"
],
"DefaultConfig_v17" : [
"f8e640822ee8494d9a3e92dd"
],
"DefaultConfig_v18" : [
"f8e640822ee8494d9a3e92dd"
]
},
"entities.name" : {
"OTSROOT" : [
"f8e640822ee8494d9a3e92dd"
]
},
"aliases.active.name" : {

},
"runs.name" : {

},
"configurations.assigned" : {
"notprovided" : [
"2019-02-22T16:11:42.648-0600"
],
"DefaultConfig_v1" : [
"2019-02-22T16:11:42.950-0600"
],
"DefaultConfig_v2" : [
"2019-07-22T11:27:30.194-0500"
],
"DefaultConfig_v3" : [
"2019-07-22T14:43:10.041-0500"
],
"DefaultConfig_v4" : [
"2019-07-22T14:47:01.208-0500"
],
"DefaultConfig_v5" : [
"2019-07-22T15:05:41.279-0500"
],
"DefaultConfig_v6" : [
"2019-07-23T09:00:31.750-0500"
],
"DefaultConfig_v7" : [
"2019-07-23T09:04:43.459-0500"
],
"DefaultConfig_v8" : [
"2019-07-23T09:48:11.548-0500"
],
"DefaultConfig_v9" : [
"2019-08-07T11:00:29.134-0500"
],
"DefaultConfig_v10" : [
"2019-11-20T15:25:38.320-0600"
],
"DefaultConfig_v11" : [
"2019-11-20T15:28:12.332-0600"
],
"DefaultConfig_v12" : [
"2019-11-20T15:58:29.603-0600"
],
"DefaultConfig_v13" : [
"2019-11-20T16:23:03.334-0600"
],
"DefaultConfig_v14" : [
"2019-11-20T16:24:45.473-0600"
],
"DefaultConfig_v15" : [
"2019-11-20T16:27:46.288-0600"
],
"DefaultConfig_v16" : [
"2019-11-20T16:42:10.825-0600"
],
"DefaultConfig_v17" : [
"2019-12-09T19:33:37.413-0600"
],
"DefaultConfig_v18" : [
"2019-12-10T14:21:49.710-0600"
]
}
}