{
"document" : {
"data" : {
"NAME" : "FE_INTERFACE_TABLE",
"COMMENT" : "FE interfaces top level.",
"AUTHOR" : "admin",
"CREATION_TIME" : 1563812695,
"COL_TYPES" : {
"FE_INTERFACE_GROUP_ID" : "VARCHAR2",
"FE_INTERFACE_UID" : "VARCHAR2",
"STATUS" : "VARCHAR2",
"FE_INTERFACE_PLUGIN_NAME" : "VARCHAR2",
"LINK_TO_FE_TYPE_TABLE" : "VARCHAR2",
"LINK_TO_FE_TYPE_UID" : "VARCHAR2",
"LINK_TO_SLOW_CONTROLS_CHANNEL_TABLE" : "VARCHAR2",
"LINK_TO_SLOW_CONTROLS_CHANNEL_GROUP_ID" : "VARCHAR2",
"LINK_TO_SLOW_CONTROLS_SUPERVISOR_TABLE" : "VARCHAR2",
"LINK_TO_SLOW_CONTROLS_SUPERVISOR_UID" : "VARCHAR2",
"SLOW_CONTROLS_TX_SOCKET_IP_ADDRESS" : "VARCHAR2",
"SLOW_CONTROLS_TX_SOCKET_PORT" : "NUMBER",
"SLOW_CONTROLS_LOCAL_AGGREGATE_SAVING_ENABLED" : "VARCHAR2",
"SLOW_CONTROLS_LOCAL_FILE_PATH" : "VARCHAR2",
"SLOW_CONTROLS_RADIX_FILE_NAME" : "VARCHAR2",
"SLOW_CONTROLS_SAVE_BINARY_FILE" : "VARCHAR2",
"COMMENT_DESCRIPTION" : "VARCHAR2",
"AUTHOR" : "VARCHAR2",
"RECORD_INSERTION_TIME" : "TIMESTAMP WITH TIMEZONE"
},
"DATA_SET" : [
{
"FE_INTERFACE_GROUP_ID" : "OuterTrackerFESupervisor0",
"FE_INTERFACE_UID" : "OuterTrackerFEInterface0",
"STATUS" : "On",
"FE_INTERFACE_PLUGIN_NAME" : "FEMiddlewareInterface",
"LINK_TO_FE_TYPE_TABLE" : "FEMiddlewareInterfaceTable",
"LINK_TO_FE_TYPE_UID" : "OuterTrackerFEInterface0",
"LINK_TO_SLOW_CONTROLS_CHANNEL_TABLE" : "NO_LINK",
"LINK_TO_SLOW_CONTROLS_CHANNEL_GROUP_ID" : "DEFAULT",
"LINK_TO_SLOW_CONTROLS_SUPERVISOR_TABLE" : "NO_LINK",
"LINK_TO_SLOW_CONTROLS_SUPERVISOR_UID" : "DEFAULT",
"SLOW_CONTROLS_TX_SOCKET_IP_ADDRESS" : "DEFAULT",
"SLOW_CONTROLS_TX_SOCKET_PORT" : "0",
"SLOW_CONTROLS_LOCAL_AGGREGATE_SAVING_ENABLED" : "No",
"SLOW_CONTROLS_LOCAL_FILE_PATH" : "DEFAULT",
"SLOW_CONTROLS_RADIX_FILE_NAME" : "DEFAULT",
"SLOW_CONTROLS_SAVE_BINARY_FILE" : "False",
"COMMENT_DESCRIPTION" : "No Comment",
"AUTHOR" : "admin",
"RECORD_INSERTION_TIME" : "1563812695"
}
]
},
"metadata" : {

},
"search" : [

]
},
"comments" : [

],
"origin" : {
"source" : "template",
"name" : "notprovided",
"format" : "json",
"created" : "2019-07-22T11:24:55.404-0500",
"rawdata" : [

]
},
"version" : "2",
"entities" : [
{
"name" : "OTSROOT",
"assigned" : "2019-07-22T11:24:55.405-0500"
}
],
"configurations" : [
{
"name" : "notprovided",
"assigned" : "2019-07-22T11:24:55.404-0500"
},
{
"name" : "DefaultConfig_v2",
"assigned" : "2019-07-22T11:27:30.289-0500"
},
{
"name" : "DefaultConfig_v3",
"assigned" : "2019-07-22T14:43:10.155-0500"
},
{
"name" : "DefaultConfig_v4",
"assigned" : "2019-07-22T14:47:01.321-0500"
},
{
"name" : "DefaultConfig_v5",
"assigned" : "2019-07-22T15:05:41.390-0500"
},
{
"name" : "DefaultConfig_v6",
"assigned" : "2019-07-23T09:00:31.869-0500"
},
{
"name" : "DefaultConfig_v7",
"assigned" : "2019-07-23T09:04:43.577-0500"
},
{
"name" : "DefaultConfig_v8",
"assigned" : "2019-07-23T09:48:11.681-0500"
},
{
"name" : "DefaultConfig_v9",
"assigned" : "2019-08-07T11:00:29.277-0500"
}
],
"changelog" : "notprovided",
"bookkeeping" : {
"isdeleted" : false,
"isreadonly" : false,
"updates" : [
{
"event" : "addConfiguration",
"timestamp" : "2019-07-22T11:24:55.404-0500",
"value" : {
"name" : "notprovided",
"assigned" : "2019-07-22T11:24:55.404-0500"
}
},
{
"event" : "setVersion",
"timestamp" : "2019-07-22T11:24:55.405-0500",
"value" : {
"name" : "2",
"assigned" : "2019-07-22T11:24:55.405-0500"
}
},
{
"event" : "setCollection",
"timestamp" : "2019-07-22T11:24:55.405-0500",
"value" : {
"name" : "FEInterfaceTable",
"assigned" : "2019-07-22T11:24:55.405-0500"
}
},
{
"event" : "addEntity",
"timestamp" : "2019-07-22T11:24:55.405-0500",
"value" : {
"name" : "OTSROOT",
"assigned" : "2019-07-22T11:24:55.405-0500"
}
},
{
"event" : "addConfiguration",
"timestamp" : "2019-07-22T11:27:30.289-0500",
"value" : {
"name" : "DefaultConfig_v2",
"assigned" : "2019-07-22T11:27:30.289-0500"
}
},
{
"event" : "addConfiguration",
"timestamp" : "2019-07-22T14:43:10.155-0500",
"value" : {
"name" : "DefaultConfig_v3",
"assigned" : "2019-07-22T14:43:10.155-0500"
}
},
{
"event" : "addConfiguration",
"timestamp" : "2019-07-22T14:47:01.321-0500",
"value" : {
"name" : "DefaultConfig_v4",
"assigned" : "2019-07-22T14:47:01.321-0500"
}
},
{
"event" : "addConfiguration",
"timestamp" : "2019-07-22T15:05:41.390-0500",
"value" : {
"name" : "DefaultConfig_v5",
"assigned" : "2019-07-22T15:05:41.390-0500"
}
},
{
"event" : "addConfiguration",
"timestamp" : "2019-07-23T09:00:31.869-0500",
"value" : {
"name" : "DefaultConfig_v6",
"assigned" : "2019-07-23T09:00:31.869-0500"
}
},
{
"event" : "addConfiguration",
"timestamp" : "2019-07-23T09:04:43.577-0500",
"value" : {
"name" : "DefaultConfig_v7",
"assigned" : "2019-07-23T09:04:43.577-0500"
}
},
{
"event" : "addConfiguration",
"timestamp" : "2019-07-23T09:48:11.681-0500",
"value" : {
"name" : "DefaultConfig_v8",
"assigned" : "2019-07-23T09:48:11.681-0500"
}
},
{
"event" : "addConfiguration",
"timestamp" : "2019-08-07T11:00:29.277-0500",
"value" : {
"name" : "DefaultConfig_v9",
"assigned" : "2019-08-07T11:00:29.277-0500"
}
}
],
"created" : "2019-07-22T11:24:55.404-0500"
},
"_id" : {
"$oid" : "16e8b6d4fcbd43bfbce696ca"
},
"collection" : "FEInterfaceTable",
"aliases" : {
"active" : [

],
"history" : [

]
},
"runs" : [

],
"attachments" : [

],
"configtype" : "notprovided"
}