{
"ouid" : [
"2f5a77df2d7e489b87e71b63",
"ae1f0422e7d8431db2abe46c"
],
"version" : {
"5" : [
"ae1f0422e7d8431db2abe46c"
],
"6" : [
"2f5a77df2d7e489b87e71b63"
]
},
"configurations.name" : {
"notprovided" : [
"2f5a77df2d7e489b87e71b63",
"ae1f0422e7d8431db2abe46c"
],
"TableEditWizBackone_v5" : [
"ae1f0422e7d8431db2abe46c"
],
"TableEditWizBackone_v6" : [
"2f5a77df2d7e489b87e71b63"
]
},
"entities.name" : {
"OTSROOT" : [
"2f5a77df2d7e489b87e71b63",
"ae1f0422e7d8431db2abe46c"
]
},
"aliases.active.name" : {

},
"runs.name" : {

}
}