{
"document" : {
"data" : {
"NAME" : "ARTDAQ_BUILDER_SERVICES_CONFIGURATION",
"COMMENT" : "No comment.",
"AUTHOR" : "admin",
"CREATION_TIME" : 1510774604,
"COL_TYPES" : {
"SERVICES_UID" : "VARCHAR2",
"SCHEDULER_FILE_MODE" : "VARCHAR2",
"SCHEDULER_ERROR_ON_FAILTURE_TO_PUT" : "VARCHAR2",
"NET_MON_TRASPORT_SERVICE_INTERFACE_SERVICE_PROVIDER" : "VARCHAR2",
"NET_MON_TRASPORT_SERVICE_INTERFACE_DESTINATIONS_LINK" : "VARCHAR2",
"NET_MON_TRASPORT_SERVICE_INTERFACE_DESTINATIONS_LINK_GROUP_ID" : "VARCHAR2",
"COMMENT_DESCRIPTION" : "VARCHAR2",
"AUTHOR" : "VARCHAR2",
"RECORD_INSERTION_TIME" : "TIMESTAMP WITH TIMEZONE"
},
"DATA_SET" : [
{
"SERVICES_UID" : "builder0services0",
"SCHEDULER_FILE_MODE" : "NOMERGE",
"SCHEDULER_ERROR_ON_FAILTURE_TO_PUT" : "False",
"NET_MON_TRASPORT_SERVICE_INTERFACE_SERVICE_PROVIDER" : "NetMonTransportService",
"NET_MON_TRASPORT_SERVICE_INTERFACE_DESTINATIONS_LINK" : "ARTDAQBuilderServicesDestinationConfiguration",
"NET_MON_TRASPORT_SERVICE_INTERFACE_DESTINATIONS_LINK_GROUP_ID" : "builder0services0Destinations",
"COMMENT_DESCRIPTION" : "No Comment",
"AUTHOR" : "DEFAULT",
"RECORD_INSERTION_TIME" : "0"
},
{
"SERVICES_UID" : "builderStripsOnly0services0",
"SCHEDULER_FILE_MODE" : "NOMERGE",
"SCHEDULER_ERROR_ON_FAILTURE_TO_PUT" : "False",
"NET_MON_TRASPORT_SERVICE_INTERFACE_SERVICE_PROVIDER" : "NetMonTransportService",
"NET_MON_TRASPORT_SERVICE_INTERFACE_DESTINATIONS_LINK" : "ARTDAQBuilderServicesDestinationConfiguration",
"NET_MON_TRASPORT_SERVICE_INTERFACE_DESTINATIONS_LINK_GROUP_ID" : "builderStripsOnly0services0Destinations",
"COMMENT_DESCRIPTION" : "No Comment",
"AUTHOR" : "admin",
"RECORD_INSERTION_TIME" : "1510774604"
}
]
},
"metadata" : {

},
"search" : [

]
},
"comments" : [

],
"origin" : {
"source" : "template",
"name" : "notprovided",
"format" : "json",
"created" : "2017-11-15T13:36:44.477-0600",
"rawdata" : [

]
},
"version" : "1",
"entities" : [
{
"name" : "OTSROOT",
"assigned" : "2017-11-15T13:36:44.479-0600"
}
],
"configurations" : [
{
"name" : "notprovided",
"assigned" : "2017-11-15T13:36:44.478-0600"
},
{
"name" : "FTBFConfig_v16",
"assigned" : "2017-11-15T13:36:50.050-0600"
},
{
"name" : "FTBFConfig_v17",
"assigned" : "2017-11-15T15:33:28.594-0600"
},
{
"name" : "FTBFConfig_v18",
"assigned" : "2017-11-15T15:35:32.166-0600"
},
{
"name" : "FTBFConfig_v19",
"assigned" : "2017-11-15T15:38:01.020-0600"
},
{
"name" : "FTBFConfig_v20",
"assigned" : "2017-11-15T16:26:28.658-0600"
},
{
"name" : "FTBFConfig_v21",
"assigned" : "2017-11-16T09:22:29.817-0600"
},
{
"name" : "FTBFConfig_v22",
"assigned" : "2017-11-17T10:23:26.001-0600"
},
{
"name" : "FTBFConfig_v23",
"assigned" : "2017-11-17T17:26:43.512-0600"
},
{
"name" : "FTBFConfig_v24",
"assigned" : "2017-11-17T17:58:23.947-0600"
},
{
"name" : "FTBFConfig_v25",
"assigned" : "2017-11-17T18:24:43.636-0600"
},
{
"name" : "FTBFConfig_v26",
"assigned" : "2017-11-17T18:32:20.452-0600"
},
{
"name" : "FTBFConfig_v27",
"assigned" : "2017-11-17T18:43:27.571-0600"
},
{
"name" : "FTBFConfig_v28",
"assigned" : "2017-11-17T18:48:29.583-0600"
},
{
"name" : "FTBFConfig_v29",
"assigned" : "2017-11-20T14:48:28.856-0600"
},
{
"name" : "FTBFConfig_v30",
"assigned" : "2017-11-20T15:39:54.098-0600"
},
{
"name" : "FTBFConfig_v31",
"assigned" : "2017-11-20T16:41:00.075-0600"
},
{
"name" : "FTBFConfig_v32",
"assigned" : "2017-11-20T18:55:32.880-0600"
},
{
"name" : "FTBFConfig_v33",
"assigned" : "2017-11-20T18:57:28.167-0600"
},
{
"name" : "FTBFConfig_v34",
"assigned" : "2017-11-29T17:50:37.644-0600"
},
{
"name" : "FTBFConfig_v35",
"assigned" : "2017-11-29T18:00:30.513-0600"
},
{
"name" : "FTBFConfig_v36",
"assigned" : "2017-11-29T18:35:09.376-0600"
},
{
"name" : "FTBFConfig_v37",
"assigned" : "2017-12-01T09:36:15.561-0600"
},
{
"name" : "FTBFConfig_v38",
"assigned" : "2017-12-01T09:51:58.915-0600"
},
{
"name" : "FTBFConfig_v39",
"assigned" : "2017-12-01T11:51:56.146-0600"
},
{
"name" : "FTBFConfig_v40",
"assigned" : "2017-12-01T12:18:18.118-0600"
},
{
"name" : "FTBFConfig_v41",
"assigned" : "2017-12-01T12:21:00.238-0600"
},
{
"name" : "FTBFConfig_v42",
"assigned" : "2017-12-01T12:43:19.355-0600"
},
{
"name" : "FTBFConfig_v43",
"assigned" : "2017-12-01T12:57:56.518-0600"
},
{
"name" : "FTBFConfig_v44",
"assigned" : "2017-12-01T13:00:49.134-0600"
},
{
"name" : "FTBFConfig_v45",
"assigned" : "2017-12-01T13:25:46.210-0600"
},
{
"name" : "FTBFConfig_v46",
"assigned" : "2017-12-01T13:35:41.030-0600"
},
{
"name" : "FTBFConfig_v47",
"assigned" : "2017-12-01T14:00:49.491-0600"
},
{
"name" : "FTBFConfig_v48",
"assigned" : "2017-12-01T14:03:56.730-0600"
},
{
"name" : "FTBFConfig_v49",
"assigned" : "2017-12-01T15:31:56.933-0600"
},
{
"name" : "FTBFConfig_v51",
"assigned" : "2017-12-01T15:36:48.340-0600"
},
{
"name" : "FTBFConfig_v52",
"assigned" : "2017-12-01T15:37:27.761-0600"
},
{
"name" : "FTBFConfig_v53",
"assigned" : "2017-12-01T15:40:56.448-0600"
},
{
"name" : "FTBFConfig_v54",
"assigned" : "2017-12-01T15:52:46.767-0600"
},
{
"name" : "FTBFConfig_v55",
"assigned" : "2017-12-01T15:54:31.895-0600"
},
{
"name" : "FTBFConfig_v56",
"assigned" : "2017-12-01T15:55:31.416-0600"
},
{
"name" : "FTBFConfig_v57",
"assigned" : "2017-12-01T15:56:37.212-0600"
},
{
"name" : "FTBFConfig_v58",
"assigned" : "2017-12-01T15:57:35.284-0600"
},
{
"name" : "FTBFConfig_v59",
"assigned" : "2017-12-01T15:58:27.176-0600"
},
{
"name" : "FTBFConfig_v60",
"assigned" : "2017-12-01T15:59:28.363-0600"
},
{
"name" : "FTBFConfig_v61",
"assigned" : "2017-12-01T16:19:38.073-0600"
},
{
"name" : "FTBFConfig_v62",
"assigned" : "2017-12-01T16:22:00.626-0600"
},
{
"name" : "FTBFConfig_v63",
"assigned" : "2017-12-01T16:31:21.232-0600"
},
{
"name" : "FTBFConfig_v64",
"assigned" : "2017-12-01T17:06:28.051-0600"
},
{
"name" : "FTBFConfig_v65",
"assigned" : "2017-12-01T17:32:40.425-0600"
},
{
"name" : "FTBFConfig_v66",
"assigned" : "2017-12-01T20:38:46.841-0600"
},
{
"name" : "FTBFConfig_v67",
"assigned" : "2017-12-01T21:24:58.309-0600"
},
{
"name" : "FTBFConfig_v68",
"assigned" : "2017-12-01T21:42:57.962-0600"
},
{
"name" : "FTBFConfig_v69",
"assigned" : "2017-12-01T21:44:56.576-0600"
},
{
"name" : "FTBFConfig_v70",
"assigned" : "2017-12-01T21:59:15.798-0600"
},
{
"name" : "FTBFConfigNim_v0",
"assigned" : "2017-12-01T22:00:02.496-0600"
},
{
"name" : "FTBFConfigNim_v1",
"assigned" : "2017-12-01T22:13:04.222-0600"
},
{
"name" : "FTBFConfigNim_v2",
"assigned" : "2017-12-01T22:15:51.430-0600"
},
{
"name" : "FTBFConfigNim_v3",
"assigned" : "2017-12-01T22:16:59.464-0600"
},
{
"name" : "FTBFConfigNim_v4",
"assigned" : "2017-12-01T22:19:02.500-0600"
},
{
"name" : "FTBFConfigNim_v5",
"assigned" : "2017-12-01T22:21:53.203-0600"
},
{
"name" : "FTBFConfigNim_v6",
"assigned" : "2017-12-01T22:23:09.355-0600"
},
{
"name" : "FTBFConfigNim_v7",
"assigned" : "2017-12-01T22:25:13.132-0600"
},
{
"name" : "FTBFConfigNim_v8",
"assigned" : "2017-12-01T22:27:00.660-0600"
},
{
"name" : "FTBFConfigNim_v9",
"assigned" : "2017-12-01T22:29:24.947-0600"
},
{
"name" : "FTBFConfigNim_v10",
"assigned" : "2017-12-01T22:52:30.040-0600"
},
{
"name" : "FTBFConfigNim_v11",
"assigned" : "2017-12-01T22:57:24.752-0600"
},
{
"name" : "FTBFConfigNim_v12",
"assigned" : "2017-12-01T23:00:03.091-0600"
},
{
"name" : "FTBFConfigNim_v13",
"assigned" : "2017-12-01T23:52:31.201-0600"
},
{
"name" : "FTBFConfigNim_v14",
"assigned" : "2017-12-01T23:58:05.594-0600"
},
{
"name" : "FTBFConfigNim_v15",
"assigned" : "2017-12-02T00:00:29.874-0600"
},
{
"name" : "FTBFConfigNim_v16",
"assigned" : "2017-12-02T00:13:04.957-0600"
},
{
"name" : "FTBFConfigNim_v17",
"assigned" : "2017-12-02T00:28:23.956-0600"
},
{
"name" : "FTBFConfigNim_v18",
"assigned" : "2017-12-02T00:29:29.993-0600"
},
{
"name" : "FTBFConfigNim_v19",
"assigned" : "2017-12-02T00:31:06.601-0600"
},
{
"name" : "FTBFConfigNim_v20",
"assigned" : "2017-12-02T00:57:22.969-0600"
},
{
"name" : "FTBFConfigNim_v21",
"assigned" : "2017-12-02T10:57:57.514-0600"
},
{
"name" : "FTBFConfigNim_v22",
"assigned" : "2017-12-02T11:08:13.678-0600"
},
{
"name" : "FTBFConfigNim_v23",
"assigned" : "2017-12-02T11:12:35.234-0600"
},
{
"name" : "FTBFConfigNim_v24",
"assigned" : "2017-12-02T11:18:38.050-0600"
},
{
"name" : "FTBFConfigNim_v25",
"assigned" : "2017-12-02T11:27:01.280-0600"
},
{
"name" : "FTBFConfigNim_v26",
"assigned" : "2017-12-02T11:38:32.316-0600"
},
{
"name" : "FTBFConfigNim_v27",
"assigned" : "2017-12-02T11:49:03.430-0600"
},
{
"name" : "FTBFConfigNim_v28",
"assigned" : "2017-12-02T11:55:04.896-0600"
},
{
"name" : "FTBFConfigNim_v29",
"assigned" : "2017-12-02T12:06:21.711-0600"
},
{
"name" : "FTBFConfig_v71",
"assigned" : "2017-12-02T12:24:10.347-0600"
},
{
"name" : "FTBFConfig_v72",
"assigned" : "2017-12-02T12:43:31.126-0600"
},
{
"name" : "FTBFConfig_v73",
"assigned" : "2017-12-02T13:55:30.704-0600"
},
{
"name" : "FTBFConfig_v74",
"assigned" : "2017-12-02T14:09:02.987-0600"
},
{
"name" : "FTBFConfig_v75",
"assigned" : "2017-12-02T14:12:13.832-0600"
},
{
"name" : "FTBFConfig_v76",
"assigned" : "2017-12-02T19:05:48.949-0600"
},
{
"name" : "FTBFConfig_v77",
"assigned" : "2017-12-02T19:12:08.746-0600"
},
{
"name" : "FTBFConfig_v78",
"assigned" : "2017-12-03T14:03:43.942-0600"
},
{
"name" : "FTBFConfig_v79",
"assigned" : "2017-12-03T14:09:02.103-0600"
},
{
"name" : "FTBFConfig_v80",
"assigned" : "2017-12-03T14:11:05.857-0600"
},
{
"name" : "FTBFConfig_v81",
"assigned" : "2017-12-03T14:22:28.897-0600"
},
{
"name" : "FTBFConfig_v82",
"assigned" : "2017-12-03T14:40:33.657-0600"
},
{
"name" : "FTBFConfig_v83",
"assigned" : "2017-12-03T14:45:00.944-0600"
},
{
"name" : "FTBFConfig_v84",
"assigned" : "2017-12-04T14:51:26.403-0600"
},
{
"name" : "FTBFConfig_v85",
"assigned" : "2017-12-04T14:55:39.548-0600"
},
{
"name" : "FTBFConfig_v86",
"assigned" : "2017-12-04T16:51:02.499-0600"
},
{
"name" : "FTBFConfig_v87",
"assigned" : "2017-12-04T16:56:43.126-0600"
},
{
"name" : "FTBFConfig_v88",
"assigned" : "2017-12-04T17:01:07.826-0600"
},
{
"name" : "FTBFConfig_v89",
"assigned" : "2017-12-04T17:03:52.914-0600"
},
{
"name" : "FTBFConfig_v90",
"assigned" : "2017-12-04T17:07:12.530-0600"
},
{
"name" : "FTBFConfig_v91",
"assigned" : "2017-12-04T17:09:21.646-0600"
},
{
"name" : "FTBFConfig_v92",
"assigned" : "2017-12-04T17:11:34.101-0600"
},
{
"name" : "FTBFConfig_v93",
"assigned" : "2017-12-04T21:05:16.714-0600"
},
{
"name" : "FTBFConfig_v94",
"assigned" : "2017-12-04T21:17:07.563-0600"
},
{
"name" : "FTBFConfig_v95",
"assigned" : "2017-12-04T21:41:13.296-0600"
},
{
"name" : "FTBFConfig_v96",
"assigned" : "2017-12-04T22:38:57.900-0600"
},
{
"name" : "FTBFConfig_v97",
"assigned" : "2017-12-04T23:01:08.414-0600"
},
{
"name" : "FTBFConfig_v98",
"assigned" : "2017-12-07T11:07:42.430-0600"
},
{
"name" : "FTBFConfig_v99",
"assigned" : "2017-12-07T11:49:55.108-0600"
},
{
"name" : "FTBFConfig_v100",
"assigned" : "2017-12-07T11:58:21.822-0600"
},
{
"name" : "FTBFConfig_v101",
"assigned" : "2017-12-08T13:30:43.896-0600"
},
{
"name" : "FTBFConfig_v102",
"assigned" : "2017-12-08T13:32:30.789-0600"
},
{
"name" : "FTBFConfig_v103",
"assigned" : "2017-12-12T11:03:00.556-0600"
},
{
"name" : "FTBFConfig_v104",
"assigned" : "2017-12-12T13:50:54.827-0600"
},
{
"name" : "FTBFConfig_v105",
"assigned" : "2017-12-12T15:25:00.814-0600"
},
{
"name" : "FTBFConfig_v106",
"assigned" : "2017-12-13T10:24:19.299-0600"
},
{
"name" : "FTBFConfig_v107",
"assigned" : "2017-12-13T10:26:58.060-0600"
},
{
"name" : "FTBFConfig_v108",
"assigned" : "2018-02-01T21:14:21.349-0600"
},
{
"name" : "FTBFConfig_v109",
"assigned" : "2018-02-01T21:20:58.440-0600"
},
{
"name" : "FTBFConfig_v110",
"assigned" : "2018-02-02T11:25:29.380-0600"
},
{
"name" : "FTBFConfig_v111",
"assigned" : "2018-02-02T11:37:08.210-0600"
},
{
"name" : "FTBFConfig_v112",
"assigned" : "2018-02-02T11:47:10.658-0600"
},
{
"name" : "FTBFConfig_v113",
"assigned" : "2018-02-02T11:53:31.904-0600"
},
{
"name" : "FTBFConfig_v114",
"assigned" : "2018-02-02T12:00:47.960-0600"
},
{
"name" : "FTBFConfig_v115",
"assigned" : "2018-02-02T12:27:09.459-0600"
},
{
"name" : "FTBFConfig_v116",
"assigned" : "2018-02-02T14:28:48.974-0600"
},
{
"name" : "FTBFConfig_v117",
"assigned" : "2018-02-02T14:30:15.293-0600"
},
{
"name" : "FTBFConfig_v118",
"assigned" : "2018-02-02T14:33:56.489-0600"
},
{
"name" : "FTBFConfig_v119",
"assigned" : "2018-02-02T14:36:23.074-0600"
},
{
"name" : "FTBFConfig_v120",
"assigned" : "2018-02-02T14:38:36.457-0600"
},
{
"name" : "FTBFConfig_v121",
"assigned" : "2018-02-02T14:41:45.769-0600"
},
{
"name" : "FTBFConfig_v122",
"assigned" : "2018-02-02T14:50:19.754-0600"
},
{
"name" : "FTBFConfig_v123",
"assigned" : "2018-02-02T14:52:52.624-0600"
},
{
"name" : "FTBFConfig_v124",
"assigned" : "2018-02-02T14:59:45.942-0600"
},
{
"name" : "FTBFConfig_v125",
"assigned" : "2018-02-02T15:04:04.025-0600"
},
{
"name" : "FTBFConfig_v126",
"assigned" : "2018-02-02T15:50:07.234-0600"
},
{
"name" : "FTBFConfig_v127",
"assigned" : "2018-02-02T15:51:26.699-0600"
},
{
"name" : "FTBFConfig_v128",
"assigned" : "2018-02-02T15:52:31.863-0600"
},
{
"name" : "FTBFConfig_v129",
"assigned" : "2018-02-02T16:02:40.731-0600"
},
{
"name" : "FTBFConfig_v130",
"assigned" : "2018-02-02T16:08:40.245-0600"
},
{
"name" : "FTBFConfig_v131",
"assigned" : "2018-02-02T16:11:26.029-0600"
},
{
"name" : "FTBFConfig_v132",
"assigned" : "2018-02-02T16:12:53.878-0600"
},
{
"name" : "FTBFConfig_v133",
"assigned" : "2018-02-02T16:14:24.440-0600"
},
{
"name" : "FTBFConfig_v134",
"assigned" : "2018-02-02T16:26:17.355-0600"
},
{
"name" : "FTBFConfig_v135",
"assigned" : "2018-02-02T16:27:04.466-0600"
},
{
"name" : "FTBFConfig_v136",
"assigned" : "2018-02-02T16:29:25.773-0600"
},
{
"name" : "FTBFConfig_v137",
"assigned" : "2018-02-02T16:31:36.276-0600"
},
{
"name" : "FTBFConfig_v138",
"assigned" : "2018-02-02T16:34:09.006-0600"
},
{
"name" : "FTBFConfig_v139",
"assigned" : "2018-02-02T17:39:25.032-0600"
},
{
"name" : "FTBFConfig_v140",
"assigned" : "2018-02-02T17:42:47.197-0600"
},
{
"name" : "FTBFConfig_v141",
"assigned" : "2018-02-02T17:47:32.359-0600"
},
{
"name" : "FTBFConfig_v142",
"assigned" : "2018-02-02T17:53:56.335-0600"
}
],
"changelog" : "notprovided",
"bookkeeping" : {
"isdeleted" : false,
"isreadonly" : false,
"updates" : [
{
"event" : "addConfiguration",
"timestamp" : "2017-11-15T13:36:44.478-0600",
"value" : {
"name" : "notprovided",
"assigned" : "2017-11-15T13:36:44.478-0600"
}
},
{
"event" : "setVersion",
"timestamp" : "2017-11-15T13:36:44.478-0600",
"value" : {
"name" : "1",
"assigned" : "2017-11-15T13:36:44.478-0600"
}
},
{
"event" : "setCollection",
"timestamp" : "2017-11-15T13:36:44.478-0600",
"value" : {
"name" : "ARTDAQBuilderServicesConfiguration",
"assigned" : "2017-11-15T13:36:44.478-0600"
}
},
{
"event" : "addEntity",
"timestamp" : "2017-11-15T13:36:44.479-0600",
"value" : {
"name" : "OTSROOT",
"assigned" : "2017-11-15T13:36:44.479-0600"
}
},
{
"event" : "addConfiguration",
"timestamp" : "2017-11-15T13:36:50.050-0600",
"value" : {
"name" : "FTBFConfig_v16",
"assigned" : "2017-11-15T13:36:50.050-0600"
}
},
{
"event" : "addConfiguration",
"timestamp" : "2017-11-15T15:33:28.594-0600",
"value" : {
"name" : "FTBFConfig_v17",
"assigned" : "2017-11-15T15:33:28.594-0600"
}
},
{
"event" : "addConfiguration",
"timestamp" : "2017-11-15T15:35:32.166-0600",
"value" : {
"name" : "FTBFConfig_v18",
"assigned" : "2017-11-15T15:35:32.166-0600"
}
},
{
"event" : "addConfiguration",
"timestamp" : "2017-11-15T15:38:01.021-0600",
"value" : {
"name" : "FTBFConfig_v19",
"assigned" : "2017-11-15T15:38:01.020-0600"
}
},
{
"event" : "addConfiguration",
"timestamp" : "2017-11-15T16:26:28.658-0600",
"value" : {
"name" : "FTBFConfig_v20",
"assigned" : "2017-11-15T16:26:28.658-0600"
}
},
{
"event" : "addConfiguration",
"timestamp" : "2017-11-16T09:22:29.817-0600",
"value" : {
"name" : "FTBFConfig_v21",
"assigned" : "2017-11-16T09:22:29.817-0600"
}
},
{
"event" : "addConfiguration",
"timestamp" : "2017-11-17T10:23:26.002-0600",
"value" : {
"name" : "FTBFConfig_v22",
"assigned" : "2017-11-17T10:23:26.001-0600"
}
},
{
"event" : "addConfiguration",
"timestamp" : "2017-11-17T17:26:43.512-0600",
"value" : {
"name" : "FTBFConfig_v23",
"assigned" : "2017-11-17T17:26:43.512-0600"
}
},
{
"event" : "addConfiguration",
"timestamp" : "2017-11-17T17:58:23.947-0600",
"value" : {
"name" : "FTBFConfig_v24",
"assigned" : "2017-11-17T17:58:23.947-0600"
}
},
{
"event" : "addConfiguration",
"timestamp" : "2017-11-17T18:24:43.636-0600",
"value" : {
"name" : "FTBFConfig_v25",
"assigned" : "2017-11-17T18:24:43.636-0600"
}
},
{
"event" : "addConfiguration",
"timestamp" : "2017-11-17T18:32:20.452-0600",
"value" : {
"name" : "FTBFConfig_v26",
"assigned" : "2017-11-17T18:32:20.452-0600"
}
},
{
"event" : "addConfiguration",
"timestamp" : "2017-11-17T18:43:27.571-0600",
"value" : {
"name" : "FTBFConfig_v27",
"assigned" : "2017-11-17T18:43:27.571-0600"
}
},
{
"event" : "addConfiguration",
"timestamp" : "2017-11-17T18:48:29.583-0600",
"value" : {
"name" : "FTBFConfig_v28",
"assigned" : "2017-11-17T18:48:29.583-0600"
}
},
{
"event" : "addConfiguration",
"timestamp" : "2017-11-20T14:48:28.856-0600",
"value" : {
"name" : "FTBFConfig_v29",
"assigned" : "2017-11-20T14:48:28.856-0600"
}
},
{
"event" : "addConfiguration",
"timestamp" : "2017-11-20T15:39:54.098-0600",
"value" : {
"name" : "FTBFConfig_v30",
"assigned" : "2017-11-20T15:39:54.098-0600"
}
},
{
"event" : "addConfiguration",
"timestamp" : "2017-11-20T16:41:00.075-0600",
"value" : {
"name" : "FTBFConfig_v31",
"assigned" : "2017-11-20T16:41:00.075-0600"
}
},
{
"event" : "addConfiguration",
"timestamp" : "2017-11-20T18:55:32.880-0600",
"value" : {
"name" : "FTBFConfig_v32",
"assigned" : "2017-11-20T18:55:32.880-0600"
}
},
{
"event" : "addConfiguration",
"timestamp" : "2017-11-20T18:57:28.167-0600",
"value" : {
"name" : "FTBFConfig_v33",
"assigned" : "2017-11-20T18:57:28.167-0600"
}
},
{
"event" : "addConfiguration",
"timestamp" : "2017-11-29T17:50:37.644-0600",
"value" : {
"name" : "FTBFConfig_v34",
"assigned" : "2017-11-29T17:50:37.644-0600"
}
},
{
"event" : "addConfiguration",
"timestamp" : "2017-11-29T18:00:30.513-0600",
"value" : {
"name" : "FTBFConfig_v35",
"assigned" : "2017-11-29T18:00:30.513-0600"
}
},
{
"event" : "addConfiguration",
"timestamp" : "2017-11-29T18:35:09.376-0600",
"value" : {
"name" : "FTBFConfig_v36",
"assigned" : "2017-11-29T18:35:09.376-0600"
}
},
{
"event" : "addConfiguration",
"timestamp" : "2017-12-01T09:36:15.561-0600",
"value" : {
"name" : "FTBFConfig_v37",
"assigned" : "2017-12-01T09:36:15.561-0600"
}
},
{
"event" : "addConfiguration",
"timestamp" : "2017-12-01T09:51:58.915-0600",
"value" : {
"name" : "FTBFConfig_v38",
"assigned" : "2017-12-01T09:51:58.915-0600"
}
},
{
"event" : "addConfiguration",
"timestamp" : "2017-12-01T11:51:56.146-0600",
"value" : {
"name" : "FTBFConfig_v39",
"assigned" : "2017-12-01T11:51:56.146-0600"
}
},
{
"event" : "addConfiguration",
"timestamp" : "2017-12-01T12:18:18.118-0600",
"value" : {
"name" : "FTBFConfig_v40",
"assigned" : "2017-12-01T12:18:18.118-0600"
}
},
{
"event" : "addConfiguration",
"timestamp" : "2017-12-01T12:21:00.238-0600",
"value" : {
"name" : "FTBFConfig_v41",
"assigned" : "2017-12-01T12:21:00.238-0600"
}
},
{
"event" : "addConfiguration",
"timestamp" : "2017-12-01T12:43:19.355-0600",
"value" : {
"name" : "FTBFConfig_v42",
"assigned" : "2017-12-01T12:43:19.355-0600"
}
},
{
"event" : "addConfiguration",
"timestamp" : "2017-12-01T12:57:56.518-0600",
"value" : {
"name" : "FTBFConfig_v43",
"assigned" : "2017-12-01T12:57:56.518-0600"
}
},
{
"event" : "addConfiguration",
"timestamp" : "2017-12-01T13:00:49.134-0600",
"value" : {
"name" : "FTBFConfig_v44",
"assigned" : "2017-12-01T13:00:49.134-0600"
}
},
{
"event" : "addConfiguration",
"timestamp" : "2017-12-01T13:25:46.210-0600",
"value" : {
"name" : "FTBFConfig_v45",
"assigned" : "2017-12-01T13:25:46.210-0600"
}
},
{
"event" : "addConfiguration",
"timestamp" : "2017-12-01T13:35:41.030-0600",
"value" : {
"name" : "FTBFConfig_v46",
"assigned" : "2017-12-01T13:35:41.030-0600"
}
},
{
"event" : "addConfiguration",
"timestamp" : "2017-12-01T14:00:49.491-0600",
"value" : {
"name" : "FTBFConfig_v47",
"assigned" : "2017-12-01T14:00:49.491-0600"
}
},
{
"event" : "addConfiguration",
"timestamp" : "2017-12-01T14:03:56.730-0600",
"value" : {
"name" : "FTBFConfig_v48",
"assigned" : "2017-12-01T14:03:56.730-0600"
}
},
{
"event" : "addConfiguration",
"timestamp" : "2017-12-01T15:31:56.933-0600",
"value" : {
"name" : "FTBFConfig_v49",
"assigned" : "2017-12-01T15:31:56.933-0600"
}
},
{
"event" : "addConfiguration",
"timestamp" : "2017-12-01T15:36:48.340-0600",
"value" : {
"name" : "FTBFConfig_v51",
"assigned" : "2017-12-01T15:36:48.340-0600"
}
},
{
"event" : "addConfiguration",
"timestamp" : "2017-12-01T15:37:27.761-0600",
"value" : {
"name" : "FTBFConfig_v52",
"assigned" : "2017-12-01T15:37:27.761-0600"
}
},
{
"event" : "addConfiguration",
"timestamp" : "2017-12-01T15:40:56.448-0600",
"value" : {
"name" : "FTBFConfig_v53",
"assigned" : "2017-12-01T15:40:56.448-0600"
}
},
{
"event" : "addConfiguration",
"timestamp" : "2017-12-01T15:52:46.767-0600",
"value" : {
"name" : "FTBFConfig_v54",
"assigned" : "2017-12-01T15:52:46.767-0600"
}
},
{
"event" : "addConfiguration",
"timestamp" : "2017-12-01T15:54:31.895-0600",
"value" : {
"name" : "FTBFConfig_v55",
"assigned" : "2017-12-01T15:54:31.895-0600"
}
},
{
"event" : "addConfiguration",
"timestamp" : "2017-12-01T15:55:31.417-0600",
"value" : {
"name" : "FTBFConfig_v56",
"assigned" : "2017-12-01T15:55:31.416-0600"
}
},
{
"event" : "addConfiguration",
"timestamp" : "2017-12-01T15:56:37.212-0600",
"value" : {
"name" : "FTBFConfig_v57",
"assigned" : "2017-12-01T15:56:37.212-0600"
}
},
{
"event" : "addConfiguration",
"timestamp" : "2017-12-01T15:57:35.284-0600",
"value" : {
"name" : "FTBFConfig_v58",
"assigned" : "2017-12-01T15:57:35.284-0600"
}
},
{
"event" : "addConfiguration",
"timestamp" : "2017-12-01T15:58:27.176-0600",
"value" : {
"name" : "FTBFConfig_v59",
"assigned" : "2017-12-01T15:58:27.176-0600"
}
},
{
"event" : "addConfiguration",
"timestamp" : "2017-12-01T15:59:28.363-0600",
"value" : {
"name" : "FTBFConfig_v60",
"assigned" : "2017-12-01T15:59:28.363-0600"
}
},
{
"event" : "addConfiguration",
"timestamp" : "2017-12-01T16:19:38.074-0600",
"value" : {
"name" : "FTBFConfig_v61",
"assigned" : "2017-12-01T16:19:38.073-0600"
}
},
{
"event" : "addConfiguration",
"timestamp" : "2017-12-01T16:22:00.626-0600",
"value" : {
"name" : "FTBFConfig_v62",
"assigned" : "2017-12-01T16:22:00.626-0600"
}
},
{
"event" : "addConfiguration",
"timestamp" : "2017-12-01T16:31:21.232-0600",
"value" : {
"name" : "FTBFConfig_v63",
"assigned" : "2017-12-01T16:31:21.232-0600"
}
},
{
"event" : "addConfiguration",
"timestamp" : "2017-12-01T17:06:28.051-0600",
"value" : {
"name" : "FTBFConfig_v64",
"assigned" : "2017-12-01T17:06:28.051-0600"
}
},
{
"event" : "addConfiguration",
"timestamp" : "2017-12-01T17:32:40.425-0600",
"value" : {
"name" : "FTBFConfig_v65",
"assigned" : "2017-12-01T17:32:40.425-0600"
}
},
{
"event" : "addConfiguration",
"timestamp" : "2017-12-01T20:38:46.841-0600",
"value" : {
"name" : "FTBFConfig_v66",
"assigned" : "2017-12-01T20:38:46.841-0600"
}
},
{
"event" : "addConfiguration",
"timestamp" : "2017-12-01T21:24:58.309-0600",
"value" : {
"name" : "FTBFConfig_v67",
"assigned" : "2017-12-01T21:24:58.309-0600"
}
},
{
"event" : "addConfiguration",
"timestamp" : "2017-12-01T21:42:57.962-0600",
"value" : {
"name" : "FTBFConfig_v68",
"assigned" : "2017-12-01T21:42:57.962-0600"
}
},
{
"event" : "addConfiguration",
"timestamp" : "2017-12-01T21:44:56.576-0600",
"value" : {
"name" : "FTBFConfig_v69",
"assigned" : "2017-12-01T21:44:56.576-0600"
}
},
{
"event" : "addConfiguration",
"timestamp" : "2017-12-01T21:59:15.798-0600",
"value" : {
"name" : "FTBFConfig_v70",
"assigned" : "2017-12-01T21:59:15.798-0600"
}
},
{
"event" : "addConfiguration",
"timestamp" : "2017-12-01T22:00:02.496-0600",
"value" : {
"name" : "FTBFConfigNim_v0",
"assigned" : "2017-12-01T22:00:02.496-0600"
}
},
{
"event" : "addConfiguration",
"timestamp" : "2017-12-01T22:13:04.222-0600",
"value" : {
"name" : "FTBFConfigNim_v1",
"assigned" : "2017-12-01T22:13:04.222-0600"
}
},
{
"event" : "addConfiguration",
"timestamp" : "2017-12-01T22:15:51.430-0600",
"value" : {
"name" : "FTBFConfigNim_v2",
"assigned" : "2017-12-01T22:15:51.430-0600"
}
},
{
"event" : "addConfiguration",
"timestamp" : "2017-12-01T22:16:59.465-0600",
"value" : {
"name" : "FTBFConfigNim_v3",
"assigned" : "2017-12-01T22:16:59.464-0600"
}
},
{
"event" : "addConfiguration",
"timestamp" : "2017-12-01T22:19:02.500-0600",
"value" : {
"name" : "FTBFConfigNim_v4",
"assigned" : "2017-12-01T22:19:02.500-0600"
}
},
{
"event" : "addConfiguration",
"timestamp" : "2017-12-01T22:21:53.203-0600",
"value" : {
"name" : "FTBFConfigNim_v5",
"assigned" : "2017-12-01T22:21:53.203-0600"
}
},
{
"event" : "addConfiguration",
"timestamp" : "2017-12-01T22:23:09.356-0600",
"value" : {
"name" : "FTBFConfigNim_v6",
"assigned" : "2017-12-01T22:23:09.355-0600"
}
},
{
"event" : "addConfiguration",
"timestamp" : "2017-12-01T22:25:13.132-0600",
"value" : {
"name" : "FTBFConfigNim_v7",
"assigned" : "2017-12-01T22:25:13.132-0600"
}
},
{
"event" : "addConfiguration",
"timestamp" : "2017-12-01T22:27:00.660-0600",
"value" : {
"name" : "FTBFConfigNim_v8",
"assigned" : "2017-12-01T22:27:00.660-0600"
}
},
{
"event" : "addConfiguration",
"timestamp" : "2017-12-01T22:29:24.947-0600",
"value" : {
"name" : "FTBFConfigNim_v9",
"assigned" : "2017-12-01T22:29:24.947-0600"
}
},
{
"event" : "addConfiguration",
"timestamp" : "2017-12-01T22:52:30.040-0600",
"value" : {
"name" : "FTBFConfigNim_v10",
"assigned" : "2017-12-01T22:52:30.040-0600"
}
},
{
"event" : "addConfiguration",
"timestamp" : "2017-12-01T22:57:24.752-0600",
"value" : {
"name" : "FTBFConfigNim_v11",
"assigned" : "2017-12-01T22:57:24.752-0600"
}
},
{
"event" : "addConfiguration",
"timestamp" : "2017-12-01T23:00:03.091-0600",
"value" : {
"name" : "FTBFConfigNim_v12",
"assigned" : "2017-12-01T23:00:03.091-0600"
}
},
{
"event" : "addConfiguration",
"timestamp" : "2017-12-01T23:52:31.201-0600",
"value" : {
"name" : "FTBFConfigNim_v13",
"assigned" : "2017-12-01T23:52:31.201-0600"
}
},
{
"event" : "addConfiguration",
"timestamp" : "2017-12-01T23:58:05.594-0600",
"value" : {
"name" : "FTBFConfigNim_v14",
"assigned" : "2017-12-01T23:58:05.594-0600"
}
},
{
"event" : "addConfiguration",
"timestamp" : "2017-12-02T00:00:29.874-0600",
"value" : {
"name" : "FTBFConfigNim_v15",
"assigned" : "2017-12-02T00:00:29.874-0600"
}
},
{
"event" : "addConfiguration",
"timestamp" : "2017-12-02T00:13:04.957-0600",
"value" : {
"name" : "FTBFConfigNim_v16",
"assigned" : "2017-12-02T00:13:04.957-0600"
}
},
{
"event" : "addConfiguration",
"timestamp" : "2017-12-02T00:28:23.957-0600",
"value" : {
"name" : "FTBFConfigNim_v17",
"assigned" : "2017-12-02T00:28:23.956-0600"
}
},
{
"event" : "addConfiguration",
"timestamp" : "2017-12-02T00:29:29.993-0600",
"value" : {
"name" : "FTBFConfigNim_v18",
"assigned" : "2017-12-02T00:29:29.993-0600"
}
},
{
"event" : "addConfiguration",
"timestamp" : "2017-12-02T00:31:06.601-0600",
"value" : {
"name" : "FTBFConfigNim_v19",
"assigned" : "2017-12-02T00:31:06.601-0600"
}
},
{
"event" : "addConfiguration",
"timestamp" : "2017-12-02T00:57:22.969-0600",
"value" : {
"name" : "FTBFConfigNim_v20",
"assigned" : "2017-12-02T00:57:22.969-0600"
}
},
{
"event" : "addConfiguration",
"timestamp" : "2017-12-02T10:57:57.514-0600",
"value" : {
"name" : "FTBFConfigNim_v21",
"assigned" : "2017-12-02T10:57:57.514-0600"
}
},
{
"event" : "addConfiguration",
"timestamp" : "2017-12-02T11:08:13.678-0600",
"value" : {
"name" : "FTBFConfigNim_v22",
"assigned" : "2017-12-02T11:08:13.678-0600"
}
},
{
"event" : "addConfiguration",
"timestamp" : "2017-12-02T11:12:35.234-0600",
"value" : {
"name" : "FTBFConfigNim_v23",
"assigned" : "2017-12-02T11:12:35.234-0600"
}
},
{
"event" : "addConfiguration",
"timestamp" : "2017-12-02T11:18:38.050-0600",
"value" : {
"name" : "FTBFConfigNim_v24",
"assigned" : "2017-12-02T11:18:38.050-0600"
}
},
{
"event" : "addConfiguration",
"timestamp" : "2017-12-02T11:27:01.280-0600",
"value" : {
"name" : "FTBFConfigNim_v25",
"assigned" : "2017-12-02T11:27:01.280-0600"
}
},
{
"event" : "addConfiguration",
"timestamp" : "2017-12-02T11:38:32.316-0600",
"value" : {
"name" : "FTBFConfigNim_v26",
"assigned" : "2017-12-02T11:38:32.316-0600"
}
},
{
"event" : "addConfiguration",
"timestamp" : "2017-12-02T11:49:03.430-0600",
"value" : {
"name" : "FTBFConfigNim_v27",
"assigned" : "2017-12-02T11:49:03.430-0600"
}
},
{
"event" : "addConfiguration",
"timestamp" : "2017-12-02T11:55:04.897-0600",
"value" : {
"name" : "FTBFConfigNim_v28",
"assigned" : "2017-12-02T11:55:04.896-0600"
}
},
{
"event" : "addConfiguration",
"timestamp" : "2017-12-02T12:06:21.712-0600",
"value" : {
"name" : "FTBFConfigNim_v29",
"assigned" : "2017-12-02T12:06:21.711-0600"
}
},
{
"event" : "addConfiguration",
"timestamp" : "2017-12-02T12:24:10.347-0600",
"value" : {
"name" : "FTBFConfig_v71",
"assigned" : "2017-12-02T12:24:10.347-0600"
}
},
{
"event" : "addConfiguration",
"timestamp" : "2017-12-02T12:43:31.127-0600",
"value" : {
"name" : "FTBFConfig_v72",
"assigned" : "2017-12-02T12:43:31.126-0600"
}
},
{
"event" : "addConfiguration",
"timestamp" : "2017-12-02T13:55:30.705-0600",
"value" : {
"name" : "FTBFConfig_v73",
"assigned" : "2017-12-02T13:55:30.704-0600"
}
},
{
"event" : "addConfiguration",
"timestamp" : "2017-12-02T14:09:02.987-0600",
"value" : {
"name" : "FTBFConfig_v74",
"assigned" : "2017-12-02T14:09:02.987-0600"
}
},
{
"event" : "addConfiguration",
"timestamp" : "2017-12-02T14:12:13.832-0600",
"value" : {
"name" : "FTBFConfig_v75",
"assigned" : "2017-12-02T14:12:13.832-0600"
}
},
{
"event" : "addConfiguration",
"timestamp" : "2017-12-02T19:05:48.949-0600",
"value" : {
"name" : "FTBFConfig_v76",
"assigned" : "2017-12-02T19:05:48.949-0600"
}
},
{
"event" : "addConfiguration",
"timestamp" : "2017-12-02T19:12:08.746-0600",
"value" : {
"name" : "FTBFConfig_v77",
"assigned" : "2017-12-02T19:12:08.746-0600"
}
},
{
"event" : "addConfiguration",
"timestamp" : "2017-12-03T14:03:43.943-0600",
"value" : {
"name" : "FTBFConfig_v78",
"assigned" : "2017-12-03T14:03:43.942-0600"
}
},
{
"event" : "addConfiguration",
"timestamp" : "2017-12-03T14:09:02.103-0600",
"value" : {
"name" : "FTBFConfig_v79",
"assigned" : "2017-12-03T14:09:02.103-0600"
}
},
{
"event" : "addConfiguration",
"timestamp" : "2017-12-03T14:11:05.857-0600",
"value" : {
"name" : "FTBFConfig_v80",
"assigned" : "2017-12-03T14:11:05.857-0600"
}
},
{
"event" : "addConfiguration",
"timestamp" : "2017-12-03T14:22:28.897-0600",
"value" : {
"name" : "FTBFConfig_v81",
"assigned" : "2017-12-03T14:22:28.897-0600"
}
},
{
"event" : "addConfiguration",
"timestamp" : "2017-12-03T14:40:33.657-0600",
"value" : {
"name" : "FTBFConfig_v82",
"assigned" : "2017-12-03T14:40:33.657-0600"
}
},
{
"event" : "addConfiguration",
"timestamp" : "2017-12-03T14:45:00.944-0600",
"value" : {
"name" : "FTBFConfig_v83",
"assigned" : "2017-12-03T14:45:00.944-0600"
}
},
{
"event" : "addConfiguration",
"timestamp" : "2017-12-04T14:51:26.403-0600",
"value" : {
"name" : "FTBFConfig_v84",
"assigned" : "2017-12-04T14:51:26.403-0600"
}
},
{
"event" : "addConfiguration",
"timestamp" : "2017-12-04T14:55:39.548-0600",
"value" : {
"name" : "FTBFConfig_v85",
"assigned" : "2017-12-04T14:55:39.548-0600"
}
},
{
"event" : "addConfiguration",
"timestamp" : "2017-12-04T16:51:02.499-0600",
"value" : {
"name" : "FTBFConfig_v86",
"assigned" : "2017-12-04T16:51:02.499-0600"
}
},
{
"event" : "addConfiguration",
"timestamp" : "2017-12-04T16:56:43.126-0600",
"value" : {
"name" : "FTBFConfig_v87",
"assigned" : "2017-12-04T16:56:43.126-0600"
}
},
{
"event" : "addConfiguration",
"timestamp" : "2017-12-04T17:01:07.826-0600",
"value" : {
"name" : "FTBFConfig_v88",
"assigned" : "2017-12-04T17:01:07.826-0600"
}
},
{
"event" : "addConfiguration",
"timestamp" : "2017-12-04T17:03:52.914-0600",
"value" : {
"name" : "FTBFConfig_v89",
"assigned" : "2017-12-04T17:03:52.914-0600"
}
},
{
"event" : "addConfiguration",
"timestamp" : "2017-12-04T17:07:12.530-0600",
"value" : {
"name" : "FTBFConfig_v90",
"assigned" : "2017-12-04T17:07:12.530-0600"
}
},
{
"event" : "addConfiguration",
"timestamp" : "2017-12-04T17:09:21.646-0600",
"value" : {
"name" : "FTBFConfig_v91",
"assigned" : "2017-12-04T17:09:21.646-0600"
}
},
{
"event" : "addConfiguration",
"timestamp" : "2017-12-04T17:11:34.101-0600",
"value" : {
"name" : "FTBFConfig_v92",
"assigned" : "2017-12-04T17:11:34.101-0600"
}
},
{
"event" : "addConfiguration",
"timestamp" : "2017-12-04T21:05:16.715-0600",
"value" : {
"name" : "FTBFConfig_v93",
"assigned" : "2017-12-04T21:05:16.714-0600"
}
},
{
"event" : "addConfiguration",
"timestamp" : "2017-12-04T21:17:07.563-0600",
"value" : {
"name" : "FTBFConfig_v94",
"assigned" : "2017-12-04T21:17:07.563-0600"
}
},
{
"event" : "addConfiguration",
"timestamp" : "2017-12-04T21:41:13.296-0600",
"value" : {
"name" : "FTBFConfig_v95",
"assigned" : "2017-12-04T21:41:13.296-0600"
}
},
{
"event" : "addConfiguration",
"timestamp" : "2017-12-04T22:38:57.900-0600",
"value" : {
"name" : "FTBFConfig_v96",
"assigned" : "2017-12-04T22:38:57.900-0600"
}
},
{
"event" : "addConfiguration",
"timestamp" : "2017-12-04T23:01:08.414-0600",
"value" : {
"name" : "FTBFConfig_v97",
"assigned" : "2017-12-04T23:01:08.414-0600"
}
},
{
"event" : "addConfiguration",
"timestamp" : "2017-12-07T11:07:42.430-0600",
"value" : {
"name" : "FTBFConfig_v98",
"assigned" : "2017-12-07T11:07:42.430-0600"
}
},
{
"event" : "addConfiguration",
"timestamp" : "2017-12-07T11:49:55.108-0600",
"value" : {
"name" : "FTBFConfig_v99",
"assigned" : "2017-12-07T11:49:55.108-0600"
}
},
{
"event" : "addConfiguration",
"timestamp" : "2017-12-07T11:58:21.823-0600",
"value" : {
"name" : "FTBFConfig_v100",
"assigned" : "2017-12-07T11:58:21.822-0600"
}
},
{
"event" : "addConfiguration",
"timestamp" : "2017-12-08T13:30:43.896-0600",
"value" : {
"name" : "FTBFConfig_v101",
"assigned" : "2017-12-08T13:30:43.896-0600"
}
},
{
"event" : "addConfiguration",
"timestamp" : "2017-12-08T13:32:30.790-0600",
"value" : {
"name" : "FTBFConfig_v102",
"assigned" : "2017-12-08T13:32:30.789-0600"
}
},
{
"event" : "addConfiguration",
"timestamp" : "2017-12-12T11:03:00.557-0600",
"value" : {
"name" : "FTBFConfig_v103",
"assigned" : "2017-12-12T11:03:00.556-0600"
}
},
{
"event" : "addConfiguration",
"timestamp" : "2017-12-12T13:50:54.827-0600",
"value" : {
"name" : "FTBFConfig_v104",
"assigned" : "2017-12-12T13:50:54.827-0600"
}
},
{
"event" : "addConfiguration",
"timestamp" : "2017-12-12T15:25:00.814-0600",
"value" : {
"name" : "FTBFConfig_v105",
"assigned" : "2017-12-12T15:25:00.814-0600"
}
},
{
"event" : "addConfiguration",
"timestamp" : "2017-12-13T10:24:19.299-0600",
"value" : {
"name" : "FTBFConfig_v106",
"assigned" : "2017-12-13T10:24:19.299-0600"
}
},
{
"event" : "addConfiguration",
"timestamp" : "2017-12-13T10:26:58.061-0600",
"value" : {
"name" : "FTBFConfig_v107",
"assigned" : "2017-12-13T10:26:58.060-0600"
}
},
{
"event" : "addConfiguration",
"timestamp" : "2018-02-01T21:14:21.349-0600",
"value" : {
"name" : "FTBFConfig_v108",
"assigned" : "2018-02-01T21:14:21.349-0600"
}
},
{
"event" : "addConfiguration",
"timestamp" : "2018-02-01T21:20:58.440-0600",
"value" : {
"name" : "FTBFConfig_v109",
"assigned" : "2018-02-01T21:20:58.440-0600"
}
},
{
"event" : "addConfiguration",
"timestamp" : "2018-02-02T11:25:29.381-0600",
"value" : {
"name" : "FTBFConfig_v110",
"assigned" : "2018-02-02T11:25:29.380-0600"
}
},
{
"event" : "addConfiguration",
"timestamp" : "2018-02-02T11:37:08.210-0600",
"value" : {
"name" : "FTBFConfig_v111",
"assigned" : "2018-02-02T11:37:08.210-0600"
}
},
{
"event" : "addConfiguration",
"timestamp" : "2018-02-02T11:47:10.658-0600",
"value" : {
"name" : "FTBFConfig_v112",
"assigned" : "2018-02-02T11:47:10.658-0600"
}
},
{
"event" : "addConfiguration",
"timestamp" : "2018-02-02T11:53:31.905-0600",
"value" : {
"name" : "FTBFConfig_v113",
"assigned" : "2018-02-02T11:53:31.904-0600"
}
},
{
"event" : "addConfiguration",
"timestamp" : "2018-02-02T12:00:47.960-0600",
"value" : {
"name" : "FTBFConfig_v114",
"assigned" : "2018-02-02T12:00:47.960-0600"
}
},
{
"event" : "addConfiguration",
"timestamp" : "2018-02-02T12:27:09.459-0600",
"value" : {
"name" : "FTBFConfig_v115",
"assigned" : "2018-02-02T12:27:09.459-0600"
}
},
{
"event" : "addConfiguration",
"timestamp" : "2018-02-02T14:28:48.974-0600",
"value" : {
"name" : "FTBFConfig_v116",
"assigned" : "2018-02-02T14:28:48.974-0600"
}
},
{
"event" : "addConfiguration",
"timestamp" : "2018-02-02T14:30:15.293-0600",
"value" : {
"name" : "FTBFConfig_v117",
"assigned" : "2018-02-02T14:30:15.293-0600"
}
},
{
"event" : "addConfiguration",
"timestamp" : "2018-02-02T14:33:56.489-0600",
"value" : {
"name" : "FTBFConfig_v118",
"assigned" : "2018-02-02T14:33:56.489-0600"
}
},
{
"event" : "addConfiguration",
"timestamp" : "2018-02-02T14:36:23.074-0600",
"value" : {
"name" : "FTBFConfig_v119",
"assigned" : "2018-02-02T14:36:23.074-0600"
}
},
{
"event" : "addConfiguration",
"timestamp" : "2018-02-02T14:38:36.458-0600",
"value" : {
"name" : "FTBFConfig_v120",
"assigned" : "2018-02-02T14:38:36.457-0600"
}
},
{
"event" : "addConfiguration",
"timestamp" : "2018-02-02T14:41:45.769-0600",
"value" : {
"name" : "FTBFConfig_v121",
"assigned" : "2018-02-02T14:41:45.769-0600"
}
},
{
"event" : "addConfiguration",
"timestamp" : "2018-02-02T14:50:19.755-0600",
"value" : {
"name" : "FTBFConfig_v122",
"assigned" : "2018-02-02T14:50:19.754-0600"
}
},
{
"event" : "addConfiguration",
"timestamp" : "2018-02-02T14:52:52.625-0600",
"value" : {
"name" : "FTBFConfig_v123",
"assigned" : "2018-02-02T14:52:52.624-0600"
}
},
{
"event" : "addConfiguration",
"timestamp" : "2018-02-02T14:59:45.942-0600",
"value" : {
"name" : "FTBFConfig_v124",
"assigned" : "2018-02-02T14:59:45.942-0600"
}
},
{
"event" : "addConfiguration",
"timestamp" : "2018-02-02T15:04:04.025-0600",
"value" : {
"name" : "FTBFConfig_v125",
"assigned" : "2018-02-02T15:04:04.025-0600"
}
},
{
"event" : "addConfiguration",
"timestamp" : "2018-02-02T15:50:07.234-0600",
"value" : {
"name" : "FTBFConfig_v126",
"assigned" : "2018-02-02T15:50:07.234-0600"
}
},
{
"event" : "addConfiguration",
"timestamp" : "2018-02-02T15:51:26.699-0600",
"value" : {
"name" : "FTBFConfig_v127",
"assigned" : "2018-02-02T15:51:26.699-0600"
}
},
{
"event" : "addConfiguration",
"timestamp" : "2018-02-02T15:52:31.863-0600",
"value" : {
"name" : "FTBFConfig_v128",
"assigned" : "2018-02-02T15:52:31.863-0600"
}
},
{
"event" : "addConfiguration",
"timestamp" : "2018-02-02T16:02:40.732-0600",
"value" : {
"name" : "FTBFConfig_v129",
"assigned" : "2018-02-02T16:02:40.731-0600"
}
},
{
"event" : "addConfiguration",
"timestamp" : "2018-02-02T16:08:40.245-0600",
"value" : {
"name" : "FTBFConfig_v130",
"assigned" : "2018-02-02T16:08:40.245-0600"
}
},
{
"event" : "addConfiguration",
"timestamp" : "2018-02-02T16:11:26.029-0600",
"value" : {
"name" : "FTBFConfig_v131",
"assigned" : "2018-02-02T16:11:26.029-0600"
}
},
{
"event" : "addConfiguration",
"timestamp" : "2018-02-02T16:12:53.878-0600",
"value" : {
"name" : "FTBFConfig_v132",
"assigned" : "2018-02-02T16:12:53.878-0600"
}
},
{
"event" : "addConfiguration",
"timestamp" : "2018-02-02T16:14:24.440-0600",
"value" : {
"name" : "FTBFConfig_v133",
"assigned" : "2018-02-02T16:14:24.440-0600"
}
},
{
"event" : "addConfiguration",
"timestamp" : "2018-02-02T16:26:17.356-0600",
"value" : {
"name" : "FTBFConfig_v134",
"assigned" : "2018-02-02T16:26:17.355-0600"
}
},
{
"event" : "addConfiguration",
"timestamp" : "2018-02-02T16:27:04.466-0600",
"value" : {
"name" : "FTBFConfig_v135",
"assigned" : "2018-02-02T16:27:04.466-0600"
}
},
{
"event" : "addConfiguration",
"timestamp" : "2018-02-02T16:29:25.773-0600",
"value" : {
"name" : "FTBFConfig_v136",
"assigned" : "2018-02-02T16:29:25.773-0600"
}
},
{
"event" : "addConfiguration",
"timestamp" : "2018-02-02T16:31:36.276-0600",
"value" : {
"name" : "FTBFConfig_v137",
"assigned" : "2018-02-02T16:31:36.276-0600"
}
},
{
"event" : "addConfiguration",
"timestamp" : "2018-02-02T16:34:09.006-0600",
"value" : {
"name" : "FTBFConfig_v138",
"assigned" : "2018-02-02T16:34:09.006-0600"
}
},
{
"event" : "addConfiguration",
"timestamp" : "2018-02-02T17:39:25.032-0600",
"value" : {
"name" : "FTBFConfig_v139",
"assigned" : "2018-02-02T17:39:25.032-0600"
}
},
{
"event" : "addConfiguration",
"timestamp" : "2018-02-02T17:42:47.197-0600",
"value" : {
"name" : "FTBFConfig_v140",
"assigned" : "2018-02-02T17:42:47.197-0600"
}
},
{
"event" : "addConfiguration",
"timestamp" : "2018-02-02T17:47:32.359-0600",
"value" : {
"name" : "FTBFConfig_v141",
"assigned" : "2018-02-02T17:47:32.359-0600"
}
},
{
"event" : "addConfiguration",
"timestamp" : "2018-02-02T17:53:56.336-0600",
"value" : {
"name" : "FTBFConfig_v142",
"assigned" : "2018-02-02T17:53:56.335-0600"
}
}
],
"created" : "2017-11-15T13:36:44.477-0600"
},
"_id" : {
"$oid" : "8df7fae40b894411a626f648"
},
"collection" : "ARTDAQBuilderServicesConfiguration",
"aliases" : {
"active" : [

],
"history" : [

]
},
"runs" : [

],
"attachments" : [

],
"configtype" : "notprovided"
}