{
"ouid" : [
"6210131ec9464856ac004890",
"a2a5d6ff24684b77a02b6967"
],
"version" : {
"1" : [
"6210131ec9464856ac004890"
],
"2" : [
"a2a5d6ff24684b77a02b6967"
]
},
"configurations.name" : {
"notprovided" : [
"6210131ec9464856ac004890",
"a2a5d6ff24684b77a02b6967"
],
"DefaultContext_v1" : [
"6210131ec9464856ac004890"
],
"DefaultContext_v2" : [
"a2a5d6ff24684b77a02b6967"
],
"DefaultContext_v3" : [
"6210131ec9464856ac004890"
]
},
"entities.name" : {
"OTSROOT" : [
"6210131ec9464856ac004890",
"a2a5d6ff24684b77a02b6967"
]
},
"aliases.active.name" : {

},
"runs.name" : {

},
"configurations.assigned" : {
"notprovided" : [
"2020-09-08T15:08:31.350-0500",
"2020-09-08T15:11:10.554-0500"
],
"DefaultContext_v1" : [
"2020-09-08T15:08:31.729-0500"
],
"DefaultContext_v2" : [
"2020-09-08T15:11:11.285-0500"
],
"DefaultContext_v3" : [
"2020-09-08T15:38:45.838-0500"
]
}
}