{
"ouid" : [
"2f3708e61b1446979931a1eb"
],
"version" : {
"1" : [
"2f3708e61b1446979931a1eb"
]
},
"configurations.name" : {
"notprovided" : [
"2f3708e61b1446979931a1eb"
],
"DefaultConfig_v1" : [
"2f3708e61b1446979931a1eb"
],
"DefaultConfig_v2" : [
"2f3708e61b1446979931a1eb"
],
"DefaultConfig_v3" : [
"2f3708e61b1446979931a1eb"
],
"DefaultConfig_v4" : [
"2f3708e61b1446979931a1eb"
],
"DefaultConfig_v5" : [
"2f3708e61b1446979931a1eb"
],
"DefaultConfig_v6" : [
"2f3708e61b1446979931a1eb"
],
"DefaultConfig_v7" : [
"2f3708e61b1446979931a1eb"
],
"DefaultConfig_v8" : [
"2f3708e61b1446979931a1eb"
],
"DefaultConfig_v9" : [
"2f3708e61b1446979931a1eb"
],
"DefaultConfig_v10" : [
"2f3708e61b1446979931a1eb"
],
"DefaultConfig_v11" : [
"2f3708e61b1446979931a1eb"
],
"DefaultConfig_v12" : [
"2f3708e61b1446979931a1eb"
],
"DefaultConfig_v13" : [
"2f3708e61b1446979931a1eb"
],
"DefaultConfig_v14" : [
"2f3708e61b1446979931a1eb"
],
"DefaultConfig_v15" : [
"2f3708e61b1446979931a1eb"
],
"DefaultConfig_v16" : [
"2f3708e61b1446979931a1eb"
],
"DefaultConfig_v17" : [
"2f3708e61b1446979931a1eb"
],
"DefaultConfig_v18" : [
"2f3708e61b1446979931a1eb"
],
"DefaultConfig_v19" : [
"2f3708e61b1446979931a1eb"
],
"DefaultConfig_v20" : [
"2f3708e61b1446979931a1eb"
],
"DefaultConfig_v21" : [
"2f3708e61b1446979931a1eb"
],
"DefaultConfig_v22" : [
"2f3708e61b1446979931a1eb"
],
"DefaultConfig_v23" : [
"2f3708e61b1446979931a1eb"
],
"DefaultConfig_v24" : [
"2f3708e61b1446979931a1eb"
],
"DefaultConfig_v25" : [
"2f3708e61b1446979931a1eb"
],
"DefaultConfig_v26" : [
"2f3708e61b1446979931a1eb"
],
"DefaultConfig_v27" : [
"2f3708e61b1446979931a1eb"
],
"DefaultConfig_v28" : [
"2f3708e61b1446979931a1eb"
],
"DefaultConfig_v29" : [
"2f3708e61b1446979931a1eb"
],
"DefaultConfig_v30" : [
"2f3708e61b1446979931a1eb"
],
"DefaultConfig_v31" : [
"2f3708e61b1446979931a1eb"
],
"DefaultConfig_v32" : [
"2f3708e61b1446979931a1eb"
],
"DefaultConfig_v33" : [
"2f3708e61b1446979931a1eb"
],
"DefaultConfig_v34" : [
"2f3708e61b1446979931a1eb"
],
"DefaultConfig_v35" : [
"2f3708e61b1446979931a1eb"
],
"DefaultConfig_v36" : [
"2f3708e61b1446979931a1eb"
],
"DefaultConfig_v37" : [
"2f3708e61b1446979931a1eb"
]
},
"entities.name" : {
"OTSROOT" : [
"2f3708e61b1446979931a1eb"
]
},
"aliases.active.name" : {

},
"runs.name" : {

},
"configurations.assigned" : {
"notprovided" : [
"2019-02-22T16:11:42.674-0600"
],
"DefaultConfig_v1" : [
"2019-02-22T16:11:42.977-0600"
],
"DefaultConfig_v2" : [
"2019-07-22T11:27:30.230-0500"
],
"DefaultConfig_v3" : [
"2019-07-22T14:43:10.076-0500"
],
"DefaultConfig_v4" : [
"2019-07-22T14:47:01.248-0500"
],
"DefaultConfig_v5" : [
"2019-07-22T15:05:41.317-0500"
],
"DefaultConfig_v6" : [
"2019-07-23T09:00:31.790-0500"
],
"DefaultConfig_v7" : [
"2019-07-23T09:04:43.500-0500"
],
"DefaultConfig_v8" : [
"2019-07-23T09:48:11.594-0500"
],
"DefaultConfig_v9" : [
"2019-08-07T11:00:29.183-0500"
],
"DefaultConfig_v10" : [
"2019-11-20T15:25:38.360-0600"
],
"DefaultConfig_v11" : [
"2019-11-20T15:28:12.376-0600"
],
"DefaultConfig_v12" : [
"2019-11-20T15:58:29.643-0600"
],
"DefaultConfig_v13" : [
"2019-11-20T16:23:03.382-0600"
],
"DefaultConfig_v14" : [
"2019-11-20T16:24:45.513-0600"
],
"DefaultConfig_v15" : [
"2019-11-20T16:27:46.334-0600"
],
"DefaultConfig_v16" : [
"2019-11-20T16:42:10.871-0600"
],
"DefaultConfig_v17" : [
"2019-12-09T19:33:37.451-0600"
],
"DefaultConfig_v18" : [
"2019-12-10T14:21:50.025-0600"
],
"DefaultConfig_v19" : [
"2021-04-29T11:28:51.658-0500"
],
"DefaultConfig_v20" : [
"2021-04-29T11:36:29.673-0500"
],
"DefaultConfig_v21" : [
"2021-04-29T11:56:50.014-0500"
],
"DefaultConfig_v22" : [
"2021-04-29T12:03:11.668-0500"
],
"DefaultConfig_v23" : [
"2021-04-29T12:06:21.507-0500"
],
"DefaultConfig_v24" : [
"2021-04-29T13:06:39.135-0500"
],
"DefaultConfig_v25" : [
"2021-04-30T09:33:56.964-0500"
],
"DefaultConfig_v26" : [
"2021-04-30T09:34:32.538-0500"
],
"DefaultConfig_v27" : [
"2021-04-30T09:36:19.282-0500"
],
"DefaultConfig_v28" : [
"2021-04-30T11:59:05.862-0500"
],
"DefaultConfig_v29" : [
"2021-04-30T12:10:52.396-0500"
],
"DefaultConfig_v30" : [
"2021-04-30T12:11:38.682-0500"
],
"DefaultConfig_v31" : [
"2021-05-06T17:42:15.222-0500"
],
"DefaultConfig_v32" : [
"2021-05-10T10:42:47.012-0500"
],
"DefaultConfig_v33" : [
"2021-05-10T11:08:52.785-0500"
],
"DefaultConfig_v34" : [
"2021-05-12T15:51:22.866-0500"
],
"DefaultConfig_v35" : [
"2021-05-12T16:11:01.046-0500"
],
"DefaultConfig_v36" : [
"2021-05-14T15:34:24.432-0500"
],
"DefaultConfig_v37" : [
"2021-05-14T16:41:01.071-0500"
]
}
}