{
"document" : {
"data" : {
"NAME" : "GROUP_ALIASES_TABLE",
"COMMENT" : "Default Backbone.",
"AUTHOR" : "admin",
"CREATION_TIME" : 1605114027,
"COL_TYPES" : {
"GROUP_KEY_ALIAS" : "STRING",
"GROUP_NAME" : "STRING",
"GROUP_KEY" : "STRING",
"COMMENT_DESCRIPTION" : "STRING",
"AUTHOR" : "STRING",
"RECORD_INSERTION_TIME" : "TIMESTAMP WITH TIMEZONE"
},
"DATA_SET" : [
{
"GROUP_KEY_ALIAS" : "OuterTrackerContext",
"GROUP_NAME" : "DefaultContext",
"GROUP_KEY" : "22",
"COMMENT_DESCRIPTION" : "This Group Alias was automatically setup by the server.",
"AUTHOR" : "admin",
"RECORD_INSERTION_TIME" : "1605114027"
},
{
"GROUP_KEY_ALIAS" : "OuterTrackerTable",
"GROUP_NAME" : "DefaultConfig",
"GROUP_KEY" : "31",
"COMMENT_DESCRIPTION" : "This Group Alias was automatically setup by the server.",
"AUTHOR" : "admin",
"RECORD_INSERTION_TIME" : "1604544157"
}
]
},
"metadata" : {

},
"search" : [

]
},
"comments" : [

],
"origin" : {
"source" : "template",
"name" : "notprovided",
"format" : "json",
"created" : "2020-11-11T11:00:27.620-0600",
"rawdata" : [

]
},
"version" : "53",
"entities" : [
{
"name" : "OTSROOT",
"assigned" : "2020-11-11T11:00:27.621-0600"
}
],
"configurations" : [
{
"name" : "notprovided",
"assigned" : "2020-11-11T11:00:27.621-0600"
},
{
"name" : "TableEditWizBackbone_v39",
"assigned" : "2020-11-11T11:00:28.327-0600"
}
],
"changelog" : "notprovided",
"bookkeeping" : {
"isdeleted" : false,
"isreadonly" : false,
"updates" : [
{
"event" : "addConfiguration",
"timestamp" : "2020-11-11T11:00:27.621-0600",
"value" : {
"name" : "notprovided",
"assigned" : "2020-11-11T11:00:27.621-0600"
}
},
{
"event" : "setVersion",
"timestamp" : "2020-11-11T11:00:27.621-0600",
"value" : {
"name" : "53",
"assigned" : "2020-11-11T11:00:27.621-0600"
}
},
{
"event" : "setCollection",
"timestamp" : "2020-11-11T11:00:27.621-0600",
"value" : {
"name" : "GroupAliasesTable",
"assigned" : "2020-11-11T11:00:27.621-0600"
}
},
{
"event" : "addEntity",
"timestamp" : "2020-11-11T11:00:27.621-0600",
"value" : {
"name" : "OTSROOT",
"assigned" : "2020-11-11T11:00:27.621-0600"
}
},
{
"event" : "addConfiguration",
"timestamp" : "2020-11-11T11:00:28.327-0600",
"value" : {
"name" : "TableEditWizBackbone_v39",
"assigned" : "2020-11-11T11:00:28.327-0600"
}
}
],
"created" : "2020-11-11T11:00:27.620-0600"
},
"_id" : {
"$oid" : "135c24bf180e4b65b878667a"
},
"collection" : "GroupAliasesTable",
"aliases" : {
"active" : [

],
"history" : [

]
},
"runs" : [

],
"attachments" : [

],
"configtype" : "notprovided"
}