{
"document" : {
"data" : {
"NAME" : "GROUP_ALIASES_TABLE",
"COMMENT" : "Default Backbone.",
"AUTHOR" : "admin",
"CREATION_TIME" : 1605287091,
"COL_TYPES" : {
"GROUP_KEY_ALIAS" : "STRING",
"GROUP_NAME" : "STRING",
"GROUP_KEY" : "STRING",
"COMMENT_DESCRIPTION" : "STRING",
"AUTHOR" : "STRING",
"RECORD_INSERTION_TIME" : "TIMESTAMP WITH TIMEZONE"
},
"DATA_SET" : [
{
"GROUP_KEY_ALIAS" : "OuterTrackerContext",
"GROUP_NAME" : "DefaultContext",
"GROUP_KEY" : "27",
"COMMENT_DESCRIPTION" : "This Group Alias was automatically setup by the server.",
"AUTHOR" : "admin",
"RECORD_INSERTION_TIME" : "1605287091"
},
{
"GROUP_KEY_ALIAS" : "OuterTrackerTable",
"GROUP_NAME" : "DefaultConfig",
"GROUP_KEY" : "31",
"COMMENT_DESCRIPTION" : "This Group Alias was automatically setup by the server.",
"AUTHOR" : "admin",
"RECORD_INSERTION_TIME" : "1604544157"
}
]
},
"metadata" : {

},
"search" : [

]
},
"comments" : [

],
"origin" : {
"source" : "template",
"name" : "notprovided",
"format" : "json",
"created" : "2020-11-13T11:04:51.300-0600",
"rawdata" : [

]
},
"version" : "58",
"entities" : [
{
"name" : "OTSROOT",
"assigned" : "2020-11-13T11:04:51.301-0600"
}
],
"configurations" : [
{
"name" : "notprovided",
"assigned" : "2020-11-13T11:04:51.301-0600"
},
{
"name" : "TableEditWizBackbone_v44",
"assigned" : "2020-11-13T11:04:52.058-0600"
}
],
"changelog" : "notprovided",
"bookkeeping" : {
"isdeleted" : false,
"isreadonly" : false,
"updates" : [
{
"event" : "addConfiguration",
"timestamp" : "2020-11-13T11:04:51.301-0600",
"value" : {
"name" : "notprovided",
"assigned" : "2020-11-13T11:04:51.301-0600"
}
},
{
"event" : "setVersion",
"timestamp" : "2020-11-13T11:04:51.301-0600",
"value" : {
"name" : "58",
"assigned" : "2020-11-13T11:04:51.301-0600"
}
},
{
"event" : "setCollection",
"timestamp" : "2020-11-13T11:04:51.301-0600",
"value" : {
"name" : "GroupAliasesTable",
"assigned" : "2020-11-13T11:04:51.301-0600"
}
},
{
"event" : "addEntity",
"timestamp" : "2020-11-13T11:04:51.301-0600",
"value" : {
"name" : "OTSROOT",
"assigned" : "2020-11-13T11:04:51.301-0600"
}
},
{
"event" : "addConfiguration",
"timestamp" : "2020-11-13T11:04:52.059-0600",
"value" : {
"name" : "TableEditWizBackbone_v44",
"assigned" : "2020-11-13T11:04:52.058-0600"
}
}
],
"created" : "2020-11-13T11:04:51.300-0600"
},
"_id" : {
"$oid" : "8e4af37185e7443d833a56f9"
},
"collection" : "GroupAliasesTable",
"aliases" : {
"active" : [

],
"history" : [

]
},
"runs" : [

],
"attachments" : [

],
"configtype" : "notprovided"
}