{
"document" : {
"data" : {
"NAME" : "GROUP_ALIASES_TABLE",
"COMMENT" : "Default Backbone.",
"AUTHOR" : "admin",
"CREATION_TIME" : 1595359641,
"COL_TYPES" : {
"GROUP_KEY_ALIAS" : "STRING",
"GROUP_NAME" : "STRING",
"GROUP_KEY" : "STRING",
"COMMENT_DESCRIPTION" : "STRING",
"AUTHOR" : "STRING",
"RECORD_INSERTION_TIME" : "TIMESTAMP WITH TIMEZONE"
},
"DATA_SET" : [
{
"GROUP_KEY_ALIAS" : "OuterTrackerContext",
"GROUP_NAME" : "DefaultContext",
"GROUP_KEY" : "2",
"COMMENT_DESCRIPTION" : "This Group Alias was automatically setup by the server.",
"AUTHOR" : "admin",
"RECORD_INSERTION_TIME" : "1595359641"
},
{
"GROUP_KEY_ALIAS" : "OuterTrackerTable",
"GROUP_NAME" : "DefaultConfig",
"GROUP_KEY" : "1",
"COMMENT_DESCRIPTION" : "This Group Alias was automatically setup by the server.",
"AUTHOR" : "admin",
"RECORD_INSERTION_TIME" : "1594390204"
}
]
},
"metadata" : {

},
"search" : [

]
},
"comments" : [

],
"origin" : {
"source" : "template",
"name" : "notprovided",
"format" : "json",
"created" : "2020-07-21T14:27:48.160-0500",
"rawdata" : [

]
},
"version" : "4",
"entities" : [
{
"name" : "OTSROOT",
"assigned" : "2020-07-21T14:27:48.161-0500"
}
],
"configurations" : [
{
"name" : "notprovided",
"assigned" : "2020-07-21T14:27:48.161-0500"
},
{
"name" : "TableEditWizBackbone_v4",
"assigned" : "2020-07-21T14:27:48.216-0500"
}
],
"changelog" : "notprovided",
"bookkeeping" : {
"isdeleted" : false,
"isreadonly" : false,
"updates" : [
{
"event" : "addConfiguration",
"timestamp" : "2020-07-21T14:27:48.161-0500",
"value" : {
"name" : "notprovided",
"assigned" : "2020-07-21T14:27:48.161-0500"
}
},
{
"event" : "setVersion",
"timestamp" : "2020-07-21T14:27:48.161-0500",
"value" : {
"name" : "4",
"assigned" : "2020-07-21T14:27:48.161-0500"
}
},
{
"event" : "setCollection",
"timestamp" : "2020-07-21T14:27:48.161-0500",
"value" : {
"name" : "GroupAliasesTable",
"assigned" : "2020-07-21T14:27:48.161-0500"
}
},
{
"event" : "addEntity",
"timestamp" : "2020-07-21T14:27:48.161-0500",
"value" : {
"name" : "OTSROOT",
"assigned" : "2020-07-21T14:27:48.161-0500"
}
},
{
"event" : "addConfiguration",
"timestamp" : "2020-07-21T14:27:48.216-0500",
"value" : {
"name" : "TableEditWizBackbone_v4",
"assigned" : "2020-07-21T14:27:48.216-0500"
}
}
],
"created" : "2020-07-21T14:27:48.160-0500"
},
"_id" : {
"$oid" : "e9ddd8baf038478da7bdba77"
},
"collection" : "GroupAliasesTable",
"aliases" : {
"active" : [

],
"history" : [

]
},
"runs" : [

],
"attachments" : [

],
"configtype" : "notprovided"
}