{
"ouid" : [
"02b2793052ee438db34a191f",
"06121e601bb64c06a1c02abc",
"095862110cf444bbbc636bef",
"0d68d862e246476dad3a5582",
"0f32cb78c2284a9991f1fa1b",
"0fe4ea59fe16472ebc5b0f35",
"114055bb923147af966be9be",
"135c24bf180e4b65b878667a",
"1a3462016e8f44468214b1fe",
"1f599f60a8c641a8ac307749",
"21127b187be24ab09dd2e191",
"22484f6c2f674a1e9be39420",
"23d4f626666f41fda1d715e8",
"28998553a1ae492491526841",
"2b5d9a6b9c554676ba199aff",
"2d35b255e67b4c828b98bbde",
"2e5fa3a8708b47208fc300e6",
"2f580aecb2a645cb9421234c",
"328eda7db125416f95d207c7",
"4e3280d87cf64ab09bfaf5df",
"50a5ea01144c4ea3a702fed5",
"5a7f9ccdb20e4fdea4d2c08a",
"5db9045ef3c7454a97fd5834",
"5e6f8e5989564ca4a71e553b",
"6221d6756cf34fc2aaf9d99f",
"6cc4890f80234499824aa4a1",
"6fce98285e974c25a574aae4",
"75382626181e4cdda0819a53",
"75e345bd476143eebb950071",
"7ed3fbc6c0a144019c2571c6",
"83362e6d480e4871bc410fe7",
"8ddf94ed89df42dab2f5a074",
"8e4af37185e7443d833a56f9",
"8ff917f952734cbe97111cf0",
"9161ccc9c41446db8cb946eb",
"917ade9cff124645b2175487",
"9318f60b7ad942f6bf2af702",
"9a3fcef6e7f14d0989051ff1",
"9b4ee1ccea2847aba6f83ddd",
"9e58ac68b11e4eefb3572745",
"a2ef58cab25343939185d598",
"afc65bdbe44349a68a50e857",
"b5f04bbe3e644759a92e9a0a",
"b6c0e07a4a594db091d63f93",
"bc1fe418a02c4ee7bd6dcce3",
"bf5e5e3ea3fc4318b4a676b3",
"c06a66d79ab74f9d8f22a566",
"c0e331df960d4398b6e1d757",
"c1c5e9f1f6dd432a899f3b71",
"c43fa2863ebe44d1b859c6d9",
"c5f9168153fd488aa5c40087",
"c96ff4f7fe8240499460555f",
"cb16c78c14824c5fa531c8f3",
"d139d5ba545840c2a2dcde42",
"d481c48516a1426a84721c2d",
"d4a9e0de7bb0497e83b097fc",
"e9ddd8baf038478da7bdba77",
"eed440cd2a31462f816fff73",
"f162834972244f97898ecb4a",
"f3512cea9fe74805a335c5ce",
"f75703bf8e964cc0bb175659",
"f798833af2694f938a5ff24c"
],
"version" : {
"3" : [
"d481c48516a1426a84721c2d"
],
"4" : [
"e9ddd8baf038478da7bdba77"
],
"5" : [
"f3512cea9fe74805a335c5ce"
],
"6" : [
"9e58ac68b11e4eefb3572745"
],
"7" : [
"b6c0e07a4a594db091d63f93"
],
"8" : [
"2b5d9a6b9c554676ba199aff"
],
"9" : [
"8ddf94ed89df42dab2f5a074"
],
"10" : [
"28998553a1ae492491526841"
],
"11" : [
"bf5e5e3ea3fc4318b4a676b3"
],
"12" : [
"9a3fcef6e7f14d0989051ff1"
],
"13" : [
"cb16c78c14824c5fa531c8f3"
],
"14" : [
"75e345bd476143eebb950071"
],
"15" : [
"9161ccc9c41446db8cb946eb"
],
"16" : [
"bc1fe418a02c4ee7bd6dcce3"
],
"17" : [
"6cc4890f80234499824aa4a1"
],
"18" : [
"afc65bdbe44349a68a50e857"
],
"19" : [
"06121e601bb64c06a1c02abc"
],
"20" : [
"5db9045ef3c7454a97fd5834"
],
"21" : [
"1f599f60a8c641a8ac307749"
],
"22" : [
"5a7f9ccdb20e4fdea4d2c08a"
],
"23" : [
"b5f04bbe3e644759a92e9a0a"
],
"24" : [
"2e5fa3a8708b47208fc300e6"
],
"25" : [
"9b4ee1ccea2847aba6f83ddd"
],
"26" : [
"917ade9cff124645b2175487"
],
"27" : [
"0fe4ea59fe16472ebc5b0f35"
],
"28" : [
"f75703bf8e964cc0bb175659"
],
"29" : [
"c06a66d79ab74f9d8f22a566"
],
"30" : [
"5e6f8e5989564ca4a71e553b"
],
"31" : [
"23d4f626666f41fda1d715e8"
],
"32" : [
"75382626181e4cdda0819a53"
],
"33" : [
"2d35b255e67b4c828b98bbde"
],
"34" : [
"6221d6756cf34fc2aaf9d99f"
],
"35" : [
"21127b187be24ab09dd2e191"
],
"36" : [
"c96ff4f7fe8240499460555f"
],
"37" : [
"095862110cf444bbbc636bef"
],
"38" : [
"2f580aecb2a645cb9421234c"
],
"39" : [
"d4a9e0de7bb0497e83b097fc"
],
"40" : [
"0d68d862e246476dad3a5582"
],
"41" : [
"02b2793052ee438db34a191f"
],
"42" : [
"9318f60b7ad942f6bf2af702"
],
"43" : [
"7ed3fbc6c0a144019c2571c6"
],
"44" : [
"c5f9168153fd488aa5c40087"
],
"45" : [
"0f32cb78c2284a9991f1fa1b"
],
"46" : [
"d139d5ba545840c2a2dcde42"
],
"47" : [
"8ff917f952734cbe97111cf0"
],
"48" : [
"eed440cd2a31462f816fff73"
],
"49" : [
"114055bb923147af966be9be"
],
"50" : [
"1a3462016e8f44468214b1fe"
],
"51" : [
"c43fa2863ebe44d1b859c6d9"
],
"52" : [
"50a5ea01144c4ea3a702fed5"
],
"53" : [
"135c24bf180e4b65b878667a"
],
"54" : [
"4e3280d87cf64ab09bfaf5df"
],
"55" : [
"a2ef58cab25343939185d598"
],
"56" : [
"c0e331df960d4398b6e1d757"
],
"57" : [
"83362e6d480e4871bc410fe7"
],
"58" : [
"8e4af37185e7443d833a56f9"
],
"59" : [
"22484f6c2f674a1e9be39420"
],
"60" : [
"6fce98285e974c25a574aae4"
],
"61" : [
"f798833af2694f938a5ff24c"
],
"62" : [
"f162834972244f97898ecb4a"
],
"63" : [
"328eda7db125416f95d207c7"
],
"64" : [
"c1c5e9f1f6dd432a899f3b71"
]
},
"configurations.name" : {
"notprovided" : [
"02b2793052ee438db34a191f",
"06121e601bb64c06a1c02abc",
"095862110cf444bbbc636bef",
"0d68d862e246476dad3a5582",
"0f32cb78c2284a9991f1fa1b",
"0fe4ea59fe16472ebc5b0f35",
"114055bb923147af966be9be",
"135c24bf180e4b65b878667a",
"1a3462016e8f44468214b1fe",
"1f599f60a8c641a8ac307749",
"21127b187be24ab09dd2e191",
"22484f6c2f674a1e9be39420",
"23d4f626666f41fda1d715e8",
"28998553a1ae492491526841",
"2b5d9a6b9c554676ba199aff",
"2d35b255e67b4c828b98bbde",
"2e5fa3a8708b47208fc300e6",
"2f580aecb2a645cb9421234c",
"328eda7db125416f95d207c7",
"4e3280d87cf64ab09bfaf5df",
"50a5ea01144c4ea3a702fed5",
"5a7f9ccdb20e4fdea4d2c08a",
"5db9045ef3c7454a97fd5834",
"5e6f8e5989564ca4a71e553b",
"6221d6756cf34fc2aaf9d99f",
"6cc4890f80234499824aa4a1",
"6fce98285e974c25a574aae4",
"75382626181e4cdda0819a53",
"75e345bd476143eebb950071",
"7ed3fbc6c0a144019c2571c6",
"83362e6d480e4871bc410fe7",
"8ddf94ed89df42dab2f5a074",
"8e4af37185e7443d833a56f9",
"8ff917f952734cbe97111cf0",
"9161ccc9c41446db8cb946eb",
"917ade9cff124645b2175487",
"9318f60b7ad942f6bf2af702",
"9a3fcef6e7f14d0989051ff1",
"9b4ee1ccea2847aba6f83ddd",
"9e58ac68b11e4eefb3572745",
"a2ef58cab25343939185d598",
"afc65bdbe44349a68a50e857",
"b5f04bbe3e644759a92e9a0a",
"b6c0e07a4a594db091d63f93",
"bc1fe418a02c4ee7bd6dcce3",
"bf5e5e3ea3fc4318b4a676b3",
"c06a66d79ab74f9d8f22a566",
"c0e331df960d4398b6e1d757",
"c1c5e9f1f6dd432a899f3b71",
"c43fa2863ebe44d1b859c6d9",
"c5f9168153fd488aa5c40087",
"c96ff4f7fe8240499460555f",
"cb16c78c14824c5fa531c8f3",
"d139d5ba545840c2a2dcde42",
"d481c48516a1426a84721c2d",
"d4a9e0de7bb0497e83b097fc",
"e9ddd8baf038478da7bdba77",
"eed440cd2a31462f816fff73",
"f162834972244f97898ecb4a",
"f3512cea9fe74805a335c5ce",
"f75703bf8e964cc0bb175659",
"f798833af2694f938a5ff24c"
],
"TableEditWizBackbone_v3" : [
"d481c48516a1426a84721c2d"
],
"TableEditWizBackbone_v4" : [
"e9ddd8baf038478da7bdba77"
],
"GroupAliasTreeEditWizBackbone_v0" : [
"f3512cea9fe74805a335c5ce"
],
"GroupAliasTreeEditWizBackbone_v1" : [
"9e58ac68b11e4eefb3572745"
],
"GroupAliasTreeEditWizBackbone_v2" : [
"b6c0e07a4a594db091d63f93"
],
"GroupAliasTreeEditWizBackbone_v3" : [
"2b5d9a6b9c554676ba199aff"
],
"GroupAliasTreeEditWizBackbone_v4" : [
"8ddf94ed89df42dab2f5a074"
],
"GroupAliasTreeEditWizBackbone_v5" : [
"28998553a1ae492491526841"
],
"TableEditWizBackbone_v5" : [
"bf5e5e3ea3fc4318b4a676b3"
],
"GroupAliasTreeEditWizBackbone_v6" : [
"9a3fcef6e7f14d0989051ff1"
],
"GroupAliasTreeEditWizBackbone_v7" : [
"cb16c78c14824c5fa531c8f3"
],
"GroupAliasTreeEditWizBackbone_v8" : [
"75e345bd476143eebb950071"
],
"GroupAliasTreeEditWizBackbone_v9" : [
"9161ccc9c41446db8cb946eb"
],
"GroupAliasTreeEditWizBackbone_v10" : [
"bc1fe418a02c4ee7bd6dcce3"
],
"GroupAliasTreeEditWizBackbone_v11" : [
"6cc4890f80234499824aa4a1"
],
"TableEditWizBackbone_v6" : [
"afc65bdbe44349a68a50e857"
],
"TableEditWizBackbone_v7" : [
"06121e601bb64c06a1c02abc"
],
"TableEditWizBackbone_v8" : [
"5db9045ef3c7454a97fd5834"
],
"GroupAliasTreeEditWizBackbone_v12" : [
"1f599f60a8c641a8ac307749"
],
"TableEditWizBackbone_v9" : [
"5a7f9ccdb20e4fdea4d2c08a"
],
"TableEditWizBackbone_v10" : [
"b5f04bbe3e644759a92e9a0a"
],
"TableEditWizBackbone_v11" : [
"2e5fa3a8708b47208fc300e6"
],
"TableEditWizBackbone_v12" : [
"9b4ee1ccea2847aba6f83ddd"
],
"TableEditWizBackbone_v13" : [
"917ade9cff124645b2175487"
],
"TableEditWizBackbone_v14" : [
"0fe4ea59fe16472ebc5b0f35"
],
"TableEditWizBackbone_v15" : [
"f75703bf8e964cc0bb175659"
],
"TableEditWizBackbone_v16" : [
"c06a66d79ab74f9d8f22a566"
],
"TableEditWizBackbone_v17" : [
"5e6f8e5989564ca4a71e553b"
],
"TableEditWizBackbone_v18" : [
"23d4f626666f41fda1d715e8"
],
"TableEditWizBackbone_v19" : [
"75382626181e4cdda0819a53"
],
"TableEditWizBackbone_v20" : [
"2d35b255e67b4c828b98bbde"
],
"TableEditWizBackbone_v21" : [
"6221d6756cf34fc2aaf9d99f"
],
"TableEditWizBackbone_v22" : [
"21127b187be24ab09dd2e191"
],
"TableEditWizBackbone_v23" : [
"c96ff4f7fe8240499460555f"
],
"TableEditWizBackbone_v24" : [
"095862110cf444bbbc636bef"
],
"TableEditWizBackbone_v25" : [
"2f580aecb2a645cb9421234c"
],
"TableEditWizBackbone_v26" : [
"d4a9e0de7bb0497e83b097fc"
],
"TableEditWizBackbone_v27" : [
"0d68d862e246476dad3a5582"
],
"TableEditWizBackbone_v28" : [
"02b2793052ee438db34a191f"
],
"TableEditWizBackbone_v29" : [
"9318f60b7ad942f6bf2af702"
],
"TableEditWizBackbone_v30" : [
"7ed3fbc6c0a144019c2571c6"
],
"TableEditWizBackbone_v31" : [
"c5f9168153fd488aa5c40087"
],
"GroupAliasTreeEditWizBackbone_v13" : [
"0f32cb78c2284a9991f1fa1b"
],
"TableEditWizBackbone_v32" : [
"d139d5ba545840c2a2dcde42"
],
"TableEditWizBackbone_v33" : [
"8ff917f952734cbe97111cf0"
],
"TableEditWizBackbone_v34" : [
"eed440cd2a31462f816fff73"
],
"TableEditWizBackbone_v35" : [
"114055bb923147af966be9be"
],
"TableEditWizBackbone_v36" : [
"1a3462016e8f44468214b1fe"
],
"TableEditWizBackbone_v37" : [
"c43fa2863ebe44d1b859c6d9"
],
"TableEditWizBackbone_v38" : [
"50a5ea01144c4ea3a702fed5"
],
"TableEditWizBackbone_v39" : [
"135c24bf180e4b65b878667a"
],
"TableEditWizBackbone_v40" : [
"4e3280d87cf64ab09bfaf5df"
],
"TableEditWizBackbone_v41" : [
"a2ef58cab25343939185d598"
],
"GroupAliasSaveWizBackbone_v0" : [
"a2ef58cab25343939185d598"
],
"TableEditWizBackbone_v42" : [
"c0e331df960d4398b6e1d757"
],
"TableEditWizBackbone_v43" : [
"83362e6d480e4871bc410fe7"
],
"TableEditWizBackbone_v44" : [
"8e4af37185e7443d833a56f9"
],
"TableEditWizBackbone_v45" : [
"22484f6c2f674a1e9be39420"
],
"TableEditWizBackbone_v46" : [
"6fce98285e974c25a574aae4"
],
"TableEditWizBackbone_v47" : [
"f798833af2694f938a5ff24c"
],
"TableEditWizBackbone_v48" : [
"f162834972244f97898ecb4a"
],
"TableEditWizBackbone_v49" : [
"328eda7db125416f95d207c7"
],
"TableEditWizBackbone_v50" : [
"c1c5e9f1f6dd432a899f3b71"
]
},
"entities.name" : {
"OTSROOT" : [
"02b2793052ee438db34a191f",
"06121e601bb64c06a1c02abc",
"095862110cf444bbbc636bef",
"0d68d862e246476dad3a5582",
"0f32cb78c2284a9991f1fa1b",
"0fe4ea59fe16472ebc5b0f35",
"114055bb923147af966be9be",
"135c24bf180e4b65b878667a",
"1a3462016e8f44468214b1fe",
"1f599f60a8c641a8ac307749",
"21127b187be24ab09dd2e191",
"22484f6c2f674a1e9be39420",
"23d4f626666f41fda1d715e8",
"28998553a1ae492491526841",
"2b5d9a6b9c554676ba199aff",
"2d35b255e67b4c828b98bbde",
"2e5fa3a8708b47208fc300e6",
"2f580aecb2a645cb9421234c",
"328eda7db125416f95d207c7",
"4e3280d87cf64ab09bfaf5df",
"50a5ea01144c4ea3a702fed5",
"5a7f9ccdb20e4fdea4d2c08a",
"5db9045ef3c7454a97fd5834",
"5e6f8e5989564ca4a71e553b",
"6221d6756cf34fc2aaf9d99f",
"6cc4890f80234499824aa4a1",
"6fce98285e974c25a574aae4",
"75382626181e4cdda0819a53",
"75e345bd476143eebb950071",
"7ed3fbc6c0a144019c2571c6",
"83362e6d480e4871bc410fe7",
"8ddf94ed89df42dab2f5a074",
"8e4af37185e7443d833a56f9",
"8ff917f952734cbe97111cf0",
"9161ccc9c41446db8cb946eb",
"917ade9cff124645b2175487",
"9318f60b7ad942f6bf2af702",
"9a3fcef6e7f14d0989051ff1",
"9b4ee1ccea2847aba6f83ddd",
"9e58ac68b11e4eefb3572745",
"a2ef58cab25343939185d598",
"afc65bdbe44349a68a50e857",
"b5f04bbe3e644759a92e9a0a",
"b6c0e07a4a594db091d63f93",
"bc1fe418a02c4ee7bd6dcce3",
"bf5e5e3ea3fc4318b4a676b3",
"c06a66d79ab74f9d8f22a566",
"c0e331df960d4398b6e1d757",
"c1c5e9f1f6dd432a899f3b71",
"c43fa2863ebe44d1b859c6d9",
"c5f9168153fd488aa5c40087",
"c96ff4f7fe8240499460555f",
"cb16c78c14824c5fa531c8f3",
"d139d5ba545840c2a2dcde42",
"d481c48516a1426a84721c2d",
"d4a9e0de7bb0497e83b097fc",
"e9ddd8baf038478da7bdba77",
"eed440cd2a31462f816fff73",
"f162834972244f97898ecb4a",
"f3512cea9fe74805a335c5ce",
"f75703bf8e964cc0bb175659",
"f798833af2694f938a5ff24c"
]
},
"aliases.active.name" : {

},
"runs.name" : {

},
"configurations.assigned" : {
"notprovided" : [
"2020-07-21T14:27:47.942-0500",
"2020-07-21T14:27:48.161-0500",
"2020-07-21T14:42:50.897-0500",
"2020-07-21T14:44:17.012-0500",
"2020-07-21T14:46:44.767-0500",
"2020-07-21T14:51:17.041-0500",
"2020-07-21T14:55:17.257-0500",
"2020-07-21T14:55:57.394-0500",
"2020-07-21T14:57:50.856-0500",
"2020-07-21T15:50:01.792-0500",
"2020-08-20T13:46:49.062-0500",
"2020-08-20T13:52:01.213-0500",
"2020-08-20T14:43:55.552-0500",
"2020-08-24T11:59:57.361-0500",
"2020-08-24T16:05:13.924-0500",
"2020-08-26T10:29:25.030-0500",
"2020-08-26T10:33:57.213-0500",
"2020-08-26T10:45:55.073-0500",
"2020-08-26T11:10:54.722-0500",
"2020-08-26T14:49:53.230-0500",
"2020-08-26T14:52:00.850-0500",
"2020-08-26T15:00:04.340-0500",
"2020-08-26T16:17:13.182-0500",
"2020-08-26T16:18:16.150-0500",
"2020-08-28T21:40:23.438-0500",
"2020-08-31T15:19:59.448-0500",
"2020-09-03T10:43:23.010-0500",
"2020-09-03T10:49:03.925-0500",
"2020-09-08T17:07:22.253-0500",
"2020-09-11T16:02:29.991-0500",
"2020-09-14T17:47:20.005-0500",
"2020-09-14T18:00:24.301-0500",
"2020-09-15T15:14:57.854-0500",
"2020-09-15T15:18:54.948-0500",
"2020-09-15T15:27:51.890-0500",
"2020-09-15T15:52:13.368-0500",
"2020-09-21T11:41:59.161-0500",
"2020-09-21T11:54:29.959-0500",
"2020-10-06T14:24:22.867-0500",
"2020-10-06T14:45:42.036-0500",
"2020-10-06T15:04:20.567-0500",
"2020-10-07T16:45:36.838-0500",
"2020-10-07T17:03:31.037-0500",
"2020-11-04T20:42:37.977-0600",
"2020-11-10T13:18:47.049-0600",
"2020-11-10T13:35:42.320-0600",
"2020-11-10T13:38:42.263-0600",
"2020-11-10T13:39:24.113-0600",
"2020-11-10T13:41:31.112-0600",
"2020-11-10T15:30:53.208-0600",
"2020-11-11T11:00:27.621-0600",
"2020-11-11T11:54:29.018-0600",
"2020-11-11T11:57:37.924-0600",
"2020-11-11T15:51:21.534-0600",
"2020-11-11T15:51:48.588-0600",
"2020-11-13T11:04:51.301-0600",
"2020-11-13T11:24:27.233-0600",
"2020-11-13T14:27:42.209-0600",
"2020-11-23T16:30:54.798-0600",
"2020-12-21T11:05:57.695-0600",
"2021-01-18T20:04:40.034-0600",
"2021-01-18T20:05:20.515-0600"
],
"TableEditWizBackbone_v3" : [
"2020-07-21T14:27:48.054-0500"
],
"TableEditWizBackbone_v4" : [
"2020-07-21T14:27:48.216-0500"
],
"GroupAliasTreeEditWizBackbone_v0" : [
"2020-07-21T14:42:51.200-0500"
],
"GroupAliasTreeEditWizBackbone_v1" : [
"2020-07-21T14:44:17.314-0500"
],
"GroupAliasTreeEditWizBackbone_v2" : [
"2020-07-21T14:46:45.089-0500"
],
"GroupAliasTreeEditWizBackbone_v3" : [
"2020-07-21T14:51:17.429-0500"
],
"GroupAliasTreeEditWizBackbone_v4" : [
"2020-07-21T14:55:17.373-0500"
],
"GroupAliasTreeEditWizBackbone_v5" : [
"2020-07-21T14:55:57.797-0500"
],
"TableEditWizBackbone_v5" : [
"2020-07-21T14:57:51.289-0500"
],
"GroupAliasTreeEditWizBackbone_v6" : [
"2020-07-21T15:50:02.196-0500"
],
"GroupAliasTreeEditWizBackbone_v7" : [
"2020-08-20T13:46:49.536-0500"
],
"GroupAliasTreeEditWizBackbone_v8" : [
"2020-08-20T13:52:01.715-0500"
],
"GroupAliasTreeEditWizBackbone_v9" : [
"2020-08-20T14:43:56.072-0500"
],
"GroupAliasTreeEditWizBackbone_v10" : [
"2020-08-24T11:59:57.911-0500"
],
"GroupAliasTreeEditWizBackbone_v11" : [
"2020-08-24T16:05:14.482-0500"
],
"TableEditWizBackbone_v6" : [
"2020-08-26T10:29:25.506-0500"
],
"TableEditWizBackbone_v7" : [
"2020-08-26T10:33:57.730-0500"
],
"TableEditWizBackbone_v8" : [
"2020-08-26T10:45:55.610-0500"
],
"GroupAliasTreeEditWizBackbone_v12" : [
"2020-08-26T11:10:55.321-0500"
],
"TableEditWizBackbone_v9" : [
"2020-08-26T14:49:53.779-0500"
],
"TableEditWizBackbone_v10" : [
"2020-08-26T14:52:01.393-0500"
],
"TableEditWizBackbone_v11" : [
"2020-08-26T15:00:04.940-0500"
],
"TableEditWizBackbone_v12" : [
"2020-08-26T16:17:13.771-0500"
],
"TableEditWizBackbone_v13" : [
"2020-08-26T16:18:16.991-0500"
],
"TableEditWizBackbone_v14" : [
"2020-08-28T21:40:24.047-0500"
],
"TableEditWizBackbone_v15" : [
"2020-08-31T15:20:00.137-0500"
],
"TableEditWizBackbone_v16" : [
"2020-09-03T10:43:23.852-0500"
],
"TableEditWizBackbone_v17" : [
"2020-09-03T10:49:04.611-0500"
],
"TableEditWizBackbone_v18" : [
"2020-09-08T17:07:22.938-0500"
],
"TableEditWizBackbone_v19" : [
"2020-09-11T16:02:30.765-0500"
],
"TableEditWizBackbone_v20" : [
"2020-09-14T17:47:20.751-0500"
],
"TableEditWizBackbone_v21" : [
"2020-09-14T18:00:25.060-0500"
],
"TableEditWizBackbone_v22" : [
"2020-09-15T15:14:58.679-0500"
],
"TableEditWizBackbone_v23" : [
"2020-09-15T15:18:55.788-0500"
],
"TableEditWizBackbone_v24" : [
"2020-09-15T15:27:52.748-0500"
],
"TableEditWizBackbone_v25" : [
"2020-09-15T15:52:14.223-0500"
],
"TableEditWizBackbone_v26" : [
"2020-09-21T11:42:00.029-0500"
],
"TableEditWizBackbone_v27" : [
"2020-09-21T11:54:30.830-0500"
],
"TableEditWizBackbone_v28" : [
"2020-10-06T14:24:23.785-0500"
],
"TableEditWizBackbone_v29" : [
"2020-10-06T14:45:42.982-0500"
],
"TableEditWizBackbone_v30" : [
"2020-10-06T15:04:21.523-0500"
],
"TableEditWizBackbone_v31" : [
"2020-10-07T16:45:37.761-0500"
],
"GroupAliasTreeEditWizBackbone_v13" : [
"2020-10-07T17:03:31.916-0500"
],
"TableEditWizBackbone_v32" : [
"2020-11-04T20:42:38.657-0600"
],
"TableEditWizBackbone_v33" : [
"2020-11-10T13:18:47.801-0600"
],
"TableEditWizBackbone_v34" : [
"2020-11-10T13:35:43.088-0600"
],
"TableEditWizBackbone_v35" : [
"2020-11-10T13:38:43.019-0600"
],
"TableEditWizBackbone_v36" : [
"2020-11-10T13:39:24.856-0600"
],
"TableEditWizBackbone_v37" : [
"2020-11-10T13:41:31.853-0600"
],
"TableEditWizBackbone_v38" : [
"2020-11-10T15:30:54.007-0600"
],
"TableEditWizBackbone_v39" : [
"2020-11-11T11:00:28.327-0600"
],
"TableEditWizBackbone_v40" : [
"2020-11-11T11:54:29.738-0600"
],
"TableEditWizBackbone_v41" : [
"2020-11-11T11:57:38.650-0600"
],
"GroupAliasSaveWizBackbone_v0" : [
"2020-11-11T12:11:53.549-0600"
],
"TableEditWizBackbone_v42" : [
"2020-11-11T15:51:22.316-0600"
],
"TableEditWizBackbone_v43" : [
"2020-11-11T15:51:49.397-0600"
],
"TableEditWizBackbone_v44" : [
"2020-11-13T11:04:52.058-0600"
],
"TableEditWizBackbone_v45" : [
"2020-11-13T11:24:27.957-0600"
],
"TableEditWizBackbone_v46" : [
"2020-11-13T14:27:43.006-0600"
],
"TableEditWizBackbone_v47" : [
"2020-11-23T16:30:55.594-0600"
],
"TableEditWizBackbone_v48" : [
"2020-12-21T11:05:58.546-0600"
],
"TableEditWizBackbone_v49" : [
"2021-01-18T20:04:40.802-0600"
],
"TableEditWizBackbone_v50" : [
"2021-01-18T20:05:21.292-0600"
]
}
}