{
"ouid" : [
"5729b08796284dc98c0befb4"
],
"version" : {
"3" : [
"5729b08796284dc98c0befb4"
]
},
"configurations.name" : {
"notprovided" : [
"5729b08796284dc98c0befb4"
],
"iterateDefaultGroup_v3" : [
"5729b08796284dc98c0befb4"
]
},
"entities.name" : {
"OTSROOT" : [
"5729b08796284dc98c0befb4"
]
},
"aliases.active.name" : {

},
"runs.name" : {

},
"configurations.assigned" : {
"notprovided" : [
"2020-09-08T15:08:32.378-0500"
],
"iterateDefaultGroup_v3" : [
"2020-09-08T15:08:32.918-0500"
]
}
}