{
"document" : {
"data" : {
"NAME" : "GROUP_ALIASES_TABLE",
"COMMENT" : "Default Backbone.",
"AUTHOR" : "admin",
"CREATION_TIME" : 1599757593,
"COL_TYPES" : {
"GROUP_KEY_ALIAS" : "STRING",
"GROUP_NAME" : "STRING",
"GROUP_KEY" : "STRING",
"COMMENT_DESCRIPTION" : "STRING",
"AUTHOR" : "STRING",
"RECORD_INSERTION_TIME" : "TIMESTAMP WITH TIMEZONE"
},
"DATA_SET" : [
{
"GROUP_KEY_ALIAS" : "OuterTrackerContext",
"GROUP_NAME" : "DefaultContext",
"GROUP_KEY" : "7",
"COMMENT_DESCRIPTION" : "This Group Alias was automatically setup by the server.",
"AUTHOR" : "admin",
"RECORD_INSERTION_TIME" : "1599673737"
},
{
"GROUP_KEY_ALIAS" : "OuterTrackerTable",
"GROUP_NAME" : "DefaultConfig",
"GROUP_KEY" : "8",
"COMMENT_DESCRIPTION" : "This Group Alias was automatically setup by the server.",
"AUTHOR" : "admin",
"RECORD_INSERTION_TIME" : "1599757593"
}
]
},
"metadata" : {

},
"search" : [

]
},
"comments" : [

],
"origin" : {
"source" : "template",
"name" : "notprovided",
"format" : "json",
"created" : "2020-09-10T19:06:33.249+0200",
"rawdata" : [

]
},
"version" : "19",
"entities" : [
{
"name" : "OTSROOT",
"assigned" : "2020-09-10T19:06:33.249+0200"
}
],
"configurations" : [
{
"name" : "notprovided",
"assigned" : "2020-09-10T19:06:33.249+0200"
},
{
"name" : "GroupAliasTreeEditWizBackbone_v11",
"assigned" : "2020-09-10T19:06:33.945+0200"
},
{
"name" : "GroupAliasWizBackbone_v0",
"assigned" : "2020-09-15T15:36:53.232+0200"
}
],
"changelog" : "notprovided",
"bookkeeping" : {
"isdeleted" : false,
"isreadonly" : false,
"updates" : [
{
"event" : "addConfiguration",
"timestamp" : "2020-09-10T19:06:33.249+0200",
"value" : {
"name" : "notprovided",
"assigned" : "2020-09-10T19:06:33.249+0200"
}
},
{
"event" : "setVersion",
"timestamp" : "2020-09-10T19:06:33.249+0200",
"value" : {
"name" : "19",
"assigned" : "2020-09-10T19:06:33.249+0200"
}
},
{
"event" : "setCollection",
"timestamp" : "2020-09-10T19:06:33.249+0200",
"value" : {
"name" : "GroupAliasesTable",
"assigned" : "2020-09-10T19:06:33.249+0200"
}
},
{
"event" : "addEntity",
"timestamp" : "2020-09-10T19:06:33.249+0200",
"value" : {
"name" : "OTSROOT",
"assigned" : "2020-09-10T19:06:33.249+0200"
}
},
{
"event" : "addConfiguration",
"timestamp" : "2020-09-10T19:06:33.945+0200",
"value" : {
"name" : "GroupAliasTreeEditWizBackbone_v11",
"assigned" : "2020-09-10T19:06:33.945+0200"
}
},
{
"event" : "addConfiguration",
"timestamp" : "2020-09-15T15:36:53.232+0200",
"value" : {
"name" : "GroupAliasWizBackbone_v0",
"assigned" : "2020-09-15T15:36:53.232+0200"
}
}
],
"created" : "2020-09-10T19:06:33.249+0200"
},
"_id" : {
"$oid" : "3332a0b6be984bb083715b28"
},
"collection" : "GroupAliasesTable",
"aliases" : {
"active" : [

],
"history" : [

]
},
"runs" : [

],
"attachments" : [

],
"configtype" : "notprovided"
}