18 Dec 2019 23:25:47.996 [140303158913216] INFO  gov.fnal.dhcp.athenanu.p:2020 <> - xdaq version: 05.03.01, compiled on Apr 19 2019 at 09:24:24, 64bit
18 Dec 2019 23:25:47.998 [140303158913216] INFO  gov.fnal.dhcp.athenanu.p:2020 <> - Loaded profile: /home/otsdaq/otsdaq/srcs/otsdaq_cmsoutertracker/DataDefault/XDAQConfigurations/otsConfiguration_CMake.xml
18 Dec 2019 23:25:47.998 [140303158913216] INFO  gov.fnal.dhcp.athenanu.p:2020 <> - b2innub version: 02.05.01, compiled on Apr 19 2019 at 09:27:11
18 Dec 2019 23:25:48.000 [140303158913216] INFO  gov.fnal.dhcp.athenanu.p:2020 <> - executive version: 04.00.06, compiled on Apr 19 2019 at 09:26:38
18 Dec 2019 23:25:48.001 [140303158913216] INFO  gov.fnal.dhcp.athenanu.p:2020 <> - b2inutils version: 04.04.05, compiled on Apr 19 2019 at 09:27:18
18 Dec 2019 23:25:48.003 [140303158913216] INFO  gov.fnal.dhcp.athenanu.p:2020 <> - pthttp version: 04.05.07, compiled on Apr 19 2019 at 09:25:32
18 Dec 2019 23:25:48.004 [140303158913216] INFO  gov.fnal.dhcp.athenanu.p:2020 <> - ptfifo version: 04.03.01, compiled on Apr 19 2019 at 09:26:16
18 Dec 2019 23:25:48.005 [140303158913216] INFO  gov.fnal.dhcp.athenanu.p:2020 <> - xrelay version: 04.01.00, compiled on Apr 19 2019 at 09:27:04
18 Dec 2019 23:25:48.007 [140303158913216] INFO  gov.fnal.dhcp.athenanu.p:2020 <> - hyperdaq version: 05.02.01, compiled on Apr 19 2019 at 09:27:02
18 Dec 2019 23:25:48.007 [140303158913216] DEBUG gov.fnal.dhcp.athenanu.p:2020 <> - Create application descriptor for class: executive::Application id: 0
18 Dec 2019 23:25:48.026 [140303158913216] INFO  gov.fnal.dhcp.athenanu.p:2020.executive::Application.lid(0) <> - Log URL not set (was already console)
18 Dec 2019 23:25:48.027 [140303158913216] INFO  gov.fnal.dhcp.athenanu.p:2020.executive::Application.lid(0) <> - Changed Log level to INFO
18 Dec 2019 23:25:48.030 [140303158913216] INFO  gov.fnal.dhcp.athenanu.p:2020.pt::http::PeerTransportHTTP.lid(1) <> - No security policies on this server
18 Dec 2019 23:25:48.229 [140303158913216] INFO  gov.fnal.dhcp.athenanu.p:2020 <> - CoreSupervisors version: 03.00.00, compiled on Dec 18 2019 at 16:56:55
12-18 17:25:48.233944                    MessageFacility.h dbg Configuring message facility with /home/otsdaq/otsdaq/srcs/otsdaq_cmsoutertracker/DataDefault/MessageFacilityConfigurations/MessageFacilityGen.fcl
udp: {
	type: UDP
	threshold: DEBUG
	port: 30000
	host: "127.0.0.1"
}
console: {
	type: "OTS"
	threshold: "DEBUG"
	filename_delimit: "/srcs/"
	format_string: "|%L:%N:%f [%u]	%m"

}

file: {}
|Info:configureMessageFacility:configureMessageFacility.cc [290]	Message Facility Application . configured with: debugModules:["*"] destinations:{console:{filename_delimit:"/srcs/" format_string:"|%L:%N:%f [%u]\t%m" threshold:"DEBUG" type:"OTS"} file:{} udp:{host:"127.0.0.1" port:30000 threshold:"DEBUG" type:"UDP"}}
|Info:_TCPConnect:TCPConnect.cc [334]	Resolving host 127.0.0.1, on port 30000
%MSG-i _TCPConnect:  DAQ 18-Dec-2019 17:25:48 CST Booted TCPConnect.cc:334
Resolving host 127.0.0.1, on port 30000
%MSG
|Info:_TCPConnect:TCPConnect.cc [241]	Resolving ip athenanu.dhcp.fnal.gov
%MSG-i _TCPConnect:  DAQ 18-Dec-2019 17:25:48 CST Booted TCPConnect.cc:241
Resolving ip athenanu.dhcp.fnal.gov
%MSG
%MSG-i configureMessageFacility:  Early 18-Dec-2019 17:25:48 CST pre-events configureMessageFacility.cc:290
Message Facility Application . configured with: debugModules:["*"] destinations:{console:{filename_delimit:"/srcs/" format_string:"|%L:%N:%f [%u]\t%m" threshold:"DEBUG" type:"OTS"} file:{} udp:{host:"127.0.0.1" port:30000 threshold:"DEBUG" type:"UDP"}}
%MSG
|Debug:CorePropertySupervisorBase.cc:otsdaq/otsdaq/CoreSupervisors/CorePropertySupervisorBase.cc [27]	FESupervisor-UNINITIALIZED_supervisorApplicationUID	<> application->getApplicationContext()->getContextDescriptor()->getURL() = http://athenanu.dhcp.fnal.gov:2020
|Debug:CorePropertySupervisorBase.cc:otsdaq/otsdaq/CoreSupervisors/CorePropertySupervisorBase.cc [28]	FESupervisor-UNINITIALIZED_supervisorApplicationUID	<> application->getApplicationDescriptor()->getLocalId() = 400
|Debug:CorePropertySupervisorBase.cc:otsdaq/otsdaq/CoreSupervisors/CorePropertySupervisorBase.cc [29]	FESupervisor-UNINITIALIZED_supervisorApplicationUID	<> supervisorClass_ = ots::FESupervisor
|Debug:CorePropertySupervisorBase.cc:otsdaq/otsdaq/CoreSupervisors/CorePropertySupervisorBase.cc [30]	FESupervisor-UNINITIALIZED_supervisorApplicationUID	<> supervisorClassNoNamespace_ = FESupervisor
|Debug:AllSupervisorInfo.cc:otsdaq/otsdaq/SupervisorInfo/AllSupervisorInfo.cc [42]	Initializing info based on XDAQ context...
|Debug:SupervisorDescriptorInfoBase.cc:otsdaq/otsdaq/SupervisorInfo/SupervisorDescriptorInfoBase.cc [33]	Init
|Debug:AllSupervisorInfo.cc:otsdaq/otsdaq/SupervisorInfo/AllSupervisorInfo.cc [98]	Initializing info for Normal mode XDAQ context...
|Debug:TableBase:otsdaq/otsdaq/TableCore/TableBase.cc [1107]	TableBase-TableGroupMetadata	<> Using Mock-up view
|Debug:ConfigurationManager:otsdaq/otsdaq/ConfigurationInterface/ConfigurationManager.cc [163]	username_ = READONLY_USER
|Debug:ConfigurationManager:otsdaq/otsdaq/ConfigurationInterface/ConfigurationManager.cc [205]	ACTIVE_GROUPS_FILENAME = /home/otsdaq/otsdaq/srcs/otsdaq_cmsoutertracker/DataDefault/ServiceData/ActiveTableGroups.cfg
|Debug:ConfigurationManager:otsdaq/otsdaq/ConfigurationInterface/ConfigurationManager.cc [206]	ARTDAQ_DATABASE_URI = filesystemdb:///home/otsdaq/otsdaq/srcs/otsdaq_cmsoutertracker/databases/filesystemdb/default_db
|Debug:ConfigurationManager:otsdaq/otsdaq/ConfigurationInterface/ConfigurationManager.cc [1343]	------------------------------------- init start    	 [for all plug-ins in Context group 'DefaultContext(15)']
|Debug:MessageFacilityTable_table.cc:otsdaq/otsdaq/TablePlugins/MessageFacilityTable_table.cc [113]	Forwarding to Web GUI with UDP forward MesageFacility table.
|Debug:MessageFacilityTable_table.cc:otsdaq/otsdaq/TablePlugins/MessageFacilityTable_table.cc [236]	Opened.. /home/otsdaq/otsdaq/srcs/otsdaq_cmsoutertracker/DataDefault/MessageFacilityConfigurations/MessageFacilityGen.fcl
|Debug:MessageFacilityTable_table.cc:otsdaq/otsdaq/TablePlugins/MessageFacilityTable_table.cc [248]	Opened.. /home/otsdaq/otsdaq/srcs/otsdaq_cmsoutertracker/DataDefault/MessageFacilityConfigurations/MessageFacilityGen.fcl
|Debug:XDAQContextTable_table.cc:otsdaq/otsdaq/TablePlugins/XDAQContextTable_table.cc [251]	Fixing deprecated Supervisor class from ots::Supervisor to ots::GatewaySupervisor
|Debug:ConfigurationManager:otsdaq/otsdaq/ConfigurationInterface/ConfigurationManager.cc [1510]	------------------------------------- init complete 	 [for all plug-ins in Context group 'DefaultContext(15)']
|Debug:ConfigurationManager:otsdaq/otsdaq/ConfigurationInterface/ConfigurationManager.cc [1343]	------------------------------------- init start    	 [for all plug-ins in Backbone group 'TableEditWizBackbone(19)']
|Debug:ConfigurationManager:otsdaq/otsdaq/ConfigurationInterface/ConfigurationManager.cc [1510]	------------------------------------- init complete 	 [for all plug-ins in Backbone group 'TableEditWizBackbone(19)']
|Warning:ConfigurationManager:otsdaq/otsdaq/ConfigurationInterface/ConfigurationManager.cc [1336]	Not loading group because it is not of type Context or Backbone (it is type 'Configuration').
Not loading group because it is not of type Context or Backbone (it is type 'Configuration').
|Debug:AllSupervisorInfo.cc:otsdaq/otsdaq/SupervisorInfo/AllSupervisorInfo.cc [318]	Supervisor Info initialization complete!
|Debug:ConfigurationManager:otsdaq/otsdaq/ConfigurationInterface/ConfigurationManager.cc [422]	Destroying Backbone Key: 19
|Debug:ConfigurationManager:otsdaq/otsdaq/ConfigurationInterface/ConfigurationManager.cc [440]	Destroying Context Key: 15
|Debug:CorePropertySupervisorBase.cc:otsdaq/otsdaq/CoreSupervisors/CorePropertySupervisorBase.cc [71]	FESupervisor-UNINITIALIZED_supervisorApplicationUID	<> Getting configuration specific info for supervisor 'OuterTrackerSupervisor' of class ots::FESupervisor.
|Debug:TableBase:otsdaq/otsdaq/TableCore/TableBase.cc [1107]	TableBase-TableGroupMetadata	<> Using Mock-up view
|Debug:ConfigurationManager:otsdaq/otsdaq/ConfigurationInterface/ConfigurationManager.cc [163]	username_ = READONLY_USER
|Debug:ConfigurationManager:otsdaq/otsdaq/ConfigurationInterface/ConfigurationManager.cc [205]	ACTIVE_GROUPS_FILENAME = /home/otsdaq/otsdaq/srcs/otsdaq_cmsoutertracker/DataDefault/ServiceData/ActiveTableGroups.cfg
|Debug:ConfigurationManager:otsdaq/otsdaq/ConfigurationInterface/ConfigurationManager.cc [206]	ARTDAQ_DATABASE_URI = filesystemdb:///home/otsdaq/otsdaq/srcs/otsdaq_cmsoutertracker/databases/filesystemdb/default_db
|Debug:ConfigurationManager:otsdaq/otsdaq/ConfigurationInterface/ConfigurationManager.cc [1343]	------------------------------------- init start    	 [for all plug-ins in Context group 'DefaultContext(15)']
|Debug:MessageFacilityTable_table.cc:otsdaq/otsdaq/TablePlugins/MessageFacilityTable_table.cc [113]	Forwarding to Web GUI with UDP forward MesageFacility table.
|Debug:MessageFacilityTable_table.cc:otsdaq/otsdaq/TablePlugins/MessageFacilityTable_table.cc [236]	Opened.. /home/otsdaq/otsdaq/srcs/otsdaq_cmsoutertracker/DataDefault/MessageFacilityConfigurations/MessageFacilityGen.fcl
|Debug:MessageFacilityTable_table.cc:otsdaq/otsdaq/TablePlugins/MessageFacilityTable_table.cc [248]	Opened.. /home/otsdaq/otsdaq/srcs/otsdaq_cmsoutertracker/DataDefault/MessageFacilityConfigurations/MessageFacilityGen.fcl
|Debug:XDAQContextTable_table.cc:otsdaq/otsdaq/TablePlugins/XDAQContextTable_table.cc [251]	Fixing deprecated Supervisor class from ots::Supervisor to ots::GatewaySupervisor
|Debug:ConfigurationManager:otsdaq/otsdaq/ConfigurationInterface/ConfigurationManager.cc [1510]	------------------------------------- init complete 	 [for all plug-ins in Context group 'DefaultContext(15)']
|Debug:ConfigurationManager:otsdaq/otsdaq/ConfigurationInterface/ConfigurationManager.cc [1343]	------------------------------------- init start    	 [for all plug-ins in Backbone group 'TableEditWizBackbone(19)']
|Debug:ConfigurationManager:otsdaq/otsdaq/ConfigurationInterface/ConfigurationManager.cc [1510]	------------------------------------- init complete 	 [for all plug-ins in Backbone group 'TableEditWizBackbone(19)']
|Warning:ConfigurationManager:otsdaq/otsdaq/ConfigurationInterface/ConfigurationManager.cc [1336]	Not loading group because it is not of type Context or Backbone (it is type 'Configuration').
Not loading group because it is not of type Context or Backbone (it is type 'Configuration').
|Debug:CorePropertySupervisorBase.cc:otsdaq/otsdaq/CoreSupervisors/CorePropertySupervisorBase.cc [109]	FESupervisor-OuterTrackerSupervisor	<> CorePropertySupervisorBase::supervisorContextUID_ = OuterTrackerContext
|Debug:CorePropertySupervisorBase.cc:otsdaq/otsdaq/CoreSupervisors/CorePropertySupervisorBase.cc [110]	FESupervisor-OuterTrackerSupervisor	<> CorePropertySupervisorBase::supervisorApplicationUID_ = OuterTrackerSupervisor
|Debug:CorePropertySupervisorBase.cc:otsdaq/otsdaq/CoreSupervisors/CorePropertySupervisorBase.cc [111]	FESupervisor-OuterTrackerSupervisor	<> CorePropertySupervisorBase::supervisorConfigurationPath_ = /OuterTrackerContext/LinkToApplicationTable/OuterTrackerSupervisor/LinkToSupervisorTable
|Debug:CorePropertySupervisorBase.cc:otsdaq/otsdaq/CoreSupervisors/CorePropertySupervisorBase.cc [147]	hostname = athenanu.dhcp.fnal.gov
|Debug:CorePropertySupervisorBase.cc:otsdaq/otsdaq/CoreSupervisors/CorePropertySupervisorBase.cc [161]	Marked alive: /home/otsdaq/otsdaq/srcs/otsdaq_cmsoutertracker/DataDefault/Logs/otsdaq_is_alive-athenanu.dhcp.fnal.gov-2020.dat
|Debug:FSM:otsdaq/otsdaq/FiniteStateMachine/FiniteStateMachine.cc [19]	FSM-FESupervisor:OuterTrackerSupervisor	<> Constructing FiniteStateMachine
|Debug:FSM:otsdaq/otsdaq/FiniteStateMachine/RunControlStateMachine.cc [97]	FSM-FESupervisor:OuterTrackerSupervisor	<> Resetting RunControlStateMachine with name 'FESupervisor:OuterTrackerSupervisor'...
|Debug:WorkLoopManager.cc:otsdaq/otsdaq/WorkLoopManager/WorkLoopManager.cc [19]	Request name: StateMachine jobName: StateMachine
|Debug:CoreSupervisorBase.cc:otsdaq/otsdaq/CoreSupervisors/CoreSupervisorBase.cc [25]	FESupervisor-OuterTrackerSupervisor	<> Constructor.
|Debug:CoreSupervisorBase.cc:otsdaq/otsdaq/CoreSupervisors/CoreSupervisorBase.cc [39]	FESupervisor-OuterTrackerSupervisor	<> Constructed.
|Debug:FESupervisor.cc:otsdaq/otsdaq/CoreSupervisors/FESupervisor.cc [36]	FESupervisor-OuterTrackerSupervisor	<> Constructing...
|Debug:Configurable.cc:otsdaq/otsdaq/Configurable/Configurable.cc [13]	X	<>  Configurable class constructed. 
|Debug:FEVInterfacesManager.cc:otsdaq/otsdaq/FECore/FEVInterfacesManager.cc [23]	X	<> Constructed.
|Debug:FESupervisor.cc:otsdaq/otsdaq/CoreSupervisors/FESupervisor.cc [839]	FESupervisor-OuterTrackerSupervisor	<> State Machine 0 WAS of type FEVInterfacesManager
|Debug:FESupervisor.cc:otsdaq/otsdaq/CoreSupervisors/FESupervisor.cc [849]	FESupervisor-OuterTrackerSupervisor	<> theFEInterfacesManager pointer = 0x1a99200
|Debug:FESupervisor.cc:otsdaq/otsdaq/CoreSupervisors/FESupervisor.cc [64]	FESupervisor-OuterTrackerSupervisor	<> Constructed.
18 Dec 2019 23:25:48.482 [140303158913216] INFO  gov.fnal.dhcp.athenanu.p:2020 <> - Ready.
18 Dec 2019 23:26:06.439 [140302905480960] ERROR gov.fnal.dhcp.athenanu.p:2020.executive::Application.lid(0).xdaq.SOAPDispatcher <> - Missing id or class specification in Content-Location
Terminating...
|Debug:MetricManager:MetricManager.cc [178]	MetricManager is shutting down...
|Debug:MetricManager:MetricManager.cc [154]	Stopping Metrics
|Debug:MetricManager:MetricManager.cc [157]	Joining Metric-Sending thread
|Debug:MetricManager:MetricManager.cc [160]	do_stop Complete
