{
"document" : {
"data" : {
"NAME" : "XDAQ_CONTEXT_TABLE",
"COMMENT" : "Default simplest Outer Tracker table",
"AUTHOR" : "admin",
"CREATION_TIME" : 1595360569,
"COL_TYPES" : {
"CONTEXT_UID" : "STRING",
"STATUS" : "STRING",
"ID" : "NUMBER",
"ADDRESS" : "STRING",
"PORT" : "NUMBER",
"LINK_TO_APPLICATION_TABLE" : "STRING",
"LINK_TO_APPLICATION_GROUP_ID" : "STRING",
"COMMENT_DESCRIPTION" : "STRING",
"AUTHOR" : "STRING",
"RECORD_INSERTION_TIME" : "TIMESTAMP WITH TIMEZONE"
},
"DATA_SET" : [
{
"CONTEXT_UID" : "MainContext",
"STATUS" : "On",
"ID" : "0",
"ADDRESS" : "http://${HOSTNAME}",
"PORT" : "2015",
"LINK_TO_APPLICATION_TABLE" : "XDAQApplicationTable",
"LINK_TO_APPLICATION_GROUP_ID" : "MainContextApps",
"COMMENT_DESCRIPTION" : "main context",
"AUTHOR" : "admin",
"RECORD_INSERTION_TIME" : "1574201096"
},
{
"CONTEXT_UID" : "OuterTrackerContext",
"STATUS" : "On",
"ID" : "0",
"ADDRESS" : "http://${HOSTNAME}",
"PORT" : "2020",
"LINK_TO_APPLICATION_TABLE" : "XDAQApplicationTable",
"LINK_TO_APPLICATION_GROUP_ID" : "OuterTrackerContextApp",
"COMMENT_DESCRIPTION" : "No Comment",
"AUTHOR" : "admin",
"RECORD_INSERTION_TIME" : "1595360561"
},
{
"CONTEXT_UID" : "TestContext",
"STATUS" : "Off",
"ID" : "0",
"ADDRESS" : "http://${HOSTNAME}",
"PORT" : "2021",
"LINK_TO_APPLICATION_TABLE" : "XDAQApplicationTable",
"LINK_TO_APPLICATION_GROUP_ID" : "TestContextApps",
"COMMENT_DESCRIPTION" : "No Comment",
"AUTHOR" : "admin",
"RECORD_INSERTION_TIME" : "1595360564"
}
]
},
"metadata" : {

},
"search" : [

]
},
"comments" : [

],
"origin" : {
"source" : "template",
"name" : "notprovided",
"format" : "json",
"created" : "2020-07-21T14:42:49.934-0500",
"rawdata" : [

]
},
"version" : "3",
"entities" : [
{
"name" : "OTSROOT",
"assigned" : "2020-07-21T14:42:49.935-0500"
}
],
"configurations" : [
{
"name" : "notprovided",
"assigned" : "2020-07-21T14:42:49.934-0500"
},
{
"name" : "DefaultContext_v3",
"assigned" : "2020-07-21T14:42:50.706-0500"
},
{
"name" : "DefaultContext_v4",
"assigned" : "2020-07-21T14:46:44.582-0500"
},
{
"name" : "DefaultContext_v5",
"assigned" : "2020-07-21T14:51:16.846-0500"
},
{
"name" : "DefaultContext_v6",
"assigned" : "2020-07-21T14:55:17.203-0500"
},
{
"name" : "DefaultContext_v7",
"assigned" : "2020-07-21T14:55:57.200-0500"
},
{
"name" : "DefaultContext_v8",
"assigned" : "2020-07-21T15:50:01.583-0500"
},
{
"name" : "DefaultContext_v9",
"assigned" : "2020-09-09T19:38:00.937+0200"
}
],
"changelog" : "notprovided",
"bookkeeping" : {
"isdeleted" : false,
"isreadonly" : false,
"updates" : [
{
"event" : "addConfiguration",
"timestamp" : "2020-07-21T14:42:49.934-0500",
"value" : {
"name" : "notprovided",
"assigned" : "2020-07-21T14:42:49.934-0500"
}
},
{
"event" : "setVersion",
"timestamp" : "2020-07-21T14:42:49.935-0500",
"value" : {
"name" : "3",
"assigned" : "2020-07-21T14:42:49.935-0500"
}
},
{
"event" : "setCollection",
"timestamp" : "2020-07-21T14:42:49.935-0500",
"value" : {
"name" : "XDAQContextTable",
"assigned" : "2020-07-21T14:42:49.935-0500"
}
},
{
"event" : "addEntity",
"timestamp" : "2020-07-21T14:42:49.935-0500",
"value" : {
"name" : "OTSROOT",
"assigned" : "2020-07-21T14:42:49.935-0500"
}
},
{
"event" : "addConfiguration",
"timestamp" : "2020-07-21T14:42:50.706-0500",
"value" : {
"name" : "DefaultContext_v3",
"assigned" : "2020-07-21T14:42:50.706-0500"
}
},
{
"event" : "addConfiguration",
"timestamp" : "2020-07-21T14:46:44.582-0500",
"value" : {
"name" : "DefaultContext_v4",
"assigned" : "2020-07-21T14:46:44.582-0500"
}
},
{
"event" : "addConfiguration",
"timestamp" : "2020-07-21T14:51:16.846-0500",
"value" : {
"name" : "DefaultContext_v5",
"assigned" : "2020-07-21T14:51:16.846-0500"
}
},
{
"event" : "addConfiguration",
"timestamp" : "2020-07-21T14:55:17.203-0500",
"value" : {
"name" : "DefaultContext_v6",
"assigned" : "2020-07-21T14:55:17.203-0500"
}
},
{
"event" : "addConfiguration",
"timestamp" : "2020-07-21T14:55:57.200-0500",
"value" : {
"name" : "DefaultContext_v7",
"assigned" : "2020-07-21T14:55:57.200-0500"
}
},
{
"event" : "addConfiguration",
"timestamp" : "2020-07-21T15:50:01.583-0500",
"value" : {
"name" : "DefaultContext_v8",
"assigned" : "2020-07-21T15:50:01.583-0500"
}
},
{
"event" : "addConfiguration",
"timestamp" : "2020-09-09T19:38:00.937+0200",
"value" : {
"name" : "DefaultContext_v9",
"assigned" : "2020-09-09T19:38:00.937+0200"
}
}
],
"created" : "2020-07-21T14:42:49.934-0500"
},
"_id" : {
"$oid" : "c5e2863417794587b1b75d38"
},
"collection" : "XDAQContextTable",
"aliases" : {
"active" : [

],
"history" : [

]
},
"runs" : [

],
"attachments" : [

],
"configtype" : "notprovided"
}