{
"ouid" : [
"2f821e45dbde49309702ac0a",
"84d73d56b072426d8c35b957"
],
"version" : {
"0" : [
"84d73d56b072426d8c35b957"
],
"1" : [
"2f821e45dbde49309702ac0a"
]
},
"configurations.name" : {
"notprovided" : [
"2f821e45dbde49309702ac0a",
"84d73d56b072426d8c35b957"
],
"FTBFConfig_v0" : [
"84d73d56b072426d8c35b957"
],
"FTBFConfig_v1" : [
"84d73d56b072426d8c35b957"
],
"FTBFConfig_v2" : [
"84d73d56b072426d8c35b957"
],
"FTBFConfig_v3" : [
"84d73d56b072426d8c35b957"
],
"FTBFConfig_v4" : [
"84d73d56b072426d8c35b957"
],
"FTBFConfig_v5" : [
"84d73d56b072426d8c35b957"
],
"FTBFConfig_v6" : [
"84d73d56b072426d8c35b957"
],
"FTBFConfig_v7" : [
"84d73d56b072426d8c35b957"
],
"FTBFConfig_v8" : [
"84d73d56b072426d8c35b957"
],
"FTBFConfig_v9" : [
"84d73d56b072426d8c35b957"
],
"FTBFConfig_v10" : [
"84d73d56b072426d8c35b957"
],
"FTBFConfig_v11" : [
"84d73d56b072426d8c35b957"
],
"FTBFConfig_v12" : [
"84d73d56b072426d8c35b957"
],
"FTBFConfig_v13" : [
"84d73d56b072426d8c35b957"
],
"FTBFConfig_v14" : [
"84d73d56b072426d8c35b957"
],
"FTBFConfig_v15" : [
"84d73d56b072426d8c35b957"
],
"FTBFConfig_v16" : [
"84d73d56b072426d8c35b957"
],
"FTBFConfig_v17" : [
"2f821e45dbde49309702ac0a"
],
"FTBFConfig_v18" : [
"2f821e45dbde49309702ac0a"
],
"FTBFConfig_v19" : [
"2f821e45dbde49309702ac0a"
],
"FTBFConfig_v20" : [
"2f821e45dbde49309702ac0a"
],
"FTBFConfig_v21" : [
"2f821e45dbde49309702ac0a"
],
"FTBFConfig_v22" : [
"2f821e45dbde49309702ac0a"
],
"FTBFConfig_v23" : [
"2f821e45dbde49309702ac0a"
],
"FTBFConfig_v24" : [
"2f821e45dbde49309702ac0a"
],
"FTBFConfig_v25" : [
"2f821e45dbde49309702ac0a"
],
"FTBFConfig_v26" : [
"2f821e45dbde49309702ac0a"
],
"FTBFConfig_v27" : [
"2f821e45dbde49309702ac0a"
],
"FTBFConfig_v28" : [
"2f821e45dbde49309702ac0a"
],
"FTBFConfig_v29" : [
"2f821e45dbde49309702ac0a"
],
"FTBFConfig_v30" : [
"2f821e45dbde49309702ac0a"
],
"FTBFConfig_v31" : [
"2f821e45dbde49309702ac0a"
],
"FTBFConfig_v32" : [
"2f821e45dbde49309702ac0a"
],
"FTBFConfig_v33" : [
"2f821e45dbde49309702ac0a"
],
"FTBFConfig_v34" : [
"2f821e45dbde49309702ac0a"
],
"FTBFConfig_v35" : [
"2f821e45dbde49309702ac0a"
],
"FTBFConfig_v36" : [
"2f821e45dbde49309702ac0a"
],
"FTBFConfig_v37" : [
"2f821e45dbde49309702ac0a"
],
"FTBFConfig_v38" : [
"2f821e45dbde49309702ac0a"
],
"FTBFConfig_v39" : [
"2f821e45dbde49309702ac0a"
],
"FTBFConfig_v40" : [
"2f821e45dbde49309702ac0a"
],
"FTBFConfig_v41" : [
"2f821e45dbde49309702ac0a"
],
"FTBFConfig_v42" : [
"2f821e45dbde49309702ac0a"
],
"FTBFConfig_v43" : [
"2f821e45dbde49309702ac0a"
],
"FTBFConfig_v44" : [
"2f821e45dbde49309702ac0a"
],
"FTBFConfig_v45" : [
"2f821e45dbde49309702ac0a"
],
"FTBFConfig_v46" : [
"2f821e45dbde49309702ac0a"
],
"FTBFConfig_v47" : [
"2f821e45dbde49309702ac0a"
],
"FTBFConfig_v48" : [
"2f821e45dbde49309702ac0a"
],
"FTBFConfig_v49" : [
"2f821e45dbde49309702ac0a"
],
"FTBFConfig_v51" : [
"2f821e45dbde49309702ac0a"
],
"FTBFConfig_v52" : [
"2f821e45dbde49309702ac0a"
],
"FTBFConfig_v53" : [
"2f821e45dbde49309702ac0a"
],
"FTBFConfig_v54" : [
"2f821e45dbde49309702ac0a"
],
"FTBFConfig_v55" : [
"2f821e45dbde49309702ac0a"
],
"FTBFConfig_v56" : [
"2f821e45dbde49309702ac0a"
],
"FTBFConfig_v57" : [
"2f821e45dbde49309702ac0a"
],
"FTBFConfig_v58" : [
"2f821e45dbde49309702ac0a"
],
"FTBFConfig_v59" : [
"2f821e45dbde49309702ac0a"
],
"FTBFConfig_v60" : [
"2f821e45dbde49309702ac0a"
],
"FTBFConfig_v61" : [
"2f821e45dbde49309702ac0a"
],
"FTBFConfig_v62" : [
"2f821e45dbde49309702ac0a"
],
"FTBFConfig_v63" : [
"2f821e45dbde49309702ac0a"
],
"FTBFConfig_v64" : [
"2f821e45dbde49309702ac0a"
],
"FTBFConfig_v65" : [
"2f821e45dbde49309702ac0a"
],
"FTBFConfig_v66" : [
"2f821e45dbde49309702ac0a"
],
"FTBFConfig_v67" : [
"2f821e45dbde49309702ac0a"
],
"FTBFConfig_v68" : [
"2f821e45dbde49309702ac0a"
],
"FTBFConfig_v69" : [
"2f821e45dbde49309702ac0a"
],
"FTBFConfig_v70" : [
"2f821e45dbde49309702ac0a"
],
"FTBFConfigNim_v0" : [
"2f821e45dbde49309702ac0a"
],
"FTBFConfigNim_v1" : [
"2f821e45dbde49309702ac0a"
],
"FTBFConfigNim_v2" : [
"2f821e45dbde49309702ac0a"
],
"FTBFConfigNim_v3" : [
"2f821e45dbde49309702ac0a"
],
"FTBFConfigNim_v4" : [
"2f821e45dbde49309702ac0a"
],
"FTBFConfigNim_v5" : [
"2f821e45dbde49309702ac0a"
],
"FTBFConfigNim_v6" : [
"2f821e45dbde49309702ac0a"
],
"FTBFConfigNim_v7" : [
"2f821e45dbde49309702ac0a"
],
"FTBFConfigNim_v8" : [
"2f821e45dbde49309702ac0a"
],
"FTBFConfigNim_v9" : [
"2f821e45dbde49309702ac0a"
],
"FTBFConfigNim_v10" : [
"2f821e45dbde49309702ac0a"
],
"FTBFConfigNim_v11" : [
"2f821e45dbde49309702ac0a"
],
"FTBFConfigNim_v12" : [
"2f821e45dbde49309702ac0a"
],
"FTBFConfigNim_v13" : [
"2f821e45dbde49309702ac0a"
],
"FTBFConfigNim_v14" : [
"2f821e45dbde49309702ac0a"
],
"FTBFConfigNim_v15" : [
"2f821e45dbde49309702ac0a"
],
"FTBFConfigNim_v16" : [
"2f821e45dbde49309702ac0a"
],
"FTBFConfigNim_v17" : [
"2f821e45dbde49309702ac0a"
],
"FTBFConfigNim_v18" : [
"2f821e45dbde49309702ac0a"
],
"FTBFConfigNim_v19" : [
"2f821e45dbde49309702ac0a"
],
"FTBFConfigNim_v20" : [
"2f821e45dbde49309702ac0a"
],
"FTBFConfigNim_v21" : [
"2f821e45dbde49309702ac0a"
],
"FTBFConfigNim_v22" : [
"2f821e45dbde49309702ac0a"
],
"FTBFConfigNim_v23" : [
"2f821e45dbde49309702ac0a"
],
"FTBFConfigNim_v24" : [
"2f821e45dbde49309702ac0a"
],
"FTBFConfigNim_v25" : [
"2f821e45dbde49309702ac0a"
],
"FTBFConfigNim_v26" : [
"2f821e45dbde49309702ac0a"
],
"FTBFConfigNim_v27" : [
"2f821e45dbde49309702ac0a"
],
"FTBFConfigNim_v28" : [
"2f821e45dbde49309702ac0a"
],
"FTBFConfigNim_v29" : [
"2f821e45dbde49309702ac0a"
],
"FTBFConfig_v71" : [
"2f821e45dbde49309702ac0a"
],
"FTBFConfig_v72" : [
"2f821e45dbde49309702ac0a"
],
"FTBFConfig_v73" : [
"2f821e45dbde49309702ac0a"
],
"FTBFConfig_v74" : [
"2f821e45dbde49309702ac0a"
],
"FTBFConfig_v75" : [
"2f821e45dbde49309702ac0a"
],
"FTBFConfig_v76" : [
"2f821e45dbde49309702ac0a"
],
"FTBFConfig_v77" : [
"2f821e45dbde49309702ac0a"
],
"FTBFConfig_v78" : [
"2f821e45dbde49309702ac0a"
],
"FTBFConfig_v79" : [
"2f821e45dbde49309702ac0a"
],
"FTBFConfig_v80" : [
"2f821e45dbde49309702ac0a"
],
"FTBFConfig_v81" : [
"2f821e45dbde49309702ac0a"
],
"FTBFConfig_v82" : [
"2f821e45dbde49309702ac0a"
],
"FTBFConfig_v83" : [
"2f821e45dbde49309702ac0a"
],
"FTBFConfig_v84" : [
"2f821e45dbde49309702ac0a"
],
"FTBFConfig_v85" : [
"2f821e45dbde49309702ac0a"
],
"FTBFConfig_v86" : [
"2f821e45dbde49309702ac0a"
],
"FTBFConfig_v87" : [
"2f821e45dbde49309702ac0a"
],
"FTBFConfig_v88" : [
"2f821e45dbde49309702ac0a"
],
"FTBFConfig_v89" : [
"2f821e45dbde49309702ac0a"
],
"FTBFConfig_v90" : [
"2f821e45dbde49309702ac0a"
],
"FTBFConfig_v91" : [
"2f821e45dbde49309702ac0a"
],
"FTBFConfig_v92" : [
"2f821e45dbde49309702ac0a"
],
"FTBFConfig_v93" : [
"2f821e45dbde49309702ac0a"
],
"FTBFConfig_v94" : [
"2f821e45dbde49309702ac0a"
],
"FTBFConfig_v95" : [
"2f821e45dbde49309702ac0a"
],
"FTBFConfig_v96" : [
"2f821e45dbde49309702ac0a"
],
"FTBFConfig_v97" : [
"2f821e45dbde49309702ac0a"
],
"FTBFConfig_v98" : [
"2f821e45dbde49309702ac0a"
],
"FTBFConfig_v99" : [
"2f821e45dbde49309702ac0a"
],
"FTBFConfig_v100" : [
"2f821e45dbde49309702ac0a"
],
"FTBFConfig_v101" : [
"2f821e45dbde49309702ac0a"
],
"FTBFConfig_v102" : [
"2f821e45dbde49309702ac0a"
],
"FTBFConfig_v103" : [
"2f821e45dbde49309702ac0a"
],
"FTBFConfig_v104" : [
"2f821e45dbde49309702ac0a"
],
"FTBFConfig_v105" : [
"2f821e45dbde49309702ac0a"
],
"FTBFConfig_v106" : [
"2f821e45dbde49309702ac0a"
],
"FTBFConfig_v107" : [
"2f821e45dbde49309702ac0a"
],
"FTBFConfig_v108" : [
"2f821e45dbde49309702ac0a"
],
"FTBFConfig_v109" : [
"2f821e45dbde49309702ac0a"
],
"FTBFConfig_v110" : [
"2f821e45dbde49309702ac0a"
],
"FTBFConfig_v111" : [
"2f821e45dbde49309702ac0a"
],
"FTBFConfig_v112" : [
"2f821e45dbde49309702ac0a"
],
"FTBFConfig_v113" : [
"2f821e45dbde49309702ac0a"
],
"FTBFConfig_v114" : [
"2f821e45dbde49309702ac0a"
],
"FTBFConfig_v115" : [
"2f821e45dbde49309702ac0a"
],
"FTBFConfig_v116" : [
"2f821e45dbde49309702ac0a"
],
"FTBFConfig_v117" : [
"2f821e45dbde49309702ac0a"
],
"FTBFConfig_v118" : [
"2f821e45dbde49309702ac0a"
],
"FTBFConfig_v119" : [
"2f821e45dbde49309702ac0a"
],
"FTBFConfig_v120" : [
"2f821e45dbde49309702ac0a"
],
"FTBFConfig_v121" : [
"2f821e45dbde49309702ac0a"
],
"FTBFConfig_v122" : [
"2f821e45dbde49309702ac0a"
],
"FTBFConfig_v123" : [
"2f821e45dbde49309702ac0a"
],
"FTBFConfig_v124" : [
"2f821e45dbde49309702ac0a"
],
"FTBFConfig_v125" : [
"2f821e45dbde49309702ac0a"
],
"FTBFConfig_v126" : [
"2f821e45dbde49309702ac0a"
],
"FTBFConfig_v127" : [
"2f821e45dbde49309702ac0a"
],
"FTBFConfig_v128" : [
"2f821e45dbde49309702ac0a"
],
"FTBFConfig_v129" : [
"2f821e45dbde49309702ac0a"
],
"FTBFConfig_v130" : [
"2f821e45dbde49309702ac0a"
],
"FTBFConfig_v131" : [
"2f821e45dbde49309702ac0a"
],
"FTBFConfig_v132" : [
"2f821e45dbde49309702ac0a"
],
"FTBFConfig_v133" : [
"2f821e45dbde49309702ac0a"
],
"FTBFConfig_v134" : [
"2f821e45dbde49309702ac0a"
],
"FTBFConfig_v135" : [
"2f821e45dbde49309702ac0a"
],
"FTBFConfig_v136" : [
"2f821e45dbde49309702ac0a"
],
"FTBFConfig_v137" : [
"2f821e45dbde49309702ac0a"
],
"FTBFConfig_v138" : [
"2f821e45dbde49309702ac0a"
],
"FTBFConfig_v139" : [
"2f821e45dbde49309702ac0a"
],
"FTBFConfig_v140" : [
"2f821e45dbde49309702ac0a"
],
"FTBFConfig_v141" : [
"2f821e45dbde49309702ac0a"
],
"FTBFConfig_v142" : [
"2f821e45dbde49309702ac0a"
]
},
"entities.name" : {
"OTSROOT" : [
"2f821e45dbde49309702ac0a",
"84d73d56b072426d8c35b957"
]
},
"aliases.active.name" : {

},
"runs.name" : {

},
"configurations.assigned" : {
"notprovided" : [
"2017-11-08T15:56:02.620-0600",
"2017-11-15T15:33:26.494-0600"
],
"FTBFConfig_v0" : [
"2017-11-08T15:56:05.231-0600"
],
"FTBFConfig_v1" : [
"2017-11-09T09:56:29.683-0600"
],
"FTBFConfig_v2" : [
"2017-11-09T10:05:58.643-0600"
],
"FTBFConfig_v3" : [
"2017-11-09T10:37:10.216-0600"
],
"FTBFConfig_v4" : [
"2017-11-15T11:30:08.957-0600"
],
"FTBFConfig_v5" : [
"2017-11-15T11:54:55.717-0600"
],
"FTBFConfig_v6" : [
"2017-11-15T11:57:48.344-0600"
],
"FTBFConfig_v7" : [
"2017-11-15T12:42:30.757-0600"
],
"FTBFConfig_v8" : [
"2017-11-15T13:01:01.712-0600"
],
"FTBFConfig_v9" : [
"2017-11-15T13:02:55.092-0600"
],
"FTBFConfig_v10" : [
"2017-11-15T13:04:22.688-0600"
],
"FTBFConfig_v11" : [
"2017-11-15T13:07:50.163-0600"
],
"FTBFConfig_v12" : [
"2017-11-15T13:11:57.579-0600"
],
"FTBFConfig_v13" : [
"2017-11-15T13:13:51.543-0600"
],
"FTBFConfig_v14" : [
"2017-11-15T13:27:24.918-0600"
],
"FTBFConfig_v15" : [
"2017-11-15T13:35:45.494-0600"
],
"FTBFConfig_v16" : [
"2017-11-15T13:36:50.120-0600"
],
"FTBFConfig_v17" : [
"2017-11-15T15:33:28.662-0600"
],
"FTBFConfig_v18" : [
"2017-11-15T15:35:32.237-0600"
],
"FTBFConfig_v19" : [
"2017-11-15T15:38:01.101-0600"
],
"FTBFConfig_v20" : [
"2017-11-15T16:26:28.731-0600"
],
"FTBFConfig_v21" : [
"2017-11-16T09:22:29.889-0600"
],
"FTBFConfig_v22" : [
"2017-11-17T10:23:26.075-0600"
],
"FTBFConfig_v23" : [
"2017-11-17T17:26:43.589-0600"
],
"FTBFConfig_v24" : [
"2017-11-17T17:58:24.026-0600"
],
"FTBFConfig_v25" : [
"2017-11-17T18:24:43.714-0600"
],
"FTBFConfig_v26" : [
"2017-11-17T18:32:20.558-0600"
],
"FTBFConfig_v27" : [
"2017-11-17T18:43:27.686-0600"
],
"FTBFConfig_v28" : [
"2017-11-17T18:48:29.693-0600"
],
"FTBFConfig_v29" : [
"2017-11-20T14:48:28.939-0600"
],
"FTBFConfig_v30" : [
"2017-11-20T15:39:54.179-0600"
],
"FTBFConfig_v31" : [
"2017-11-20T16:41:00.156-0600"
],
"FTBFConfig_v32" : [
"2017-11-20T18:55:32.969-0600"
],
"FTBFConfig_v33" : [
"2017-11-20T18:57:28.255-0600"
],
"FTBFConfig_v34" : [
"2017-11-29T17:50:37.732-0600"
],
"FTBFConfig_v35" : [
"2017-11-29T18:00:30.600-0600"
],
"FTBFConfig_v36" : [
"2017-11-29T18:35:09.461-0600"
],
"FTBFConfig_v37" : [
"2017-12-01T09:36:15.652-0600"
],
"FTBFConfig_v38" : [
"2017-12-01T09:51:59.011-0600"
],
"FTBFConfig_v39" : [
"2017-12-01T11:51:56.239-0600"
],
"FTBFConfig_v40" : [
"2017-12-01T12:18:18.213-0600"
],
"FTBFConfig_v41" : [
"2017-12-01T12:21:00.334-0600"
],
"FTBFConfig_v42" : [
"2017-12-01T12:43:19.455-0600"
],
"FTBFConfig_v43" : [
"2017-12-01T12:57:56.681-0600"
],
"FTBFConfig_v44" : [
"2017-12-01T13:00:49.297-0600"
],
"FTBFConfig_v45" : [
"2017-12-01T13:25:46.310-0600"
],
"FTBFConfig_v46" : [
"2017-12-01T13:35:41.168-0600"
],
"FTBFConfig_v47" : [
"2017-12-01T14:00:49.594-0600"
],
"FTBFConfig_v48" : [
"2017-12-01T14:03:56.835-0600"
],
"FTBFConfig_v49" : [
"2017-12-01T15:31:57.038-0600"
],
"FTBFConfig_v51" : [
"2017-12-01T15:36:58.452-0600"
],
"FTBFConfig_v52" : [
"2017-12-01T15:37:27.927-0600"
],
"FTBFConfig_v53" : [
"2017-12-01T15:40:56.563-0600"
],
"FTBFConfig_v54" : [
"2017-12-01T15:52:46.873-0600"
],
"FTBFConfig_v55" : [
"2017-12-01T15:54:32.001-0600"
],
"FTBFConfig_v56" : [
"2017-12-01T15:55:31.523-0600"
],
"FTBFConfig_v57" : [
"2017-12-01T15:56:37.318-0600"
],
"FTBFConfig_v58" : [
"2017-12-01T15:57:35.396-0600"
],
"FTBFConfig_v59" : [
"2017-12-01T15:58:27.286-0600"
],
"FTBFConfig_v60" : [
"2017-12-01T15:59:28.474-0600"
],
"FTBFConfig_v61" : [
"2017-12-01T16:19:38.184-0600"
],
"FTBFConfig_v62" : [
"2017-12-01T16:22:00.739-0600"
],
"FTBFConfig_v63" : [
"2017-12-01T16:31:21.346-0600"
],
"FTBFConfig_v64" : [
"2017-12-01T17:06:28.164-0600"
],
"FTBFConfig_v65" : [
"2017-12-01T17:32:40.539-0600"
],
"FTBFConfig_v66" : [
"2017-12-01T20:38:46.963-0600"
],
"FTBFConfig_v67" : [
"2017-12-01T21:24:58.427-0600"
],
"FTBFConfig_v68" : [
"2017-12-01T21:42:58.080-0600"
],
"FTBFConfig_v69" : [
"2017-12-01T21:44:56.698-0600"
],
"FTBFConfig_v70" : [
"2017-12-01T21:59:15.919-0600"
],
"FTBFConfigNim_v0" : [
"2017-12-01T22:00:02.625-0600"
],
"FTBFConfigNim_v1" : [
"2017-12-01T22:13:04.354-0600"
],
"FTBFConfigNim_v2" : [
"2017-12-01T22:15:51.565-0600"
],
"FTBFConfigNim_v3" : [
"2017-12-01T22:16:59.589-0600"
],
"FTBFConfigNim_v4" : [
"2017-12-01T22:19:02.627-0600"
],
"FTBFConfigNim_v5" : [
"2017-12-01T22:21:53.330-0600"
],
"FTBFConfigNim_v6" : [
"2017-12-01T22:23:09.484-0600"
],
"FTBFConfigNim_v7" : [
"2017-12-01T22:25:13.260-0600"
],
"FTBFConfigNim_v8" : [
"2017-12-01T22:27:00.790-0600"
],
"FTBFConfigNim_v9" : [
"2017-12-01T22:29:25.078-0600"
],
"FTBFConfigNim_v10" : [
"2017-12-01T22:52:30.170-0600"
],
"FTBFConfigNim_v11" : [
"2017-12-01T22:57:24.884-0600"
],
"FTBFConfigNim_v12" : [
"2017-12-01T23:00:03.224-0600"
],
"FTBFConfigNim_v13" : [
"2017-12-01T23:52:31.334-0600"
],
"FTBFConfigNim_v14" : [
"2017-12-01T23:58:05.728-0600"
],
"FTBFConfigNim_v15" : [
"2017-12-02T00:00:30.008-0600"
],
"FTBFConfigNim_v16" : [
"2017-12-02T00:13:05.115-0600"
],
"FTBFConfigNim_v17" : [
"2017-12-02T00:28:24.093-0600"
],
"FTBFConfigNim_v18" : [
"2017-12-02T00:29:30.130-0600"
],
"FTBFConfigNim_v19" : [
"2017-12-02T00:31:06.868-0600"
],
"FTBFConfigNim_v20" : [
"2017-12-02T00:57:23.107-0600"
],
"FTBFConfigNim_v21" : [
"2017-12-02T10:57:57.652-0600"
],
"FTBFConfigNim_v22" : [
"2017-12-02T11:08:13.815-0600"
],
"FTBFConfigNim_v23" : [
"2017-12-02T11:12:35.374-0600"
],
"FTBFConfigNim_v24" : [
"2017-12-02T11:18:38.189-0600"
],
"FTBFConfigNim_v25" : [
"2017-12-02T11:27:01.423-0600"
],
"FTBFConfigNim_v26" : [
"2017-12-02T11:38:32.460-0600"
],
"FTBFConfigNim_v27" : [
"2017-12-02T11:49:03.575-0600"
],
"FTBFConfigNim_v28" : [
"2017-12-02T11:55:05.042-0600"
],
"FTBFConfigNim_v29" : [
"2017-12-02T12:06:21.863-0600"
],
"FTBFConfig_v71" : [
"2017-12-02T12:24:10.495-0600"
],
"FTBFConfig_v72" : [
"2017-12-02T12:43:31.282-0600"
],
"FTBFConfig_v73" : [
"2017-12-02T13:55:30.862-0600"
],
"FTBFConfig_v74" : [
"2017-12-02T14:09:03.144-0600"
],
"FTBFConfig_v75" : [
"2017-12-02T14:12:13.988-0600"
],
"FTBFConfig_v76" : [
"2017-12-02T19:05:49.102-0600"
],
"FTBFConfig_v77" : [
"2017-12-02T19:12:08.899-0600"
],
"FTBFConfig_v78" : [
"2017-12-03T14:03:44.097-0600"
],
"FTBFConfig_v79" : [
"2017-12-03T14:09:02.259-0600"
],
"FTBFConfig_v80" : [
"2017-12-03T14:11:06.025-0600"
],
"FTBFConfig_v81" : [
"2017-12-03T14:22:29.054-0600"
],
"FTBFConfig_v82" : [
"2017-12-03T14:40:33.814-0600"
],
"FTBFConfig_v83" : [
"2017-12-03T14:45:01.105-0600"
],
"FTBFConfig_v84" : [
"2017-12-04T14:51:26.559-0600"
],
"FTBFConfig_v85" : [
"2017-12-04T14:55:39.705-0600"
],
"FTBFConfig_v86" : [
"2017-12-04T16:51:02.682-0600"
],
"FTBFConfig_v87" : [
"2017-12-04T16:56:43.299-0600"
],
"FTBFConfig_v88" : [
"2017-12-04T17:01:07.991-0600"
],
"FTBFConfig_v89" : [
"2017-12-04T17:03:53.079-0600"
],
"FTBFConfig_v90" : [
"2017-12-04T17:07:12.698-0600"
],
"FTBFConfig_v91" : [
"2017-12-04T17:09:21.812-0600"
],
"FTBFConfig_v92" : [
"2017-12-04T17:11:34.268-0600"
],
"FTBFConfig_v93" : [
"2017-12-04T21:05:16.885-0600"
],
"FTBFConfig_v94" : [
"2017-12-04T21:17:07.729-0600"
],
"FTBFConfig_v95" : [
"2017-12-04T21:41:13.463-0600"
],
"FTBFConfig_v96" : [
"2017-12-04T22:38:58.069-0600"
],
"FTBFConfig_v97" : [
"2017-12-04T23:01:08.583-0600"
],
"FTBFConfig_v98" : [
"2017-12-07T11:07:42.602-0600"
],
"FTBFConfig_v99" : [
"2017-12-07T11:49:55.277-0600"
],
"FTBFConfig_v100" : [
"2017-12-07T11:58:21.991-0600"
],
"FTBFConfig_v101" : [
"2017-12-08T13:30:44.066-0600"
],
"FTBFConfig_v102" : [
"2017-12-08T13:32:30.962-0600"
],
"FTBFConfig_v103" : [
"2017-12-12T11:03:00.730-0600"
],
"FTBFConfig_v104" : [
"2017-12-12T13:50:55.009-0600"
],
"FTBFConfig_v105" : [
"2017-12-12T15:25:00.991-0600"
],
"FTBFConfig_v106" : [
"2017-12-13T10:24:19.474-0600"
],
"FTBFConfig_v107" : [
"2017-12-13T10:26:58.234-0600"
],
"FTBFConfig_v108" : [
"2018-02-01T21:14:21.534-0600"
],
"FTBFConfig_v109" : [
"2018-02-01T21:20:58.627-0600"
],
"FTBFConfig_v110" : [
"2018-02-02T11:25:29.568-0600"
],
"FTBFConfig_v111" : [
"2018-02-02T11:37:08.399-0600"
],
"FTBFConfig_v112" : [
"2018-02-02T11:47:10.847-0600"
],
"FTBFConfig_v113" : [
"2018-02-02T11:53:32.095-0600"
],
"FTBFConfig_v114" : [
"2018-02-02T12:00:48.152-0600"
],
"FTBFConfig_v115" : [
"2018-02-02T12:27:09.649-0600"
],
"FTBFConfig_v116" : [
"2018-02-02T14:28:49.171-0600"
],
"FTBFConfig_v117" : [
"2018-02-02T14:30:15.484-0600"
],
"FTBFConfig_v118" : [
"2018-02-02T14:33:56.685-0600"
],
"FTBFConfig_v119" : [
"2018-02-02T14:36:23.298-0600"
],
"FTBFConfig_v120" : [
"2018-02-02T14:38:36.653-0600"
],
"FTBFConfig_v121" : [
"2018-02-02T14:41:45.965-0600"
],
"FTBFConfig_v122" : [
"2018-02-02T14:50:19.973-0600"
],
"FTBFConfig_v123" : [
"2018-02-02T14:52:52.821-0600"
],
"FTBFConfig_v124" : [
"2018-02-02T14:59:46.140-0600"
],
"FTBFConfig_v125" : [
"2018-02-02T15:04:04.223-0600"
],
"FTBFConfig_v126" : [
"2018-02-02T15:50:07.435-0600"
],
"FTBFConfig_v127" : [
"2018-02-02T15:51:26.899-0600"
],
"FTBFConfig_v128" : [
"2018-02-02T15:52:32.063-0600"
],
"FTBFConfig_v129" : [
"2018-02-02T16:02:40.933-0600"
],
"FTBFConfig_v130" : [
"2018-02-02T16:08:40.448-0600"
],
"FTBFConfig_v131" : [
"2018-02-02T16:11:26.234-0600"
],
"FTBFConfig_v132" : [
"2018-02-02T16:12:54.085-0600"
],
"FTBFConfig_v133" : [
"2018-02-02T16:14:24.647-0600"
],
"FTBFConfig_v134" : [
"2018-02-02T16:26:17.564-0600"
],
"FTBFConfig_v135" : [
"2018-02-02T16:27:04.674-0600"
],
"FTBFConfig_v136" : [
"2018-02-02T16:29:25.983-0600"
],
"FTBFConfig_v137" : [
"2018-02-02T16:31:36.487-0600"
],
"FTBFConfig_v138" : [
"2018-02-02T16:34:09.217-0600"
],
"FTBFConfig_v139" : [
"2018-02-02T17:39:25.244-0600"
],
"FTBFConfig_v140" : [
"2018-02-02T17:42:47.410-0600"
],
"FTBFConfig_v141" : [
"2018-02-02T17:47:32.573-0600"
],
"FTBFConfig_v142" : [
"2018-02-02T17:53:56.561-0600"
]
}
}