{
"ouid" : [
"9cb497b39fe44a39b1ac4561",
"c670f8c72d82440fbbf330b6",
"e30ae9cd157b426688162c16"
],
"version" : {
"0" : [
"e30ae9cd157b426688162c16"
],
"1" : [
"c670f8c72d82440fbbf330b6"
],
"2" : [
"9cb497b39fe44a39b1ac4561"
]
},
"configurations.name" : {
"notprovided" : [
"9cb497b39fe44a39b1ac4561",
"c670f8c72d82440fbbf330b6",
"e30ae9cd157b426688162c16"
],
"FTBFConfig_v0" : [
"e30ae9cd157b426688162c16"
],
"FTBFConfig_v1" : [
"e30ae9cd157b426688162c16"
],
"FTBFConfig_v2" : [
"e30ae9cd157b426688162c16"
],
"FTBFConfig_v3" : [
"e30ae9cd157b426688162c16"
],
"FTBFConfig_v4" : [
"e30ae9cd157b426688162c16"
],
"FTBFConfig_v5" : [
"e30ae9cd157b426688162c16"
],
"FTBFConfig_v6" : [
"e30ae9cd157b426688162c16"
],
"FTBFConfig_v7" : [
"e30ae9cd157b426688162c16"
],
"FTBFConfig_v8" : [
"e30ae9cd157b426688162c16"
],
"FTBFConfig_v9" : [
"e30ae9cd157b426688162c16"
],
"FTBFConfig_v10" : [
"c670f8c72d82440fbbf330b6"
],
"FTBFConfig_v11" : [
"c670f8c72d82440fbbf330b6"
],
"FTBFConfig_v12" : [
"c670f8c72d82440fbbf330b6"
],
"FTBFConfig_v13" : [
"c670f8c72d82440fbbf330b6"
],
"FTBFConfig_v14" : [
"9cb497b39fe44a39b1ac4561"
],
"FTBFConfig_v15" : [
"9cb497b39fe44a39b1ac4561"
],
"FTBFConfig_v16" : [
"9cb497b39fe44a39b1ac4561"
],
"FTBFConfig_v17" : [
"9cb497b39fe44a39b1ac4561"
],
"FTBFConfig_v18" : [
"9cb497b39fe44a39b1ac4561"
],
"FTBFConfig_v19" : [
"9cb497b39fe44a39b1ac4561"
],
"FTBFConfig_v20" : [
"9cb497b39fe44a39b1ac4561"
],
"FTBFConfig_v21" : [
"9cb497b39fe44a39b1ac4561"
],
"FTBFConfig_v22" : [
"9cb497b39fe44a39b1ac4561"
],
"FTBFConfig_v23" : [
"9cb497b39fe44a39b1ac4561"
],
"FTBFConfig_v24" : [
"9cb497b39fe44a39b1ac4561"
],
"FTBFConfig_v25" : [
"9cb497b39fe44a39b1ac4561"
],
"FTBFConfig_v26" : [
"9cb497b39fe44a39b1ac4561"
],
"FTBFConfig_v27" : [
"9cb497b39fe44a39b1ac4561"
],
"FTBFConfig_v28" : [
"9cb497b39fe44a39b1ac4561"
],
"FTBFConfig_v29" : [
"9cb497b39fe44a39b1ac4561"
],
"FTBFConfig_v30" : [
"9cb497b39fe44a39b1ac4561"
],
"FTBFConfig_v31" : [
"9cb497b39fe44a39b1ac4561"
],
"FTBFConfig_v32" : [
"9cb497b39fe44a39b1ac4561"
],
"FTBFConfig_v33" : [
"9cb497b39fe44a39b1ac4561"
],
"FTBFConfig_v34" : [
"9cb497b39fe44a39b1ac4561"
],
"FTBFConfig_v35" : [
"9cb497b39fe44a39b1ac4561"
],
"FTBFConfig_v36" : [
"9cb497b39fe44a39b1ac4561"
],
"FTBFConfig_v37" : [
"9cb497b39fe44a39b1ac4561"
],
"FTBFConfig_v38" : [
"9cb497b39fe44a39b1ac4561"
],
"FTBFConfig_v39" : [
"9cb497b39fe44a39b1ac4561"
],
"FTBFConfig_v40" : [
"9cb497b39fe44a39b1ac4561"
],
"FTBFConfig_v41" : [
"9cb497b39fe44a39b1ac4561"
],
"FTBFConfig_v42" : [
"9cb497b39fe44a39b1ac4561"
],
"FTBFConfig_v43" : [
"9cb497b39fe44a39b1ac4561"
],
"FTBFConfig_v44" : [
"9cb497b39fe44a39b1ac4561"
],
"FTBFConfig_v45" : [
"9cb497b39fe44a39b1ac4561"
],
"FTBFConfig_v46" : [
"9cb497b39fe44a39b1ac4561"
],
"FTBFConfig_v47" : [
"9cb497b39fe44a39b1ac4561"
],
"FTBFConfig_v48" : [
"9cb497b39fe44a39b1ac4561"
],
"FTBFConfig_v49" : [
"9cb497b39fe44a39b1ac4561"
],
"FTBFConfig_v52" : [
"9cb497b39fe44a39b1ac4561"
],
"FTBFConfig_v51" : [
"9cb497b39fe44a39b1ac4561"
],
"FTBFConfig_v53" : [
"9cb497b39fe44a39b1ac4561"
],
"FTBFConfig_v54" : [
"9cb497b39fe44a39b1ac4561"
],
"FTBFConfig_v55" : [
"9cb497b39fe44a39b1ac4561"
],
"FTBFConfig_v56" : [
"9cb497b39fe44a39b1ac4561"
],
"FTBFConfig_v57" : [
"9cb497b39fe44a39b1ac4561"
],
"FTBFConfig_v58" : [
"9cb497b39fe44a39b1ac4561"
],
"FTBFConfig_v59" : [
"9cb497b39fe44a39b1ac4561"
],
"FTBFConfig_v60" : [
"9cb497b39fe44a39b1ac4561"
],
"FTBFConfig_v61" : [
"9cb497b39fe44a39b1ac4561"
],
"FTBFConfig_v62" : [
"9cb497b39fe44a39b1ac4561"
],
"FTBFConfig_v63" : [
"9cb497b39fe44a39b1ac4561"
],
"FTBFConfig_v64" : [
"9cb497b39fe44a39b1ac4561"
],
"FTBFConfig_v65" : [
"9cb497b39fe44a39b1ac4561"
],
"FTBFConfig_v66" : [
"9cb497b39fe44a39b1ac4561"
],
"FTBFConfig_v67" : [
"9cb497b39fe44a39b1ac4561"
],
"FTBFConfig_v68" : [
"9cb497b39fe44a39b1ac4561"
],
"FTBFConfig_v69" : [
"9cb497b39fe44a39b1ac4561"
],
"FTBFConfig_v70" : [
"9cb497b39fe44a39b1ac4561"
],
"FTBFConfigNim_v0" : [
"9cb497b39fe44a39b1ac4561"
],
"FTBFConfigNim_v1" : [
"9cb497b39fe44a39b1ac4561"
],
"FTBFConfigNim_v2" : [
"9cb497b39fe44a39b1ac4561"
],
"FTBFConfigNim_v3" : [
"9cb497b39fe44a39b1ac4561"
],
"FTBFConfigNim_v4" : [
"9cb497b39fe44a39b1ac4561"
],
"FTBFConfigNim_v5" : [
"9cb497b39fe44a39b1ac4561"
],
"FTBFConfigNim_v6" : [
"9cb497b39fe44a39b1ac4561"
],
"FTBFConfigNim_v7" : [
"9cb497b39fe44a39b1ac4561"
],
"FTBFConfigNim_v8" : [
"9cb497b39fe44a39b1ac4561"
],
"FTBFConfigNim_v9" : [
"9cb497b39fe44a39b1ac4561"
],
"FTBFConfigNim_v10" : [
"9cb497b39fe44a39b1ac4561"
],
"FTBFConfigNim_v11" : [
"9cb497b39fe44a39b1ac4561"
],
"FTBFConfigNim_v12" : [
"9cb497b39fe44a39b1ac4561"
],
"FTBFConfigNim_v13" : [
"9cb497b39fe44a39b1ac4561"
],
"FTBFConfigNim_v14" : [
"9cb497b39fe44a39b1ac4561"
],
"FTBFConfigNim_v15" : [
"9cb497b39fe44a39b1ac4561"
],
"FTBFConfigNim_v16" : [
"9cb497b39fe44a39b1ac4561"
],
"FTBFConfigNim_v17" : [
"9cb497b39fe44a39b1ac4561"
],
"FTBFConfigNim_v18" : [
"9cb497b39fe44a39b1ac4561"
],
"FTBFConfigNim_v19" : [
"9cb497b39fe44a39b1ac4561"
],
"FTBFConfigNim_v20" : [
"9cb497b39fe44a39b1ac4561"
],
"FTBFConfigNim_v21" : [
"9cb497b39fe44a39b1ac4561"
],
"FTBFConfigNim_v22" : [
"9cb497b39fe44a39b1ac4561"
],
"FTBFConfigNim_v23" : [
"9cb497b39fe44a39b1ac4561"
],
"FTBFConfigNim_v24" : [
"9cb497b39fe44a39b1ac4561"
],
"FTBFConfigNim_v25" : [
"9cb497b39fe44a39b1ac4561"
],
"FTBFConfigNim_v26" : [
"9cb497b39fe44a39b1ac4561"
],
"FTBFConfigNim_v27" : [
"9cb497b39fe44a39b1ac4561"
],
"FTBFConfigNim_v28" : [
"9cb497b39fe44a39b1ac4561"
],
"FTBFConfigNim_v29" : [
"9cb497b39fe44a39b1ac4561"
],
"FTBFConfig_v71" : [
"9cb497b39fe44a39b1ac4561"
],
"FTBFConfig_v72" : [
"9cb497b39fe44a39b1ac4561"
],
"FTBFConfig_v73" : [
"9cb497b39fe44a39b1ac4561"
],
"FTBFConfig_v74" : [
"9cb497b39fe44a39b1ac4561"
],
"FTBFConfig_v75" : [
"9cb497b39fe44a39b1ac4561"
],
"FTBFConfig_v76" : [
"9cb497b39fe44a39b1ac4561"
],
"FTBFConfig_v77" : [
"9cb497b39fe44a39b1ac4561"
],
"FTBFConfig_v78" : [
"9cb497b39fe44a39b1ac4561"
],
"FTBFConfig_v79" : [
"9cb497b39fe44a39b1ac4561"
],
"FTBFConfig_v80" : [
"9cb497b39fe44a39b1ac4561"
],
"FTBFConfig_v81" : [
"9cb497b39fe44a39b1ac4561"
],
"FTBFConfig_v82" : [
"9cb497b39fe44a39b1ac4561"
],
"FTBFConfig_v83" : [
"9cb497b39fe44a39b1ac4561"
],
"FTBFConfig_v84" : [
"9cb497b39fe44a39b1ac4561"
],
"FTBFConfig_v85" : [
"9cb497b39fe44a39b1ac4561"
],
"FTBFConfig_v86" : [
"9cb497b39fe44a39b1ac4561"
],
"FTBFConfig_v87" : [
"9cb497b39fe44a39b1ac4561"
],
"FTBFConfig_v88" : [
"9cb497b39fe44a39b1ac4561"
],
"FTBFConfig_v89" : [
"9cb497b39fe44a39b1ac4561"
],
"FTBFConfig_v90" : [
"9cb497b39fe44a39b1ac4561"
],
"FTBFConfig_v91" : [
"9cb497b39fe44a39b1ac4561"
],
"FTBFConfig_v92" : [
"9cb497b39fe44a39b1ac4561"
],
"FTBFConfig_v93" : [
"9cb497b39fe44a39b1ac4561"
],
"FTBFConfig_v94" : [
"9cb497b39fe44a39b1ac4561"
],
"FTBFConfig_v95" : [
"9cb497b39fe44a39b1ac4561"
],
"FTBFConfig_v96" : [
"9cb497b39fe44a39b1ac4561"
],
"FTBFConfig_v97" : [
"9cb497b39fe44a39b1ac4561"
],
"FTBFConfig_v98" : [
"9cb497b39fe44a39b1ac4561"
],
"FTBFConfig_v99" : [
"9cb497b39fe44a39b1ac4561"
],
"FTBFConfig_v100" : [
"9cb497b39fe44a39b1ac4561"
],
"FTBFConfig_v101" : [
"9cb497b39fe44a39b1ac4561"
],
"FTBFConfig_v102" : [
"9cb497b39fe44a39b1ac4561"
],
"FTBFConfig_v103" : [
"9cb497b39fe44a39b1ac4561"
],
"FTBFConfig_v104" : [
"9cb497b39fe44a39b1ac4561"
],
"FTBFConfig_v105" : [
"9cb497b39fe44a39b1ac4561"
],
"FTBFConfig_v106" : [
"9cb497b39fe44a39b1ac4561"
],
"FTBFConfig_v107" : [
"9cb497b39fe44a39b1ac4561"
],
"FTBFConfig_v108" : [
"9cb497b39fe44a39b1ac4561"
],
"FTBFConfig_v109" : [
"9cb497b39fe44a39b1ac4561"
],
"FTBFConfig_v110" : [
"9cb497b39fe44a39b1ac4561"
],
"FTBFConfig_v111" : [
"9cb497b39fe44a39b1ac4561"
],
"FTBFConfig_v112" : [
"9cb497b39fe44a39b1ac4561"
],
"FTBFConfig_v113" : [
"9cb497b39fe44a39b1ac4561"
],
"FTBFConfig_v114" : [
"9cb497b39fe44a39b1ac4561"
],
"FTBFConfig_v115" : [
"9cb497b39fe44a39b1ac4561"
],
"FTBFConfig_v116" : [
"9cb497b39fe44a39b1ac4561"
],
"FTBFConfig_v117" : [
"9cb497b39fe44a39b1ac4561"
],
"FTBFConfig_v118" : [
"9cb497b39fe44a39b1ac4561"
],
"FTBFConfig_v119" : [
"9cb497b39fe44a39b1ac4561"
],
"FTBFConfig_v120" : [
"9cb497b39fe44a39b1ac4561"
],
"FTBFConfig_v121" : [
"9cb497b39fe44a39b1ac4561"
],
"FTBFConfig_v122" : [
"9cb497b39fe44a39b1ac4561"
],
"FTBFConfig_v123" : [
"9cb497b39fe44a39b1ac4561"
],
"FTBFConfig_v124" : [
"9cb497b39fe44a39b1ac4561"
],
"FTBFConfig_v125" : [
"9cb497b39fe44a39b1ac4561"
],
"FTBFConfig_v126" : [
"9cb497b39fe44a39b1ac4561"
],
"FTBFConfig_v127" : [
"9cb497b39fe44a39b1ac4561"
],
"FTBFConfig_v128" : [
"9cb497b39fe44a39b1ac4561"
],
"FTBFConfig_v129" : [
"9cb497b39fe44a39b1ac4561"
],
"FTBFConfig_v130" : [
"9cb497b39fe44a39b1ac4561"
],
"FTBFConfig_v131" : [
"9cb497b39fe44a39b1ac4561"
],
"FTBFConfig_v132" : [
"9cb497b39fe44a39b1ac4561"
],
"FTBFConfig_v133" : [
"9cb497b39fe44a39b1ac4561"
],
"FTBFConfig_v134" : [
"9cb497b39fe44a39b1ac4561"
],
"FTBFConfig_v135" : [
"9cb497b39fe44a39b1ac4561"
],
"FTBFConfig_v136" : [
"9cb497b39fe44a39b1ac4561"
],
"FTBFConfig_v137" : [
"9cb497b39fe44a39b1ac4561"
],
"FTBFConfig_v138" : [
"9cb497b39fe44a39b1ac4561"
],
"FTBFConfig_v139" : [
"9cb497b39fe44a39b1ac4561"
],
"FTBFConfig_v140" : [
"9cb497b39fe44a39b1ac4561"
],
"FTBFConfig_v141" : [
"9cb497b39fe44a39b1ac4561"
],
"FTBFConfig_v142" : [
"9cb497b39fe44a39b1ac4561"
]
},
"entities.name" : {
"OTSROOT" : [
"9cb497b39fe44a39b1ac4561",
"c670f8c72d82440fbbf330b6",
"e30ae9cd157b426688162c16"
]
},
"aliases.active.name" : {

},
"runs.name" : {

},
"configurations.assigned" : {
"notprovided" : [
"2017-11-08T15:56:02.859-0600",
"2017-11-15T13:04:20.980-0600",
"2017-11-15T13:26:44.981-0600"
],
"FTBFConfig_v0" : [
"2017-11-08T15:56:05.515-0600"
],
"FTBFConfig_v1" : [
"2017-11-09T09:56:30.070-0600"
],
"FTBFConfig_v2" : [
"2017-11-09T10:05:59.030-0600"
],
"FTBFConfig_v3" : [
"2017-11-09T10:37:10.581-0600"
],
"FTBFConfig_v4" : [
"2017-11-15T11:30:09.349-0600"
],
"FTBFConfig_v5" : [
"2017-11-15T11:54:56.135-0600"
],
"FTBFConfig_v6" : [
"2017-11-15T11:57:48.759-0600"
],
"FTBFConfig_v7" : [
"2017-11-15T12:42:31.158-0600"
],
"FTBFConfig_v8" : [
"2017-11-15T13:01:02.139-0600"
],
"FTBFConfig_v9" : [
"2017-11-15T13:02:55.527-0600"
],
"FTBFConfig_v10" : [
"2017-11-15T13:04:23.115-0600"
],
"FTBFConfig_v11" : [
"2017-11-15T13:07:50.602-0600"
],
"FTBFConfig_v12" : [
"2017-11-15T13:11:58.024-0600"
],
"FTBFConfig_v13" : [
"2017-11-15T13:13:51.981-0600"
],
"FTBFConfig_v14" : [
"2017-11-15T13:27:26.271-0600"
],
"FTBFConfig_v15" : [
"2017-11-15T13:35:45.937-0600"
],
"FTBFConfig_v16" : [
"2017-11-15T13:36:50.572-0600"
],
"FTBFConfig_v17" : [
"2017-11-15T15:33:29.117-0600"
],
"FTBFConfig_v18" : [
"2017-11-15T15:35:32.725-0600"
],
"FTBFConfig_v19" : [
"2017-11-15T15:38:01.559-0600"
],
"FTBFConfig_v20" : [
"2017-11-15T16:26:29.277-0600"
],
"FTBFConfig_v21" : [
"2017-11-16T09:22:30.368-0600"
],
"FTBFConfig_v22" : [
"2017-11-17T10:23:26.568-0600"
],
"FTBFConfig_v23" : [
"2017-11-17T17:26:44.084-0600"
],
"FTBFConfig_v24" : [
"2017-11-17T17:58:24.544-0600"
],
"FTBFConfig_v25" : [
"2017-11-17T18:24:44.225-0600"
],
"FTBFConfig_v26" : [
"2017-11-17T18:32:21.270-0600"
],
"FTBFConfig_v27" : [
"2017-11-17T18:43:28.418-0600"
],
"FTBFConfig_v28" : [
"2017-11-17T18:48:30.399-0600"
],
"FTBFConfig_v29" : [
"2017-11-20T14:48:29.527-0600"
],
"FTBFConfig_v30" : [
"2017-11-20T15:39:54.711-0600"
],
"FTBFConfig_v31" : [
"2017-11-20T16:41:00.688-0600"
],
"FTBFConfig_v32" : [
"2017-11-20T18:55:33.527-0600"
],
"FTBFConfig_v33" : [
"2017-11-20T18:57:28.813-0600"
],
"FTBFConfig_v34" : [
"2017-11-29T17:50:38.306-0600"
],
"FTBFConfig_v35" : [
"2017-11-29T18:00:31.162-0600"
],
"FTBFConfig_v36" : [
"2017-11-29T18:35:10.009-0600"
],
"FTBFConfig_v37" : [
"2017-12-01T09:36:16.230-0600"
],
"FTBFConfig_v38" : [
"2017-12-01T09:51:59.614-0600"
],
"FTBFConfig_v39" : [
"2017-12-01T11:51:56.827-0600"
],
"FTBFConfig_v40" : [
"2017-12-01T12:18:18.815-0600"
],
"FTBFConfig_v41" : [
"2017-12-01T12:21:00.958-0600"
],
"FTBFConfig_v42" : [
"2017-12-01T12:43:20.099-0600"
],
"FTBFConfig_v43" : [
"2017-12-01T12:57:57.382-0600"
],
"FTBFConfig_v44" : [
"2017-12-01T13:00:50.216-0600"
],
"FTBFConfig_v45" : [
"2017-12-01T13:25:47.076-0600"
],
"FTBFConfig_v46" : [
"2017-12-01T13:35:41.971-0600"
],
"FTBFConfig_v47" : [
"2017-12-01T14:00:50.244-0600"
],
"FTBFConfig_v48" : [
"2017-12-01T14:03:57.497-0600"
],
"FTBFConfig_v49" : [
"2017-12-01T15:31:57.705-0600"
],
"FTBFConfig_v52" : [
"2017-12-01T15:37:28.955-0600"
],
"FTBFConfig_v51" : [
"2017-12-01T15:37:34.179-0600"
],
"FTBFConfig_v53" : [
"2017-12-01T15:40:57.227-0600"
],
"FTBFConfig_v54" : [
"2017-12-01T15:52:47.531-0600"
],
"FTBFConfig_v55" : [
"2017-12-01T15:54:32.674-0600"
],
"FTBFConfig_v56" : [
"2017-12-01T15:55:32.201-0600"
],
"FTBFConfig_v57" : [
"2017-12-01T15:56:37.993-0600"
],
"FTBFConfig_v58" : [
"2017-12-01T15:57:36.082-0600"
],
"FTBFConfig_v59" : [
"2017-12-01T15:58:27.977-0600"
],
"FTBFConfig_v60" : [
"2017-12-01T15:59:29.169-0600"
],
"FTBFConfig_v61" : [
"2017-12-01T16:19:38.921-0600"
],
"FTBFConfig_v62" : [
"2017-12-01T16:22:01.453-0600"
],
"FTBFConfig_v63" : [
"2017-12-01T16:31:22.068-0600"
],
"FTBFConfig_v64" : [
"2017-12-01T17:06:29.242-0600"
],
"FTBFConfig_v65" : [
"2017-12-01T17:32:41.370-0600"
],
"FTBFConfig_v66" : [
"2017-12-01T20:38:47.694-0600"
],
"FTBFConfig_v67" : [
"2017-12-01T21:24:59.172-0600"
],
"FTBFConfig_v68" : [
"2017-12-01T21:42:58.825-0600"
],
"FTBFConfig_v69" : [
"2017-12-01T21:44:57.471-0600"
],
"FTBFConfig_v70" : [
"2017-12-01T21:59:16.697-0600"
],
"FTBFConfigNim_v0" : [
"2017-12-01T22:00:03.400-0600"
],
"FTBFConfigNim_v1" : [
"2017-12-01T22:13:05.122-0600"
],
"FTBFConfigNim_v2" : [
"2017-12-01T22:15:52.358-0600"
],
"FTBFConfigNim_v3" : [
"2017-12-01T22:17:00.488-0600"
],
"FTBFConfigNim_v4" : [
"2017-12-01T22:19:03.438-0600"
],
"FTBFConfigNim_v5" : [
"2017-12-01T22:21:54.146-0600"
],
"FTBFConfigNim_v6" : [
"2017-12-01T22:23:10.307-0600"
],
"FTBFConfigNim_v7" : [
"2017-12-01T22:25:14.094-0600"
],
"FTBFConfigNim_v8" : [
"2017-12-01T22:27:01.643-0600"
],
"FTBFConfigNim_v9" : [
"2017-12-01T22:29:25.893-0600"
],
"FTBFConfigNim_v10" : [
"2017-12-01T22:52:31.014-0600"
],
"FTBFConfigNim_v11" : [
"2017-12-01T22:57:25.789-0600"
],
"FTBFConfigNim_v12" : [
"2017-12-01T23:00:04.064-0600"
],
"FTBFConfigNim_v13" : [
"2017-12-01T23:52:32.177-0600"
],
"FTBFConfigNim_v14" : [
"2017-12-01T23:58:06.563-0600"
],
"FTBFConfigNim_v15" : [
"2017-12-02T00:00:30.842-0600"
],
"FTBFConfigNim_v16" : [
"2017-12-02T00:13:05.978-0600"
],
"FTBFConfigNim_v17" : [
"2017-12-02T00:28:24.936-0600"
],
"FTBFConfigNim_v18" : [
"2017-12-02T00:29:30.983-0600"
],
"FTBFConfigNim_v19" : [
"2017-12-02T00:31:07.846-0600"
],
"FTBFConfigNim_v20" : [
"2017-12-02T00:57:23.959-0600"
],
"FTBFConfigNim_v21" : [
"2017-12-02T10:57:58.520-0600"
],
"FTBFConfigNim_v22" : [
"2017-12-02T11:08:14.688-0600"
],
"FTBFConfigNim_v23" : [
"2017-12-02T11:12:36.251-0600"
],
"FTBFConfigNim_v24" : [
"2017-12-02T11:18:39.097-0600"
],
"FTBFConfigNim_v25" : [
"2017-12-02T11:27:02.304-0600"
],
"FTBFConfigNim_v26" : [
"2017-12-02T11:38:33.346-0600"
],
"FTBFConfigNim_v27" : [
"2017-12-02T11:49:04.483-0600"
],
"FTBFConfigNim_v28" : [
"2017-12-02T11:55:05.944-0600"
],
"FTBFConfigNim_v29" : [
"2017-12-02T12:06:22.773-0600"
],
"FTBFConfig_v71" : [
"2017-12-02T12:24:11.407-0600"
],
"FTBFConfig_v72" : [
"2017-12-02T12:43:32.222-0600"
],
"FTBFConfig_v73" : [
"2017-12-02T13:55:31.822-0600"
],
"FTBFConfig_v74" : [
"2017-12-02T14:09:04.119-0600"
],
"FTBFConfig_v75" : [
"2017-12-02T14:12:14.958-0600"
],
"FTBFConfig_v76" : [
"2017-12-02T19:05:50.049-0600"
],
"FTBFConfig_v77" : [
"2017-12-02T19:12:09.866-0600"
],
"FTBFConfig_v78" : [
"2017-12-03T14:03:45.049-0600"
],
"FTBFConfig_v79" : [
"2017-12-03T14:09:03.240-0600"
],
"FTBFConfig_v80" : [
"2017-12-03T14:11:07.008-0600"
],
"FTBFConfig_v81" : [
"2017-12-03T14:22:30.027-0600"
],
"FTBFConfig_v82" : [
"2017-12-03T14:40:34.807-0600"
],
"FTBFConfig_v83" : [
"2017-12-03T14:45:02.164-0600"
],
"FTBFConfig_v84" : [
"2017-12-04T14:51:27.533-0600"
],
"FTBFConfig_v85" : [
"2017-12-04T14:55:40.704-0600"
],
"FTBFConfig_v86" : [
"2017-12-04T16:51:03.674-0600"
],
"FTBFConfig_v87" : [
"2017-12-04T16:56:44.286-0600"
],
"FTBFConfig_v88" : [
"2017-12-04T17:01:09.001-0600"
],
"FTBFConfig_v89" : [
"2017-12-04T17:03:54.094-0600"
],
"FTBFConfig_v90" : [
"2017-12-04T17:07:13.720-0600"
],
"FTBFConfig_v91" : [
"2017-12-04T17:09:22.834-0600"
],
"FTBFConfig_v92" : [
"2017-12-04T17:11:35.318-0600"
],
"FTBFConfig_v93" : [
"2017-12-04T21:05:17.936-0600"
],
"FTBFConfig_v94" : [
"2017-12-04T21:17:08.774-0600"
],
"FTBFConfig_v95" : [
"2017-12-04T21:41:14.493-0600"
],
"FTBFConfig_v96" : [
"2017-12-04T22:38:59.109-0600"
],
"FTBFConfig_v97" : [
"2017-12-04T23:01:09.620-0600"
],
"FTBFConfig_v98" : [
"2017-12-07T11:07:43.633-0600"
],
"FTBFConfig_v99" : [
"2017-12-07T11:49:56.314-0600"
],
"FTBFConfig_v100" : [
"2017-12-07T11:58:23.031-0600"
],
"FTBFConfig_v101" : [
"2017-12-08T13:30:45.123-0600"
],
"FTBFConfig_v102" : [
"2017-12-08T13:32:32.017-0600"
],
"FTBFConfig_v103" : [
"2017-12-12T11:03:01.798-0600"
],
"FTBFConfig_v104" : [
"2017-12-12T13:50:56.114-0600"
],
"FTBFConfig_v105" : [
"2017-12-12T15:25:02.138-0600"
],
"FTBFConfig_v106" : [
"2017-12-13T10:24:20.557-0600"
],
"FTBFConfig_v107" : [
"2017-12-13T10:26:59.318-0600"
],
"FTBFConfig_v108" : [
"2018-02-01T21:14:22.680-0600"
],
"FTBFConfig_v109" : [
"2018-02-01T21:20:59.791-0600"
],
"FTBFConfig_v110" : [
"2018-02-02T11:25:30.731-0600"
],
"FTBFConfig_v111" : [
"2018-02-02T11:37:09.565-0600"
],
"FTBFConfig_v112" : [
"2018-02-02T11:47:12.030-0600"
],
"FTBFConfig_v113" : [
"2018-02-02T11:53:33.277-0600"
],
"FTBFConfig_v114" : [
"2018-02-02T12:00:49.345-0600"
],
"FTBFConfig_v115" : [
"2018-02-02T12:27:10.843-0600"
],
"FTBFConfig_v116" : [
"2018-02-02T14:28:50.365-0600"
],
"FTBFConfig_v117" : [
"2018-02-02T14:30:16.675-0600"
],
"FTBFConfig_v118" : [
"2018-02-02T14:33:57.880-0600"
],
"FTBFConfig_v119" : [
"2018-02-02T14:36:24.494-0600"
],
"FTBFConfig_v120" : [
"2018-02-02T14:38:37.852-0600"
],
"FTBFConfig_v121" : [
"2018-02-02T14:41:47.168-0600"
],
"FTBFConfig_v122" : [
"2018-02-02T14:50:21.229-0600"
],
"FTBFConfig_v123" : [
"2018-02-02T14:52:54.033-0600"
],
"FTBFConfig_v124" : [
"2018-02-02T14:59:47.357-0600"
],
"FTBFConfig_v125" : [
"2018-02-02T15:04:05.463-0600"
],
"FTBFConfig_v126" : [
"2018-02-02T15:50:08.654-0600"
],
"FTBFConfig_v127" : [
"2018-02-02T15:51:28.133-0600"
],
"FTBFConfig_v128" : [
"2018-02-02T15:52:33.300-0600"
],
"FTBFConfig_v129" : [
"2018-02-02T16:02:42.180-0600"
],
"FTBFConfig_v130" : [
"2018-02-02T16:08:41.704-0600"
],
"FTBFConfig_v131" : [
"2018-02-02T16:11:27.512-0600"
],
"FTBFConfig_v132" : [
"2018-02-02T16:12:55.348-0600"
],
"FTBFConfig_v133" : [
"2018-02-02T16:14:25.914-0600"
],
"FTBFConfig_v134" : [
"2018-02-02T16:26:18.837-0600"
],
"FTBFConfig_v135" : [
"2018-02-02T16:27:05.952-0600"
],
"FTBFConfig_v136" : [
"2018-02-02T16:29:27.303-0600"
],
"FTBFConfig_v137" : [
"2018-02-02T16:31:37.775-0600"
],
"FTBFConfig_v138" : [
"2018-02-02T16:34:10.509-0600"
],
"FTBFConfig_v139" : [
"2018-02-02T17:39:26.576-0600"
],
"FTBFConfig_v140" : [
"2018-02-02T17:42:48.731-0600"
],
"FTBFConfig_v141" : [
"2018-02-02T17:47:33.900-0600"
],
"FTBFConfig_v142" : [
"2018-02-02T17:53:57.887-0600"
]
}
}