{
"document" : {
"data" : {
"NAME" : "TCP_DATA_RECEIVER_PRODUCER_TABLE",
"COMMENT" : "No comment.",
"AUTHOR" : "admin",
"CREATION_TIME" : 1620853600,
"COL_TYPES" : {
"PROCESSOR_UID" : "STRING",
"BUFFER_SIZE" : "NUMBER",
"SERVER_IP_ADDRESS" : "STRING",
"SERVER_PORT" : "NUMBER",
"DATA_TYPE" : "STRING",
"COMMENT_DESCRIPTION" : "STRING",
"AUTHOR" : "STRING",
"RECORD_INSERTION_TIME" : "TIMESTAMP WITH TIMEZONE"
},
"DATA_SET" : [
{
"PROCESSOR_UID" : "VisualDataBufferReceiverPS0",
"BUFFER_SIZE" : "1000",
"SERVER_IP_ADDRESS" : "131.225.179.123",
"SERVER_PORT" : "6001",
"DATA_TYPE" : "Raw",
"COMMENT_DESCRIPTION" : "No Comment",
"AUTHOR" : "admin",
"RECORD_INSERTION_TIME" : "1620853600"
},
{
"PROCESSOR_UID" : "VisualDataBufferReceiver2S0",
"BUFFER_SIZE" : "1000",
"SERVER_IP_ADDRESS" : "127.0.0.1",
"SERVER_PORT" : "6000",
"DATA_TYPE" : "Raw",
"COMMENT_DESCRIPTION" : "No Comment",
"AUTHOR" : "admin",
"RECORD_INSERTION_TIME" : "1620853600"
}
]
},
"metadata" : {

},
"search" : [

]
},
"comments" : [

],
"origin" : {
"source" : "template",
"name" : "notprovided",
"format" : "json",
"created" : "2021-05-12T16:06:40.818-0500",
"rawdata" : [

]
},
"version" : "3",
"entities" : [
{
"name" : "OTSROOT",
"assigned" : "2021-05-12T16:06:40.819-0500"
}
],
"configurations" : [
{
"name" : "notprovided",
"assigned" : "2021-05-12T16:06:40.818-0500"
},
{
"name" : "DefaultConfig_v35",
"assigned" : "2021-05-12T16:11:01.525-0500"
},
{
"name" : "DefaultConfig_v36",
"assigned" : "2021-05-14T15:34:24.882-0500"
},
{
"name" : "DefaultConfig_v37",
"assigned" : "2021-05-14T16:41:01.539-0500"
}
],
"changelog" : "notprovided",
"bookkeeping" : {
"isdeleted" : false,
"isreadonly" : false,
"updates" : [
{
"event" : "addConfiguration",
"timestamp" : "2021-05-12T16:06:40.818-0500",
"value" : {
"name" : "notprovided",
"assigned" : "2021-05-12T16:06:40.818-0500"
}
},
{
"event" : "setVersion",
"timestamp" : "2021-05-12T16:06:40.819-0500",
"value" : {
"name" : "3",
"assigned" : "2021-05-12T16:06:40.819-0500"
}
},
{
"event" : "setCollection",
"timestamp" : "2021-05-12T16:06:40.819-0500",
"value" : {
"name" : "TCPDataReceiverProducerTable",
"assigned" : "2021-05-12T16:06:40.819-0500"
}
},
{
"event" : "addEntity",
"timestamp" : "2021-05-12T16:06:40.819-0500",
"value" : {
"name" : "OTSROOT",
"assigned" : "2021-05-12T16:06:40.819-0500"
}
},
{
"event" : "addConfiguration",
"timestamp" : "2021-05-12T16:11:01.525-0500",
"value" : {
"name" : "DefaultConfig_v35",
"assigned" : "2021-05-12T16:11:01.525-0500"
}
},
{
"event" : "addConfiguration",
"timestamp" : "2021-05-14T15:34:24.882-0500",
"value" : {
"name" : "DefaultConfig_v36",
"assigned" : "2021-05-14T15:34:24.882-0500"
}
},
{
"event" : "addConfiguration",
"timestamp" : "2021-05-14T16:41:01.539-0500",
"value" : {
"name" : "DefaultConfig_v37",
"assigned" : "2021-05-14T16:41:01.539-0500"
}
}
],
"created" : "2021-05-12T16:06:40.818-0500"
},
"_id" : {
"$oid" : "dd7575b34ed54cdc9197a408"
},
"collection" : "TCPDataReceiverProducerTable",
"aliases" : {
"active" : [

],
"history" : [

]
},
"runs" : [

],
"attachments" : [

],
"configtype" : "notprovided"
}