{
"ouid" : [
"2e80de9eef79403eba404cdb",
"cb5b0e01b3094f848e53dd96"
],
"version" : {
"0" : [
"2e80de9eef79403eba404cdb"
],
"1" : [
"cb5b0e01b3094f848e53dd96"
]
},
"configurations.name" : {
"notprovided" : [
"2e80de9eef79403eba404cdb",
"cb5b0e01b3094f848e53dd96"
],
"iterateDefaultGroup_v0" : [
"2e80de9eef79403eba404cdb"
],
"iterateDefaultGroup_v1" : [
"cb5b0e01b3094f848e53dd96"
],
"iterateDefaultGroup_v2" : [
"cb5b0e01b3094f848e53dd96"
],
"iterateDefaultGroup_v3" : [
"cb5b0e01b3094f848e53dd96"
],
"iterateDefaultGroup_v4" : [
"cb5b0e01b3094f848e53dd96"
],
"iterateDefaultGroup_v5" : [
"cb5b0e01b3094f848e53dd96"
],
"iterateDefaultGroup_v6" : [
"cb5b0e01b3094f848e53dd96"
],
"iterateDefaultGroup_v7" : [
"cb5b0e01b3094f848e53dd96"
],
"iterateDefaultGroup_v8" : [
"cb5b0e01b3094f848e53dd96"
],
"iterateDefaultGroup_v9" : [
"cb5b0e01b3094f848e53dd96"
],
"iterateDefaultGroup_v10" : [
"cb5b0e01b3094f848e53dd96"
],
"iterateDefaultGroup_v11" : [
"cb5b0e01b3094f848e53dd96"
],
"iterateDefaultGroup_v12" : [
"cb5b0e01b3094f848e53dd96"
]
},
"entities.name" : {
"OTSROOT" : [
"2e80de9eef79403eba404cdb",
"cb5b0e01b3094f848e53dd96"
]
},
"aliases.active.name" : {

},
"runs.name" : {

},
"configurations.assigned" : {
"notprovided" : [
"2020-07-21T14:47:39.083-0500",
"2020-07-21T15:25:07.335-0500"
],
"iterateDefaultGroup_v0" : [
"2020-07-21T14:47:39.567-0500"
],
"iterateDefaultGroup_v1" : [
"2020-07-21T15:25:07.965-0500"
],
"iterateDefaultGroup_v2" : [
"2020-07-21T15:28:04.332-0500"
],
"iterateDefaultGroup_v3" : [
"2020-07-21T15:42:20.626-0500"
],
"iterateDefaultGroup_v4" : [
"2020-07-21T15:45:03.683-0500"
],
"iterateDefaultGroup_v5" : [
"2020-07-21T15:57:33.667-0500"
],
"iterateDefaultGroup_v6" : [
"2020-07-28T10:52:35.151-0500"
],
"iterateDefaultGroup_v7" : [
"2020-07-28T13:01:36.843-0500"
],
"iterateDefaultGroup_v8" : [
"2020-07-28T13:03:27.051-0500"
],
"iterateDefaultGroup_v9" : [
"2020-07-28T13:12:58.031-0500"
],
"iterateDefaultGroup_v10" : [
"2020-07-28T13:15:25.261-0500"
],
"iterateDefaultGroup_v11" : [
"2020-07-28T13:20:57.185-0500"
],
"iterateDefaultGroup_v12" : [
"2020-07-28T13:27:37.776-0500"
]
}
}