{
"document" : {
"data" : {
"NAME" : "STATE_MACHINE_TABLE",
"COMMENT" : "three FSMs for The Supervisor.",
"AUTHOR" : "admin",
"CREATION_TIME" : 1496767347,
"COL_TYPES" : {
"STATE_MACHINE_GROUP_ID" : "VARCHAR2",
"STATE_MACHINE_UID" : "VARCHAR2",
"SYSTEM_ALIAS_FILTER" : "VARCHAR2",
"RUN_DISPLAY_ALIAS" : "VARCHAR2",
"ENABLE_TABLE_DUMP_ON_CONFIGURE_TRANSITION" : "VARCHAR2",
"TABLE_DUMP_ON_CONFIGURE_FORMAT" : "VARCHAR2",
"TABLE_DUMP_ON_CONFIGURE_FILE_PATH" : "VARCHAR2",
"TABLE_DUMP_ON_CONFIGURE_FILE_RADIX" : "VARCHAR2",
"ENABLE_TABLE_DUMP_ON_RUN_TRANSITION" : "VARCHAR2",
"TABLE_DUMP_ON_RUN_FORMAT" : "VARCHAR2",
"TABLE_DUMP_ON_RUN_FILE_PATH" : "VARCHAR2",
"TABLE_DUMP_ON_RUN_FILE_RADIX" : "VARCHAR2",
"COMMENT_DESCRIPTION" : "VARCHAR2",
"AUTHOR" : "VARCHAR2",
"RECORD_INSERTION_TIME" : "TIMESTAMP WITH TIMEZONE"
},
"DATA_SET" : [
{
"STATE_MACHINE_GROUP_ID" : "Supervisor0_FSMs",
"STATE_MACHINE_UID" : "PhysicsRuns0",
"SYSTEM_ALIAS_FILTER" : "*Physics*Config*",
"RUN_DISPLAY_ALIAS" : "Physics Run",
"ENABLE_TABLE_DUMP_ON_CONFIGURE_TRANSITION" : "No",
"TABLE_DUMP_ON_CONFIGURE_FORMAT" : "DEFAULT",
"TABLE_DUMP_ON_CONFIGURE_FILE_PATH" : "DEFAULT",
"TABLE_DUMP_ON_CONFIGURE_FILE_RADIX" : "DEFAULT",
"ENABLE_TABLE_DUMP_ON_RUN_TRANSITION" : "No",
"TABLE_DUMP_ON_RUN_FORMAT" : "DEFAULT",
"TABLE_DUMP_ON_RUN_FILE_PATH" : "DEFAULT",
"TABLE_DUMP_ON_RUN_FILE_RADIX" : "DEFAULT",
"COMMENT_DESCRIPTION" : "System alias filter will only show Physics config groups. And the FSM display will show \"Physics Run.\"",
"AUTHOR" : "admin",
"RECORD_INSERTION_TIME" : "1483025802"
},
{
"STATE_MACHINE_GROUP_ID" : "Supervisor0_FSMs",
"STATE_MACHINE_UID" : "CalibrationRuns0",
"SYSTEM_ALIAS_FILTER" : "*Calib*Config*",
"RUN_DISPLAY_ALIAS" : "Calibration",
"ENABLE_TABLE_DUMP_ON_CONFIGURE_TRANSITION" : "No",
"TABLE_DUMP_ON_CONFIGURE_FORMAT" : "DEFAULT",
"TABLE_DUMP_ON_CONFIGURE_FILE_PATH" : "DEFAULT",
"TABLE_DUMP_ON_CONFIGURE_FILE_RADIX" : "DEFAULT",
"ENABLE_TABLE_DUMP_ON_RUN_TRANSITION" : "No",
"TABLE_DUMP_ON_RUN_FORMAT" : "DEFAULT",
"TABLE_DUMP_ON_RUN_FILE_PATH" : "DEFAULT",
"TABLE_DUMP_ON_RUN_FILE_RADIX" : "DEFAULT",
"COMMENT_DESCRIPTION" : "Filter selects only groups with Calib in the name (for Calibrations). Displays runs as \"Calibration.\"",
"AUTHOR" : "admin",
"RECORD_INSERTION_TIME" : "1483025802"
},
{
"STATE_MACHINE_GROUP_ID" : "Supervisor0_FSMs",
"STATE_MACHINE_UID" : "OtherRuns0",
"SYSTEM_ALIAS_FILTER" : "!*Context*",
"RUN_DISPLAY_ALIAS" : "Run",
"ENABLE_TABLE_DUMP_ON_CONFIGURE_TRANSITION" : "No",
"TABLE_DUMP_ON_CONFIGURE_FORMAT" : "DEFAULT",
"TABLE_DUMP_ON_CONFIGURE_FILE_PATH" : "DEFAULT",
"TABLE_DUMP_ON_CONFIGURE_FILE_RADIX" : "DEFAULT",
"ENABLE_TABLE_DUMP_ON_RUN_TRANSITION" : "No",
"TABLE_DUMP_ON_RUN_FORMAT" : "DEFAULT",
"TABLE_DUMP_ON_RUN_FILE_PATH" : "DEFAULT",
"TABLE_DUMP_ON_RUN_FILE_RADIX" : "DEFAULT",
"COMMENT_DESCRIPTION" : "System alias filter will only show non-context config groups. And the FSM display will show \"Oddball-Run.\"",
"AUTHOR" : "admin",
"RECORD_INSERTION_TIME" : "1483025802"
}
]
},
"metadata" : {

},
"search" : [

]
},
"comments" : [

],
"origin" : {
"source" : "template",
"name" : "notprovided",
"format" : "json",
"created" : "2019-02-22T16:11:43.308-0600",
"rawdata" : [

]
},
"version" : "2",
"entities" : [
{
"name" : "OTSROOT",
"assigned" : "2019-02-22T16:11:43.308-0600"
}
],
"tables" : [
{
"name" : "notprovided",
"assigned" : "2019-02-22T16:11:43.308-0600"
},
{
"name" : "DefaultContext_v2",
"assigned" : "2019-02-22T16:11:43.517-0600"
}
],
"changelog" : "notprovided",
"bookkeeping" : {
"isdeleted" : false,
"isreadonly" : false,
"updates" : [
{
"event" : "addTable",
"timestamp" : "2019-02-22T16:11:43.308-0600",
"value" : {
"name" : "notprovided",
"assigned" : "2019-02-22T16:11:43.308-0600"
}
},
{
"event" : "setVersion",
"timestamp" : "2019-02-22T16:11:43.308-0600",
"value" : {
"name" : "2",
"assigned" : "2019-02-22T16:11:43.308-0600"
}
},
{
"event" : "setCollection",
"timestamp" : "2019-02-22T16:11:43.308-0600",
"value" : {
"name" : "StateMachineTable",
"assigned" : "2019-02-22T16:11:43.308-0600"
}
},
{
"event" : "addEntity",
"timestamp" : "2019-02-22T16:11:43.308-0600",
"value" : {
"name" : "OTSROOT",
"assigned" : "2019-02-22T16:11:43.308-0600"
}
},
{
"event" : "addTable",
"timestamp" : "2019-02-22T16:11:43.517-0600",
"value" : {
"name" : "DefaultContext_v2",
"assigned" : "2019-02-22T16:11:43.517-0600"
}
},
{
"event" : "addConfiguration",
"timestamp" : "2019-07-23T09:05:25.557-0500",
"value" : {
"name" : "DefaultContext_v3",
"assigned" : "2019-07-23T09:05:25.557-0500"
}
},
{
"event" : "addConfiguration",
"timestamp" : "2019-11-19T16:07:21.703-0600",
"value" : {
"name" : "DefaultContext_v4",
"assigned" : "2019-11-19T16:07:21.703-0600"
}
},
{
"event" : "addConfiguration",
"timestamp" : "2019-11-20T14:24:12.649-0600",
"value" : {
"name" : "DefaultContext_v5",
"assigned" : "2019-11-20T14:24:12.649-0600"
}
},
{
"event" : "addConfiguration",
"timestamp" : "2019-11-20T14:39:27.504-0600",
"value" : {
"name" : "DefaultContext_v6",
"assigned" : "2019-11-20T14:39:27.504-0600"
}
},
{
"event" : "addConfiguration",
"timestamp" : "2019-11-20T15:26:58.535-0600",
"value" : {
"name" : "DefaultContext_v7",
"assigned" : "2019-11-20T15:26:58.535-0600"
}
},
{
"event" : "addConfiguration",
"timestamp" : "2019-11-20T15:27:24.572-0600",
"value" : {
"name" : "DefaultContext_v8",
"assigned" : "2019-11-20T15:27:24.572-0600"
}
},
{
"event" : "addConfiguration",
"timestamp" : "2019-11-20T15:28:33.756-0600",
"value" : {
"name" : "DefaultContext_v9",
"assigned" : "2019-11-20T15:28:33.756-0600"
}
},
{
"event" : "addConfiguration",
"timestamp" : "2019-11-20T15:56:57.809-0600",
"value" : {
"name" : "DefaultContext_v10",
"assigned" : "2019-11-20T15:56:57.809-0600"
}
},
{
"event" : "addConfiguration",
"timestamp" : "2019-11-20T16:00:09.205-0600",
"value" : {
"name" : "DefaultContext_v11",
"assigned" : "2019-11-20T16:00:09.205-0600"
}
},
{
"event" : "addConfiguration",
"timestamp" : "2019-12-05T17:52:36.328-0600",
"value" : {
"name" : "DefaultContext_v12",
"assigned" : "2019-12-05T17:52:36.328-0600"
}
},
{
"event" : "addConfiguration",
"timestamp" : "2019-12-06T09:54:12.673-0600",
"value" : {
"name" : "DefaultContext_v13",
"assigned" : "2019-12-06T09:54:12.673-0600"
}
},
{
"event" : "addConfiguration",
"timestamp" : "2019-12-09T11:56:59.462-0600",
"value" : {
"name" : "DefaultContext_v14",
"assigned" : "2019-12-09T11:56:59.462-0600"
}
},
{
"event" : "addConfiguration",
"timestamp" : "2019-12-13T13:20:55.634-0600",
"value" : {
"name" : "DefaultContext_v15",
"assigned" : "2019-12-13T13:20:55.634-0600"
}
},
{
"event" : "addConfiguration",
"timestamp" : "2021-04-29T11:04:33.158-0500",
"value" : {
"name" : "DefaultContext_v16",
"assigned" : "2021-04-29T11:04:33.158-0500"
}
},
{
"event" : "addConfiguration",
"timestamp" : "2021-04-29T12:14:45.807-0500",
"value" : {
"name" : "DefaultContext_v17",
"assigned" : "2021-04-29T12:14:45.807-0500"
}
},
{
"event" : "addConfiguration",
"timestamp" : "2021-04-29T12:25:33.311-0500",
"value" : {
"name" : "DefaultContext_v18",
"assigned" : "2021-04-29T12:25:33.311-0500"
}
},
{
"event" : "addConfiguration",
"timestamp" : "2021-04-29T12:25:52.785-0500",
"value" : {
"name" : "DefaultContext_v19",
"assigned" : "2021-04-29T12:25:52.785-0500"
}
}
],
"created" : "2019-02-22T16:11:43.308-0600"
},
"_id" : {
"$oid" : "ae5d31c7409e47508bc1474e"
},
"collection" : "StateMachineTable",
"aliases" : {
"active" : [

],
"history" : [

]
},
"runs" : [

],
"attachments" : [

],
"configtype" : "notprovided",
"configurations" : [
{
"name" : "DefaultContext_v3",
"assigned" : "2019-07-23T09:05:25.557-0500"
},
{
"name" : "DefaultContext_v4",
"assigned" : "2019-11-19T16:07:21.703-0600"
},
{
"name" : "DefaultContext_v5",
"assigned" : "2019-11-20T14:24:12.649-0600"
},
{
"name" : "DefaultContext_v6",
"assigned" : "2019-11-20T14:39:27.504-0600"
},
{
"name" : "DefaultContext_v7",
"assigned" : "2019-11-20T15:26:58.535-0600"
},
{
"name" : "DefaultContext_v8",
"assigned" : "2019-11-20T15:27:24.572-0600"
},
{
"name" : "DefaultContext_v9",
"assigned" : "2019-11-20T15:28:33.756-0600"
},
{
"name" : "DefaultContext_v10",
"assigned" : "2019-11-20T15:56:57.809-0600"
},
{
"name" : "DefaultContext_v11",
"assigned" : "2019-11-20T16:00:09.205-0600"
},
{
"name" : "DefaultContext_v12",
"assigned" : "2019-12-05T17:52:36.328-0600"
},
{
"name" : "DefaultContext_v13",
"assigned" : "2019-12-06T09:54:12.673-0600"
},
{
"name" : "DefaultContext_v14",
"assigned" : "2019-12-09T11:56:59.462-0600"
},
{
"name" : "DefaultContext_v15",
"assigned" : "2019-12-13T13:20:55.634-0600"
},
{
"name" : "DefaultContext_v16",
"assigned" : "2021-04-29T11:04:33.158-0500"
},
{
"name" : "DefaultContext_v17",
"assigned" : "2021-04-29T12:14:45.807-0500"
},
{
"name" : "DefaultContext_v18",
"assigned" : "2021-04-29T12:25:33.311-0500"
},
{
"name" : "DefaultContext_v19",
"assigned" : "2021-04-29T12:25:52.785-0500"
}
]
}