{
"document" : {
"data" : {
"NAME" : "DESKTOP_ICON_CONFIGURATION",
"COMMENT" : "Default Desktop Icons for First Demo Tutorial.",
"AUTHOR" : "admin",
"CREATION_TIME" : 1498146096,
"COL_TYPES" : {
"ICON_NAME" : "VARCHAR2",
"STATUS" : "VARCHAR2",
"CAPTION" : "VARCHAR2",
"ALTERNATE_TEXT" : "VARCHAR2",
"FORCE_ONLY_ONE_INSTANCE" : "VARCHAR2",
"REQUIRED_PERMISSION_LEVEL" : "VARCHAR2",
"IMAGE_URL" : "VARCHAR2",
"WINDOW_CONTENT_URL" : "VARCHAR2",
"LINK_TO_APPLICATION_TABLE" : "VARCHAR2",
"LINK_TO_APPLICATION_UID" : "VARCHAR2",
"LINK_TO_PARAMETER_TABLE" : "VARCHAR2",
"LINK_TO_PARAMETER_UID" : "VARCHAR2",
"FOLDER_PATH" : "VARCHAR2",
"COMMENT_DESCRIPTION" : "VARCHAR2",
"AUTHOR" : "VARCHAR2",
"RECORD_INSERTION_TIME" : "TIMESTAMP WITH TIMEZONE"
},
"DATA_SET" : [
{
"ICON_NAME" : "FSM",
"STATUS" : "On",
"CAPTION" : "State Machine",
"ALTERNATE_TEXT" : "FSM",
"FORCE_ONLY_ONE_INSTANCE" : "True",
"REQUIRED_PERMISSION_LEVEL" : "1",
"IMAGE_URL" : "icon-Physics.gif",
"WINDOW_CONTENT_URL" : "/WebPath/html/StateMachine.html?fsm_name=OtherRuns0",
"LINK_TO_APPLICATION_TABLE" : "NO_LINK",
"LINK_TO_APPLICATION_UID" : "DEFAULT",
"LINK_TO_PARAMETER_TABLE" : "NO_LINK",
"LINK_TO_PARAMETER_UID" : "DEFAULT",
"FOLDER_PATH" : "DEFAULT",
"COMMENT_DESCRIPTION" : "",
"AUTHOR" : "admin",
"RECORD_INSERTION_TIME" : "1492542398"
},
{
"ICON_NAME" : "Chat",
"STATUS" : "On",
"CAPTION" : "Chat",
"ALTERNATE_TEXT" : "CHAT",
"FORCE_ONLY_ONE_INSTANCE" : "True",
"REQUIRED_PERMISSION_LEVEL" : "1",
"IMAGE_URL" : "icon-Chat.png",
"WINDOW_CONTENT_URL" : "/urn:xdaq-application:lid=",
"LINK_TO_APPLICATION_TABLE" : "XDAQApplicationConfiguration",
"LINK_TO_APPLICATION_UID" : "ChatSupervisor",
"LINK_TO_PARAMETER_TABLE" : "NO_LINK",
"LINK_TO_PARAMETER_UID" : "DEFAULT",
"FOLDER_PATH" : "DEFAULT",
"COMMENT_DESCRIPTION" : "The id number will be appended from the linked XDAQ supervisor urn",
"AUTHOR" : "admin",
"RECORD_INSERTION_TIME" : "1492542398"
},
{
"ICON_NAME" : "Logbook",
"STATUS" : "On",
"CAPTION" : "Logbook",
"ALTERNATE_TEXT" : "LOG",
"FORCE_ONLY_ONE_INSTANCE" : "True",
"REQUIRED_PERMISSION_LEVEL" : "1",
"IMAGE_URL" : "icon-Logbook.png",
"WINDOW_CONTENT_URL" : "/urn:xdaq-application:lid=",
"LINK_TO_APPLICATION_TABLE" : "XDAQApplicationConfiguration",
"LINK_TO_APPLICATION_UID" : "LogbookSupervisor",
"LINK_TO_PARAMETER_TABLE" : "NO_LINK",
"LINK_TO_PARAMETER_UID" : "DEFAULT",
"FOLDER_PATH" : "DEFAULT",
"COMMENT_DESCRIPTION" : "lid number must match XDAQ supervisor urn",
"AUTHOR" : "admin",
"RECORD_INSERTION_TIME" : "1492542398"
},
{
"ICON_NAME" : "Visualizer",
"STATUS" : "On",
"CAPTION" : "Visualizer",
"ALTERNATE_TEXT" : "VIS",
"FORCE_ONLY_ONE_INSTANCE" : "False",
"REQUIRED_PERMISSION_LEVEL" : "10",
"IMAGE_URL" : "icon-Visualizer.png",
"WINDOW_CONTENT_URL" : "/WebPath/html/Visualization.html?urn=",
"LINK_TO_APPLICATION_TABLE" : "XDAQApplicationConfiguration",
"LINK_TO_APPLICATION_UID" : "VisualSupervisor",
"LINK_TO_PARAMETER_TABLE" : "NO_LINK",
"LINK_TO_PARAMETER_UID" : "DEFAULT",
"FOLDER_PATH" : "/opt/Data/",
"COMMENT_DESCRIPTION" : "urn must match XDAQ supervisor urn",
"AUTHOR" : "admin",
"RECORD_INSERTION_TIME" : "1498146096"
},
{
"ICON_NAME" : "ConfigureGUI",
"STATUS" : "On",
"CAPTION" : "Configure",
"ALTERNATE_TEXT" : "CFG",
"FORCE_ONLY_ONE_INSTANCE" : "False",
"REQUIRED_PERMISSION_LEVEL" : "10",
"IMAGE_URL" : "icon-Configure.png",
"WINDOW_CONTENT_URL" : "/urn:xdaq-application:lid=",
"LINK_TO_APPLICATION_TABLE" : "XDAQApplicationConfiguration",
"LINK_TO_APPLICATION_UID" : "ConfigurationGUISupervisor",
"LINK_TO_PARAMETER_TABLE" : "NO_LINK",
"LINK_TO_PARAMETER_UID" : "DEFAULT",
"FOLDER_PATH" : "DEFAULT",
"COMMENT_DESCRIPTION" : "lid number must match XDAQ supervisor urn",
"AUTHOR" : "admin",
"RECORD_INSERTION_TIME" : "1492542398"
},
{
"ICON_NAME" : "FESubConfigGUI",
"STATUS" : "Off",
"CAPTION" : "FE-SubConfig",
"ALTERNATE_TEXT" : "CFG",
"FORCE_ONLY_ONE_INSTANCE" : "False",
"REQUIRED_PERMISSION_LEVEL" : "10",
"IMAGE_URL" : "icon-Configure.png",
"WINDOW_CONTENT_URL" : "/WebPath/html/ConfigurationGUI_subset.html?urn=",
"LINK_TO_APPLICATION_TABLE" : "XDAQApplicationConfiguration",
"LINK_TO_APPLICATION_UID" : "ConfigurationGUISupervisor",
"LINK_TO_PARAMETER_TABLE" : "DesktopWindowParameterConfiguration",
"LINK_TO_PARAMETER_UID" : "FE_Cfg_params",
"FOLDER_PATH" : "DEFAULT",
"COMMENT_DESCRIPTION" : "lid number must match XDAQ supervisor urn",
"AUTHOR" : "admin",
"RECORD_INSERTION_TIME" : "1496768292"
},
{
"ICON_NAME" : "MacroMaker",
"STATUS" : "On",
"CAPTION" : "Macro Maker",
"ALTERNATE_TEXT" : "MM",
"FORCE_ONLY_ONE_INSTANCE" : "True",
"REQUIRED_PERMISSION_LEVEL" : "1",
"IMAGE_URL" : "icon-MacroMaker.png",
"WINDOW_CONTENT_URL" : "/WebPath/html/MacroMaker.html?urn=",
"LINK_TO_APPLICATION_TABLE" : "XDAQApplicationConfiguration",
"LINK_TO_APPLICATION_UID" : "MacroMakerSupervisor",
"LINK_TO_PARAMETER_TABLE" : "NO_LINK",
"LINK_TO_PARAMETER_UID" : "DEFAULT",
"FOLDER_PATH" : "DEFAULT",
"COMMENT_DESCRIPTION" : "lid number must match XDAQ supervisor urn",
"AUTHOR" : "admin",
"RECORD_INSERTION_TIME" : "1492623102"
},
{
"ICON_NAME" : "ControlsDashboard",
"STATUS" : "Off",
"CAPTION" : "Controls Dashboard",
"ALTERNATE_TEXT" : "CTRLS",
"FORCE_ONLY_ONE_INSTANCE" : "False",
"REQUIRED_PERMISSION_LEVEL" : "1",
"IMAGE_URL" : "icon-ControlsDashboard.png",
"WINDOW_CONTENT_URL" : "/WebPath/html/SlowControlsDashboard.html?urn=",
"LINK_TO_APPLICATION_TABLE" : "XDAQApplicationConfiguration",
"LINK_TO_APPLICATION_UID" : "ControlsDashboardSupervisor",
"LINK_TO_PARAMETER_TABLE" : "NO_LINK",
"LINK_TO_PARAMETER_UID" : "DEFAULT",
"FOLDER_PATH" : "DEFAULT",
"COMMENT_DESCRIPTION" : "urn must match XDAQ supervisor urn",
"AUTHOR" : "admin",
"RECORD_INSERTION_TIME" : "1496768292"
},
{
"ICON_NAME" : "NOvALog",
"STATUS" : "Off",
"CAPTION" : "NOvA Log",
"ALTERNATE_TEXT" : "NOVA",
"FORCE_ONLY_ONE_INSTANCE" : "True",
"REQUIRED_PERMISSION_LEVEL" : "1",
"IMAGE_URL" : "0",
"WINDOW_CONTENT_URL" : "http://dbweb6.fnal.gov:8080/ECL/nova/E/index",
"LINK_TO_APPLICATION_TABLE" : "NO_LINK",
"LINK_TO_APPLICATION_UID" : "DEFAULT",
"LINK_TO_PARAMETER_TABLE" : "NO_LINK",
"LINK_TO_PARAMETER_UID" : "DEFAULT",
"FOLDER_PATH" : "DEFAULT",
"COMMENT_DESCRIPTION" : "0 means use ALT for icon",
"AUTHOR" : "admin",
"RECORD_INSERTION_TIME" : "1496768292"
},
{
"ICON_NAME" : "DBUtilities",
"STATUS" : "Off",
"CAPTION" : "DB Utilities",
"ALTERNATE_TEXT" : "DB",
"FORCE_ONLY_ONE_INSTANCE" : "True",
"REQUIRED_PERMISSION_LEVEL" : "10",
"IMAGE_URL" : "0",
"WINDOW_CONTENT_URL" : "http://127.0.0.1:8080/db/client.html",
"LINK_TO_APPLICATION_TABLE" : "NO_LINK",
"LINK_TO_APPLICATION_UID" : "DEFAULT",
"LINK_TO_PARAMETER_TABLE" : "NO_LINK",
"LINK_TO_PARAMETER_UID" : "DEFAULT",
"FOLDER_PATH" : "DEFAULT",
"COMMENT_DESCRIPTION" : "0 means use ALT for icon",
"AUTHOR" : "admin",
"RECORD_INSERTION_TIME" : "1496768292"
},
{
"ICON_NAME" : "Console",
"STATUS" : "On",
"CAPTION" : "Console",
"ALTERNATE_TEXT" : "CON",
"FORCE_ONLY_ONE_INSTANCE" : "True",
"REQUIRED_PERMISSION_LEVEL" : "255",
"IMAGE_URL" : "icon-Console.png",
"WINDOW_CONTENT_URL" : "/WebPath/html/Console.html?urn=",
"LINK_TO_APPLICATION_TABLE" : "XDAQApplicationConfiguration",
"LINK_TO_APPLICATION_UID" : "ConsoleSupervisor",
"LINK_TO_PARAMETER_TABLE" : "NO_LINK",
"LINK_TO_PARAMETER_UID" : "DEFAULT",
"FOLDER_PATH" : "DEFAULT",
"COMMENT_DESCRIPTION" : "urn must match XDAQ supervisor urn",
"AUTHOR" : "admin",
"RECORD_INSERTION_TIME" : "1492623102"
},
{
"ICON_NAME" : "FEMacroTest",
"STATUS" : "Off",
"CAPTION" : "FE Macro Test",
"ALTERNATE_TEXT" : "FE-Mac",
"FORCE_ONLY_ONE_INSTANCE" : "True",
"REQUIRED_PERMISSION_LEVEL" : "1",
"IMAGE_URL" : "0",
"WINDOW_CONTENT_URL" : "/WebPath/html/FEMacroTest.html?urn=",
"LINK_TO_APPLICATION_TABLE" : "XDAQApplicationConfiguration",
"LINK_TO_APPLICATION_UID" : "MacroMakerSupervisor",
"LINK_TO_PARAMETER_TABLE" : "NO_LINK",
"LINK_TO_PARAMETER_UID" : "DEFAULT",
"FOLDER_PATH" : "DEFAULT",
"COMMENT_DESCRIPTION" : "lid number must match XDAQ supervisor urn",
"AUTHOR" : "admin",
"RECORD_INSERTION_TIME" : "1496768292"
}
]
},
"metadata" : {

},
"search" : [

]
},
"comments" : [

],
"origin" : {
"source" : "template",
"name" : "notprovided",
"format" : "json",
"created" : "Fri Jul 07 22:54:22 2017",
"rawdata" : [

]
},
"version" : "3",
"entities" : [
{
"name" : "OTSROOT",
"assigned" : "Fri Jul 07 22:54:22 2017"
}
],
"configurations" : [
{
"name" : "notprovided",
"assigned" : "Fri Jul 07 22:54:22 2017"
},
{
"name" : "OTMiniModuleContext_v3",
"assigned" : "Fri Jul 07 22:54:22 2017"
}
],
"changelog" : "notprovided",
"bookkeeping" : {
"isdeleted" : false,
"isreadonly" : false,
"updates" : [
{
"event" : "addConfiguration",
"timestamp" : "Fri Jul 07 22:54:22 2017",
"value" : {
"name" : "notprovided",
"assigned" : "Fri Jul 07 22:54:22 2017"
}
},
{
"event" : "setVersion",
"timestamp" : "Fri Jul 07 22:54:22 2017",
"value" : {
"name" : "3",
"assigned" : "Fri Jul 07 22:54:22 2017"
}
},
{
"event" : "setCollection",
"timestamp" : "Fri Jul 07 22:54:22 2017",
"value" : {
"name" : "DesktopIconConfiguration",
"assigned" : "Fri Jul 07 22:54:22 2017"
}
},
{
"event" : "addEntity",
"timestamp" : "Fri Jul 07 22:54:22 2017",
"value" : {
"name" : "OTSROOT",
"assigned" : "Fri Jul 07 22:54:22 2017"
}
},
{
"event" : "addConfiguration",
"timestamp" : "Fri Jul 07 22:54:22 2017",
"value" : {
"name" : "OTMiniModuleContext_v3",
"assigned" : "Fri Jul 07 22:54:22 2017"
}
}
],
"created" : "Fri Jul 07 22:54:22 2017"
},
"_id" : {
"$oid" : "611c933e1b1e44508eafd354"
},
"collection" : "DesktopIconConfiguration",
"aliases" : {
"active" : [

],
"history" : [

]
},
"runs" : [

],
"attachments" : [

],
"configtype" : "notprovided"
}