{
"ouid" : [
"00aa1546cf1341279218a9ec"
],
"version" : {
"0" : [
"00aa1546cf1341279218a9ec"
]
},
"configurations.name" : {
"notprovided" : [
"00aa1546cf1341279218a9ec"
],
"FTBFConfig_v0" : [
"00aa1546cf1341279218a9ec"
],
"FTBFConfig_v1" : [
"00aa1546cf1341279218a9ec"
],
"FTBFConfig_v2" : [
"00aa1546cf1341279218a9ec"
],
"FTBFConfig_v3" : [
"00aa1546cf1341279218a9ec"
],
"FTBFConfig_v4" : [
"00aa1546cf1341279218a9ec"
],
"FTBFConfig_v5" : [
"00aa1546cf1341279218a9ec"
],
"FTBFConfig_v6" : [
"00aa1546cf1341279218a9ec"
],
"FTBFConfig_v7" : [
"00aa1546cf1341279218a9ec"
],
"FTBFConfig_v8" : [
"00aa1546cf1341279218a9ec"
],
"FTBFConfig_v9" : [
"00aa1546cf1341279218a9ec"
],
"FTBFConfig_v10" : [
"00aa1546cf1341279218a9ec"
],
"FTBFConfig_v11" : [
"00aa1546cf1341279218a9ec"
],
"FTBFConfig_v12" : [
"00aa1546cf1341279218a9ec"
],
"FTBFConfig_v13" : [
"00aa1546cf1341279218a9ec"
],
"FTBFConfig_v14" : [
"00aa1546cf1341279218a9ec"
],
"FTBFConfig_v15" : [
"00aa1546cf1341279218a9ec"
],
"FTBFConfig_v16" : [
"00aa1546cf1341279218a9ec"
],
"FTBFConfig_v17" : [
"00aa1546cf1341279218a9ec"
],
"FTBFConfig_v18" : [
"00aa1546cf1341279218a9ec"
],
"FTBFConfig_v19" : [
"00aa1546cf1341279218a9ec"
],
"FTBFConfig_v20" : [
"00aa1546cf1341279218a9ec"
],
"FTBFConfig_v21" : [
"00aa1546cf1341279218a9ec"
],
"FTBFConfig_v22" : [
"00aa1546cf1341279218a9ec"
],
"FTBFConfig_v23" : [
"00aa1546cf1341279218a9ec"
],
"FTBFConfig_v24" : [
"00aa1546cf1341279218a9ec"
],
"FTBFConfig_v25" : [
"00aa1546cf1341279218a9ec"
],
"FTBFConfig_v26" : [
"00aa1546cf1341279218a9ec"
],
"FTBFConfig_v27" : [
"00aa1546cf1341279218a9ec"
],
"FTBFConfig_v28" : [
"00aa1546cf1341279218a9ec"
],
"FTBFConfig_v29" : [
"00aa1546cf1341279218a9ec"
],
"FTBFConfig_v30" : [
"00aa1546cf1341279218a9ec"
],
"FTBFConfig_v31" : [
"00aa1546cf1341279218a9ec"
],
"FTBFConfig_v32" : [
"00aa1546cf1341279218a9ec"
],
"FTBFConfig_v33" : [
"00aa1546cf1341279218a9ec"
],
"FTBFConfig_v34" : [
"00aa1546cf1341279218a9ec"
],
"FTBFConfig_v35" : [
"00aa1546cf1341279218a9ec"
],
"FTBFConfig_v36" : [
"00aa1546cf1341279218a9ec"
],
"FTBFConfig_v37" : [
"00aa1546cf1341279218a9ec"
],
"FTBFConfig_v38" : [
"00aa1546cf1341279218a9ec"
],
"FTBFConfig_v39" : [
"00aa1546cf1341279218a9ec"
],
"FTBFConfig_v40" : [
"00aa1546cf1341279218a9ec"
],
"FTBFConfig_v41" : [
"00aa1546cf1341279218a9ec"
],
"FTBFConfig_v42" : [
"00aa1546cf1341279218a9ec"
],
"FTBFConfig_v43" : [
"00aa1546cf1341279218a9ec"
],
"FTBFConfig_v44" : [
"00aa1546cf1341279218a9ec"
],
"FTBFConfig_v45" : [
"00aa1546cf1341279218a9ec"
],
"FTBFConfig_v46" : [
"00aa1546cf1341279218a9ec"
],
"FTBFConfig_v47" : [
"00aa1546cf1341279218a9ec"
],
"FTBFConfig_v48" : [
"00aa1546cf1341279218a9ec"
],
"FTBFConfig_v49" : [
"00aa1546cf1341279218a9ec"
],
"FTBFConfig_v52" : [
"00aa1546cf1341279218a9ec"
],
"FTBFConfig_v53" : [
"00aa1546cf1341279218a9ec"
],
"FTBFConfig_v54" : [
"00aa1546cf1341279218a9ec"
],
"FTBFConfig_v55" : [
"00aa1546cf1341279218a9ec"
],
"FTBFConfig_v56" : [
"00aa1546cf1341279218a9ec"
],
"FTBFConfig_v57" : [
"00aa1546cf1341279218a9ec"
],
"FTBFConfig_v58" : [
"00aa1546cf1341279218a9ec"
],
"FTBFConfig_v59" : [
"00aa1546cf1341279218a9ec"
],
"FTBFConfig_v60" : [
"00aa1546cf1341279218a9ec"
],
"FTBFConfig_v61" : [
"00aa1546cf1341279218a9ec"
],
"FTBFConfig_v62" : [
"00aa1546cf1341279218a9ec"
],
"FTBFConfig_v63" : [
"00aa1546cf1341279218a9ec"
],
"FTBFConfig_v64" : [
"00aa1546cf1341279218a9ec"
],
"FTBFConfig_v65" : [
"00aa1546cf1341279218a9ec"
],
"FTBFConfig_v66" : [
"00aa1546cf1341279218a9ec"
],
"FTBFConfig_v67" : [
"00aa1546cf1341279218a9ec"
],
"FTBFConfig_v68" : [
"00aa1546cf1341279218a9ec"
],
"FTBFConfig_v69" : [
"00aa1546cf1341279218a9ec"
],
"FTBFConfig_v70" : [
"00aa1546cf1341279218a9ec"
],
"FTBFConfigNim_v0" : [
"00aa1546cf1341279218a9ec"
],
"FTBFConfigNim_v1" : [
"00aa1546cf1341279218a9ec"
],
"FTBFConfigNim_v2" : [
"00aa1546cf1341279218a9ec"
],
"FTBFConfigNim_v3" : [
"00aa1546cf1341279218a9ec"
],
"FTBFConfigNim_v4" : [
"00aa1546cf1341279218a9ec"
],
"FTBFConfigNim_v5" : [
"00aa1546cf1341279218a9ec"
],
"FTBFConfigNim_v6" : [
"00aa1546cf1341279218a9ec"
],
"FTBFConfigNim_v7" : [
"00aa1546cf1341279218a9ec"
],
"FTBFConfigNim_v8" : [
"00aa1546cf1341279218a9ec"
],
"FTBFConfigNim_v9" : [
"00aa1546cf1341279218a9ec"
],
"FTBFConfigNim_v10" : [
"00aa1546cf1341279218a9ec"
],
"FTBFConfigNim_v11" : [
"00aa1546cf1341279218a9ec"
],
"FTBFConfigNim_v12" : [
"00aa1546cf1341279218a9ec"
],
"FTBFConfigNim_v13" : [
"00aa1546cf1341279218a9ec"
],
"FTBFConfigNim_v14" : [
"00aa1546cf1341279218a9ec"
],
"FTBFConfigNim_v15" : [
"00aa1546cf1341279218a9ec"
],
"FTBFConfigNim_v16" : [
"00aa1546cf1341279218a9ec"
],
"FTBFConfigNim_v17" : [
"00aa1546cf1341279218a9ec"
],
"FTBFConfigNim_v18" : [
"00aa1546cf1341279218a9ec"
],
"FTBFConfigNim_v19" : [
"00aa1546cf1341279218a9ec"
],
"FTBFConfigNim_v20" : [
"00aa1546cf1341279218a9ec"
],
"FTBFConfigNim_v21" : [
"00aa1546cf1341279218a9ec"
],
"FTBFConfigNim_v22" : [
"00aa1546cf1341279218a9ec"
],
"FTBFConfigNim_v23" : [
"00aa1546cf1341279218a9ec"
],
"FTBFConfigNim_v24" : [
"00aa1546cf1341279218a9ec"
],
"FTBFConfigNim_v25" : [
"00aa1546cf1341279218a9ec"
],
"FTBFConfigNim_v26" : [
"00aa1546cf1341279218a9ec"
],
"FTBFConfigNim_v27" : [
"00aa1546cf1341279218a9ec"
],
"FTBFConfigNim_v28" : [
"00aa1546cf1341279218a9ec"
],
"FTBFConfigNim_v29" : [
"00aa1546cf1341279218a9ec"
],
"FTBFConfig_v71" : [
"00aa1546cf1341279218a9ec"
],
"FTBFConfig_v72" : [
"00aa1546cf1341279218a9ec"
],
"FTBFConfig_v73" : [
"00aa1546cf1341279218a9ec"
],
"FTBFConfig_v74" : [
"00aa1546cf1341279218a9ec"
],
"FTBFConfig_v75" : [
"00aa1546cf1341279218a9ec"
],
"FTBFConfig_v76" : [
"00aa1546cf1341279218a9ec"
],
"FTBFConfig_v77" : [
"00aa1546cf1341279218a9ec"
],
"FTBFConfig_v78" : [
"00aa1546cf1341279218a9ec"
],
"FTBFConfig_v79" : [
"00aa1546cf1341279218a9ec"
],
"FTBFConfig_v80" : [
"00aa1546cf1341279218a9ec"
],
"FTBFConfig_v81" : [
"00aa1546cf1341279218a9ec"
],
"FTBFConfig_v82" : [
"00aa1546cf1341279218a9ec"
],
"FTBFConfig_v83" : [
"00aa1546cf1341279218a9ec"
],
"FTBFConfig_v84" : [
"00aa1546cf1341279218a9ec"
],
"FTBFConfig_v85" : [
"00aa1546cf1341279218a9ec"
],
"FTBFConfig_v86" : [
"00aa1546cf1341279218a9ec"
],
"FTBFConfig_v87" : [
"00aa1546cf1341279218a9ec"
],
"FTBFConfig_v88" : [
"00aa1546cf1341279218a9ec"
],
"FTBFConfig_v89" : [
"00aa1546cf1341279218a9ec"
],
"FTBFConfig_v90" : [
"00aa1546cf1341279218a9ec"
],
"FTBFConfig_v91" : [
"00aa1546cf1341279218a9ec"
],
"FTBFConfig_v92" : [
"00aa1546cf1341279218a9ec"
],
"FTBFConfig_v93" : [
"00aa1546cf1341279218a9ec"
],
"FTBFConfig_v94" : [
"00aa1546cf1341279218a9ec"
],
"FTBFConfig_v95" : [
"00aa1546cf1341279218a9ec"
],
"FTBFConfig_v96" : [
"00aa1546cf1341279218a9ec"
],
"FTBFConfig_v97" : [
"00aa1546cf1341279218a9ec"
],
"FTBFConfig_v98" : [
"00aa1546cf1341279218a9ec"
],
"FTBFConfig_v99" : [
"00aa1546cf1341279218a9ec"
],
"FTBFConfig_v100" : [
"00aa1546cf1341279218a9ec"
],
"FTBFConfig_v101" : [
"00aa1546cf1341279218a9ec"
],
"FTBFConfig_v102" : [
"00aa1546cf1341279218a9ec"
],
"FTBFConfig_v103" : [
"00aa1546cf1341279218a9ec"
],
"FTBFConfig_v104" : [
"00aa1546cf1341279218a9ec"
],
"FTBFConfig_v105" : [
"00aa1546cf1341279218a9ec"
],
"FTBFConfig_v106" : [
"00aa1546cf1341279218a9ec"
],
"FTBFConfig_v107" : [
"00aa1546cf1341279218a9ec"
],
"FTBFConfig_v108" : [
"00aa1546cf1341279218a9ec"
],
"FTBFConfig_v109" : [
"00aa1546cf1341279218a9ec"
],
"FTBFConfig_v110" : [
"00aa1546cf1341279218a9ec"
],
"FTBFConfig_v111" : [
"00aa1546cf1341279218a9ec"
],
"FTBFConfig_v112" : [
"00aa1546cf1341279218a9ec"
],
"FTBFConfig_v113" : [
"00aa1546cf1341279218a9ec"
],
"FTBFConfig_v114" : [
"00aa1546cf1341279218a9ec"
],
"FTBFConfig_v115" : [
"00aa1546cf1341279218a9ec"
],
"FTBFConfig_v116" : [
"00aa1546cf1341279218a9ec"
],
"FTBFConfig_v117" : [
"00aa1546cf1341279218a9ec"
],
"FTBFConfig_v118" : [
"00aa1546cf1341279218a9ec"
],
"FTBFConfig_v119" : [
"00aa1546cf1341279218a9ec"
],
"FTBFConfig_v120" : [
"00aa1546cf1341279218a9ec"
],
"FTBFConfig_v121" : [
"00aa1546cf1341279218a9ec"
],
"FTBFConfig_v122" : [
"00aa1546cf1341279218a9ec"
],
"FTBFConfig_v123" : [
"00aa1546cf1341279218a9ec"
],
"FTBFConfig_v124" : [
"00aa1546cf1341279218a9ec"
],
"FTBFConfig_v125" : [
"00aa1546cf1341279218a9ec"
],
"FTBFConfig_v126" : [
"00aa1546cf1341279218a9ec"
],
"FTBFConfig_v127" : [
"00aa1546cf1341279218a9ec"
],
"FTBFConfig_v128" : [
"00aa1546cf1341279218a9ec"
],
"FTBFConfig_v129" : [
"00aa1546cf1341279218a9ec"
],
"FTBFConfig_v130" : [
"00aa1546cf1341279218a9ec"
],
"FTBFConfig_v131" : [
"00aa1546cf1341279218a9ec"
],
"FTBFConfig_v132" : [
"00aa1546cf1341279218a9ec"
],
"FTBFConfig_v133" : [
"00aa1546cf1341279218a9ec"
],
"FTBFConfig_v134" : [
"00aa1546cf1341279218a9ec"
],
"FTBFConfig_v135" : [
"00aa1546cf1341279218a9ec"
],
"FTBFConfig_v136" : [
"00aa1546cf1341279218a9ec"
],
"FTBFConfig_v137" : [
"00aa1546cf1341279218a9ec"
],
"FTBFConfig_v138" : [
"00aa1546cf1341279218a9ec"
],
"FTBFConfig_v139" : [
"00aa1546cf1341279218a9ec"
],
"FTBFConfig_v140" : [
"00aa1546cf1341279218a9ec"
],
"FTBFConfig_v141" : [
"00aa1546cf1341279218a9ec"
],
"FTBFConfig_v142" : [
"00aa1546cf1341279218a9ec"
]
},
"entities.name" : {
"OTSROOT" : [
"00aa1546cf1341279218a9ec"
]
},
"aliases.active.name" : {

},
"runs.name" : {

},
"configurations.assigned" : {
"notprovided" : [
"2017-11-08T15:56:03.538-0600"
],
"FTBFConfig_v0" : [
"2017-11-08T15:56:06.368-0600"
],
"FTBFConfig_v1" : [
"2017-11-09T09:56:31.134-0600"
],
"FTBFConfig_v2" : [
"2017-11-09T10:06:00.114-0600"
],
"FTBFConfig_v3" : [
"2017-11-09T10:37:11.671-0600"
],
"FTBFConfig_v4" : [
"2017-11-15T11:30:10.490-0600"
],
"FTBFConfig_v5" : [
"2017-11-15T11:54:57.316-0600"
],
"FTBFConfig_v6" : [
"2017-11-15T11:57:49.939-0600"
],
"FTBFConfig_v7" : [
"2017-11-15T12:42:32.403-0600"
],
"FTBFConfig_v8" : [
"2017-11-15T13:01:03.430-0600"
],
"FTBFConfig_v9" : [
"2017-11-15T13:02:56.766-0600"
],
"FTBFConfig_v10" : [
"2017-11-15T13:04:24.347-0600"
],
"FTBFConfig_v11" : [
"2017-11-15T13:07:51.855-0600"
],
"FTBFConfig_v12" : [
"2017-11-15T13:11:59.317-0600"
],
"FTBFConfig_v13" : [
"2017-11-15T13:13:53.266-0600"
],
"FTBFConfig_v14" : [
"2017-11-15T13:27:30.322-0600"
],
"FTBFConfig_v15" : [
"2017-11-15T13:35:47.269-0600"
],
"FTBFConfig_v16" : [
"2017-11-15T13:36:51.883-0600"
],
"FTBFConfig_v17" : [
"2017-11-15T15:33:30.428-0600"
],
"FTBFConfig_v18" : [
"2017-11-15T15:35:34.049-0600"
],
"FTBFConfig_v19" : [
"2017-11-15T15:38:02.904-0600"
],
"FTBFConfig_v20" : [
"2017-11-15T16:26:30.831-0600"
],
"FTBFConfig_v21" : [
"2017-11-16T09:22:31.712-0600"
],
"FTBFConfig_v22" : [
"2017-11-17T10:23:27.936-0600"
],
"FTBFConfig_v23" : [
"2017-11-17T17:26:45.499-0600"
],
"FTBFConfig_v24" : [
"2017-11-17T17:58:26.018-0600"
],
"FTBFConfig_v25" : [
"2017-11-17T18:24:45.687-0600"
],
"FTBFConfig_v26" : [
"2017-11-17T18:32:23.248-0600"
],
"FTBFConfig_v27" : [
"2017-11-17T18:43:30.443-0600"
],
"FTBFConfig_v28" : [
"2017-11-17T18:48:32.479-0600"
],
"FTBFConfig_v29" : [
"2017-11-20T14:48:31.087-0600"
],
"FTBFConfig_v30" : [
"2017-11-20T15:39:56.222-0600"
],
"FTBFConfig_v31" : [
"2017-11-20T16:41:02.244-0600"
],
"FTBFConfig_v32" : [
"2017-11-20T18:55:35.166-0600"
],
"FTBFConfig_v33" : [
"2017-11-20T18:57:30.448-0600"
],
"FTBFConfig_v34" : [
"2017-11-29T17:50:39.937-0600"
],
"FTBFConfig_v35" : [
"2017-11-29T18:00:32.897-0600"
],
"FTBFConfig_v36" : [
"2017-11-29T18:35:11.604-0600"
],
"FTBFConfig_v37" : [
"2017-12-01T09:36:18.057-0600"
],
"FTBFConfig_v38" : [
"2017-12-01T09:52:01.331-0600"
],
"FTBFConfig_v39" : [
"2017-12-01T11:51:58.598-0600"
],
"FTBFConfig_v40" : [
"2017-12-01T12:18:20.636-0600"
],
"FTBFConfig_v41" : [
"2017-12-01T12:21:02.691-0600"
],
"FTBFConfig_v42" : [
"2017-12-01T12:43:22.000-0600"
],
"FTBFConfig_v43" : [
"2017-12-01T12:57:59.821-0600"
],
"FTBFConfig_v44" : [
"2017-12-01T13:00:52.434-0600"
],
"FTBFConfig_v45" : [
"2017-12-01T13:25:49.042-0600"
],
"FTBFConfig_v46" : [
"2017-12-01T13:35:43.777-0600"
],
"FTBFConfig_v47" : [
"2017-12-01T14:00:52.098-0600"
],
"FTBFConfig_v48" : [
"2017-12-01T14:03:59.444-0600"
],
"FTBFConfig_v49" : [
"2017-12-01T15:31:59.595-0600"
],
"FTBFConfig_v52" : [
"2017-12-01T15:37:31.914-0600"
],
"FTBFConfig_v53" : [
"2017-12-01T15:40:59.111-0600"
],
"FTBFConfig_v54" : [
"2017-12-01T15:52:49.428-0600"
],
"FTBFConfig_v55" : [
"2017-12-01T15:54:34.577-0600"
],
"FTBFConfig_v56" : [
"2017-12-01T15:55:34.150-0600"
],
"FTBFConfig_v57" : [
"2017-12-01T15:56:39.989-0600"
],
"FTBFConfig_v58" : [
"2017-12-01T15:57:38.047-0600"
],
"FTBFConfig_v59" : [
"2017-12-01T15:58:29.963-0600"
],
"FTBFConfig_v60" : [
"2017-12-01T15:59:31.171-0600"
],
"FTBFConfig_v61" : [
"2017-12-01T16:19:41.000-0600"
],
"FTBFConfig_v62" : [
"2017-12-01T16:22:03.485-0600"
],
"FTBFConfig_v63" : [
"2017-12-01T16:31:24.112-0600"
],
"FTBFConfig_v64" : [
"2017-12-01T17:06:31.336-0600"
],
"FTBFConfig_v65" : [
"2017-12-01T17:32:43.465-0600"
],
"FTBFConfig_v66" : [
"2017-12-01T20:38:49.969-0600"
],
"FTBFConfig_v67" : [
"2017-12-01T21:25:01.317-0600"
],
"FTBFConfig_v68" : [
"2017-12-01T21:43:01.002-0600"
],
"FTBFConfig_v69" : [
"2017-12-01T21:44:59.600-0600"
],
"FTBFConfig_v70" : [
"2017-12-01T21:59:18.860-0600"
],
"FTBFConfigNim_v0" : [
"2017-12-01T22:00:05.593-0600"
],
"FTBFConfigNim_v1" : [
"2017-12-01T22:13:07.363-0600"
],
"FTBFConfigNim_v2" : [
"2017-12-01T22:15:54.607-0600"
],
"FTBFConfigNim_v3" : [
"2017-12-01T22:17:03.009-0600"
],
"FTBFConfigNim_v4" : [
"2017-12-01T22:19:05.683-0600"
],
"FTBFConfigNim_v5" : [
"2017-12-01T22:21:56.434-0600"
],
"FTBFConfigNim_v6" : [
"2017-12-01T22:23:12.572-0600"
],
"FTBFConfigNim_v7" : [
"2017-12-01T22:25:16.414-0600"
],
"FTBFConfigNim_v8" : [
"2017-12-01T22:27:04.097-0600"
],
"FTBFConfigNim_v9" : [
"2017-12-01T22:29:28.218-0600"
],
"FTBFConfigNim_v10" : [
"2017-12-01T22:52:33.451-0600"
],
"FTBFConfigNim_v11" : [
"2017-12-01T22:57:28.214-0600"
],
"FTBFConfigNim_v12" : [
"2017-12-01T23:00:06.408-0600"
],
"FTBFConfigNim_v13" : [
"2017-12-01T23:52:34.541-0600"
],
"FTBFConfigNim_v14" : [
"2017-12-01T23:58:08.998-0600"
],
"FTBFConfigNim_v15" : [
"2017-12-02T00:00:33.222-0600"
],
"FTBFConfigNim_v16" : [
"2017-12-02T00:13:08.382-0600"
],
"FTBFConfigNim_v17" : [
"2017-12-02T00:28:27.342-0600"
],
"FTBFConfigNim_v18" : [
"2017-12-02T00:29:33.402-0600"
],
"FTBFConfigNim_v19" : [
"2017-12-02T00:31:11.801-0600"
],
"FTBFConfigNim_v20" : [
"2017-12-02T00:57:26.434-0600"
],
"FTBFConfigNim_v21" : [
"2017-12-02T10:58:00.978-0600"
],
"FTBFConfigNim_v22" : [
"2017-12-02T11:08:17.182-0600"
],
"FTBFConfigNim_v23" : [
"2017-12-02T11:12:38.739-0600"
],
"FTBFConfigNim_v24" : [
"2017-12-02T11:18:41.638-0600"
],
"FTBFConfigNim_v25" : [
"2017-12-02T11:27:04.832-0600"
],
"FTBFConfigNim_v26" : [
"2017-12-02T11:38:35.880-0600"
],
"FTBFConfigNim_v27" : [
"2017-12-02T11:49:07.075-0600"
],
"FTBFConfigNim_v28" : [
"2017-12-02T11:55:08.548-0600"
],
"FTBFConfigNim_v29" : [
"2017-12-02T12:06:25.371-0600"
],
"FTBFConfig_v71" : [
"2017-12-02T12:24:14.025-0600"
],
"FTBFConfig_v72" : [
"2017-12-02T12:43:34.879-0600"
],
"FTBFConfig_v73" : [
"2017-12-02T13:55:34.547-0600"
],
"FTBFConfig_v74" : [
"2017-12-02T14:09:06.921-0600"
],
"FTBFConfig_v75" : [
"2017-12-02T14:12:17.680-0600"
],
"FTBFConfig_v76" : [
"2017-12-02T19:05:52.758-0600"
],
"FTBFConfig_v77" : [
"2017-12-02T19:12:12.627-0600"
],
"FTBFConfig_v78" : [
"2017-12-03T14:03:47.770-0600"
],
"FTBFConfig_v79" : [
"2017-12-03T14:09:06.027-0600"
],
"FTBFConfig_v80" : [
"2017-12-03T14:11:09.767-0600"
],
"FTBFConfig_v81" : [
"2017-12-03T14:22:32.809-0600"
],
"FTBFConfig_v82" : [
"2017-12-03T14:40:37.597-0600"
],
"FTBFConfig_v83" : [
"2017-12-03T14:45:04.966-0600"
],
"FTBFConfig_v84" : [
"2017-12-04T14:51:30.294-0600"
],
"FTBFConfig_v85" : [
"2017-12-04T14:55:43.470-0600"
],
"FTBFConfig_v86" : [
"2017-12-04T16:51:06.502-0600"
],
"FTBFConfig_v87" : [
"2017-12-04T16:56:47.140-0600"
],
"FTBFConfig_v88" : [
"2017-12-04T17:01:11.868-0600"
],
"FTBFConfig_v89" : [
"2017-12-04T17:03:56.980-0600"
],
"FTBFConfig_v90" : [
"2017-12-04T17:07:16.617-0600"
],
"FTBFConfig_v91" : [
"2017-12-04T17:09:25.743-0600"
],
"FTBFConfig_v92" : [
"2017-12-04T17:11:38.240-0600"
],
"FTBFConfig_v93" : [
"2017-12-04T21:05:20.816-0600"
],
"FTBFConfig_v94" : [
"2017-12-04T21:17:11.764-0600"
],
"FTBFConfig_v95" : [
"2017-12-04T21:41:17.427-0600"
],
"FTBFConfig_v96" : [
"2017-12-04T22:39:02.073-0600"
],
"FTBFConfig_v97" : [
"2017-12-04T23:01:12.573-0600"
],
"FTBFConfig_v98" : [
"2017-12-07T11:07:46.577-0600"
],
"FTBFConfig_v99" : [
"2017-12-07T11:49:59.264-0600"
],
"FTBFConfig_v100" : [
"2017-12-07T11:58:25.997-0600"
],
"FTBFConfig_v101" : [
"2017-12-08T13:30:48.165-0600"
],
"FTBFConfig_v102" : [
"2017-12-08T13:32:35.029-0600"
],
"FTBFConfig_v103" : [
"2017-12-12T11:03:04.841-0600"
],
"FTBFConfig_v104" : [
"2017-12-12T13:50:59.286-0600"
],
"FTBFConfig_v105" : [
"2017-12-12T15:25:05.293-0600"
],
"FTBFConfig_v106" : [
"2017-12-13T10:24:23.640-0600"
],
"FTBFConfig_v107" : [
"2017-12-13T10:27:02.380-0600"
],
"FTBFConfig_v108" : [
"2018-02-01T21:14:25.939-0600"
],
"FTBFConfig_v109" : [
"2018-02-01T21:21:03.074-0600"
],
"FTBFConfig_v110" : [
"2018-02-02T11:25:34.036-0600"
],
"FTBFConfig_v111" : [
"2018-02-02T11:37:12.856-0600"
],
"FTBFConfig_v112" : [
"2018-02-02T11:47:15.365-0600"
],
"FTBFConfig_v113" : [
"2018-02-02T11:53:36.616-0600"
],
"FTBFConfig_v114" : [
"2018-02-02T12:00:52.718-0600"
],
"FTBFConfig_v115" : [
"2018-02-02T12:27:14.191-0600"
],
"FTBFConfig_v116" : [
"2018-02-02T14:28:53.716-0600"
],
"FTBFConfig_v117" : [
"2018-02-02T14:30:20.057-0600"
],
"FTBFConfig_v118" : [
"2018-02-02T14:34:01.323-0600"
],
"FTBFConfig_v119" : [
"2018-02-02T14:36:27.919-0600"
],
"FTBFConfig_v120" : [
"2018-02-02T14:38:41.275-0600"
],
"FTBFConfig_v121" : [
"2018-02-02T14:41:50.574-0600"
],
"FTBFConfig_v122" : [
"2018-02-02T14:50:24.657-0600"
],
"FTBFConfig_v123" : [
"2018-02-02T14:52:57.511-0600"
],
"FTBFConfig_v124" : [
"2018-02-02T14:59:50.833-0600"
],
"FTBFConfig_v125" : [
"2018-02-02T15:04:08.946-0600"
],
"FTBFConfig_v126" : [
"2018-02-02T15:50:12.165-0600"
],
"FTBFConfig_v127" : [
"2018-02-02T15:51:31.649-0600"
],
"FTBFConfig_v128" : [
"2018-02-02T15:52:36.805-0600"
],
"FTBFConfig_v129" : [
"2018-02-02T16:02:45.711-0600"
],
"FTBFConfig_v130" : [
"2018-02-02T16:08:45.250-0600"
],
"FTBFConfig_v131" : [
"2018-02-02T16:11:31.104-0600"
],
"FTBFConfig_v132" : [
"2018-02-02T16:12:58.967-0600"
],
"FTBFConfig_v133" : [
"2018-02-02T16:14:29.556-0600"
],
"FTBFConfig_v134" : [
"2018-02-02T16:26:22.465-0600"
],
"FTBFConfig_v135" : [
"2018-02-02T16:27:09.578-0600"
],
"FTBFConfig_v136" : [
"2018-02-02T16:29:30.937-0600"
],
"FTBFConfig_v137" : [
"2018-02-02T16:31:41.542-0600"
],
"FTBFConfig_v138" : [
"2018-02-02T16:34:14.214-0600"
],
"FTBFConfig_v139" : [
"2018-02-02T17:39:30.264-0600"
],
"FTBFConfig_v140" : [
"2018-02-02T17:42:52.443-0600"
],
"FTBFConfig_v141" : [
"2018-02-02T17:47:37.629-0600"
],
"FTBFConfig_v142" : [
"2018-02-02T17:54:01.652-0600"
]
}
}