{
"document" : {
"data" : {
"NAME" : "XDAQ_CONTEXT_CONFIGURATION",
"COMMENT" : "FTBF \"facility daq\" default context.",
"AUTHOR" : "admin",
"CREATION_TIME" : 1511911666,
"COL_TYPES" : {
"CONTEXT_UID" : "VARCHAR2",
"LINK_TO_APPLICATION_TABLE" : "VARCHAR2",
"APPLICATION_GROUP_ID" : "VARCHAR2",
"STATUS" : "VARCHAR2",
"ID" : "NUMBER",
"ADDRESS" : "VARCHAR2",
"PORT" : "NUMBER",
"COMMENT_DESCRIPTION" : "VARCHAR2",
"AUTHOR" : "VARCHAR2",
"RECORD_INSERTION_TIME" : "TIMESTAMP WITH TIMEZONE"
},
"DATA_SET" : [
{
"CONTEXT_UID" : "MainContext",
"LINK_TO_APPLICATION_TABLE" : "XDAQApplicationConfiguration",
"APPLICATION_GROUP_ID" : "MainContextApps",
"STATUS" : "On",
"ID" : "0",
"ADDRESS" : "http://ftbftracker02.fnal.gov",
"PORT" : "2015",
"COMMENT_DESCRIPTION" : "main context",
"AUTHOR" : "rrivera",
"RECORD_INSERTION_TIME" : "1509994644"
},
{
"CONTEXT_UID" : "WireChamberContext",
"LINK_TO_APPLICATION_TABLE" : "XDAQApplicationConfiguration",
"APPLICATION_GROUP_ID" : "WireChamberContextApps",
"STATUS" : "Off",
"ID" : "0",
"ADDRESS" : "http://ftbf-daq-08.fnal.gov",
"PORT" : "2016",
"COMMENT_DESCRIPTION" : "No Comment",
"AUTHOR" : "rrivera",
"RECORD_INSERTION_TIME" : "1510076402"
},
{
"CONTEXT_UID" : "StripTelescopeContext",
"LINK_TO_APPLICATION_TABLE" : "XDAQApplicationConfiguration",
"APPLICATION_GROUP_ID" : "StripTelescopeContextApps",
"STATUS" : "On",
"ID" : "0",
"ADDRESS" : "http://ftbftracker02.fnal.gov",
"PORT" : "2017",
"COMMENT_DESCRIPTION" : "No Comment",
"AUTHOR" : "uplegger",
"RECORD_INSERTION_TIME" : "1510094482"
},
{
"CONTEXT_UID" : "NimPlusContext",
"LINK_TO_APPLICATION_TABLE" : "XDAQApplicationConfiguration",
"APPLICATION_GROUP_ID" : "NimPlusContextApps",
"STATUS" : "Off",
"ID" : "0",
"ADDRESS" : "http://ftbftracker02.fnal.gov",
"PORT" : "2018",
"COMMENT_DESCRIPTION" : "No Comment",
"AUTHOR" : "uplegger",
"RECORD_INSERTION_TIME" : "1510094501"
},
{
"CONTEXT_UID" : "OuterTrackerContext",
"LINK_TO_APPLICATION_TABLE" : "XDAQApplicationConfiguration",
"APPLICATION_GROUP_ID" : "OuterTrackerContextApp",
"STATUS" : "On",
"ID" : "0",
"ADDRESS" : "http://ftbftracker02.fnal.gov",
"PORT" : "2020",
"COMMENT_DESCRIPTION" : "No Comment",
"AUTHOR" : "admin",
"RECORD_INSERTION_TIME" : "1511911666"
},
{
"CONTEXT_UID" : "ARTDAQBoardReader0",
"LINK_TO_APPLICATION_TABLE" : "XDAQApplicationConfiguration",
"APPLICATION_GROUP_ID" : "BoardReader0Apps",
"STATUS" : "Off",
"ID" : "0",
"ADDRESS" : "http://ftbf-daq-08.fnal.gov",
"PORT" : "1984",
"COMMENT_DESCRIPTION" : "No Comment",
"AUTHOR" : "admin",
"RECORD_INSERTION_TIME" : "1511888032"
},
{
"CONTEXT_UID" : "ARTDAQEventBuilder0",
"LINK_TO_APPLICATION_TABLE" : "XDAQApplicationConfiguration",
"APPLICATION_GROUP_ID" : "EventBuilder0Apps",
"STATUS" : "Off",
"ID" : "0",
"ADDRESS" : "http://ftbf-daq-08.fnal.gov",
"PORT" : "1985",
"COMMENT_DESCRIPTION" : "No Comment",
"AUTHOR" : "admin",
"RECORD_INSERTION_TIME" : "1511888032"
},
{
"CONTEXT_UID" : "ARTDAQEventBuilder1",
"LINK_TO_APPLICATION_TABLE" : "XDAQApplicationConfiguration",
"APPLICATION_GROUP_ID" : "EventBuilder1Apps",
"STATUS" : "Off",
"ID" : "0",
"ADDRESS" : "http://ftbf-daq-07.fnal.gov",
"PORT" : "1987",
"COMMENT_DESCRIPTION" : "No Comment",
"AUTHOR" : "admin",
"RECORD_INSERTION_TIME" : "1511888032"
},
{
"CONTEXT_UID" : "ARTDAQAggregator0",
"LINK_TO_APPLICATION_TABLE" : "XDAQApplicationConfiguration",
"APPLICATION_GROUP_ID" : "Aggregator0Apps",
"STATUS" : "Off",
"ID" : "0",
"ADDRESS" : "http://ftbf-daq-08.fnal.gov",
"PORT" : "1986",
"COMMENT_DESCRIPTION" : "No Comment",
"AUTHOR" : "admin",
"RECORD_INSERTION_TIME" : "1511888032"
},
{
"CONTEXT_UID" : "ARTDAQBoardReaderStrips2",
"LINK_TO_APPLICATION_TABLE" : "XDAQApplicationConfiguration",
"APPLICATION_GROUP_ID" : "BoardReaderStrips2Apps",
"STATUS" : "Off",
"ID" : "0",
"ADDRESS" : "http://ftbftracker02.fnal.gov",
"PORT" : "2019",
"COMMENT_DESCRIPTION" : "No Comment",
"AUTHOR" : "admin",
"RECORD_INSERTION_TIME" : "1511888032"
},
{
"CONTEXT_UID" : "ARTDAQEventBuilderStripsOnly0",
"LINK_TO_APPLICATION_TABLE" : "XDAQApplicationConfiguration",
"APPLICATION_GROUP_ID" : "ARTDAQEventBuilderStripsOnly0Apps",
"STATUS" : "Off",
"ID" : "0",
"ADDRESS" : "http://ftbftracker02.fnal.gov",
"PORT" : "1985",
"COMMENT_DESCRIPTION" : "No Comment",
"AUTHOR" : "admin",
"RECORD_INSERTION_TIME" : "1511888032"
},
{
"CONTEXT_UID" : "ARTDAQAggregatorStripsOnly0",
"LINK_TO_APPLICATION_TABLE" : "XDAQApplicationConfiguration",
"APPLICATION_GROUP_ID" : "ARTDAQAggregatorStripsOnly0Apps",
"STATUS" : "Off",
"ID" : "0",
"ADDRESS" : "http://ftbftracker02.fnal.gov",
"PORT" : "1986",
"COMMENT_DESCRIPTION" : "No Comment",
"AUTHOR" : "admin",
"RECORD_INSERTION_TIME" : "1511888032"
}
]
},
"metadata" : {

},
"search" : [

]
},
"comments" : [

],
"origin" : {
"source" : "template",
"name" : "notprovided",
"format" : "json",
"created" : "2017-11-28T17:27:46.723-0600",
"rawdata" : [

]
},
"version" : "21",
"entities" : [
{
"name" : "OTSROOT",
"assigned" : "2017-11-28T17:27:46.727-0600"
}
],
"configurations" : [
{
"name" : "notprovided",
"assigned" : "2017-11-28T17:27:46.725-0600"
},
{
"name" : "FTBFContext_v36",
"assigned" : "2017-11-28T17:27:50.031-0600"
},
{
"name" : "FTBFContext_v37",
"assigned" : "2017-11-29T11:25:53.682-0600"
},
{
"name" : "FTBFContext_v39",
"assigned" : "2017-11-30T09:28:23.118-0600"
},
{
"name" : "FTBFContext_v40",
"assigned" : "2017-11-30T10:12:19.844-0600"
}
],
"changelog" : "notprovided",
"bookkeeping" : {
"isdeleted" : false,
"isreadonly" : false,
"updates" : [
{
"event" : "addConfiguration",
"timestamp" : "2017-11-28T17:27:46.725-0600",
"value" : {
"name" : "notprovided",
"assigned" : "2017-11-28T17:27:46.725-0600"
}
},
{
"event" : "setVersion",
"timestamp" : "2017-11-28T17:27:46.725-0600",
"value" : {
"name" : "21",
"assigned" : "2017-11-28T17:27:46.725-0600"
}
},
{
"event" : "setCollection",
"timestamp" : "2017-11-28T17:27:46.726-0600",
"value" : {
"name" : "XDAQContextConfiguration",
"assigned" : "2017-11-28T17:27:46.726-0600"
}
},
{
"event" : "addEntity",
"timestamp" : "2017-11-28T17:27:46.727-0600",
"value" : {
"name" : "OTSROOT",
"assigned" : "2017-11-28T17:27:46.727-0600"
}
},
{
"event" : "addConfiguration",
"timestamp" : "2017-11-28T17:27:50.031-0600",
"value" : {
"name" : "FTBFContext_v36",
"assigned" : "2017-11-28T17:27:50.031-0600"
}
},
{
"event" : "addConfiguration",
"timestamp" : "2017-11-29T11:25:53.682-0600",
"value" : {
"name" : "FTBFContext_v37",
"assigned" : "2017-11-29T11:25:53.682-0600"
}
},
{
"event" : "addConfiguration",
"timestamp" : "2017-11-30T09:28:23.118-0600",
"value" : {
"name" : "FTBFContext_v39",
"assigned" : "2017-11-30T09:28:23.118-0600"
}
},
{
"event" : "addConfiguration",
"timestamp" : "2017-11-30T10:12:19.844-0600",
"value" : {
"name" : "FTBFContext_v40",
"assigned" : "2017-11-30T10:12:19.844-0600"
}
}
],
"created" : "2017-11-28T17:27:46.723-0600"
},
"_id" : {
"$oid" : "99fadd2018084acf9571dd71"
},
"collection" : "XDAQContextConfiguration",
"aliases" : {
"active" : [

],
"history" : [

]
},
"runs" : [

],
"attachments" : [

],
"configtype" : "notprovided"
}