{
"ouid" : [
"efa2a33b5b204b74b156db56"
],
"version" : {
"1" : [
"efa2a33b5b204b74b156db56"
]
},
"configurations.name" : {
"notprovided" : [
"efa2a33b5b204b74b156db56"
],
"DefaultConfig_v1" : [
"efa2a33b5b204b74b156db56"
],
"DefaultConfig_v2" : [
"efa2a33b5b204b74b156db56"
],
"DefaultConfig_v3" : [
"efa2a33b5b204b74b156db56"
],
"DefaultConfig_v4" : [
"efa2a33b5b204b74b156db56"
],
"DefaultConfig_v5" : [
"efa2a33b5b204b74b156db56"
],
"DefaultConfig_v6" : [
"efa2a33b5b204b74b156db56"
],
"DefaultConfig_v7" : [
"efa2a33b5b204b74b156db56"
],
"DefaultConfig_v8" : [
"efa2a33b5b204b74b156db56"
],
"DefaultConfig_v9" : [
"efa2a33b5b204b74b156db56"
],
"DefaultConfig_v10" : [
"efa2a33b5b204b74b156db56"
],
"DefaultConfig_v11" : [
"efa2a33b5b204b74b156db56"
],
"DefaultConfig_v12" : [
"efa2a33b5b204b74b156db56"
],
"DefaultConfig_v13" : [
"efa2a33b5b204b74b156db56"
],
"DefaultConfig_v14" : [
"efa2a33b5b204b74b156db56"
],
"DefaultConfig_v15" : [
"efa2a33b5b204b74b156db56"
],
"DefaultConfig_v16" : [
"efa2a33b5b204b74b156db56"
],
"DefaultConfig_v17" : [
"efa2a33b5b204b74b156db56"
],
"DefaultConfig_v18" : [
"efa2a33b5b204b74b156db56"
],
"DefaultConfig_v19" : [
"efa2a33b5b204b74b156db56"
],
"DefaultConfig_v20" : [
"efa2a33b5b204b74b156db56"
],
"DefaultConfig_v21" : [
"efa2a33b5b204b74b156db56"
],
"DefaultConfig_v22" : [
"efa2a33b5b204b74b156db56"
],
"DefaultConfig_v23" : [
"efa2a33b5b204b74b156db56"
],
"DefaultConfig_v24" : [
"efa2a33b5b204b74b156db56"
],
"DefaultConfig_v25" : [
"efa2a33b5b204b74b156db56"
],
"DefaultConfig_v26" : [
"efa2a33b5b204b74b156db56"
],
"DefaultConfig_v27" : [
"efa2a33b5b204b74b156db56"
],
"DefaultConfig_v28" : [
"efa2a33b5b204b74b156db56"
],
"DefaultConfig_v29" : [
"efa2a33b5b204b74b156db56"
],
"DefaultConfig_v30" : [
"efa2a33b5b204b74b156db56"
],
"DefaultConfig_v31" : [
"efa2a33b5b204b74b156db56"
],
"DefaultConfig_v32" : [
"efa2a33b5b204b74b156db56"
],
"DefaultConfig_v33" : [
"efa2a33b5b204b74b156db56"
],
"DefaultConfig_v34" : [
"efa2a33b5b204b74b156db56"
]
},
"entities.name" : {
"OTSROOT" : [
"efa2a33b5b204b74b156db56"
]
},
"aliases.active.name" : {

},
"runs.name" : {

},
"configurations.assigned" : {
"notprovided" : [
"2020-07-21T14:27:46.132-0500"
],
"DefaultConfig_v1" : [
"2020-07-21T14:27:46.702-0500"
],
"DefaultConfig_v2" : [
"2020-07-21T14:44:16.334-0500"
],
"DefaultConfig_v3" : [
"2020-07-21T14:57:50.200-0500"
],
"DefaultConfig_v4" : [
"2020-07-28T10:52:34.101-0500"
],
"DefaultConfig_v5" : [
"2020-08-24T11:59:56.650-0500"
],
"DefaultConfig_v6" : [
"2020-08-24T16:05:13.209-0500"
],
"DefaultConfig_v7" : [
"2020-08-26T10:33:56.595-0500"
],
"DefaultConfig_v8" : [
"2020-08-26T10:45:54.351-0500"
],
"DefaultConfig_v9" : [
"2020-08-26T14:49:52.537-0500"
],
"DefaultConfig_v10" : [
"2020-08-26T14:52:00.156-0500"
],
"DefaultConfig_v11" : [
"2020-08-26T15:00:03.620-0500"
],
"DefaultConfig_v12" : [
"2020-08-26T16:18:15.366-0500"
],
"DefaultConfig_v13" : [
"2020-08-28T21:40:22.711-0500"
],
"DefaultConfig_v14" : [
"2020-08-31T15:19:58.648-0500"
],
"DefaultConfig_v15" : [
"2020-09-03T10:43:22.102-0500"
],
"DefaultConfig_v16" : [
"2020-09-03T10:49:03.178-0500"
],
"DefaultConfig_v17" : [
"2020-09-08T17:07:21.378-0500"
],
"DefaultConfig_v18" : [
"2020-09-11T16:02:29.064-0500"
],
"DefaultConfig_v19" : [
"2020-09-14T17:47:19.228-0500"
],
"DefaultConfig_v20" : [
"2020-09-14T18:00:23.481-0500"
],
"DefaultConfig_v21" : [
"2020-09-15T15:14:56.925-0500"
],
"DefaultConfig_v22" : [
"2020-09-15T15:18:54.024-0500"
],
"DefaultConfig_v23" : [
"2020-09-15T15:27:50.929-0500"
],
"DefaultConfig_v24" : [
"2020-09-15T15:52:12.439-0500"
],
"DefaultConfig_v25" : [
"2020-09-21T11:41:58.104-0500"
],
"DefaultConfig_v26" : [
"2020-09-21T11:54:28.846-0500"
],
"DefaultConfig_v27" : [
"2020-10-06T14:45:40.868-0500"
],
"DefaultConfig_v28" : [
"2020-10-06T15:04:19.401-0500"
],
"DefaultConfig_v29" : [
"2020-10-07T16:45:35.518-0500"
],
"DefaultConfig_v30" : [
"2020-10-07T17:03:29.678-0500"
],
"DefaultConfig_v31" : [
"2020-11-04T20:42:36.636-0600"
],
"DefaultConfig_v32" : [
"2020-11-11T11:26:54.216-0600"
],
"DefaultConfig_v33" : [
"2021-01-18T20:04:38.585-0600"
],
"DefaultConfig_v34" : [
"2021-01-18T20:05:19.034-0600"
]
}
}