{
"document" : {
"data" : {
"NAME" : "",
"COMMENT" : "",
"AUTHOR" : "",
"CREATION_TIME" : 1510242816,
"COL_TYPES" : {
"UNUSED_UID" : "NUMBER",
"COMMENT_DESCRIPTION" : "VARCHAR2",
"AUTHOR" : "VARCHAR2",
"GROUP_CREATION_TIME" : "TIMESTAMP WITH TIMEZONE"
},
"DATA_SET" : [
{
"UNUSED_UID" : "0",
"COMMENT_DESCRIPTION" : "",
"AUTHOR" : "uplegger",
"GROUP_CREATION_TIME" : "1511210683"
}
]
},
"metadata" : {

},
"search" : [

]
},
"comments" : [

],
"origin" : {
"source" : "template",
"name" : "notprovided",
"format" : "json",
"created" : "2017-11-20T14:44:43.458-0600",
"rawdata" : [

]
},
"version" : "112",
"entities" : [
{
"name" : "OTSROOT",
"assigned" : "2017-11-20T14:44:43.459-0600"
}
],
"configurations" : [
{
"name" : "notprovided",
"assigned" : "2017-11-20T14:44:43.459-0600"
},
{
"name" : "GroupAliasTreeEditWizBackbone_v17",
"assigned" : "2017-11-20T14:44:43.498-0600"
}
],
"changelog" : "notprovided",
"bookkeeping" : {
"isdeleted" : false,
"isreadonly" : false,
"updates" : [
{
"event" : "addConfiguration",
"timestamp" : "2017-11-20T14:44:43.459-0600",
"value" : {
"name" : "notprovided",
"assigned" : "2017-11-20T14:44:43.459-0600"
}
},
{
"event" : "setVersion",
"timestamp" : "2017-11-20T14:44:43.459-0600",
"value" : {
"name" : "112",
"assigned" : "2017-11-20T14:44:43.459-0600"
}
},
{
"event" : "setCollection",
"timestamp" : "2017-11-20T14:44:43.459-0600",
"value" : {
"name" : "ConfigurationGroupMetadata",
"assigned" : "2017-11-20T14:44:43.459-0600"
}
},
{
"event" : "addEntity",
"timestamp" : "2017-11-20T14:44:43.459-0600",
"value" : {
"name" : "OTSROOT",
"assigned" : "2017-11-20T14:44:43.459-0600"
}
},
{
"event" : "addConfiguration",
"timestamp" : "2017-11-20T14:44:43.498-0600",
"value" : {
"name" : "GroupAliasTreeEditWizBackbone_v17",
"assigned" : "2017-11-20T14:44:43.498-0600"
}
}
],
"created" : "2017-11-20T14:44:43.458-0600"
},
"_id" : {
"$oid" : "4812943c560b4fec8fa1fc45"
},
"collection" : "ConfigurationGroupMetadata",
"aliases" : {
"active" : [

],
"history" : [

]
},
"runs" : [

],
"attachments" : [

],
"configtype" : "notprovided"
}