{
"document" : {
"data" : {
"NAME" : "",
"COMMENT" : "",
"AUTHOR" : "",
"CREATION_TIME" : 1510242816,
"COL_TYPES" : {
"UNUSED_UID" : "NUMBER",
"COMMENT_DESCRIPTION" : "VARCHAR2",
"AUTHOR" : "VARCHAR2",
"GROUP_CREATION_TIME" : "TIMESTAMP WITH TIMEZONE"
},
"DATA_SET" : [
{
"UNUSED_UID" : "0",
"COMMENT_DESCRIPTION" : "",
"AUTHOR" : "rrivera",
"GROUP_CREATION_TIME" : "1510680079"
}
]
},
"metadata" : {

},
"search" : [

]
},
"comments" : [

],
"origin" : {
"source" : "template",
"name" : "notprovided",
"format" : "json",
"created" : "2017-11-14T11:21:19.975-0600",
"rawdata" : [

]
},
"version" : "39",
"entities" : [
{
"name" : "OTSROOT",
"assigned" : "2017-11-14T11:21:19.976-0600"
}
],
"configurations" : [
{
"name" : "notprovided",
"assigned" : "2017-11-14T11:21:19.975-0600"
},
{
"name" : "TableEditWizBackbone_v12",
"assigned" : "2017-11-14T11:21:20.005-0600"
}
],
"changelog" : "notprovided",
"bookkeeping" : {
"isdeleted" : false,
"isreadonly" : false,
"updates" : [
{
"event" : "addConfiguration",
"timestamp" : "2017-11-14T11:21:19.975-0600",
"value" : {
"name" : "notprovided",
"assigned" : "2017-11-14T11:21:19.975-0600"
}
},
{
"event" : "setVersion",
"timestamp" : "2017-11-14T11:21:19.975-0600",
"value" : {
"name" : "39",
"assigned" : "2017-11-14T11:21:19.975-0600"
}
},
{
"event" : "setCollection",
"timestamp" : "2017-11-14T11:21:19.976-0600",
"value" : {
"name" : "ConfigurationGroupMetadata",
"assigned" : "2017-11-14T11:21:19.976-0600"
}
},
{
"event" : "addEntity",
"timestamp" : "2017-11-14T11:21:19.976-0600",
"value" : {
"name" : "OTSROOT",
"assigned" : "2017-11-14T11:21:19.976-0600"
}
},
{
"event" : "addConfiguration",
"timestamp" : "2017-11-14T11:21:20.006-0600",
"value" : {
"name" : "TableEditWizBackbone_v12",
"assigned" : "2017-11-14T11:21:20.005-0600"
}
}
],
"created" : "2017-11-14T11:21:19.975-0600"
},
"_id" : {
"$oid" : "5f0ca176666e4e3a986c4f4e"
},
"collection" : "ConfigurationGroupMetadata",
"aliases" : {
"active" : [

],
"history" : [

]
},
"runs" : [

],
"attachments" : [

],
"configtype" : "notprovided"
}