{
"document" : {
"data" : {
"NAME" : "",
"COMMENT" : "",
"AUTHOR" : "",
"CREATION_TIME" : 1510242816,
"COL_TYPES" : {
"UNUSED_UID" : "NUMBER",
"COMMENT_DESCRIPTION" : "VARCHAR2",
"AUTHOR" : "VARCHAR2",
"GROUP_CREATION_TIME" : "TIMESTAMP WITH TIMEZONE"
},
"DATA_SET" : [
{
"UNUSED_UID" : "0",
"COMMENT_DESCRIPTION" : "",
"AUTHOR" : "admin",
"GROUP_CREATION_TIME" : "1512184342"
}
]
},
"metadata" : {

},
"search" : [

]
},
"comments" : [

],
"origin" : {
"source" : "template",
"name" : "notprovided",
"format" : "json",
"created" : "2017-12-01T21:12:22.780-0600",
"rawdata" : [

]
},
"version" : "225",
"entities" : [
{
"name" : "OTSROOT",
"assigned" : "2017-12-01T21:12:22.782-0600"
}
],
"configurations" : [
{
"name" : "notprovided",
"assigned" : "2017-12-01T21:12:22.781-0600"
},
{
"name" : "GroupAliasTreeEditWizBackbone_v25",
"assigned" : "2017-12-01T21:12:22.835-0600"
}
],
"changelog" : "notprovided",
"bookkeeping" : {
"isdeleted" : false,
"isreadonly" : false,
"updates" : [
{
"event" : "addConfiguration",
"timestamp" : "2017-12-01T21:12:22.781-0600",
"value" : {
"name" : "notprovided",
"assigned" : "2017-12-01T21:12:22.781-0600"
}
},
{
"event" : "setVersion",
"timestamp" : "2017-12-01T21:12:22.781-0600",
"value" : {
"name" : "225",
"assigned" : "2017-12-01T21:12:22.781-0600"
}
},
{
"event" : "setCollection",
"timestamp" : "2017-12-01T21:12:22.781-0600",
"value" : {
"name" : "ConfigurationGroupMetadata",
"assigned" : "2017-12-01T21:12:22.781-0600"
}
},
{
"event" : "addEntity",
"timestamp" : "2017-12-01T21:12:22.782-0600",
"value" : {
"name" : "OTSROOT",
"assigned" : "2017-12-01T21:12:22.782-0600"
}
},
{
"event" : "addConfiguration",
"timestamp" : "2017-12-01T21:12:22.835-0600",
"value" : {
"name" : "GroupAliasTreeEditWizBackbone_v25",
"assigned" : "2017-12-01T21:12:22.835-0600"
}
}
],
"created" : "2017-12-01T21:12:22.780-0600"
},
"_id" : {
"$oid" : "7a3cfaa7184f4d45ba83e990"
},
"collection" : "ConfigurationGroupMetadata",
"aliases" : {
"active" : [

],
"history" : [

]
},
"runs" : [

],
"attachments" : [

],
"configtype" : "notprovided"
}