{
"document" : {
"data" : {
"NAME" : "",
"COMMENT" : "",
"AUTHOR" : "",
"CREATION_TIME" : 1510242816,
"COL_TYPES" : {
"UNUSED_UID" : "NUMBER",
"COMMENT_DESCRIPTION" : "VARCHAR2",
"AUTHOR" : "VARCHAR2",
"GROUP_CREATION_TIME" : "TIMESTAMP WITH TIMEZONE"
},
"DATA_SET" : [
{
"UNUSED_UID" : "0",
"COMMENT_DESCRIPTION" : "FTBF%20%22facility%20daq%22%20default%20config%20group.",
"AUTHOR" : "admin",
"GROUP_CREATION_TIME" : "1510773230"
}
]
},
"metadata" : {

},
"search" : [

]
},
"comments" : [

],
"origin" : {
"source" : "template",
"name" : "notprovided",
"format" : "json",
"created" : "2017-11-15T13:13:50.693-0600",
"rawdata" : [

]
},
"version" : "73",
"entities" : [
{
"name" : "OTSROOT",
"assigned" : "2017-11-15T13:13:50.695-0600"
}
],
"configurations" : [
{
"name" : "notprovided",
"assigned" : "2017-11-15T13:13:50.694-0600"
},
{
"name" : "FTBFConfig_v13",
"assigned" : "2017-11-15T13:13:52.874-0600"
}
],
"changelog" : "notprovided",
"bookkeeping" : {
"isdeleted" : false,
"isreadonly" : false,
"updates" : [
{
"event" : "addConfiguration",
"timestamp" : "2017-11-15T13:13:50.694-0600",
"value" : {
"name" : "notprovided",
"assigned" : "2017-11-15T13:13:50.694-0600"
}
},
{
"event" : "setVersion",
"timestamp" : "2017-11-15T13:13:50.694-0600",
"value" : {
"name" : "73",
"assigned" : "2017-11-15T13:13:50.694-0600"
}
},
{
"event" : "setCollection",
"timestamp" : "2017-11-15T13:13:50.694-0600",
"value" : {
"name" : "ConfigurationGroupMetadata",
"assigned" : "2017-11-15T13:13:50.694-0600"
}
},
{
"event" : "addEntity",
"timestamp" : "2017-11-15T13:13:50.695-0600",
"value" : {
"name" : "OTSROOT",
"assigned" : "2017-11-15T13:13:50.695-0600"
}
},
{
"event" : "addConfiguration",
"timestamp" : "2017-11-15T13:13:52.874-0600",
"value" : {
"name" : "FTBFConfig_v13",
"assigned" : "2017-11-15T13:13:52.874-0600"
}
}
],
"created" : "2017-11-15T13:13:50.693-0600"
},
"_id" : {
"$oid" : "85d75d67420f4a768795f72d"
},
"collection" : "ConfigurationGroupMetadata",
"aliases" : {
"active" : [

],
"history" : [

]
},
"runs" : [

],
"attachments" : [

],
"configtype" : "notprovided"
}