{
"document" : {
"data" : {
"NAME" : "",
"COMMENT" : "",
"AUTHOR" : "",
"CREATION_TIME" : 1510242816,
"COL_TYPES" : {
"UNUSED_UID" : "NUMBER",
"COMMENT_DESCRIPTION" : "VARCHAR2",
"AUTHOR" : "VARCHAR2",
"GROUP_CREATION_TIME" : "TIMESTAMP WITH TIMEZONE"
},
"DATA_SET" : [
{
"UNUSED_UID" : "0",
"COMMENT_DESCRIPTION" : "",
"AUTHOR" : "admin",
"GROUP_CREATION_TIME" : "1517614964"
}
]
},
"metadata" : {

},
"search" : [

]
},
"comments" : [

],
"origin" : {
"source" : "template",
"name" : "notprovided",
"format" : "json",
"created" : "2018-02-02T17:42:44.932-0600",
"rawdata" : [

]
},
"version" : "464",
"entities" : [
{
"name" : "OTSROOT",
"assigned" : "2018-02-02T17:42:44.933-0600"
}
],
"configurations" : [
{
"name" : "notprovided",
"assigned" : "2018-02-02T17:42:44.932-0600"
},
{
"name" : "FTBFConfig_v140",
"assigned" : "2018-02-02T17:42:51.366-0600"
}
],
"changelog" : "notprovided",
"bookkeeping" : {
"isdeleted" : false,
"isreadonly" : false,
"updates" : [
{
"event" : "addConfiguration",
"timestamp" : "2018-02-02T17:42:44.932-0600",
"value" : {
"name" : "notprovided",
"assigned" : "2018-02-02T17:42:44.932-0600"
}
},
{
"event" : "setVersion",
"timestamp" : "2018-02-02T17:42:44.933-0600",
"value" : {
"name" : "464",
"assigned" : "2018-02-02T17:42:44.933-0600"
}
},
{
"event" : "setCollection",
"timestamp" : "2018-02-02T17:42:44.933-0600",
"value" : {
"name" : "ConfigurationGroupMetadata",
"assigned" : "2018-02-02T17:42:44.933-0600"
}
},
{
"event" : "addEntity",
"timestamp" : "2018-02-02T17:42:44.933-0600",
"value" : {
"name" : "OTSROOT",
"assigned" : "2018-02-02T17:42:44.933-0600"
}
},
{
"event" : "addConfiguration",
"timestamp" : "2018-02-02T17:42:51.366-0600",
"value" : {
"name" : "FTBFConfig_v140",
"assigned" : "2018-02-02T17:42:51.366-0600"
}
}
],
"created" : "2018-02-02T17:42:44.932-0600"
},
"_id" : {
"$oid" : "8c22aa2c5bf44da6b9965381"
},
"collection" : "ConfigurationGroupMetadata",
"aliases" : {
"active" : [

],
"history" : [

]
},
"runs" : [

],
"attachments" : [

],
"configtype" : "notprovided"
}