{
"document" : {
"data" : {
"NAME" : "",
"COMMENT" : "",
"AUTHOR" : "",
"CREATION_TIME" : 1510242816,
"COL_TYPES" : {
"UNUSED_UID" : "NUMBER",
"COMMENT_DESCRIPTION" : "VARCHAR2",
"AUTHOR" : "VARCHAR2",
"GROUP_CREATION_TIME" : "TIMESTAMP WITH TIMEZONE"
},
"DATA_SET" : [
{
"UNUSED_UID" : "0",
"COMMENT_DESCRIPTION" : "",
"AUTHOR" : "admin",
"GROUP_CREATION_TIME" : "1512429552"
}
]
},
"metadata" : {

},
"search" : [

]
},
"comments" : [

],
"origin" : {
"source" : "template",
"name" : "notprovided",
"format" : "json",
"created" : "2017-12-04T17:19:12.814-0600",
"rawdata" : [

]
},
"version" : "360",
"entities" : [
{
"name" : "OTSROOT",
"assigned" : "2017-12-04T17:19:12.816-0600"
}
],
"configurations" : [
{
"name" : "notprovided",
"assigned" : "2017-12-04T17:19:12.815-0600"
},
{
"name" : "GroupAliasTreeEditWizBackbone_v60",
"assigned" : "2017-12-04T17:19:12.870-0600"
}
],
"changelog" : "notprovided",
"bookkeeping" : {
"isdeleted" : false,
"isreadonly" : false,
"updates" : [
{
"event" : "addConfiguration",
"timestamp" : "2017-12-04T17:19:12.815-0600",
"value" : {
"name" : "notprovided",
"assigned" : "2017-12-04T17:19:12.815-0600"
}
},
{
"event" : "setVersion",
"timestamp" : "2017-12-04T17:19:12.815-0600",
"value" : {
"name" : "360",
"assigned" : "2017-12-04T17:19:12.815-0600"
}
},
{
"event" : "setCollection",
"timestamp" : "2017-12-04T17:19:12.815-0600",
"value" : {
"name" : "ConfigurationGroupMetadata",
"assigned" : "2017-12-04T17:19:12.815-0600"
}
},
{
"event" : "addEntity",
"timestamp" : "2017-12-04T17:19:12.816-0600",
"value" : {
"name" : "OTSROOT",
"assigned" : "2017-12-04T17:19:12.816-0600"
}
},
{
"event" : "addConfiguration",
"timestamp" : "2017-12-04T17:19:12.870-0600",
"value" : {
"name" : "GroupAliasTreeEditWizBackbone_v60",
"assigned" : "2017-12-04T17:19:12.870-0600"
}
}
],
"created" : "2017-12-04T17:19:12.815-0600"
},
"_id" : {
"$oid" : "e9120a16ffc54012b3e8ae97"
},
"collection" : "ConfigurationGroupMetadata",
"aliases" : {
"active" : [

],
"history" : [

]
},
"runs" : [

],
"attachments" : [

],
"configtype" : "notprovided"
}