{
"document" : {
"data" : {
"NAME" : "OTDQM_HISTOS_CONSUMER_TABLE",
"COMMENT" : "No comment.",
"AUTHOR" : "admin",
"CREATION_TIME" : 1619719598,
"COL_TYPES" : {
"PROCESSOR_UID" : "STRING",
"FILE_PATH" : "STRING",
"RADIX_FILE_NAME" : "STRING",
"SAVE_FILE" : "STRING",
"CALIBRATION_NAME" : "STRING",
"CONFIGURATION_DIR" : "STRING",
"CONFIGURATION_NAME" : "STRING",
"COMMENT_DESCRIPTION" : "STRING",
"AUTHOR" : "STRING",
"RECORD_INSERTION_TIME" : "TIMESTAMP WITH TIMEZONE"
},
"DATA_SET" : [
{
"PROCESSOR_UID" : "VisualDataBufferOTDQMHistos",
"FILE_PATH" : "${OTSDAQ_DATA}/OtsHistos",
"RADIX_FILE_NAME" : "PSDQMHistos",
"SAVE_FILE" : "Yes",
"CALIBRATION_NAME" : "psphysics",
"CONFIGURATION_DIR" : "${PH2ACF_ROOT}/settings",
"CONFIGURATION_NAME" : "PS_HalfModule.xml",
"COMMENT_DESCRIPTION" : "",
"AUTHOR" : "admin",
"RECORD_INSERTION_TIME" : "1619719586"
}
]
},
"metadata" : {

},
"search" : [

]
},
"comments" : [

],
"origin" : {
"source" : "template",
"name" : "notprovided",
"format" : "json",
"created" : "2021-04-29T13:06:38.278-0500",
"rawdata" : [

]
},
"version" : "4",
"entities" : [
{
"name" : "OTSROOT",
"assigned" : "2021-04-29T13:06:38.279-0500"
}
],
"configurations" : [
{
"name" : "notprovided",
"assigned" : "2021-04-29T13:06:38.278-0500"
},
{
"name" : "DefaultConfig_v24",
"assigned" : "2021-04-29T13:06:39.448-0500"
},
{
"name" : "DefaultConfig_v25",
"assigned" : "2021-04-30T09:33:57.260-0500"
},
{
"name" : "DefaultConfig_v26",
"assigned" : "2021-04-30T09:34:32.840-0500"
},
{
"name" : "DefaultConfig_v27",
"assigned" : "2021-04-30T09:36:19.593-0500"
},
{
"name" : "DefaultConfig_v28",
"assigned" : "2021-04-30T11:59:06.243-0500"
}
],
"changelog" : "notprovided",
"bookkeeping" : {
"isdeleted" : false,
"isreadonly" : false,
"updates" : [
{
"event" : "addConfiguration",
"timestamp" : "2021-04-29T13:06:38.279-0500",
"value" : {
"name" : "notprovided",
"assigned" : "2021-04-29T13:06:38.278-0500"
}
},
{
"event" : "setVersion",
"timestamp" : "2021-04-29T13:06:38.279-0500",
"value" : {
"name" : "4",
"assigned" : "2021-04-29T13:06:38.279-0500"
}
},
{
"event" : "setCollection",
"timestamp" : "2021-04-29T13:06:38.279-0500",
"value" : {
"name" : "OTDQMHistosConsumerTable",
"assigned" : "2021-04-29T13:06:38.279-0500"
}
},
{
"event" : "addEntity",
"timestamp" : "2021-04-29T13:06:38.279-0500",
"value" : {
"name" : "OTSROOT",
"assigned" : "2021-04-29T13:06:38.279-0500"
}
},
{
"event" : "addConfiguration",
"timestamp" : "2021-04-29T13:06:39.448-0500",
"value" : {
"name" : "DefaultConfig_v24",
"assigned" : "2021-04-29T13:06:39.448-0500"
}
},
{
"event" : "addConfiguration",
"timestamp" : "2021-04-30T09:33:57.260-0500",
"value" : {
"name" : "DefaultConfig_v25",
"assigned" : "2021-04-30T09:33:57.260-0500"
}
},
{
"event" : "addConfiguration",
"timestamp" : "2021-04-30T09:34:32.840-0500",
"value" : {
"name" : "DefaultConfig_v26",
"assigned" : "2021-04-30T09:34:32.840-0500"
}
},
{
"event" : "addConfiguration",
"timestamp" : "2021-04-30T09:36:19.593-0500",
"value" : {
"name" : "DefaultConfig_v27",
"assigned" : "2021-04-30T09:36:19.593-0500"
}
},
{
"event" : "addConfiguration",
"timestamp" : "2021-04-30T11:59:06.243-0500",
"value" : {
"name" : "DefaultConfig_v28",
"assigned" : "2021-04-30T11:59:06.243-0500"
}
}
],
"created" : "2021-04-29T13:06:38.278-0500"
},
"_id" : {
"$oid" : "4c85e0764e2845138f51a4c1"
},
"collection" : "OTDQMHistosConsumerTable",
"aliases" : {
"active" : [

],
"history" : [

]
},
"runs" : [

],
"attachments" : [

],
"configtype" : "notprovided"
}