{
"document" : {
"data" : {
"NAME" : "OTDQM_HISTOS_CONSUMER_TABLE",
"COMMENT" : "No comment.",
"AUTHOR" : "admin",
"CREATION_TIME" : 1619802651,
"COL_TYPES" : {
"PROCESSOR_UID" : "STRING",
"FILE_PATH" : "STRING",
"RADIX_FILE_NAME" : "STRING",
"SAVE_FILE" : "STRING",
"CALIBRATION_NAME" : "STRING",
"CONFIGURATION_DIR" : "STRING",
"CONFIGURATION_NAME" : "STRING",
"COMMENT_DESCRIPTION" : "STRING",
"AUTHOR" : "STRING",
"RECORD_INSERTION_TIME" : "TIMESTAMP WITH TIMEZONE"
},
"DATA_SET" : [
{
"PROCESSOR_UID" : "VisualDataBufferOTDQMHistos",
"FILE_PATH" : "${OTSDAQ_DATA}/OtsHistos",
"RADIX_FILE_NAME" : "PSDQMHistos",
"SAVE_FILE" : "Yes",
"CALIBRATION_NAME" : "psphysics",
"CONFIGURATION_DIR" : "${PH2ACF_BASE_DIR}/settings",
"CONFIGURATION_NAME" : "PS_HalfModule.xml",
"COMMENT_DESCRIPTION" : "",
"AUTHOR" : "admin",
"RECORD_INSERTION_TIME" : "1619802651"
}
]
},
"metadata" : {

},
"search" : [

]
},
"comments" : [

],
"origin" : {
"source" : "template",
"name" : "notprovided",
"format" : "json",
"created" : "2021-04-30T12:10:51.606-0500",
"rawdata" : [

]
},
"version" : "5",
"entities" : [
{
"name" : "OTSROOT",
"assigned" : "2021-04-30T12:10:51.607-0500"
}
],
"configurations" : [
{
"name" : "notprovided",
"assigned" : "2021-04-30T12:10:51.606-0500"
},
{
"name" : "DefaultConfig_v29",
"assigned" : "2021-04-30T12:10:52.690-0500"
},
{
"name" : "DefaultConfig_v30",
"assigned" : "2021-04-30T12:11:39.007-0500"
},
{
"name" : "DefaultConfig_v31",
"assigned" : "2021-05-06T17:42:15.520-0500"
},
{
"name" : "DefaultConfig_v32",
"assigned" : "2021-05-10T10:42:47.359-0500"
},
{
"name" : "DefaultConfig_v33",
"assigned" : "2021-05-10T11:08:53.155-0500"
},
{
"name" : "DefaultConfig_v34",
"assigned" : "2021-05-12T15:51:23.229-0500"
}
],
"changelog" : "notprovided",
"bookkeeping" : {
"isdeleted" : false,
"isreadonly" : false,
"updates" : [
{
"event" : "addConfiguration",
"timestamp" : "2021-04-30T12:10:51.606-0500",
"value" : {
"name" : "notprovided",
"assigned" : "2021-04-30T12:10:51.606-0500"
}
},
{
"event" : "setVersion",
"timestamp" : "2021-04-30T12:10:51.606-0500",
"value" : {
"name" : "5",
"assigned" : "2021-04-30T12:10:51.606-0500"
}
},
{
"event" : "setCollection",
"timestamp" : "2021-04-30T12:10:51.607-0500",
"value" : {
"name" : "OTDQMHistosConsumerTable",
"assigned" : "2021-04-30T12:10:51.607-0500"
}
},
{
"event" : "addEntity",
"timestamp" : "2021-04-30T12:10:51.607-0500",
"value" : {
"name" : "OTSROOT",
"assigned" : "2021-04-30T12:10:51.607-0500"
}
},
{
"event" : "addConfiguration",
"timestamp" : "2021-04-30T12:10:52.690-0500",
"value" : {
"name" : "DefaultConfig_v29",
"assigned" : "2021-04-30T12:10:52.690-0500"
}
},
{
"event" : "addConfiguration",
"timestamp" : "2021-04-30T12:11:39.007-0500",
"value" : {
"name" : "DefaultConfig_v30",
"assigned" : "2021-04-30T12:11:39.007-0500"
}
},
{
"event" : "addConfiguration",
"timestamp" : "2021-05-06T17:42:15.520-0500",
"value" : {
"name" : "DefaultConfig_v31",
"assigned" : "2021-05-06T17:42:15.520-0500"
}
},
{
"event" : "addConfiguration",
"timestamp" : "2021-05-10T10:42:47.359-0500",
"value" : {
"name" : "DefaultConfig_v32",
"assigned" : "2021-05-10T10:42:47.359-0500"
}
},
{
"event" : "addConfiguration",
"timestamp" : "2021-05-10T11:08:53.155-0500",
"value" : {
"name" : "DefaultConfig_v33",
"assigned" : "2021-05-10T11:08:53.155-0500"
}
},
{
"event" : "addConfiguration",
"timestamp" : "2021-05-12T15:51:23.229-0500",
"value" : {
"name" : "DefaultConfig_v34",
"assigned" : "2021-05-12T15:51:23.229-0500"
}
}
],
"created" : "2021-04-30T12:10:51.606-0500"
},
"_id" : {
"$oid" : "f4ac8cb1c72e415fbec94290"
},
"collection" : "OTDQMHistosConsumerTable",
"aliases" : {
"active" : [

],
"history" : [

]
},
"runs" : [

],
"attachments" : [

],
"configtype" : "notprovided"
}