{
"ouid" : [
"84af3d5bd7894d8e83b3364f"
],
"version" : {
"3" : [
"84af3d5bd7894d8e83b3364f"
]
},
"configurations.name" : {
"notprovided" : [
"84af3d5bd7894d8e83b3364f"
],
"iterateDefaultGroup_v3" : [
"84af3d5bd7894d8e83b3364f"
]
},
"entities.name" : {
"OTSROOT" : [
"84af3d5bd7894d8e83b3364f"
]
},
"aliases.active.name" : {

},
"runs.name" : {

},
"configurations.assigned" : {
"notprovided" : [
"2020-09-08T15:08:32.095-0500"
],
"iterateDefaultGroup_v3" : [
"2020-09-08T15:08:32.690-0500"
]
}
}