{
"document" : {
"data" : {
"NAME" : "ARTDAQ_BOARD_READER_DAQ_PARAMETER_CONFIGURATION",
"COMMENT" : "default reader paramaters for artdaq (1-1-1) tutorial.",
"AUTHOR" : "rrivera",
"CREATION_TIME" : 1510784786,
"COL_TYPES" : {
"DAQ_PARAMETER_GROUP_ID" : "VARCHAR2",
"DAQ_PARAMETER_UID" : "VARCHAR2",
"STATUS" : "VARCHAR2",
"DAQ_PARAMETER_KEY" : "VARCHAR2",
"DAQ_PARAMETER_VALUE" : "VARCHAR2",
"COMMENT_DESCRIPTION" : "VARCHAR2",
"AUTHOR" : "VARCHAR2",
"RECORD_INSERTION_TIME" : "TIMESTAMP WITH TIMEZONE"
},
"DATA_SET" : [
{
"DAQ_PARAMETER_GROUP_ID" : "readerStrips2 | reader0PGroup",
"DAQ_PARAMETER_UID" : "daqP0",
"STATUS" : "On",
"DAQ_PARAMETER_KEY" : "mpi_sync_interval",
"DAQ_PARAMETER_VALUE" : "50",
"COMMENT_DESCRIPTION" : "No Comment",
"AUTHOR" : "admin",
"RECORD_INSERTION_TIME" : "1504798156"
},
{
"DAQ_PARAMETER_GROUP_ID" : "readerStrips2 | reader0PGroup",
"DAQ_PARAMETER_UID" : "daqP1",
"STATUS" : "On",
"DAQ_PARAMETER_KEY" : "fragment_ids",
"DAQ_PARAMETER_VALUE" : "[]",
"COMMENT_DESCRIPTION" : "No Comment",
"AUTHOR" : "admin",
"RECORD_INSERTION_TIME" : "1504798156"
},
{
"DAQ_PARAMETER_GROUP_ID" : "readerStrips2 | reader0PGroup",
"DAQ_PARAMETER_UID" : "daqP2",
"STATUS" : "On",
"DAQ_PARAMETER_KEY" : "fragment_id",
"DAQ_PARAMETER_VALUE" : "99",
"COMMENT_DESCRIPTION" : "Please define only one of these",
"AUTHOR" : "admin",
"RECORD_INSERTION_TIME" : "1504798156"
},
{
"DAQ_PARAMETER_GROUP_ID" : "readerStrips2 | reader0PGroup",
"DAQ_PARAMETER_UID" : "daqP3",
"STATUS" : "On",
"DAQ_PARAMETER_KEY" : "sleep_on_stop_us",
"DAQ_PARAMETER_VALUE" : "0",
"COMMENT_DESCRIPTION" : "No Comment",
"AUTHOR" : "admin",
"RECORD_INSERTION_TIME" : "1504798156"
},
{
"DAQ_PARAMETER_GROUP_ID" : "readerStrips2 | reader0PGroup",
"DAQ_PARAMETER_UID" : "daqP4",
"STATUS" : "On",
"DAQ_PARAMETER_KEY" : "requests_enabled",
"DAQ_PARAMETER_VALUE" : "false",
"COMMENT_DESCRIPTION" : "Whether to set up the socket for listening for trigger messages",
"AUTHOR" : "admin",
"RECORD_INSERTION_TIME" : "1504798156"
},
{
"DAQ_PARAMETER_GROUP_ID" : "readerStrips2 | reader0PGroup",
"DAQ_PARAMETER_UID" : "daqP5",
"STATUS" : "On",
"DAQ_PARAMETER_KEY" : "request_mode",
"DAQ_PARAMETER_VALUE" : "\"Ignored\"",
"COMMENT_DESCRIPTION" : "Possible values are: Ignored, Single, Buffer, Window",
"AUTHOR" : "admin",
"RECORD_INSERTION_TIME" : "1504798156"
},
{
"DAQ_PARAMETER_GROUP_ID" : "readerStrips2 | reader0PGroup",
"DAQ_PARAMETER_UID" : "daqP6",
"STATUS" : "On",
"DAQ_PARAMETER_KEY" : "data_buffer_depth_fragments",
"DAQ_PARAMETER_VALUE" : "1000",
"COMMENT_DESCRIPTION" : "No Comment",
"AUTHOR" : "admin",
"RECORD_INSERTION_TIME" : "1504798156"
},
{
"DAQ_PARAMETER_GROUP_ID" : "readerStrips2 | reader0PGroup",
"DAQ_PARAMETER_UID" : "daqP7",
"STATUS" : "On",
"DAQ_PARAMETER_KEY" : "data_buffer_depth_mb",
"DAQ_PARAMETER_VALUE" : "1000",
"COMMENT_DESCRIPTION" : "No Comment",
"AUTHOR" : "admin",
"RECORD_INSERTION_TIME" : "1504798156"
},
{
"DAQ_PARAMETER_GROUP_ID" : "readerStrips2 | reader0PGroup",
"DAQ_PARAMETER_UID" : "daqP8",
"STATUS" : "On",
"DAQ_PARAMETER_KEY" : "request_port",
"DAQ_PARAMETER_VALUE" : "3001",
"COMMENT_DESCRIPTION" : "No Comment",
"AUTHOR" : "admin",
"RECORD_INSERTION_TIME" : "1504798156"
},
{
"DAQ_PARAMETER_GROUP_ID" : "readerStrips2 | reader0PGroup",
"DAQ_PARAMETER_UID" : "daqP9",
"STATUS" : "On",
"DAQ_PARAMETER_KEY" : "request_address",
"DAQ_PARAMETER_VALUE" : "\"127.0.0.1\"",
"COMMENT_DESCRIPTION" : "Multicast request address",
"AUTHOR" : "admin",
"RECORD_INSERTION_TIME" : "1504798156"
},
{
"DAQ_PARAMETER_GROUP_ID" : "readerStrips2 | reader0PGroup",
"DAQ_PARAMETER_UID" : "daqP10",
"STATUS" : "On",
"DAQ_PARAMETER_KEY" : "request_window_offset",
"DAQ_PARAMETER_VALUE" : "0",
"COMMENT_DESCRIPTION" : "Request message contains tzero. Window will be from tzero - offset to tzero + width",
"AUTHOR" : "admin",
"RECORD_INSERTION_TIME" : "1504798156"
},
{
"DAQ_PARAMETER_GROUP_ID" : "readerStrips2 | reader0PGroup",
"DAQ_PARAMETER_UID" : "daqP11",
"STATUS" : "On",
"DAQ_PARAMETER_KEY" : "request_window_width",
"DAQ_PARAMETER_VALUE" : "0",
"COMMENT_DESCRIPTION" : "No Comment",
"AUTHOR" : "admin",
"RECORD_INSERTION_TIME" : "1504798156"
},
{
"DAQ_PARAMETER_GROUP_ID" : "readerStrips2 | reader0PGroup",
"DAQ_PARAMETER_UID" : "daqP12",
"STATUS" : "On",
"DAQ_PARAMETER_KEY" : "stale_request_timeout",
"DAQ_PARAMETER_VALUE" : "\"0xFFFFFFFF\"",
"COMMENT_DESCRIPTION" : "How long to wait before discarding request messages that are outside the available data",
"AUTHOR" : "admin",
"RECORD_INSERTION_TIME" : "1504798156"
},
{
"DAQ_PARAMETER_GROUP_ID" : "readerStrips2 | reader0PGroup",
"DAQ_PARAMETER_UID" : "daqP13",
"STATUS" : "On",
"DAQ_PARAMETER_KEY" : "request_windows_are_unique",
"DAQ_PARAMETER_VALUE" : "true",
"COMMENT_DESCRIPTION" : "If request windows are unique, avoids a copy operation, but the same data point cannot be used for two requests. If this is not anticipated, leave set to \"true\"",
"AUTHOR" : "admin",
"RECORD_INSERTION_TIME" : "1504798156"
},
{
"DAQ_PARAMETER_GROUP_ID" : "readerStrips2 | reader0PGroup",
"DAQ_PARAMETER_UID" : "daqP14",
"STATUS" : "On",
"DAQ_PARAMETER_KEY" : "separate_data_thread",
"DAQ_PARAMETER_VALUE" : "false",
"COMMENT_DESCRIPTION" : "MUST be true for triggers to be applied! If triggering is not desired, but a separate readout thread is, set this to true, triggers_enabled to false and trigger_mode to ignored.",
"AUTHOR" : "admin",
"RECORD_INSERTION_TIME" : "1504798156"
},
{
"DAQ_PARAMETER_GROUP_ID" : "readerStrips2 | reader0PGroup",
"DAQ_PARAMETER_UID" : "daqP15",
"STATUS" : "On",
"DAQ_PARAMETER_KEY" : "separate_monitoring_thread",
"DAQ_PARAMETER_VALUE" : "false",
"COMMENT_DESCRIPTION" : "Whether a thread should be started which periodically calls checkHWStatus_, a user-defined function which should be used to check hardware status registers and report to MetricMan.",
"AUTHOR" : "admin",
"RECORD_INSERTION_TIME" : "1504798156"
},
{
"DAQ_PARAMETER_GROUP_ID" : "readerStrips2 | reader0PGroup",
"DAQ_PARAMETER_UID" : "daqP16",
"STATUS" : "On",
"DAQ_PARAMETER_KEY" : "poll_hardware_status",
"DAQ_PARAMETER_VALUE" : "false",
"COMMENT_DESCRIPTION" : "Whether checkHWStatus_ will be called, either through the thread or at the start of getNext",
"AUTHOR" : "admin",
"RECORD_INSERTION_TIME" : "1504798156"
},
{
"DAQ_PARAMETER_GROUP_ID" : "readerStrips2 | reader0PGroup",
"DAQ_PARAMETER_UID" : "daqP17",
"STATUS" : "On",
"DAQ_PARAMETER_KEY" : "hardware_poll_interval_us",
"DAQ_PARAMETER_VALUE" : "1000000",
"COMMENT_DESCRIPTION" : "If hardware monitoring thread is enabled, how often should it call checkHWStatus_",
"AUTHOR" : "admin",
"RECORD_INSERTION_TIME" : "1504798156"
},
{
"DAQ_PARAMETER_GROUP_ID" : "readerStrips2 | reader0PGroup",
"DAQ_PARAMETER_UID" : "daqP20",
"STATUS" : "On",
"DAQ_PARAMETER_KEY" : "fragment_id",
"DAQ_PARAMETER_VALUE" : "0",
"COMMENT_DESCRIPTION" : "No Comment",
"AUTHOR" : "admin",
"RECORD_INSERTION_TIME" : "1504798156"
},
{
"DAQ_PARAMETER_GROUP_ID" : "readerStrips2 | reader0PGroup",
"DAQ_PARAMETER_UID" : "daqP21",
"STATUS" : "On",
"DAQ_PARAMETER_KEY" : "board_id",
"DAQ_PARAMETER_VALUE" : "0",
"COMMENT_DESCRIPTION" : "No Comment",
"AUTHOR" : "admin",
"RECORD_INSERTION_TIME" : "1504798156"
},
{
"DAQ_PARAMETER_GROUP_ID" : "readerStrips2 | reader0PGroup",
"DAQ_PARAMETER_UID" : "daqP22",
"STATUS" : "On",
"DAQ_PARAMETER_KEY" : "starting_fragment_id",
"DAQ_PARAMETER_VALUE" : "0",
"COMMENT_DESCRIPTION" : "No Comment",
"AUTHOR" : "admin",
"RECORD_INSERTION_TIME" : "1504798156"
},
{
"DAQ_PARAMETER_GROUP_ID" : "readerStrips2 | reader0PGroup",
"DAQ_PARAMETER_UID" : "daqP23",
"STATUS" : "On",
"DAQ_PARAMETER_KEY" : "random_seed",
"DAQ_PARAMETER_VALUE" : "5780",
"COMMENT_DESCRIPTION" : "No Comment",
"AUTHOR" : "admin",
"RECORD_INSERTION_TIME" : "1504798156"
},
{
"DAQ_PARAMETER_GROUP_ID" : "readerStrips2 | reader0PGroup",
"DAQ_PARAMETER_UID" : "daqP24",
"STATUS" : "On",
"DAQ_PARAMETER_KEY" : "sleep_on_stop_us",
"DAQ_PARAMETER_VALUE" : "500000",
"COMMENT_DESCRIPTION" : "No Comment",
"AUTHOR" : "admin",
"RECORD_INSERTION_TIME" : "1504798156"
},
{
"DAQ_PARAMETER_GROUP_ID" : "readerStrips2 | reader0PGroup",
"DAQ_PARAMETER_UID" : "daqP25",
"STATUS" : "On",
"DAQ_PARAMETER_KEY" : "nADCcounts",
"DAQ_PARAMETER_VALUE" : "40",
"COMMENT_DESCRIPTION" : "No Comment",
"AUTHOR" : "admin",
"RECORD_INSERTION_TIME" : "1504798156"
},
{
"DAQ_PARAMETER_GROUP_ID" : "readerStrips2 | reader0PGroup",
"DAQ_PARAMETER_UID" : "daqP26",
"STATUS" : "On",
"DAQ_PARAMETER_KEY" : "throttle_usecs",
"DAQ_PARAMETER_VALUE" : "100000",
"COMMENT_DESCRIPTION" : "No Comment",
"AUTHOR" : "admin",
"RECORD_INSERTION_TIME" : "1504798156"
},
{
"DAQ_PARAMETER_GROUP_ID" : "readerStrips2 | reader0PGroup",
"DAQ_PARAMETER_UID" : "daqP27",
"STATUS" : "On",
"DAQ_PARAMETER_KEY" : "distribution_type",
"DAQ_PARAMETER_VALUE" : "1",
"COMMENT_DESCRIPTION" : "No Comment",
"AUTHOR" : "admin",
"RECORD_INSERTION_TIME" : "1504798156"
},
{
"DAQ_PARAMETER_GROUP_ID" : "readerStrips2 | reader0PGroup",
"DAQ_PARAMETER_UID" : "daqP28",
"STATUS" : "On",
"DAQ_PARAMETER_KEY" : "timestamp_scale_factor",
"DAQ_PARAMETER_VALUE" : "1",
"COMMENT_DESCRIPTION" : "No Comment",
"AUTHOR" : "admin",
"RECORD_INSERTION_TIME" : "1504798156"
},
{
"DAQ_PARAMETER_GROUP_ID" : "reader0PGroup",
"DAQ_PARAMETER_UID" : "portParameter",
"STATUS" : "On",
"DAQ_PARAMETER_KEY" : "port",
"DAQ_PARAMETER_VALUE" : "40005",
"COMMENT_DESCRIPTION" : "No Comment",
"AUTHOR" : "admin",
"RECORD_INSERTION_TIME" : "1508870530"
},
{
"DAQ_PARAMETER_GROUP_ID" : "reader0PGroup",
"DAQ_PARAMETER_UID" : "ipParameter",
"STATUS" : "On",
"DAQ_PARAMETER_KEY" : "ip",
"DAQ_PARAMETER_VALUE" : "\"127.0.0.1\"",
"COMMENT_DESCRIPTION" : "No Comment",
"AUTHOR" : "admin",
"RECORD_INSERTION_TIME" : "1505750377"
},
{
"DAQ_PARAMETER_GROUP_ID" : "reader0PGroup",
"DAQ_PARAMETER_UID" : "wireChamberHostname",
"STATUS" : "On",
"DAQ_PARAMETER_KEY" : "wire_chamber_hostname",
"DAQ_PARAMETER_VALUE" : "ftbfwc01",
"COMMENT_DESCRIPTION" : "Hostname of the connected MWPC Controller",
"AUTHOR" : "eflumerf",
"RECORD_INSERTION_TIME" : "1509479586"
}
]
},
"metadata" : {

},
"search" : [

]
},
"comments" : [

],
"origin" : {
"source" : "template",
"name" : "notprovided",
"format" : "json",
"created" : "2017-11-15T16:26:26.420-0600",
"rawdata" : [

]
},
"version" : "1",
"entities" : [
{
"name" : "OTSROOT",
"assigned" : "2017-11-15T16:26:26.427-0600"
}
],
"configurations" : [
{
"name" : "notprovided",
"assigned" : "2017-11-15T16:26:26.423-0600"
},
{
"name" : "FTBFConfig_v20",
"assigned" : "2017-11-15T16:26:28.328-0600"
},
{
"name" : "FTBFConfig_v21",
"assigned" : "2017-11-16T09:22:29.512-0600"
},
{
"name" : "FTBFConfig_v22",
"assigned" : "2017-11-17T10:23:25.672-0600"
},
{
"name" : "FTBFConfig_v23",
"assigned" : "2017-11-17T17:26:43.189-0600"
},
{
"name" : "FTBFConfig_v24",
"assigned" : "2017-11-17T17:58:23.591-0600"
},
{
"name" : "FTBFConfig_v25",
"assigned" : "2017-11-17T18:24:43.281-0600"
},
{
"name" : "FTBFConfig_v26",
"assigned" : "2017-11-17T18:32:19.998-0600"
},
{
"name" : "FTBFConfig_v27",
"assigned" : "2017-11-17T18:43:27.123-0600"
},
{
"name" : "FTBFConfig_v28",
"assigned" : "2017-11-17T18:48:29.132-0600"
},
{
"name" : "FTBFConfig_v29",
"assigned" : "2017-11-20T14:48:28.502-0600"
},
{
"name" : "FTBFConfig_v30",
"assigned" : "2017-11-20T15:39:53.761-0600"
},
{
"name" : "FTBFConfig_v31",
"assigned" : "2017-11-20T16:40:59.732-0600"
},
{
"name" : "FTBFConfig_v32",
"assigned" : "2017-11-20T18:55:32.524-0600"
},
{
"name" : "FTBFConfig_v33",
"assigned" : "2017-11-20T18:57:27.796-0600"
},
{
"name" : "FTBFConfig_v34",
"assigned" : "2017-11-29T17:50:37.281-0600"
},
{
"name" : "FTBFConfig_v35",
"assigned" : "2017-11-29T18:00:30.149-0600"
},
{
"name" : "FTBFConfig_v36",
"assigned" : "2017-11-29T18:35:09.014-0600"
},
{
"name" : "FTBFConfig_v37",
"assigned" : "2017-12-01T09:36:15.172-0600"
},
{
"name" : "FTBFConfig_v38",
"assigned" : "2017-12-01T09:51:58.512-0600"
},
{
"name" : "FTBFConfig_v39",
"assigned" : "2017-12-01T11:51:55.755-0600"
},
{
"name" : "FTBFConfig_v40",
"assigned" : "2017-12-01T12:18:17.724-0600"
},
{
"name" : "FTBFConfig_v41",
"assigned" : "2017-12-01T12:20:59.827-0600"
},
{
"name" : "FTBFConfig_v42",
"assigned" : "2017-12-01T12:43:18.940-0600"
},
{
"name" : "FTBFConfig_v43",
"assigned" : "2017-12-01T12:57:55.718-0600"
},
{
"name" : "FTBFConfig_v44",
"assigned" : "2017-12-01T13:00:48.152-0600"
},
{
"name" : "FTBFConfig_v45",
"assigned" : "2017-12-01T13:25:45.779-0600"
},
{
"name" : "FTBFConfig_v46",
"assigned" : "2017-12-01T13:35:40.609-0600"
},
{
"name" : "FTBFConfig_v47",
"assigned" : "2017-12-01T14:00:49.047-0600"
},
{
"name" : "FTBFConfig_v48",
"assigned" : "2017-12-01T14:03:56.300-0600"
},
{
"name" : "FTBFConfig_v49",
"assigned" : "2017-12-01T15:31:56.494-0600"
},
{
"name" : "FTBFConfig_v50",
"assigned" : "2017-12-01T15:34:38.370-0600"
},
{
"name" : "FTBFConfig_v51",
"assigned" : "2017-12-01T15:36:17.884-0600"
},
{
"name" : "FTBFConfig_v52",
"assigned" : "2017-12-01T15:37:27.097-0600"
},
{
"name" : "FTBFConfig_v53",
"assigned" : "2017-12-01T15:40:56.014-0600"
},
{
"name" : "FTBFConfig_v54",
"assigned" : "2017-12-01T15:52:46.324-0600"
},
{
"name" : "FTBFConfig_v55",
"assigned" : "2017-12-01T15:54:31.445-0600"
},
{
"name" : "FTBFConfig_v56",
"assigned" : "2017-12-01T15:55:30.963-0600"
},
{
"name" : "FTBFConfig_v57",
"assigned" : "2017-12-01T15:56:36.746-0600"
},
{
"name" : "FTBFConfig_v58",
"assigned" : "2017-12-01T15:57:34.820-0600"
},
{
"name" : "FTBFConfig_v59",
"assigned" : "2017-12-01T15:58:26.714-0600"
},
{
"name" : "FTBFConfig_v60",
"assigned" : "2017-12-01T15:59:27.902-0600"
},
{
"name" : "FTBFConfig_v61",
"assigned" : "2017-12-01T16:19:37.600-0600"
},
{
"name" : "FTBFConfig_v62",
"assigned" : "2017-12-01T16:22:00.155-0600"
},
{
"name" : "FTBFConfig_v63",
"assigned" : "2017-12-01T16:31:20.752-0600"
},
{
"name" : "FTBFConfig_v64",
"assigned" : "2017-12-01T17:06:27.577-0600"
},
{
"name" : "FTBFConfig_v65",
"assigned" : "2017-12-01T17:32:39.914-0600"
},
{
"name" : "FTBFConfig_v66",
"assigned" : "2017-12-01T20:38:46.346-0600"
},
{
"name" : "FTBFConfig_v67",
"assigned" : "2017-12-01T21:24:57.813-0600"
},
{
"name" : "FTBFConfig_v68",
"assigned" : "2017-12-01T21:42:57.457-0600"
},
{
"name" : "FTBFConfig_v69",
"assigned" : "2017-12-01T21:44:56.060-0600"
},
{
"name" : "FTBFConfig_v70",
"assigned" : "2017-12-01T21:59:15.281-0600"
},
{
"name" : "FTBFConfigNim_v0",
"assigned" : "2017-12-01T22:00:01.991-0600"
},
{
"name" : "FTBFConfigNim_v1",
"assigned" : "2017-12-01T22:13:03.708-0600"
},
{
"name" : "FTBFConfigNim_v2",
"assigned" : "2017-12-01T22:15:50.923-0600"
},
{
"name" : "FTBFConfigNim_v3",
"assigned" : "2017-12-01T22:16:58.875-0600"
},
{
"name" : "FTBFConfigNim_v4",
"assigned" : "2017-12-01T22:19:01.981-0600"
},
{
"name" : "FTBFConfigNim_v5",
"assigned" : "2017-12-01T22:21:52.662-0600"
},
{
"name" : "FTBFConfigNim_v6",
"assigned" : "2017-12-01T22:23:08.368-0600"
},
{
"name" : "FTBFConfigNim_v7",
"assigned" : "2017-12-01T22:25:12.585-0600"
},
{
"name" : "FTBFConfigNim_v8",
"assigned" : "2017-12-01T22:27:00.113-0600"
},
{
"name" : "FTBFConfigNim_v9",
"assigned" : "2017-12-01T22:29:24.401-0600"
},
{
"name" : "FTBFConfigNim_v10",
"assigned" : "2017-12-01T22:52:29.499-0600"
},
{
"name" : "FTBFConfigNim_v11",
"assigned" : "2017-12-01T22:57:24.203-0600"
},
{
"name" : "FTBFConfigNim_v12",
"assigned" : "2017-12-01T23:00:02.546-0600"
},
{
"name" : "FTBFConfigNim_v13",
"assigned" : "2017-12-01T23:52:30.651-0600"
},
{
"name" : "FTBFConfigNim_v14",
"assigned" : "2017-12-01T23:58:05.031-0600"
},
{
"name" : "FTBFConfigNim_v15",
"assigned" : "2017-12-02T00:00:29.307-0600"
},
{
"name" : "FTBFConfigNim_v16",
"assigned" : "2017-12-02T00:13:04.401-0600"
},
{
"name" : "FTBFConfigNim_v17",
"assigned" : "2017-12-02T00:28:23.399-0600"
},
{
"name" : "FTBFConfigNim_v18",
"assigned" : "2017-12-02T00:29:29.430-0600"
},
{
"name" : "FTBFConfigNim_v19",
"assigned" : "2017-12-02T00:31:05.801-0600"
},
{
"name" : "FTBFConfigNim_v20",
"assigned" : "2017-12-02T00:57:22.407-0600"
},
{
"name" : "FTBFConfigNim_v21",
"assigned" : "2017-12-02T10:57:56.943-0600"
},
{
"name" : "FTBFConfigNim_v22",
"assigned" : "2017-12-02T11:08:13.106-0600"
},
{
"name" : "FTBFConfigNim_v23",
"assigned" : "2017-12-02T11:12:34.651-0600"
},
{
"name" : "FTBFConfigNim_v24",
"assigned" : "2017-12-02T11:18:37.472-0600"
},
{
"name" : "FTBFConfigNim_v25",
"assigned" : "2017-12-02T11:27:00.691-0600"
},
{
"name" : "FTBFConfigNim_v26",
"assigned" : "2017-12-02T11:38:31.732-0600"
},
{
"name" : "FTBFConfigNim_v27",
"assigned" : "2017-12-02T11:49:02.835-0600"
},
{
"name" : "FTBFConfigNim_v28",
"assigned" : "2017-12-02T11:55:04.297-0600"
},
{
"name" : "FTBFConfigNim_v29",
"assigned" : "2017-12-02T12:06:21.114-0600"
},
{
"name" : "FTBFConfig_v71",
"assigned" : "2017-12-02T12:24:09.739-0600"
},
{
"name" : "FTBFConfig_v72",
"assigned" : "2017-12-02T12:43:30.503-0600"
},
{
"name" : "FTBFConfig_v73",
"assigned" : "2017-12-02T13:55:30.063-0600"
},
{
"name" : "FTBFConfig_v74",
"assigned" : "2017-12-02T14:09:02.341-0600"
},
{
"name" : "FTBFConfig_v75",
"assigned" : "2017-12-02T14:12:13.199-0600"
},
{
"name" : "FTBFConfig_v76",
"assigned" : "2017-12-02T19:05:48.323-0600"
},
{
"name" : "FTBFConfig_v77",
"assigned" : "2017-12-02T19:12:08.109-0600"
},
{
"name" : "FTBFConfig_v78",
"assigned" : "2017-12-03T14:03:43.298-0600"
},
{
"name" : "FTBFConfig_v79",
"assigned" : "2017-12-03T14:09:01.458-0600"
},
{
"name" : "FTBFConfig_v80",
"assigned" : "2017-12-03T14:11:05.217-0600"
},
{
"name" : "FTBFConfig_v81",
"assigned" : "2017-12-03T14:22:28.249-0600"
},
{
"name" : "FTBFConfig_v82",
"assigned" : "2017-12-03T14:40:33.007-0600"
},
{
"name" : "FTBFConfig_v83",
"assigned" : "2017-12-03T14:45:00.290-0600"
},
{
"name" : "FTBFConfig_v84",
"assigned" : "2017-12-04T14:51:25.763-0600"
},
{
"name" : "FTBFConfig_v85",
"assigned" : "2017-12-04T14:55:38.883-0600"
},
{
"name" : "FTBFConfig_v86",
"assigned" : "2017-12-04T16:51:01.838-0600"
},
{
"name" : "FTBFConfig_v87",
"assigned" : "2017-12-04T16:56:42.462-0600"
},
{
"name" : "FTBFConfig_v88",
"assigned" : "2017-12-04T17:01:07.156-0600"
},
{
"name" : "FTBFConfig_v89",
"assigned" : "2017-12-04T17:03:52.217-0600"
},
{
"name" : "FTBFConfig_v90",
"assigned" : "2017-12-04T17:07:11.854-0600"
},
{
"name" : "FTBFConfig_v91",
"assigned" : "2017-12-04T17:09:20.966-0600"
},
{
"name" : "FTBFConfig_v92",
"assigned" : "2017-12-04T17:11:33.410-0600"
},
{
"name" : "FTBFConfig_v93",
"assigned" : "2017-12-04T21:05:16.040-0600"
},
{
"name" : "FTBFConfig_v94",
"assigned" : "2017-12-04T21:17:06.870-0600"
},
{
"name" : "FTBFConfig_v95",
"assigned" : "2017-12-04T21:41:12.614-0600"
},
{
"name" : "FTBFConfig_v96",
"assigned" : "2017-12-04T22:38:57.212-0600"
},
{
"name" : "FTBFConfig_v97",
"assigned" : "2017-12-04T23:01:07.701-0600"
},
{
"name" : "FTBFConfig_v98",
"assigned" : "2017-12-07T11:07:41.700-0600"
},
{
"name" : "FTBFConfig_v99",
"assigned" : "2017-12-07T11:49:54.418-0600"
},
{
"name" : "FTBFConfig_v100",
"assigned" : "2017-12-07T11:58:21.123-0600"
},
{
"name" : "FTBFConfig_v101",
"assigned" : "2017-12-08T13:30:43.198-0600"
},
{
"name" : "FTBFConfig_v102",
"assigned" : "2017-12-08T13:32:30.090-0600"
},
{
"name" : "FTBFConfig_v103",
"assigned" : "2017-12-12T11:02:59.849-0600"
},
{
"name" : "FTBFConfig_v104",
"assigned" : "2017-12-12T13:50:54.055-0600"
},
{
"name" : "FTBFConfig_v105",
"assigned" : "2017-12-12T15:25:00.075-0600"
},
{
"name" : "FTBFConfig_v106",
"assigned" : "2017-12-13T10:24:18.564-0600"
},
{
"name" : "FTBFConfig_v107",
"assigned" : "2017-12-13T10:26:57.353-0600"
},
{
"name" : "FTBFConfig_v108",
"assigned" : "2018-02-01T21:14:20.587-0600"
},
{
"name" : "FTBFConfig_v109",
"assigned" : "2018-02-01T21:20:57.667-0600"
},
{
"name" : "FTBFConfig_v110",
"assigned" : "2018-02-02T11:25:28.615-0600"
},
{
"name" : "FTBFConfig_v111",
"assigned" : "2018-02-02T11:37:07.441-0600"
},
{
"name" : "FTBFConfig_v112",
"assigned" : "2018-02-02T11:47:09.882-0600"
},
{
"name" : "FTBFConfig_v113",
"assigned" : "2018-02-02T11:53:31.127-0600"
},
{
"name" : "FTBFConfig_v114",
"assigned" : "2018-02-02T12:00:47.178-0600"
},
{
"name" : "FTBFConfig_v115",
"assigned" : "2018-02-02T12:27:08.673-0600"
},
{
"name" : "FTBFConfig_v116",
"assigned" : "2018-02-02T14:28:48.156-0600"
},
{
"name" : "FTBFConfig_v117",
"assigned" : "2018-02-02T14:30:14.506-0600"
},
{
"name" : "FTBFConfig_v118",
"assigned" : "2018-02-02T14:33:55.691-0600"
},
{
"name" : "FTBFConfig_v119",
"assigned" : "2018-02-02T14:36:22.277-0600"
},
{
"name" : "FTBFConfig_v120",
"assigned" : "2018-02-02T14:38:35.639-0600"
},
{
"name" : "FTBFConfig_v121",
"assigned" : "2018-02-02T14:41:44.970-0600"
},
{
"name" : "FTBFConfig_v122",
"assigned" : "2018-02-02T14:50:18.941-0600"
},
{
"name" : "FTBFConfig_v123",
"assigned" : "2018-02-02T14:52:51.815-0600"
},
{
"name" : "FTBFConfig_v124",
"assigned" : "2018-02-02T14:59:45.121-0600"
},
{
"name" : "FTBFConfig_v125",
"assigned" : "2018-02-02T15:04:03.211-0600"
},
{
"name" : "FTBFConfig_v126",
"assigned" : "2018-02-02T15:50:06.420-0600"
},
{
"name" : "FTBFConfig_v127",
"assigned" : "2018-02-02T15:51:25.868-0600"
},
{
"name" : "FTBFConfig_v128",
"assigned" : "2018-02-02T15:52:31.039-0600"
},
{
"name" : "FTBFConfig_v129",
"assigned" : "2018-02-02T16:02:39.917-0600"
},
{
"name" : "FTBFConfig_v130",
"assigned" : "2018-02-02T16:08:39.412-0600"
},
{
"name" : "FTBFConfig_v131",
"assigned" : "2018-02-02T16:11:25.177-0600"
},
{
"name" : "FTBFConfig_v132",
"assigned" : "2018-02-02T16:12:53.036-0600"
},
{
"name" : "FTBFConfig_v133",
"assigned" : "2018-02-02T16:14:23.597-0600"
},
{
"name" : "FTBFConfig_v134",
"assigned" : "2018-02-02T16:26:16.512-0600"
},
{
"name" : "FTBFConfig_v135",
"assigned" : "2018-02-02T16:27:03.607-0600"
},
{
"name" : "FTBFConfig_v136",
"assigned" : "2018-02-02T16:29:24.922-0600"
},
{
"name" : "FTBFConfig_v137",
"assigned" : "2018-02-02T16:31:35.418-0600"
},
{
"name" : "FTBFConfig_v138",
"assigned" : "2018-02-02T16:34:08.151-0600"
},
{
"name" : "FTBFConfig_v139",
"assigned" : "2018-02-02T17:39:24.170-0600"
},
{
"name" : "FTBFConfig_v140",
"assigned" : "2018-02-02T17:42:46.331-0600"
},
{
"name" : "FTBFConfig_v141",
"assigned" : "2018-02-02T17:47:31.487-0600"
},
{
"name" : "FTBFConfig_v142",
"assigned" : "2018-02-02T17:53:55.462-0600"
}
],
"changelog" : "notprovided",
"bookkeeping" : {
"isdeleted" : false,
"isreadonly" : false,
"updates" : [
{
"event" : "addConfiguration",
"timestamp" : "2017-11-15T16:26:26.423-0600",
"value" : {
"name" : "notprovided",
"assigned" : "2017-11-15T16:26:26.423-0600"
}
},
{
"event" : "setVersion",
"timestamp" : "2017-11-15T16:26:26.424-0600",
"value" : {
"name" : "1",
"assigned" : "2017-11-15T16:26:26.424-0600"
}
},
{
"event" : "setCollection",
"timestamp" : "2017-11-15T16:26:26.425-0600",
"value" : {
"name" : "ARTDAQBoardReaderDaqParameterConfiguration",
"assigned" : "2017-11-15T16:26:26.425-0600"
}
},
{
"event" : "addEntity",
"timestamp" : "2017-11-15T16:26:26.427-0600",
"value" : {
"name" : "OTSROOT",
"assigned" : "2017-11-15T16:26:26.427-0600"
}
},
{
"event" : "addConfiguration",
"timestamp" : "2017-11-15T16:26:28.328-0600",
"value" : {
"name" : "FTBFConfig_v20",
"assigned" : "2017-11-15T16:26:28.328-0600"
}
},
{
"event" : "addConfiguration",
"timestamp" : "2017-11-16T09:22:29.512-0600",
"value" : {
"name" : "FTBFConfig_v21",
"assigned" : "2017-11-16T09:22:29.512-0600"
}
},
{
"event" : "addConfiguration",
"timestamp" : "2017-11-17T10:23:25.672-0600",
"value" : {
"name" : "FTBFConfig_v22",
"assigned" : "2017-11-17T10:23:25.672-0600"
}
},
{
"event" : "addConfiguration",
"timestamp" : "2017-11-17T17:26:43.189-0600",
"value" : {
"name" : "FTBFConfig_v23",
"assigned" : "2017-11-17T17:26:43.189-0600"
}
},
{
"event" : "addConfiguration",
"timestamp" : "2017-11-17T17:58:23.591-0600",
"value" : {
"name" : "FTBFConfig_v24",
"assigned" : "2017-11-17T17:58:23.591-0600"
}
},
{
"event" : "addConfiguration",
"timestamp" : "2017-11-17T18:24:43.282-0600",
"value" : {
"name" : "FTBFConfig_v25",
"assigned" : "2017-11-17T18:24:43.281-0600"
}
},
{
"event" : "addConfiguration",
"timestamp" : "2017-11-17T18:32:19.998-0600",
"value" : {
"name" : "FTBFConfig_v26",
"assigned" : "2017-11-17T18:32:19.998-0600"
}
},
{
"event" : "addConfiguration",
"timestamp" : "2017-11-17T18:43:27.123-0600",
"value" : {
"name" : "FTBFConfig_v27",
"assigned" : "2017-11-17T18:43:27.123-0600"
}
},
{
"event" : "addConfiguration",
"timestamp" : "2017-11-17T18:48:29.132-0600",
"value" : {
"name" : "FTBFConfig_v28",
"assigned" : "2017-11-17T18:48:29.132-0600"
}
},
{
"event" : "addConfiguration",
"timestamp" : "2017-11-20T14:48:28.502-0600",
"value" : {
"name" : "FTBFConfig_v29",
"assigned" : "2017-11-20T14:48:28.502-0600"
}
},
{
"event" : "addConfiguration",
"timestamp" : "2017-11-20T15:39:53.761-0600",
"value" : {
"name" : "FTBFConfig_v30",
"assigned" : "2017-11-20T15:39:53.761-0600"
}
},
{
"event" : "addConfiguration",
"timestamp" : "2017-11-20T16:40:59.732-0600",
"value" : {
"name" : "FTBFConfig_v31",
"assigned" : "2017-11-20T16:40:59.732-0600"
}
},
{
"event" : "addConfiguration",
"timestamp" : "2017-11-20T18:55:32.524-0600",
"value" : {
"name" : "FTBFConfig_v32",
"assigned" : "2017-11-20T18:55:32.524-0600"
}
},
{
"event" : "addConfiguration",
"timestamp" : "2017-11-20T18:57:27.796-0600",
"value" : {
"name" : "FTBFConfig_v33",
"assigned" : "2017-11-20T18:57:27.796-0600"
}
},
{
"event" : "addConfiguration",
"timestamp" : "2017-11-29T17:50:37.281-0600",
"value" : {
"name" : "FTBFConfig_v34",
"assigned" : "2017-11-29T17:50:37.281-0600"
}
},
{
"event" : "addConfiguration",
"timestamp" : "2017-11-29T18:00:30.149-0600",
"value" : {
"name" : "FTBFConfig_v35",
"assigned" : "2017-11-29T18:00:30.149-0600"
}
},
{
"event" : "addConfiguration",
"timestamp" : "2017-11-29T18:35:09.014-0600",
"value" : {
"name" : "FTBFConfig_v36",
"assigned" : "2017-11-29T18:35:09.014-0600"
}
},
{
"event" : "addConfiguration",
"timestamp" : "2017-12-01T09:36:15.172-0600",
"value" : {
"name" : "FTBFConfig_v37",
"assigned" : "2017-12-01T09:36:15.172-0600"
}
},
{
"event" : "addConfiguration",
"timestamp" : "2017-12-01T09:51:58.512-0600",
"value" : {
"name" : "FTBFConfig_v38",
"assigned" : "2017-12-01T09:51:58.512-0600"
}
},
{
"event" : "addConfiguration",
"timestamp" : "2017-12-01T11:51:55.755-0600",
"value" : {
"name" : "FTBFConfig_v39",
"assigned" : "2017-12-01T11:51:55.755-0600"
}
},
{
"event" : "addConfiguration",
"timestamp" : "2017-12-01T12:18:17.724-0600",
"value" : {
"name" : "FTBFConfig_v40",
"assigned" : "2017-12-01T12:18:17.724-0600"
}
},
{
"event" : "addConfiguration",
"timestamp" : "2017-12-01T12:20:59.827-0600",
"value" : {
"name" : "FTBFConfig_v41",
"assigned" : "2017-12-01T12:20:59.827-0600"
}
},
{
"event" : "addConfiguration",
"timestamp" : "2017-12-01T12:43:18.940-0600",
"value" : {
"name" : "FTBFConfig_v42",
"assigned" : "2017-12-01T12:43:18.940-0600"
}
},
{
"event" : "addConfiguration",
"timestamp" : "2017-12-01T12:57:55.718-0600",
"value" : {
"name" : "FTBFConfig_v43",
"assigned" : "2017-12-01T12:57:55.718-0600"
}
},
{
"event" : "addConfiguration",
"timestamp" : "2017-12-01T13:00:48.152-0600",
"value" : {
"name" : "FTBFConfig_v44",
"assigned" : "2017-12-01T13:00:48.152-0600"
}
},
{
"event" : "addConfiguration",
"timestamp" : "2017-12-01T13:25:45.779-0600",
"value" : {
"name" : "FTBFConfig_v45",
"assigned" : "2017-12-01T13:25:45.779-0600"
}
},
{
"event" : "addConfiguration",
"timestamp" : "2017-12-01T13:35:40.609-0600",
"value" : {
"name" : "FTBFConfig_v46",
"assigned" : "2017-12-01T13:35:40.609-0600"
}
},
{
"event" : "addConfiguration",
"timestamp" : "2017-12-01T14:00:49.047-0600",
"value" : {
"name" : "FTBFConfig_v47",
"assigned" : "2017-12-01T14:00:49.047-0600"
}
},
{
"event" : "addConfiguration",
"timestamp" : "2017-12-01T14:03:56.300-0600",
"value" : {
"name" : "FTBFConfig_v48",
"assigned" : "2017-12-01T14:03:56.300-0600"
}
},
{
"event" : "addConfiguration",
"timestamp" : "2017-12-01T15:31:56.494-0600",
"value" : {
"name" : "FTBFConfig_v49",
"assigned" : "2017-12-01T15:31:56.494-0600"
}
},
{
"event" : "addConfiguration",
"timestamp" : "2017-12-01T15:34:38.370-0600",
"value" : {
"name" : "FTBFConfig_v50",
"assigned" : "2017-12-01T15:34:38.370-0600"
}
},
{
"event" : "addConfiguration",
"timestamp" : "2017-12-01T15:36:17.884-0600",
"value" : {
"name" : "FTBFConfig_v51",
"assigned" : "2017-12-01T15:36:17.884-0600"
}
},
{
"event" : "addConfiguration",
"timestamp" : "2017-12-01T15:37:27.098-0600",
"value" : {
"name" : "FTBFConfig_v52",
"assigned" : "2017-12-01T15:37:27.097-0600"
}
},
{
"event" : "addConfiguration",
"timestamp" : "2017-12-01T15:40:56.014-0600",
"value" : {
"name" : "FTBFConfig_v53",
"assigned" : "2017-12-01T15:40:56.014-0600"
}
},
{
"event" : "addConfiguration",
"timestamp" : "2017-12-01T15:52:46.324-0600",
"value" : {
"name" : "FTBFConfig_v54",
"assigned" : "2017-12-01T15:52:46.324-0600"
}
},
{
"event" : "addConfiguration",
"timestamp" : "2017-12-01T15:54:31.445-0600",
"value" : {
"name" : "FTBFConfig_v55",
"assigned" : "2017-12-01T15:54:31.445-0600"
}
},
{
"event" : "addConfiguration",
"timestamp" : "2017-12-01T15:55:30.964-0600",
"value" : {
"name" : "FTBFConfig_v56",
"assigned" : "2017-12-01T15:55:30.963-0600"
}
},
{
"event" : "addConfiguration",
"timestamp" : "2017-12-01T15:56:36.746-0600",
"value" : {
"name" : "FTBFConfig_v57",
"assigned" : "2017-12-01T15:56:36.746-0600"
}
},
{
"event" : "addConfiguration",
"timestamp" : "2017-12-01T15:57:34.820-0600",
"value" : {
"name" : "FTBFConfig_v58",
"assigned" : "2017-12-01T15:57:34.820-0600"
}
},
{
"event" : "addConfiguration",
"timestamp" : "2017-12-01T15:58:26.714-0600",
"value" : {
"name" : "FTBFConfig_v59",
"assigned" : "2017-12-01T15:58:26.714-0600"
}
},
{
"event" : "addConfiguration",
"timestamp" : "2017-12-01T15:59:27.902-0600",
"value" : {
"name" : "FTBFConfig_v60",
"assigned" : "2017-12-01T15:59:27.902-0600"
}
},
{
"event" : "addConfiguration",
"timestamp" : "2017-12-01T16:19:37.600-0600",
"value" : {
"name" : "FTBFConfig_v61",
"assigned" : "2017-12-01T16:19:37.600-0600"
}
},
{
"event" : "addConfiguration",
"timestamp" : "2017-12-01T16:22:00.155-0600",
"value" : {
"name" : "FTBFConfig_v62",
"assigned" : "2017-12-01T16:22:00.155-0600"
}
},
{
"event" : "addConfiguration",
"timestamp" : "2017-12-01T16:31:20.752-0600",
"value" : {
"name" : "FTBFConfig_v63",
"assigned" : "2017-12-01T16:31:20.752-0600"
}
},
{
"event" : "addConfiguration",
"timestamp" : "2017-12-01T17:06:27.578-0600",
"value" : {
"name" : "FTBFConfig_v64",
"assigned" : "2017-12-01T17:06:27.577-0600"
}
},
{
"event" : "addConfiguration",
"timestamp" : "2017-12-01T17:32:39.914-0600",
"value" : {
"name" : "FTBFConfig_v65",
"assigned" : "2017-12-01T17:32:39.914-0600"
}
},
{
"event" : "addConfiguration",
"timestamp" : "2017-12-01T20:38:46.346-0600",
"value" : {
"name" : "FTBFConfig_v66",
"assigned" : "2017-12-01T20:38:46.346-0600"
}
},
{
"event" : "addConfiguration",
"timestamp" : "2017-12-01T21:24:57.813-0600",
"value" : {
"name" : "FTBFConfig_v67",
"assigned" : "2017-12-01T21:24:57.813-0600"
}
},
{
"event" : "addConfiguration",
"timestamp" : "2017-12-01T21:42:57.457-0600",
"value" : {
"name" : "FTBFConfig_v68",
"assigned" : "2017-12-01T21:42:57.457-0600"
}
},
{
"event" : "addConfiguration",
"timestamp" : "2017-12-01T21:44:56.060-0600",
"value" : {
"name" : "FTBFConfig_v69",
"assigned" : "2017-12-01T21:44:56.060-0600"
}
},
{
"event" : "addConfiguration",
"timestamp" : "2017-12-01T21:59:15.281-0600",
"value" : {
"name" : "FTBFConfig_v70",
"assigned" : "2017-12-01T21:59:15.281-0600"
}
},
{
"event" : "addConfiguration",
"timestamp" : "2017-12-01T22:00:01.991-0600",
"value" : {
"name" : "FTBFConfigNim_v0",
"assigned" : "2017-12-01T22:00:01.991-0600"
}
},
{
"event" : "addConfiguration",
"timestamp" : "2017-12-01T22:13:03.708-0600",
"value" : {
"name" : "FTBFConfigNim_v1",
"assigned" : "2017-12-01T22:13:03.708-0600"
}
},
{
"event" : "addConfiguration",
"timestamp" : "2017-12-01T22:15:50.923-0600",
"value" : {
"name" : "FTBFConfigNim_v2",
"assigned" : "2017-12-01T22:15:50.923-0600"
}
},
{
"event" : "addConfiguration",
"timestamp" : "2017-12-01T22:16:58.875-0600",
"value" : {
"name" : "FTBFConfigNim_v3",
"assigned" : "2017-12-01T22:16:58.875-0600"
}
},
{
"event" : "addConfiguration",
"timestamp" : "2017-12-01T22:19:01.981-0600",
"value" : {
"name" : "FTBFConfigNim_v4",
"assigned" : "2017-12-01T22:19:01.981-0600"
}
},
{
"event" : "addConfiguration",
"timestamp" : "2017-12-01T22:21:52.662-0600",
"value" : {
"name" : "FTBFConfigNim_v5",
"assigned" : "2017-12-01T22:21:52.662-0600"
}
},
{
"event" : "addConfiguration",
"timestamp" : "2017-12-01T22:23:08.369-0600",
"value" : {
"name" : "FTBFConfigNim_v6",
"assigned" : "2017-12-01T22:23:08.368-0600"
}
},
{
"event" : "addConfiguration",
"timestamp" : "2017-12-01T22:25:12.585-0600",
"value" : {
"name" : "FTBFConfigNim_v7",
"assigned" : "2017-12-01T22:25:12.585-0600"
}
},
{
"event" : "addConfiguration",
"timestamp" : "2017-12-01T22:27:00.113-0600",
"value" : {
"name" : "FTBFConfigNim_v8",
"assigned" : "2017-12-01T22:27:00.113-0600"
}
},
{
"event" : "addConfiguration",
"timestamp" : "2017-12-01T22:29:24.401-0600",
"value" : {
"name" : "FTBFConfigNim_v9",
"assigned" : "2017-12-01T22:29:24.401-0600"
}
},
{
"event" : "addConfiguration",
"timestamp" : "2017-12-01T22:52:29.499-0600",
"value" : {
"name" : "FTBFConfigNim_v10",
"assigned" : "2017-12-01T22:52:29.499-0600"
}
},
{
"event" : "addConfiguration",
"timestamp" : "2017-12-01T22:57:24.203-0600",
"value" : {
"name" : "FTBFConfigNim_v11",
"assigned" : "2017-12-01T22:57:24.203-0600"
}
},
{
"event" : "addConfiguration",
"timestamp" : "2017-12-01T23:00:02.546-0600",
"value" : {
"name" : "FTBFConfigNim_v12",
"assigned" : "2017-12-01T23:00:02.546-0600"
}
},
{
"event" : "addConfiguration",
"timestamp" : "2017-12-01T23:52:30.651-0600",
"value" : {
"name" : "FTBFConfigNim_v13",
"assigned" : "2017-12-01T23:52:30.651-0600"
}
},
{
"event" : "addConfiguration",
"timestamp" : "2017-12-01T23:58:05.032-0600",
"value" : {
"name" : "FTBFConfigNim_v14",
"assigned" : "2017-12-01T23:58:05.031-0600"
}
},
{
"event" : "addConfiguration",
"timestamp" : "2017-12-02T00:00:29.307-0600",
"value" : {
"name" : "FTBFConfigNim_v15",
"assigned" : "2017-12-02T00:00:29.307-0600"
}
},
{
"event" : "addConfiguration",
"timestamp" : "2017-12-02T00:13:04.401-0600",
"value" : {
"name" : "FTBFConfigNim_v16",
"assigned" : "2017-12-02T00:13:04.401-0600"
}
},
{
"event" : "addConfiguration",
"timestamp" : "2017-12-02T00:28:23.399-0600",
"value" : {
"name" : "FTBFConfigNim_v17",
"assigned" : "2017-12-02T00:28:23.399-0600"
}
},
{
"event" : "addConfiguration",
"timestamp" : "2017-12-02T00:29:29.430-0600",
"value" : {
"name" : "FTBFConfigNim_v18",
"assigned" : "2017-12-02T00:29:29.430-0600"
}
},
{
"event" : "addConfiguration",
"timestamp" : "2017-12-02T00:31:05.801-0600",
"value" : {
"name" : "FTBFConfigNim_v19",
"assigned" : "2017-12-02T00:31:05.801-0600"
}
},
{
"event" : "addConfiguration",
"timestamp" : "2017-12-02T00:57:22.407-0600",
"value" : {
"name" : "FTBFConfigNim_v20",
"assigned" : "2017-12-02T00:57:22.407-0600"
}
},
{
"event" : "addConfiguration",
"timestamp" : "2017-12-02T10:57:56.943-0600",
"value" : {
"name" : "FTBFConfigNim_v21",
"assigned" : "2017-12-02T10:57:56.943-0600"
}
},
{
"event" : "addConfiguration",
"timestamp" : "2017-12-02T11:08:13.106-0600",
"value" : {
"name" : "FTBFConfigNim_v22",
"assigned" : "2017-12-02T11:08:13.106-0600"
}
},
{
"event" : "addConfiguration",
"timestamp" : "2017-12-02T11:12:34.652-0600",
"value" : {
"name" : "FTBFConfigNim_v23",
"assigned" : "2017-12-02T11:12:34.651-0600"
}
},
{
"event" : "addConfiguration",
"timestamp" : "2017-12-02T11:18:37.472-0600",
"value" : {
"name" : "FTBFConfigNim_v24",
"assigned" : "2017-12-02T11:18:37.472-0600"
}
},
{
"event" : "addConfiguration",
"timestamp" : "2017-12-02T11:27:00.692-0600",
"value" : {
"name" : "FTBFConfigNim_v25",
"assigned" : "2017-12-02T11:27:00.691-0600"
}
},
{
"event" : "addConfiguration",
"timestamp" : "2017-12-02T11:38:31.733-0600",
"value" : {
"name" : "FTBFConfigNim_v26",
"assigned" : "2017-12-02T11:38:31.732-0600"
}
},
{
"event" : "addConfiguration",
"timestamp" : "2017-12-02T11:49:02.835-0600",
"value" : {
"name" : "FTBFConfigNim_v27",
"assigned" : "2017-12-02T11:49:02.835-0600"
}
},
{
"event" : "addConfiguration",
"timestamp" : "2017-12-02T11:55:04.297-0600",
"value" : {
"name" : "FTBFConfigNim_v28",
"assigned" : "2017-12-02T11:55:04.297-0600"
}
},
{
"event" : "addConfiguration",
"timestamp" : "2017-12-02T12:06:21.114-0600",
"value" : {
"name" : "FTBFConfigNim_v29",
"assigned" : "2017-12-02T12:06:21.114-0600"
}
},
{
"event" : "addConfiguration",
"timestamp" : "2017-12-02T12:24:09.740-0600",
"value" : {
"name" : "FTBFConfig_v71",
"assigned" : "2017-12-02T12:24:09.739-0600"
}
},
{
"event" : "addConfiguration",
"timestamp" : "2017-12-02T12:43:30.503-0600",
"value" : {
"name" : "FTBFConfig_v72",
"assigned" : "2017-12-02T12:43:30.503-0600"
}
},
{
"event" : "addConfiguration",
"timestamp" : "2017-12-02T13:55:30.063-0600",
"value" : {
"name" : "FTBFConfig_v73",
"assigned" : "2017-12-02T13:55:30.063-0600"
}
},
{
"event" : "addConfiguration",
"timestamp" : "2017-12-02T14:09:02.341-0600",
"value" : {
"name" : "FTBFConfig_v74",
"assigned" : "2017-12-02T14:09:02.341-0600"
}
},
{
"event" : "addConfiguration",
"timestamp" : "2017-12-02T14:12:13.199-0600",
"value" : {
"name" : "FTBFConfig_v75",
"assigned" : "2017-12-02T14:12:13.199-0600"
}
},
{
"event" : "addConfiguration",
"timestamp" : "2017-12-02T19:05:48.323-0600",
"value" : {
"name" : "FTBFConfig_v76",
"assigned" : "2017-12-02T19:05:48.323-0600"
}
},
{
"event" : "addConfiguration",
"timestamp" : "2017-12-02T19:12:08.109-0600",
"value" : {
"name" : "FTBFConfig_v77",
"assigned" : "2017-12-02T19:12:08.109-0600"
}
},
{
"event" : "addConfiguration",
"timestamp" : "2017-12-03T14:03:43.298-0600",
"value" : {
"name" : "FTBFConfig_v78",
"assigned" : "2017-12-03T14:03:43.298-0600"
}
},
{
"event" : "addConfiguration",
"timestamp" : "2017-12-03T14:09:01.458-0600",
"value" : {
"name" : "FTBFConfig_v79",
"assigned" : "2017-12-03T14:09:01.458-0600"
}
},
{
"event" : "addConfiguration",
"timestamp" : "2017-12-03T14:11:05.217-0600",
"value" : {
"name" : "FTBFConfig_v80",
"assigned" : "2017-12-03T14:11:05.217-0600"
}
},
{
"event" : "addConfiguration",
"timestamp" : "2017-12-03T14:22:28.249-0600",
"value" : {
"name" : "FTBFConfig_v81",
"assigned" : "2017-12-03T14:22:28.249-0600"
}
},
{
"event" : "addConfiguration",
"timestamp" : "2017-12-03T14:40:33.007-0600",
"value" : {
"name" : "FTBFConfig_v82",
"assigned" : "2017-12-03T14:40:33.007-0600"
}
},
{
"event" : "addConfiguration",
"timestamp" : "2017-12-03T14:45:00.291-0600",
"value" : {
"name" : "FTBFConfig_v83",
"assigned" : "2017-12-03T14:45:00.290-0600"
}
},
{
"event" : "addConfiguration",
"timestamp" : "2017-12-04T14:51:25.763-0600",
"value" : {
"name" : "FTBFConfig_v84",
"assigned" : "2017-12-04T14:51:25.763-0600"
}
},
{
"event" : "addConfiguration",
"timestamp" : "2017-12-04T14:55:38.883-0600",
"value" : {
"name" : "FTBFConfig_v85",
"assigned" : "2017-12-04T14:55:38.883-0600"
}
},
{
"event" : "addConfiguration",
"timestamp" : "2017-12-04T16:51:01.838-0600",
"value" : {
"name" : "FTBFConfig_v86",
"assigned" : "2017-12-04T16:51:01.838-0600"
}
},
{
"event" : "addConfiguration",
"timestamp" : "2017-12-04T16:56:42.463-0600",
"value" : {
"name" : "FTBFConfig_v87",
"assigned" : "2017-12-04T16:56:42.462-0600"
}
},
{
"event" : "addConfiguration",
"timestamp" : "2017-12-04T17:01:07.156-0600",
"value" : {
"name" : "FTBFConfig_v88",
"assigned" : "2017-12-04T17:01:07.156-0600"
}
},
{
"event" : "addConfiguration",
"timestamp" : "2017-12-04T17:03:52.217-0600",
"value" : {
"name" : "FTBFConfig_v89",
"assigned" : "2017-12-04T17:03:52.217-0600"
}
},
{
"event" : "addConfiguration",
"timestamp" : "2017-12-04T17:07:11.854-0600",
"value" : {
"name" : "FTBFConfig_v90",
"assigned" : "2017-12-04T17:07:11.854-0600"
}
},
{
"event" : "addConfiguration",
"timestamp" : "2017-12-04T17:09:20.966-0600",
"value" : {
"name" : "FTBFConfig_v91",
"assigned" : "2017-12-04T17:09:20.966-0600"
}
},
{
"event" : "addConfiguration",
"timestamp" : "2017-12-04T17:11:33.410-0600",
"value" : {
"name" : "FTBFConfig_v92",
"assigned" : "2017-12-04T17:11:33.410-0600"
}
},
{
"event" : "addConfiguration",
"timestamp" : "2017-12-04T21:05:16.040-0600",
"value" : {
"name" : "FTBFConfig_v93",
"assigned" : "2017-12-04T21:05:16.040-0600"
}
},
{
"event" : "addConfiguration",
"timestamp" : "2017-12-04T21:17:06.870-0600",
"value" : {
"name" : "FTBFConfig_v94",
"assigned" : "2017-12-04T21:17:06.870-0600"
}
},
{
"event" : "addConfiguration",
"timestamp" : "2017-12-04T21:41:12.614-0600",
"value" : {
"name" : "FTBFConfig_v95",
"assigned" : "2017-12-04T21:41:12.614-0600"
}
},
{
"event" : "addConfiguration",
"timestamp" : "2017-12-04T22:38:57.212-0600",
"value" : {
"name" : "FTBFConfig_v96",
"assigned" : "2017-12-04T22:38:57.212-0600"
}
},
{
"event" : "addConfiguration",
"timestamp" : "2017-12-04T23:01:07.701-0600",
"value" : {
"name" : "FTBFConfig_v97",
"assigned" : "2017-12-04T23:01:07.701-0600"
}
},
{
"event" : "addConfiguration",
"timestamp" : "2017-12-07T11:07:41.700-0600",
"value" : {
"name" : "FTBFConfig_v98",
"assigned" : "2017-12-07T11:07:41.700-0600"
}
},
{
"event" : "addConfiguration",
"timestamp" : "2017-12-07T11:49:54.418-0600",
"value" : {
"name" : "FTBFConfig_v99",
"assigned" : "2017-12-07T11:49:54.418-0600"
}
},
{
"event" : "addConfiguration",
"timestamp" : "2017-12-07T11:58:21.123-0600",
"value" : {
"name" : "FTBFConfig_v100",
"assigned" : "2017-12-07T11:58:21.123-0600"
}
},
{
"event" : "addConfiguration",
"timestamp" : "2017-12-08T13:30:43.198-0600",
"value" : {
"name" : "FTBFConfig_v101",
"assigned" : "2017-12-08T13:30:43.198-0600"
}
},
{
"event" : "addConfiguration",
"timestamp" : "2017-12-08T13:32:30.090-0600",
"value" : {
"name" : "FTBFConfig_v102",
"assigned" : "2017-12-08T13:32:30.090-0600"
}
},
{
"event" : "addConfiguration",
"timestamp" : "2017-12-12T11:02:59.849-0600",
"value" : {
"name" : "FTBFConfig_v103",
"assigned" : "2017-12-12T11:02:59.849-0600"
}
},
{
"event" : "addConfiguration",
"timestamp" : "2017-12-12T13:50:54.055-0600",
"value" : {
"name" : "FTBFConfig_v104",
"assigned" : "2017-12-12T13:50:54.055-0600"
}
},
{
"event" : "addConfiguration",
"timestamp" : "2017-12-12T15:25:00.076-0600",
"value" : {
"name" : "FTBFConfig_v105",
"assigned" : "2017-12-12T15:25:00.075-0600"
}
},
{
"event" : "addConfiguration",
"timestamp" : "2017-12-13T10:24:18.564-0600",
"value" : {
"name" : "FTBFConfig_v106",
"assigned" : "2017-12-13T10:24:18.564-0600"
}
},
{
"event" : "addConfiguration",
"timestamp" : "2017-12-13T10:26:57.353-0600",
"value" : {
"name" : "FTBFConfig_v107",
"assigned" : "2017-12-13T10:26:57.353-0600"
}
},
{
"event" : "addConfiguration",
"timestamp" : "2018-02-01T21:14:20.587-0600",
"value" : {
"name" : "FTBFConfig_v108",
"assigned" : "2018-02-01T21:14:20.587-0600"
}
},
{
"event" : "addConfiguration",
"timestamp" : "2018-02-01T21:20:57.668-0600",
"value" : {
"name" : "FTBFConfig_v109",
"assigned" : "2018-02-01T21:20:57.667-0600"
}
},
{
"event" : "addConfiguration",
"timestamp" : "2018-02-02T11:25:28.615-0600",
"value" : {
"name" : "FTBFConfig_v110",
"assigned" : "2018-02-02T11:25:28.615-0600"
}
},
{
"event" : "addConfiguration",
"timestamp" : "2018-02-02T11:37:07.442-0600",
"value" : {
"name" : "FTBFConfig_v111",
"assigned" : "2018-02-02T11:37:07.441-0600"
}
},
{
"event" : "addConfiguration",
"timestamp" : "2018-02-02T11:47:09.882-0600",
"value" : {
"name" : "FTBFConfig_v112",
"assigned" : "2018-02-02T11:47:09.882-0600"
}
},
{
"event" : "addConfiguration",
"timestamp" : "2018-02-02T11:53:31.127-0600",
"value" : {
"name" : "FTBFConfig_v113",
"assigned" : "2018-02-02T11:53:31.127-0600"
}
},
{
"event" : "addConfiguration",
"timestamp" : "2018-02-02T12:00:47.178-0600",
"value" : {
"name" : "FTBFConfig_v114",
"assigned" : "2018-02-02T12:00:47.178-0600"
}
},
{
"event" : "addConfiguration",
"timestamp" : "2018-02-02T12:27:08.673-0600",
"value" : {
"name" : "FTBFConfig_v115",
"assigned" : "2018-02-02T12:27:08.673-0600"
}
},
{
"event" : "addConfiguration",
"timestamp" : "2018-02-02T14:28:48.157-0600",
"value" : {
"name" : "FTBFConfig_v116",
"assigned" : "2018-02-02T14:28:48.156-0600"
}
},
{
"event" : "addConfiguration",
"timestamp" : "2018-02-02T14:30:14.506-0600",
"value" : {
"name" : "FTBFConfig_v117",
"assigned" : "2018-02-02T14:30:14.506-0600"
}
},
{
"event" : "addConfiguration",
"timestamp" : "2018-02-02T14:33:55.691-0600",
"value" : {
"name" : "FTBFConfig_v118",
"assigned" : "2018-02-02T14:33:55.691-0600"
}
},
{
"event" : "addConfiguration",
"timestamp" : "2018-02-02T14:36:22.277-0600",
"value" : {
"name" : "FTBFConfig_v119",
"assigned" : "2018-02-02T14:36:22.277-0600"
}
},
{
"event" : "addConfiguration",
"timestamp" : "2018-02-02T14:38:35.640-0600",
"value" : {
"name" : "FTBFConfig_v120",
"assigned" : "2018-02-02T14:38:35.639-0600"
}
},
{
"event" : "addConfiguration",
"timestamp" : "2018-02-02T14:41:44.970-0600",
"value" : {
"name" : "FTBFConfig_v121",
"assigned" : "2018-02-02T14:41:44.970-0600"
}
},
{
"event" : "addConfiguration",
"timestamp" : "2018-02-02T14:50:18.941-0600",
"value" : {
"name" : "FTBFConfig_v122",
"assigned" : "2018-02-02T14:50:18.941-0600"
}
},
{
"event" : "addConfiguration",
"timestamp" : "2018-02-02T14:52:51.815-0600",
"value" : {
"name" : "FTBFConfig_v123",
"assigned" : "2018-02-02T14:52:51.815-0600"
}
},
{
"event" : "addConfiguration",
"timestamp" : "2018-02-02T14:59:45.121-0600",
"value" : {
"name" : "FTBFConfig_v124",
"assigned" : "2018-02-02T14:59:45.121-0600"
}
},
{
"event" : "addConfiguration",
"timestamp" : "2018-02-02T15:04:03.212-0600",
"value" : {
"name" : "FTBFConfig_v125",
"assigned" : "2018-02-02T15:04:03.211-0600"
}
},
{
"event" : "addConfiguration",
"timestamp" : "2018-02-02T15:50:06.420-0600",
"value" : {
"name" : "FTBFConfig_v126",
"assigned" : "2018-02-02T15:50:06.420-0600"
}
},
{
"event" : "addConfiguration",
"timestamp" : "2018-02-02T15:51:25.868-0600",
"value" : {
"name" : "FTBFConfig_v127",
"assigned" : "2018-02-02T15:51:25.868-0600"
}
},
{
"event" : "addConfiguration",
"timestamp" : "2018-02-02T15:52:31.039-0600",
"value" : {
"name" : "FTBFConfig_v128",
"assigned" : "2018-02-02T15:52:31.039-0600"
}
},
{
"event" : "addConfiguration",
"timestamp" : "2018-02-02T16:02:39.917-0600",
"value" : {
"name" : "FTBFConfig_v129",
"assigned" : "2018-02-02T16:02:39.917-0600"
}
},
{
"event" : "addConfiguration",
"timestamp" : "2018-02-02T16:08:39.413-0600",
"value" : {
"name" : "FTBFConfig_v130",
"assigned" : "2018-02-02T16:08:39.412-0600"
}
},
{
"event" : "addConfiguration",
"timestamp" : "2018-02-02T16:11:25.178-0600",
"value" : {
"name" : "FTBFConfig_v131",
"assigned" : "2018-02-02T16:11:25.177-0600"
}
},
{
"event" : "addConfiguration",
"timestamp" : "2018-02-02T16:12:53.036-0600",
"value" : {
"name" : "FTBFConfig_v132",
"assigned" : "2018-02-02T16:12:53.036-0600"
}
},
{
"event" : "addConfiguration",
"timestamp" : "2018-02-02T16:14:23.597-0600",
"value" : {
"name" : "FTBFConfig_v133",
"assigned" : "2018-02-02T16:14:23.597-0600"
}
},
{
"event" : "addConfiguration",
"timestamp" : "2018-02-02T16:26:16.512-0600",
"value" : {
"name" : "FTBFConfig_v134",
"assigned" : "2018-02-02T16:26:16.512-0600"
}
},
{
"event" : "addConfiguration",
"timestamp" : "2018-02-02T16:27:03.608-0600",
"value" : {
"name" : "FTBFConfig_v135",
"assigned" : "2018-02-02T16:27:03.607-0600"
}
},
{
"event" : "addConfiguration",
"timestamp" : "2018-02-02T16:29:24.922-0600",
"value" : {
"name" : "FTBFConfig_v136",
"assigned" : "2018-02-02T16:29:24.922-0600"
}
},
{
"event" : "addConfiguration",
"timestamp" : "2018-02-02T16:31:35.418-0600",
"value" : {
"name" : "FTBFConfig_v137",
"assigned" : "2018-02-02T16:31:35.418-0600"
}
},
{
"event" : "addConfiguration",
"timestamp" : "2018-02-02T16:34:08.151-0600",
"value" : {
"name" : "FTBFConfig_v138",
"assigned" : "2018-02-02T16:34:08.151-0600"
}
},
{
"event" : "addConfiguration",
"timestamp" : "2018-02-02T17:39:24.170-0600",
"value" : {
"name" : "FTBFConfig_v139",
"assigned" : "2018-02-02T17:39:24.170-0600"
}
},
{
"event" : "addConfiguration",
"timestamp" : "2018-02-02T17:42:46.331-0600",
"value" : {
"name" : "FTBFConfig_v140",
"assigned" : "2018-02-02T17:42:46.331-0600"
}
},
{
"event" : "addConfiguration",
"timestamp" : "2018-02-02T17:47:31.487-0600",
"value" : {
"name" : "FTBFConfig_v141",
"assigned" : "2018-02-02T17:47:31.487-0600"
}
},
{
"event" : "addConfiguration",
"timestamp" : "2018-02-02T17:53:55.462-0600",
"value" : {
"name" : "FTBFConfig_v142",
"assigned" : "2018-02-02T17:53:55.462-0600"
}
}
],
"created" : "2017-11-15T16:26:26.420-0600"
},
"_id" : {
"$oid" : "33fdf7bff510456fa971dd10"
},
"collection" : "ARTDAQBoardReaderDaqParameterConfiguration",
"aliases" : {
"active" : [

],
"history" : [

]
},
"runs" : [

],
"attachments" : [

],
"configtype" : "notprovided"
}