{
"document" : {
"data" : {
"NAME" : "XDAQ_CONTEXT_TABLE",
"COMMENT" : "Default simplest Outer Tracker table",
"AUTHOR" : "admin",
"CREATION_TIME" : 1599597524,
"COL_TYPES" : {
"CONTEXT_UID" : "STRING",
"STATUS" : "STRING",
"ID" : "NUMBER",
"ADDRESS" : "STRING",
"PORT" : "NUMBER",
"LINK_TO_APPLICATION_TABLE" : "STRING",
"LINK_TO_APPLICATION_GROUP_ID" : "STRING",
"COMMENT_DESCRIPTION" : "STRING",
"AUTHOR" : "STRING",
"RECORD_INSERTION_TIME" : "TIMESTAMP WITH TIMEZONE"
},
"DATA_SET" : [
{
"CONTEXT_UID" : "MainContext",
"STATUS" : "On",
"ID" : "0",
"ADDRESS" : "http://${HOSTNAME}",
"PORT" : "2015",
"LINK_TO_APPLICATION_TABLE" : "XDAQApplicationTable",
"LINK_TO_APPLICATION_GROUP_ID" : "MainContextApps",
"COMMENT_DESCRIPTION" : "main context",
"AUTHOR" : "admin",
"RECORD_INSERTION_TIME" : "1574201096"
},
{
"CONTEXT_UID" : "OuterTrackerContext",
"STATUS" : "On",
"ID" : "0",
"ADDRESS" : "http://${HOSTNAME}",
"PORT" : "2020",
"LINK_TO_APPLICATION_TABLE" : "XDAQApplicationTable",
"LINK_TO_APPLICATION_GROUP_ID" : "OuterTrackerContextApp",
"COMMENT_DESCRIPTION" : "No Comment",
"AUTHOR" : "admin",
"RECORD_INSERTION_TIME" : "1599597491"
},
{
"CONTEXT_UID" : "TestContext",
"STATUS" : "Off",
"ID" : "0",
"ADDRESS" : "http://${HOSTNAME}",
"PORT" : "2021",
"LINK_TO_APPLICATION_TABLE" : "XDAQApplicationTable",
"LINK_TO_APPLICATION_GROUP_ID" : "TestContextApps",
"COMMENT_DESCRIPTION" : "No Comment",
"AUTHOR" : "admin",
"RECORD_INSERTION_TIME" : "1599597487"
}
]
},
"metadata" : {

},
"search" : [

]
},
"comments" : [

],
"origin" : {
"source" : "template",
"name" : "notprovided",
"format" : "json",
"created" : "2020-09-08T15:38:44.150-0500",
"rawdata" : [

]
},
"version" : "2",
"entities" : [
{
"name" : "OTSROOT",
"assigned" : "2020-09-08T15:38:44.151-0500"
}
],
"configurations" : [
{
"name" : "notprovided",
"assigned" : "2020-09-08T15:38:44.151-0500"
},
{
"name" : "DefaultContext_v3",
"assigned" : "2020-09-08T15:38:45.881-0500"
}
],
"changelog" : "notprovided",
"bookkeeping" : {
"isdeleted" : false,
"isreadonly" : false,
"updates" : [
{
"event" : "addConfiguration",
"timestamp" : "2020-09-08T15:38:44.151-0500",
"value" : {
"name" : "notprovided",
"assigned" : "2020-09-08T15:38:44.151-0500"
}
},
{
"event" : "setVersion",
"timestamp" : "2020-09-08T15:38:44.151-0500",
"value" : {
"name" : "2",
"assigned" : "2020-09-08T15:38:44.151-0500"
}
},
{
"event" : "setCollection",
"timestamp" : "2020-09-08T15:38:44.151-0500",
"value" : {
"name" : "XDAQContextTable",
"assigned" : "2020-09-08T15:38:44.151-0500"
}
},
{
"event" : "addEntity",
"timestamp" : "2020-09-08T15:38:44.151-0500",
"value" : {
"name" : "OTSROOT",
"assigned" : "2020-09-08T15:38:44.151-0500"
}
},
{
"event" : "addConfiguration",
"timestamp" : "2020-09-08T15:38:45.881-0500",
"value" : {
"name" : "DefaultContext_v3",
"assigned" : "2020-09-08T15:38:45.881-0500"
}
}
],
"created" : "2020-09-08T15:38:44.150-0500"
},
"_id" : {
"$oid" : "4dceb3ab9e74450e8ee02cfb"
},
"collection" : "XDAQContextTable",
"aliases" : {
"active" : [

],
"history" : [

]
},
"runs" : [

],
"attachments" : [

],
"configtype" : "notprovided"
}