ContextGroup/DesktopIconTable
ContextGroup/DesktopWindowParameterTable
ContextGroup/GatewaySupervisorTable
ContextGroup/MessageFacilityTable
ContextGroup/StateMachineTable
ContextGroup/XDAQApplicationPropertyTable
ContextGroup/XDAQApplicationTable
ContextGroup/XDAQContextTable
BackboneGroup/GroupAliasesTable
BackboneGroup/VersionAliasesTable
IterateGroup/IterateTable
IterateGroup/IterationCommandBeginLabelTable
IterateGroup/IterationCommandChooseFSMTable
IterateGroup/IterationCommandConfigureAliasTable
IterateGroup/IterationCommandConfigureGroupTable
IterateGroup/IterationCommandExecuteFEMacroTable
IterateGroup/IterationCommandExecuteMacroTable
IterateGroup/IterationCommandMacroDimensionalLoopParameterTable
IterateGroup/IterationCommandMacroDimensionalLoopTable
IterateGroup/IterationCommandModifyGroupTable
IterateGroup/IterationCommandRepeatLabelTable
IterateGroup/IterationCommandRunTable
IterateGroup/IterationPlanTable
IterateGroup/IterationTargetTable
IterateGroup/IterationTargetTable