{
"document" : {
"data" : {
"NAME" : "ARTDAQ_AGGREGATOR_SOURCE_CONFIGURATION",
"COMMENT" : "",
"AUTHOR" : "admin",
"CREATION_TIME" : 1504872434,
"COL_TYPES" : {
"SOURCE_UID" : "VARCHAR2",
"SOURCE_MODULE_TYPE" : "VARCHAR2",
"COMMENT_DESCRIPTION" : "VARCHAR2",
"AUTHOR" : "VARCHAR2",
"RECORD_INSERTION_TIME" : "TIMESTAMP WITH TIMEZONE"
},
"DATA_SET" : [
{
"SOURCE_UID" : "aggregator0source0",
"SOURCE_MODULE_TYPE" : "NetMonInput",
"COMMENT_DESCRIPTION" : "No Comment",
"AUTHOR" : "DEFAULT",
"RECORD_INSERTION_TIME" : "0"
}
]
},
"metadata" : {

},
"search" : [

]
},
"comments" : [

],
"origin" : {
"source" : "template",
"name" : "notprovided",
"format" : "json",
"created" : "2017-11-08T15:56:02.326-0600",
"rawdata" : [

]
},
"version" : "0",
"entities" : [
{
"name" : "OTSROOT",
"assigned" : "2017-11-08T15:56:02.328-0600"
}
],
"configurations" : [
{
"name" : "notprovided",
"assigned" : "2017-11-08T15:56:02.327-0600"
},
{
"name" : "FTBFConfig_v0",
"assigned" : "2017-11-08T15:56:04.900-0600"
},
{
"name" : "FTBFConfig_v1",
"assigned" : "2017-11-09T09:56:29.272-0600"
},
{
"name" : "FTBFConfig_v2",
"assigned" : "2017-11-09T10:05:58.209-0600"
},
{
"name" : "FTBFConfig_v3",
"assigned" : "2017-11-09T10:37:09.774-0600"
},
{
"name" : "FTBFConfig_v4",
"assigned" : "2017-11-15T11:30:08.502-0600"
},
{
"name" : "FTBFConfig_v5",
"assigned" : "2017-11-15T11:54:55.250-0600"
},
{
"name" : "FTBFConfig_v6",
"assigned" : "2017-11-15T11:57:47.858-0600"
},
{
"name" : "FTBFConfig_v7",
"assigned" : "2017-11-15T12:42:30.269-0600"
},
{
"name" : "FTBFConfig_v8",
"assigned" : "2017-11-15T13:01:01.216-0600"
},
{
"name" : "FTBFConfig_v9",
"assigned" : "2017-11-15T13:02:54.586-0600"
},
{
"name" : "FTBFConfig_v10",
"assigned" : "2017-11-15T13:04:22.180-0600"
},
{
"name" : "FTBFConfig_v11",
"assigned" : "2017-11-15T13:07:49.651-0600"
},
{
"name" : "FTBFConfig_v12",
"assigned" : "2017-11-15T13:11:57.084-0600"
},
{
"name" : "FTBFConfig_v13",
"assigned" : "2017-11-15T13:13:51.034-0600"
},
{
"name" : "FTBFConfig_v14",
"assigned" : "2017-11-15T13:27:23.275-0600"
},
{
"name" : "FTBFConfig_v15",
"assigned" : "2017-11-15T13:35:44.980-0600"
},
{
"name" : "FTBFConfig_v16",
"assigned" : "2017-11-15T13:36:49.611-0600"
},
{
"name" : "FTBFConfig_v17",
"assigned" : "2017-11-15T15:33:28.139-0600"
},
{
"name" : "FTBFConfig_v18",
"assigned" : "2017-11-15T15:35:31.649-0600"
},
{
"name" : "FTBFConfig_v19",
"assigned" : "2017-11-15T15:38:00.557-0600"
},
{
"name" : "FTBFConfig_v20",
"assigned" : "2017-11-15T16:26:28.156-0600"
},
{
"name" : "FTBFConfig_v21",
"assigned" : "2017-11-16T09:22:29.347-0600"
},
{
"name" : "FTBFConfig_v22",
"assigned" : "2017-11-17T10:23:25.521-0600"
},
{
"name" : "FTBFConfig_v23",
"assigned" : "2017-11-17T17:26:42.998-0600"
},
{
"name" : "FTBFConfig_v24",
"assigned" : "2017-11-17T17:58:23.430-0600"
},
{
"name" : "FTBFConfig_v25",
"assigned" : "2017-11-17T18:24:43.108-0600"
},
{
"name" : "FTBFConfig_v26",
"assigned" : "2017-11-17T18:32:19.789-0600"
},
{
"name" : "FTBFConfig_v27",
"assigned" : "2017-11-17T18:43:26.894-0600"
},
{
"name" : "FTBFConfig_v28",
"assigned" : "2017-11-17T18:48:28.912-0600"
},
{
"name" : "FTBFConfig_v29",
"assigned" : "2017-11-20T14:48:28.335-0600"
},
{
"name" : "FTBFConfig_v30",
"assigned" : "2017-11-20T15:39:53.598-0600"
},
{
"name" : "FTBFConfig_v31",
"assigned" : "2017-11-20T16:40:59.561-0600"
},
{
"name" : "FTBFConfig_v32",
"assigned" : "2017-11-20T18:55:32.342-0600"
},
{
"name" : "FTBFConfig_v33",
"assigned" : "2017-11-20T18:57:27.615-0600"
},
{
"name" : "FTBFConfig_v34",
"assigned" : "2017-11-29T17:50:37.097-0600"
},
{
"name" : "FTBFConfig_v35",
"assigned" : "2017-11-29T18:00:29.970-0600"
},
{
"name" : "FTBFConfig_v36",
"assigned" : "2017-11-29T18:35:08.838-0600"
},
{
"name" : "FTBFConfig_v37",
"assigned" : "2017-12-01T09:36:14.990-0600"
},
{
"name" : "FTBFConfig_v38",
"assigned" : "2017-12-01T09:51:58.318-0600"
},
{
"name" : "FTBFConfig_v39",
"assigned" : "2017-12-01T11:51:55.564-0600"
},
{
"name" : "FTBFConfig_v40",
"assigned" : "2017-12-01T12:18:17.447-0600"
},
{
"name" : "FTBFConfig_v41",
"assigned" : "2017-12-01T12:20:59.633-0600"
},
{
"name" : "FTBFConfig_v42",
"assigned" : "2017-12-01T12:43:18.665-0600"
},
{
"name" : "FTBFConfig_v43",
"assigned" : "2017-12-01T12:57:55.511-0600"
},
{
"name" : "FTBFConfig_v44",
"assigned" : "2017-12-01T13:00:47.933-0600"
},
{
"name" : "FTBFConfig_v45",
"assigned" : "2017-12-01T13:25:45.574-0600"
},
{
"name" : "FTBFConfig_v46",
"assigned" : "2017-12-01T13:35:40.401-0600"
},
{
"name" : "FTBFConfig_v47",
"assigned" : "2017-12-01T14:00:48.828-0600"
},
{
"name" : "FTBFConfig_v48",
"assigned" : "2017-12-01T14:03:56.092-0600"
},
{
"name" : "FTBFConfig_v49",
"assigned" : "2017-12-01T15:31:56.220-0600"
},
{
"name" : "FTBFConfig_v50",
"assigned" : "2017-12-01T15:34:18.152-0600"
},
{
"name" : "FTBFConfig_v51",
"assigned" : "2017-12-01T15:36:17.676-0600"
},
{
"name" : "FTBFConfig_v52",
"assigned" : "2017-12-01T15:37:26.753-0600"
},
{
"name" : "FTBFConfig_v53",
"assigned" : "2017-12-01T15:40:55.799-0600"
},
{
"name" : "FTBFConfig_v54",
"assigned" : "2017-12-01T15:52:46.110-0600"
},
{
"name" : "FTBFConfig_v55",
"assigned" : "2017-12-01T15:54:31.216-0600"
},
{
"name" : "FTBFConfig_v56",
"assigned" : "2017-12-01T15:55:30.745-0600"
},
{
"name" : "FTBFConfig_v57",
"assigned" : "2017-12-01T15:56:36.487-0600"
},
{
"name" : "FTBFConfig_v58",
"assigned" : "2017-12-01T15:57:34.599-0600"
},
{
"name" : "FTBFConfig_v59",
"assigned" : "2017-12-01T15:58:26.479-0600"
},
{
"name" : "FTBFConfig_v60",
"assigned" : "2017-12-01T15:59:27.678-0600"
},
{
"name" : "FTBFConfig_v61",
"assigned" : "2017-12-01T16:19:37.375-0600"
},
{
"name" : "FTBFConfig_v62",
"assigned" : "2017-12-01T16:21:59.925-0600"
},
{
"name" : "FTBFConfig_v63",
"assigned" : "2017-12-01T16:31:20.512-0600"
},
{
"name" : "FTBFConfig_v64",
"assigned" : "2017-12-01T17:06:27.344-0600"
},
{
"name" : "FTBFConfig_v65",
"assigned" : "2017-12-01T17:32:39.680-0600"
},
{
"name" : "FTBFConfig_v66",
"assigned" : "2017-12-01T20:38:46.106-0600"
},
{
"name" : "FTBFConfig_v67",
"assigned" : "2017-12-01T21:24:57.572-0600"
},
{
"name" : "FTBFConfig_v68",
"assigned" : "2017-12-01T21:42:57.209-0600"
},
{
"name" : "FTBFConfig_v69",
"assigned" : "2017-12-01T21:44:55.810-0600"
},
{
"name" : "FTBFConfig_v70",
"assigned" : "2017-12-01T21:59:15.023-0600"
},
{
"name" : "FTBFConfigNim_v0",
"assigned" : "2017-12-01T22:00:01.739-0600"
},
{
"name" : "FTBFConfigNim_v1",
"assigned" : "2017-12-01T22:13:03.457-0600"
},
{
"name" : "FTBFConfigNim_v2",
"assigned" : "2017-12-01T22:15:50.675-0600"
},
{
"name" : "FTBFConfigNim_v3",
"assigned" : "2017-12-01T22:16:58.618-0600"
},
{
"name" : "FTBFConfigNim_v4",
"assigned" : "2017-12-01T22:19:01.725-0600"
},
{
"name" : "FTBFConfigNim_v5",
"assigned" : "2017-12-01T22:21:52.404-0600"
},
{
"name" : "FTBFConfigNim_v6",
"assigned" : "2017-12-01T22:23:07.746-0600"
},
{
"name" : "FTBFConfigNim_v7",
"assigned" : "2017-12-01T22:25:12.323-0600"
},
{
"name" : "FTBFConfigNim_v8",
"assigned" : "2017-12-01T22:26:59.849-0600"
},
{
"name" : "FTBFConfigNim_v9",
"assigned" : "2017-12-01T22:29:24.136-0600"
},
{
"name" : "FTBFConfigNim_v10",
"assigned" : "2017-12-01T22:52:29.232-0600"
},
{
"name" : "FTBFConfigNim_v11",
"assigned" : "2017-12-01T22:57:23.761-0600"
},
{
"name" : "FTBFConfigNim_v12",
"assigned" : "2017-12-01T23:00:02.276-0600"
},
{
"name" : "FTBFConfigNim_v13",
"assigned" : "2017-12-01T23:52:30.379-0600"
},
{
"name" : "FTBFConfigNim_v14",
"assigned" : "2017-12-01T23:58:04.759-0600"
},
{
"name" : "FTBFConfigNim_v15",
"assigned" : "2017-12-02T00:00:29.026-0600"
},
{
"name" : "FTBFConfigNim_v16",
"assigned" : "2017-12-02T00:13:04.125-0600"
},
{
"name" : "FTBFConfigNim_v17",
"assigned" : "2017-12-02T00:28:23.124-0600"
},
{
"name" : "FTBFConfigNim_v18",
"assigned" : "2017-12-02T00:29:29.151-0600"
},
{
"name" : "FTBFConfigNim_v19",
"assigned" : "2017-12-02T00:31:05.339-0600"
},
{
"name" : "FTBFConfigNim_v20",
"assigned" : "2017-12-02T00:57:22.128-0600"
},
{
"name" : "FTBFConfigNim_v21",
"assigned" : "2017-12-02T10:57:56.662-0600"
},
{
"name" : "FTBFConfigNim_v22",
"assigned" : "2017-12-02T11:08:12.823-0600"
},
{
"name" : "FTBFConfigNim_v23",
"assigned" : "2017-12-02T11:12:34.368-0600"
},
{
"name" : "FTBFConfigNim_v24",
"assigned" : "2017-12-02T11:18:37.188-0600"
},
{
"name" : "FTBFConfigNim_v25",
"assigned" : "2017-12-02T11:27:00.402-0600"
},
{
"name" : "FTBFConfigNim_v26",
"assigned" : "2017-12-02T11:38:31.441-0600"
},
{
"name" : "FTBFConfigNim_v27",
"assigned" : "2017-12-02T11:49:02.541-0600"
},
{
"name" : "FTBFConfigNim_v28",
"assigned" : "2017-12-02T11:55:03.947-0600"
},
{
"name" : "FTBFConfigNim_v29",
"assigned" : "2017-12-02T12:06:20.815-0600"
},
{
"name" : "FTBFConfig_v71",
"assigned" : "2017-12-02T12:24:09.440-0600"
},
{
"name" : "FTBFConfig_v72",
"assigned" : "2017-12-02T12:43:30.194-0600"
},
{
"name" : "FTBFConfig_v73",
"assigned" : "2017-12-02T13:55:29.748-0600"
},
{
"name" : "FTBFConfig_v74",
"assigned" : "2017-12-02T14:09:02.025-0600"
},
{
"name" : "FTBFConfig_v75",
"assigned" : "2017-12-02T14:12:12.884-0600"
},
{
"name" : "FTBFConfig_v76",
"assigned" : "2017-12-02T19:05:48.015-0600"
},
{
"name" : "FTBFConfig_v77",
"assigned" : "2017-12-02T19:12:07.800-0600"
},
{
"name" : "FTBFConfig_v78",
"assigned" : "2017-12-03T14:03:42.985-0600"
},
{
"name" : "FTBFConfig_v79",
"assigned" : "2017-12-03T14:09:01.144-0600"
},
{
"name" : "FTBFConfig_v80",
"assigned" : "2017-12-03T14:11:04.901-0600"
},
{
"name" : "FTBFConfig_v81",
"assigned" : "2017-12-03T14:22:27.929-0600"
},
{
"name" : "FTBFConfig_v82",
"assigned" : "2017-12-03T14:40:32.679-0600"
},
{
"name" : "FTBFConfig_v83",
"assigned" : "2017-12-03T14:44:59.968-0600"
},
{
"name" : "FTBFConfig_v84",
"assigned" : "2017-12-04T14:51:25.443-0600"
},
{
"name" : "FTBFConfig_v85",
"assigned" : "2017-12-04T14:55:38.564-0600"
},
{
"name" : "FTBFConfig_v86",
"assigned" : "2017-12-04T16:51:01.512-0600"
},
{
"name" : "FTBFConfig_v87",
"assigned" : "2017-12-04T16:56:42.137-0600"
},
{
"name" : "FTBFConfig_v88",
"assigned" : "2017-12-04T17:01:06.825-0600"
},
{
"name" : "FTBFConfig_v89",
"assigned" : "2017-12-04T17:03:51.885-0600"
},
{
"name" : "FTBFConfig_v90",
"assigned" : "2017-12-04T17:07:11.519-0600"
},
{
"name" : "FTBFConfig_v91",
"assigned" : "2017-12-04T17:09:20.616-0600"
},
{
"name" : "FTBFConfig_v92",
"assigned" : "2017-12-04T17:11:33.071-0600"
},
{
"name" : "FTBFConfig_v93",
"assigned" : "2017-12-04T21:05:15.699-0600"
},
{
"name" : "FTBFConfig_v94",
"assigned" : "2017-12-04T21:17:06.526-0600"
},
{
"name" : "FTBFConfig_v95",
"assigned" : "2017-12-04T21:41:12.277-0600"
},
{
"name" : "FTBFConfig_v96",
"assigned" : "2017-12-04T22:38:56.876-0600"
},
{
"name" : "FTBFConfig_v97",
"assigned" : "2017-12-04T23:01:07.362-0600"
},
{
"name" : "FTBFConfig_v98",
"assigned" : "2017-12-07T11:07:41.360-0600"
},
{
"name" : "FTBFConfig_v99",
"assigned" : "2017-12-07T11:49:54.050-0600"
},
{
"name" : "FTBFConfig_v100",
"assigned" : "2017-12-07T11:58:20.776-0600"
},
{
"name" : "FTBFConfig_v101",
"assigned" : "2017-12-08T13:30:42.836-0600"
},
{
"name" : "FTBFConfig_v102",
"assigned" : "2017-12-08T13:32:29.745-0600"
},
{
"name" : "FTBFConfig_v103",
"assigned" : "2017-12-12T11:02:59.499-0600"
},
{
"name" : "FTBFConfig_v104",
"assigned" : "2017-12-12T13:50:53.689-0600"
},
{
"name" : "FTBFConfig_v105",
"assigned" : "2017-12-12T15:24:59.717-0600"
},
{
"name" : "FTBFConfig_v106",
"assigned" : "2017-12-13T10:24:18.212-0600"
},
{
"name" : "FTBFConfig_v107",
"assigned" : "2017-12-13T10:26:57.002-0600"
},
{
"name" : "FTBFConfig_v108",
"assigned" : "2018-02-01T21:14:20.211-0600"
},
{
"name" : "FTBFConfig_v109",
"assigned" : "2018-02-01T21:20:57.289-0600"
},
{
"name" : "FTBFConfig_v110",
"assigned" : "2018-02-02T11:25:28.237-0600"
},
{
"name" : "FTBFConfig_v111",
"assigned" : "2018-02-02T11:37:07.061-0600"
},
{
"name" : "FTBFConfig_v112",
"assigned" : "2018-02-02T11:47:09.486-0600"
},
{
"name" : "FTBFConfig_v113",
"assigned" : "2018-02-02T11:53:30.742-0600"
},
{
"name" : "FTBFConfig_v114",
"assigned" : "2018-02-02T12:00:46.790-0600"
},
{
"name" : "FTBFConfig_v115",
"assigned" : "2018-02-02T12:27:08.286-0600"
},
{
"name" : "FTBFConfig_v116",
"assigned" : "2018-02-02T14:28:47.767-0600"
},
{
"name" : "FTBFConfig_v117",
"assigned" : "2018-02-02T14:30:14.113-0600"
},
{
"name" : "FTBFConfig_v118",
"assigned" : "2018-02-02T14:33:55.300-0600"
},
{
"name" : "FTBFConfig_v119",
"assigned" : "2018-02-02T14:36:21.884-0600"
},
{
"name" : "FTBFConfig_v120",
"assigned" : "2018-02-02T14:38:35.244-0600"
},
{
"name" : "FTBFConfig_v121",
"assigned" : "2018-02-02T14:41:44.574-0600"
},
{
"name" : "FTBFConfig_v122",
"assigned" : "2018-02-02T14:50:18.529-0600"
},
{
"name" : "FTBFConfig_v123",
"assigned" : "2018-02-02T14:52:51.415-0600"
},
{
"name" : "FTBFConfig_v124",
"assigned" : "2018-02-02T14:59:44.720-0600"
},
{
"name" : "FTBFConfig_v125",
"assigned" : "2018-02-02T15:04:02.809-0600"
},
{
"name" : "FTBFConfig_v126",
"assigned" : "2018-02-02T15:50:06.016-0600"
},
{
"name" : "FTBFConfig_v127",
"assigned" : "2018-02-02T15:51:25.463-0600"
},
{
"name" : "FTBFConfig_v128",
"assigned" : "2018-02-02T15:52:30.624-0600"
},
{
"name" : "FTBFConfig_v129",
"assigned" : "2018-02-02T16:02:39.512-0600"
},
{
"name" : "FTBFConfig_v130",
"assigned" : "2018-02-02T16:08:39.001-0600"
},
{
"name" : "FTBFConfig_v131",
"assigned" : "2018-02-02T16:11:24.764-0600"
},
{
"name" : "FTBFConfig_v132",
"assigned" : "2018-02-02T16:12:52.619-0600"
},
{
"name" : "FTBFConfig_v133",
"assigned" : "2018-02-02T16:14:23.177-0600"
},
{
"name" : "FTBFConfig_v134",
"assigned" : "2018-02-02T16:26:16.093-0600"
},
{
"name" : "FTBFConfig_v135",
"assigned" : "2018-02-02T16:27:03.186-0600"
},
{
"name" : "FTBFConfig_v136",
"assigned" : "2018-02-02T16:29:24.499-0600"
},
{
"name" : "FTBFConfig_v137",
"assigned" : "2018-02-02T16:31:34.996-0600"
},
{
"name" : "FTBFConfig_v138",
"assigned" : "2018-02-02T16:34:07.727-0600"
},
{
"name" : "FTBFConfig_v139",
"assigned" : "2018-02-02T17:39:23.741-0600"
},
{
"name" : "FTBFConfig_v140",
"assigned" : "2018-02-02T17:42:45.903-0600"
},
{
"name" : "FTBFConfig_v141",
"assigned" : "2018-02-02T17:47:31.054-0600"
},
{
"name" : "FTBFConfig_v142",
"assigned" : "2018-02-02T17:53:54.994-0600"
}
],
"changelog" : "notprovided",
"bookkeeping" : {
"isdeleted" : false,
"isreadonly" : false,
"updates" : [
{
"event" : "addConfiguration",
"timestamp" : "2017-11-08T15:56:02.327-0600",
"value" : {
"name" : "notprovided",
"assigned" : "2017-11-08T15:56:02.327-0600"
}
},
{
"event" : "setVersion",
"timestamp" : "2017-11-08T15:56:02.327-0600",
"value" : {
"name" : "0",
"assigned" : "2017-11-08T15:56:02.327-0600"
}
},
{
"event" : "setCollection",
"timestamp" : "2017-11-08T15:56:02.328-0600",
"value" : {
"name" : "ARTDAQAggregatorSourceConfiguration",
"assigned" : "2017-11-08T15:56:02.328-0600"
}
},
{
"event" : "addEntity",
"timestamp" : "2017-11-08T15:56:02.328-0600",
"value" : {
"name" : "OTSROOT",
"assigned" : "2017-11-08T15:56:02.328-0600"
}
},
{
"event" : "addConfiguration",
"timestamp" : "2017-11-08T15:56:04.900-0600",
"value" : {
"name" : "FTBFConfig_v0",
"assigned" : "2017-11-08T15:56:04.900-0600"
}
},
{
"event" : "addConfiguration",
"timestamp" : "2017-11-09T09:56:29.272-0600",
"value" : {
"name" : "FTBFConfig_v1",
"assigned" : "2017-11-09T09:56:29.272-0600"
}
},
{
"event" : "addConfiguration",
"timestamp" : "2017-11-09T10:05:58.209-0600",
"value" : {
"name" : "FTBFConfig_v2",
"assigned" : "2017-11-09T10:05:58.209-0600"
}
},
{
"event" : "addConfiguration",
"timestamp" : "2017-11-09T10:37:09.774-0600",
"value" : {
"name" : "FTBFConfig_v3",
"assigned" : "2017-11-09T10:37:09.774-0600"
}
},
{
"event" : "addConfiguration",
"timestamp" : "2017-11-15T11:30:08.502-0600",
"value" : {
"name" : "FTBFConfig_v4",
"assigned" : "2017-11-15T11:30:08.502-0600"
}
},
{
"event" : "addConfiguration",
"timestamp" : "2017-11-15T11:54:55.250-0600",
"value" : {
"name" : "FTBFConfig_v5",
"assigned" : "2017-11-15T11:54:55.250-0600"
}
},
{
"event" : "addConfiguration",
"timestamp" : "2017-11-15T11:57:47.858-0600",
"value" : {
"name" : "FTBFConfig_v6",
"assigned" : "2017-11-15T11:57:47.858-0600"
}
},
{
"event" : "addConfiguration",
"timestamp" : "2017-11-15T12:42:30.269-0600",
"value" : {
"name" : "FTBFConfig_v7",
"assigned" : "2017-11-15T12:42:30.269-0600"
}
},
{
"event" : "addConfiguration",
"timestamp" : "2017-11-15T13:01:01.216-0600",
"value" : {
"name" : "FTBFConfig_v8",
"assigned" : "2017-11-15T13:01:01.216-0600"
}
},
{
"event" : "addConfiguration",
"timestamp" : "2017-11-15T13:02:54.586-0600",
"value" : {
"name" : "FTBFConfig_v9",
"assigned" : "2017-11-15T13:02:54.586-0600"
}
},
{
"event" : "addConfiguration",
"timestamp" : "2017-11-15T13:04:22.181-0600",
"value" : {
"name" : "FTBFConfig_v10",
"assigned" : "2017-11-15T13:04:22.180-0600"
}
},
{
"event" : "addConfiguration",
"timestamp" : "2017-11-15T13:07:49.651-0600",
"value" : {
"name" : "FTBFConfig_v11",
"assigned" : "2017-11-15T13:07:49.651-0600"
}
},
{
"event" : "addConfiguration",
"timestamp" : "2017-11-15T13:11:57.085-0600",
"value" : {
"name" : "FTBFConfig_v12",
"assigned" : "2017-11-15T13:11:57.084-0600"
}
},
{
"event" : "addConfiguration",
"timestamp" : "2017-11-15T13:13:51.034-0600",
"value" : {
"name" : "FTBFConfig_v13",
"assigned" : "2017-11-15T13:13:51.034-0600"
}
},
{
"event" : "addConfiguration",
"timestamp" : "2017-11-15T13:27:23.275-0600",
"value" : {
"name" : "FTBFConfig_v14",
"assigned" : "2017-11-15T13:27:23.275-0600"
}
},
{
"event" : "addConfiguration",
"timestamp" : "2017-11-15T13:35:44.980-0600",
"value" : {
"name" : "FTBFConfig_v15",
"assigned" : "2017-11-15T13:35:44.980-0600"
}
},
{
"event" : "addConfiguration",
"timestamp" : "2017-11-15T13:36:49.611-0600",
"value" : {
"name" : "FTBFConfig_v16",
"assigned" : "2017-11-15T13:36:49.611-0600"
}
},
{
"event" : "addConfiguration",
"timestamp" : "2017-11-15T15:33:28.139-0600",
"value" : {
"name" : "FTBFConfig_v17",
"assigned" : "2017-11-15T15:33:28.139-0600"
}
},
{
"event" : "addConfiguration",
"timestamp" : "2017-11-15T15:35:31.649-0600",
"value" : {
"name" : "FTBFConfig_v18",
"assigned" : "2017-11-15T15:35:31.649-0600"
}
},
{
"event" : "addConfiguration",
"timestamp" : "2017-11-15T15:38:00.557-0600",
"value" : {
"name" : "FTBFConfig_v19",
"assigned" : "2017-11-15T15:38:00.557-0600"
}
},
{
"event" : "addConfiguration",
"timestamp" : "2017-11-15T16:26:28.156-0600",
"value" : {
"name" : "FTBFConfig_v20",
"assigned" : "2017-11-15T16:26:28.156-0600"
}
},
{
"event" : "addConfiguration",
"timestamp" : "2017-11-16T09:22:29.347-0600",
"value" : {
"name" : "FTBFConfig_v21",
"assigned" : "2017-11-16T09:22:29.347-0600"
}
},
{
"event" : "addConfiguration",
"timestamp" : "2017-11-17T10:23:25.521-0600",
"value" : {
"name" : "FTBFConfig_v22",
"assigned" : "2017-11-17T10:23:25.521-0600"
}
},
{
"event" : "addConfiguration",
"timestamp" : "2017-11-17T17:26:42.998-0600",
"value" : {
"name" : "FTBFConfig_v23",
"assigned" : "2017-11-17T17:26:42.998-0600"
}
},
{
"event" : "addConfiguration",
"timestamp" : "2017-11-17T17:58:23.430-0600",
"value" : {
"name" : "FTBFConfig_v24",
"assigned" : "2017-11-17T17:58:23.430-0600"
}
},
{
"event" : "addConfiguration",
"timestamp" : "2017-11-17T18:24:43.108-0600",
"value" : {
"name" : "FTBFConfig_v25",
"assigned" : "2017-11-17T18:24:43.108-0600"
}
},
{
"event" : "addConfiguration",
"timestamp" : "2017-11-17T18:32:19.789-0600",
"value" : {
"name" : "FTBFConfig_v26",
"assigned" : "2017-11-17T18:32:19.789-0600"
}
},
{
"event" : "addConfiguration",
"timestamp" : "2017-11-17T18:43:26.894-0600",
"value" : {
"name" : "FTBFConfig_v27",
"assigned" : "2017-11-17T18:43:26.894-0600"
}
},
{
"event" : "addConfiguration",
"timestamp" : "2017-11-17T18:48:28.912-0600",
"value" : {
"name" : "FTBFConfig_v28",
"assigned" : "2017-11-17T18:48:28.912-0600"
}
},
{
"event" : "addConfiguration",
"timestamp" : "2017-11-20T14:48:28.335-0600",
"value" : {
"name" : "FTBFConfig_v29",
"assigned" : "2017-11-20T14:48:28.335-0600"
}
},
{
"event" : "addConfiguration",
"timestamp" : "2017-11-20T15:39:53.598-0600",
"value" : {
"name" : "FTBFConfig_v30",
"assigned" : "2017-11-20T15:39:53.598-0600"
}
},
{
"event" : "addConfiguration",
"timestamp" : "2017-11-20T16:40:59.561-0600",
"value" : {
"name" : "FTBFConfig_v31",
"assigned" : "2017-11-20T16:40:59.561-0600"
}
},
{
"event" : "addConfiguration",
"timestamp" : "2017-11-20T18:55:32.342-0600",
"value" : {
"name" : "FTBFConfig_v32",
"assigned" : "2017-11-20T18:55:32.342-0600"
}
},
{
"event" : "addConfiguration",
"timestamp" : "2017-11-20T18:57:27.615-0600",
"value" : {
"name" : "FTBFConfig_v33",
"assigned" : "2017-11-20T18:57:27.615-0600"
}
},
{
"event" : "addConfiguration",
"timestamp" : "2017-11-29T17:50:37.097-0600",
"value" : {
"name" : "FTBFConfig_v34",
"assigned" : "2017-11-29T17:50:37.097-0600"
}
},
{
"event" : "addConfiguration",
"timestamp" : "2017-11-29T18:00:29.970-0600",
"value" : {
"name" : "FTBFConfig_v35",
"assigned" : "2017-11-29T18:00:29.970-0600"
}
},
{
"event" : "addConfiguration",
"timestamp" : "2017-11-29T18:35:08.838-0600",
"value" : {
"name" : "FTBFConfig_v36",
"assigned" : "2017-11-29T18:35:08.838-0600"
}
},
{
"event" : "addConfiguration",
"timestamp" : "2017-12-01T09:36:14.990-0600",
"value" : {
"name" : "FTBFConfig_v37",
"assigned" : "2017-12-01T09:36:14.990-0600"
}
},
{
"event" : "addConfiguration",
"timestamp" : "2017-12-01T09:51:58.318-0600",
"value" : {
"name" : "FTBFConfig_v38",
"assigned" : "2017-12-01T09:51:58.318-0600"
}
},
{
"event" : "addConfiguration",
"timestamp" : "2017-12-01T11:51:55.564-0600",
"value" : {
"name" : "FTBFConfig_v39",
"assigned" : "2017-12-01T11:51:55.564-0600"
}
},
{
"event" : "addConfiguration",
"timestamp" : "2017-12-01T12:18:17.447-0600",
"value" : {
"name" : "FTBFConfig_v40",
"assigned" : "2017-12-01T12:18:17.447-0600"
}
},
{
"event" : "addConfiguration",
"timestamp" : "2017-12-01T12:20:59.633-0600",
"value" : {
"name" : "FTBFConfig_v41",
"assigned" : "2017-12-01T12:20:59.633-0600"
}
},
{
"event" : "addConfiguration",
"timestamp" : "2017-12-01T12:43:18.665-0600",
"value" : {
"name" : "FTBFConfig_v42",
"assigned" : "2017-12-01T12:43:18.665-0600"
}
},
{
"event" : "addConfiguration",
"timestamp" : "2017-12-01T12:57:55.511-0600",
"value" : {
"name" : "FTBFConfig_v43",
"assigned" : "2017-12-01T12:57:55.511-0600"
}
},
{
"event" : "addConfiguration",
"timestamp" : "2017-12-01T13:00:47.933-0600",
"value" : {
"name" : "FTBFConfig_v44",
"assigned" : "2017-12-01T13:00:47.933-0600"
}
},
{
"event" : "addConfiguration",
"timestamp" : "2017-12-01T13:25:45.574-0600",
"value" : {
"name" : "FTBFConfig_v45",
"assigned" : "2017-12-01T13:25:45.574-0600"
}
},
{
"event" : "addConfiguration",
"timestamp" : "2017-12-01T13:35:40.402-0600",
"value" : {
"name" : "FTBFConfig_v46",
"assigned" : "2017-12-01T13:35:40.401-0600"
}
},
{
"event" : "addConfiguration",
"timestamp" : "2017-12-01T14:00:48.829-0600",
"value" : {
"name" : "FTBFConfig_v47",
"assigned" : "2017-12-01T14:00:48.828-0600"
}
},
{
"event" : "addConfiguration",
"timestamp" : "2017-12-01T14:03:56.092-0600",
"value" : {
"name" : "FTBFConfig_v48",
"assigned" : "2017-12-01T14:03:56.092-0600"
}
},
{
"event" : "addConfiguration",
"timestamp" : "2017-12-01T15:31:56.220-0600",
"value" : {
"name" : "FTBFConfig_v49",
"assigned" : "2017-12-01T15:31:56.220-0600"
}
},
{
"event" : "addConfiguration",
"timestamp" : "2017-12-01T15:34:18.152-0600",
"value" : {
"name" : "FTBFConfig_v50",
"assigned" : "2017-12-01T15:34:18.152-0600"
}
},
{
"event" : "addConfiguration",
"timestamp" : "2017-12-01T15:36:17.676-0600",
"value" : {
"name" : "FTBFConfig_v51",
"assigned" : "2017-12-01T15:36:17.676-0600"
}
},
{
"event" : "addConfiguration",
"timestamp" : "2017-12-01T15:37:26.754-0600",
"value" : {
"name" : "FTBFConfig_v52",
"assigned" : "2017-12-01T15:37:26.753-0600"
}
},
{
"event" : "addConfiguration",
"timestamp" : "2017-12-01T15:40:55.800-0600",
"value" : {
"name" : "FTBFConfig_v53",
"assigned" : "2017-12-01T15:40:55.799-0600"
}
},
{
"event" : "addConfiguration",
"timestamp" : "2017-12-01T15:52:46.111-0600",
"value" : {
"name" : "FTBFConfig_v54",
"assigned" : "2017-12-01T15:52:46.110-0600"
}
},
{
"event" : "addConfiguration",
"timestamp" : "2017-12-01T15:54:31.216-0600",
"value" : {
"name" : "FTBFConfig_v55",
"assigned" : "2017-12-01T15:54:31.216-0600"
}
},
{
"event" : "addConfiguration",
"timestamp" : "2017-12-01T15:55:30.745-0600",
"value" : {
"name" : "FTBFConfig_v56",
"assigned" : "2017-12-01T15:55:30.745-0600"
}
},
{
"event" : "addConfiguration",
"timestamp" : "2017-12-01T15:56:36.487-0600",
"value" : {
"name" : "FTBFConfig_v57",
"assigned" : "2017-12-01T15:56:36.487-0600"
}
},
{
"event" : "addConfiguration",
"timestamp" : "2017-12-01T15:57:34.599-0600",
"value" : {
"name" : "FTBFConfig_v58",
"assigned" : "2017-12-01T15:57:34.599-0600"
}
},
{
"event" : "addConfiguration",
"timestamp" : "2017-12-01T15:58:26.479-0600",
"value" : {
"name" : "FTBFConfig_v59",
"assigned" : "2017-12-01T15:58:26.479-0600"
}
},
{
"event" : "addConfiguration",
"timestamp" : "2017-12-01T15:59:27.678-0600",
"value" : {
"name" : "FTBFConfig_v60",
"assigned" : "2017-12-01T15:59:27.678-0600"
}
},
{
"event" : "addConfiguration",
"timestamp" : "2017-12-01T16:19:37.375-0600",
"value" : {
"name" : "FTBFConfig_v61",
"assigned" : "2017-12-01T16:19:37.375-0600"
}
},
{
"event" : "addConfiguration",
"timestamp" : "2017-12-01T16:21:59.925-0600",
"value" : {
"name" : "FTBFConfig_v62",
"assigned" : "2017-12-01T16:21:59.925-0600"
}
},
{
"event" : "addConfiguration",
"timestamp" : "2017-12-01T16:31:20.512-0600",
"value" : {
"name" : "FTBFConfig_v63",
"assigned" : "2017-12-01T16:31:20.512-0600"
}
},
{
"event" : "addConfiguration",
"timestamp" : "2017-12-01T17:06:27.344-0600",
"value" : {
"name" : "FTBFConfig_v64",
"assigned" : "2017-12-01T17:06:27.344-0600"
}
},
{
"event" : "addConfiguration",
"timestamp" : "2017-12-01T17:32:39.680-0600",
"value" : {
"name" : "FTBFConfig_v65",
"assigned" : "2017-12-01T17:32:39.680-0600"
}
},
{
"event" : "addConfiguration",
"timestamp" : "2017-12-01T20:38:46.106-0600",
"value" : {
"name" : "FTBFConfig_v66",
"assigned" : "2017-12-01T20:38:46.106-0600"
}
},
{
"event" : "addConfiguration",
"timestamp" : "2017-12-01T21:24:57.572-0600",
"value" : {
"name" : "FTBFConfig_v67",
"assigned" : "2017-12-01T21:24:57.572-0600"
}
},
{
"event" : "addConfiguration",
"timestamp" : "2017-12-01T21:42:57.209-0600",
"value" : {
"name" : "FTBFConfig_v68",
"assigned" : "2017-12-01T21:42:57.209-0600"
}
},
{
"event" : "addConfiguration",
"timestamp" : "2017-12-01T21:44:55.810-0600",
"value" : {
"name" : "FTBFConfig_v69",
"assigned" : "2017-12-01T21:44:55.810-0600"
}
},
{
"event" : "addConfiguration",
"timestamp" : "2017-12-01T21:59:15.023-0600",
"value" : {
"name" : "FTBFConfig_v70",
"assigned" : "2017-12-01T21:59:15.023-0600"
}
},
{
"event" : "addConfiguration",
"timestamp" : "2017-12-01T22:00:01.739-0600",
"value" : {
"name" : "FTBFConfigNim_v0",
"assigned" : "2017-12-01T22:00:01.739-0600"
}
},
{
"event" : "addConfiguration",
"timestamp" : "2017-12-01T22:13:03.457-0600",
"value" : {
"name" : "FTBFConfigNim_v1",
"assigned" : "2017-12-01T22:13:03.457-0600"
}
},
{
"event" : "addConfiguration",
"timestamp" : "2017-12-01T22:15:50.675-0600",
"value" : {
"name" : "FTBFConfigNim_v2",
"assigned" : "2017-12-01T22:15:50.675-0600"
}
},
{
"event" : "addConfiguration",
"timestamp" : "2017-12-01T22:16:58.618-0600",
"value" : {
"name" : "FTBFConfigNim_v3",
"assigned" : "2017-12-01T22:16:58.618-0600"
}
},
{
"event" : "addConfiguration",
"timestamp" : "2017-12-01T22:19:01.725-0600",
"value" : {
"name" : "FTBFConfigNim_v4",
"assigned" : "2017-12-01T22:19:01.725-0600"
}
},
{
"event" : "addConfiguration",
"timestamp" : "2017-12-01T22:21:52.404-0600",
"value" : {
"name" : "FTBFConfigNim_v5",
"assigned" : "2017-12-01T22:21:52.404-0600"
}
},
{
"event" : "addConfiguration",
"timestamp" : "2017-12-01T22:23:07.746-0600",
"value" : {
"name" : "FTBFConfigNim_v6",
"assigned" : "2017-12-01T22:23:07.746-0600"
}
},
{
"event" : "addConfiguration",
"timestamp" : "2017-12-01T22:25:12.323-0600",
"value" : {
"name" : "FTBFConfigNim_v7",
"assigned" : "2017-12-01T22:25:12.323-0600"
}
},
{
"event" : "addConfiguration",
"timestamp" : "2017-12-01T22:26:59.849-0600",
"value" : {
"name" : "FTBFConfigNim_v8",
"assigned" : "2017-12-01T22:26:59.849-0600"
}
},
{
"event" : "addConfiguration",
"timestamp" : "2017-12-01T22:29:24.137-0600",
"value" : {
"name" : "FTBFConfigNim_v9",
"assigned" : "2017-12-01T22:29:24.136-0600"
}
},
{
"event" : "addConfiguration",
"timestamp" : "2017-12-01T22:52:29.232-0600",
"value" : {
"name" : "FTBFConfigNim_v10",
"assigned" : "2017-12-01T22:52:29.232-0600"
}
},
{
"event" : "addConfiguration",
"timestamp" : "2017-12-01T22:57:23.761-0600",
"value" : {
"name" : "FTBFConfigNim_v11",
"assigned" : "2017-12-01T22:57:23.761-0600"
}
},
{
"event" : "addConfiguration",
"timestamp" : "2017-12-01T23:00:02.276-0600",
"value" : {
"name" : "FTBFConfigNim_v12",
"assigned" : "2017-12-01T23:00:02.276-0600"
}
},
{
"event" : "addConfiguration",
"timestamp" : "2017-12-01T23:52:30.379-0600",
"value" : {
"name" : "FTBFConfigNim_v13",
"assigned" : "2017-12-01T23:52:30.379-0600"
}
},
{
"event" : "addConfiguration",
"timestamp" : "2017-12-01T23:58:04.759-0600",
"value" : {
"name" : "FTBFConfigNim_v14",
"assigned" : "2017-12-01T23:58:04.759-0600"
}
},
{
"event" : "addConfiguration",
"timestamp" : "2017-12-02T00:00:29.026-0600",
"value" : {
"name" : "FTBFConfigNim_v15",
"assigned" : "2017-12-02T00:00:29.026-0600"
}
},
{
"event" : "addConfiguration",
"timestamp" : "2017-12-02T00:13:04.125-0600",
"value" : {
"name" : "FTBFConfigNim_v16",
"assigned" : "2017-12-02T00:13:04.125-0600"
}
},
{
"event" : "addConfiguration",
"timestamp" : "2017-12-02T00:28:23.124-0600",
"value" : {
"name" : "FTBFConfigNim_v17",
"assigned" : "2017-12-02T00:28:23.124-0600"
}
},
{
"event" : "addConfiguration",
"timestamp" : "2017-12-02T00:29:29.151-0600",
"value" : {
"name" : "FTBFConfigNim_v18",
"assigned" : "2017-12-02T00:29:29.151-0600"
}
},
{
"event" : "addConfiguration",
"timestamp" : "2017-12-02T00:31:05.339-0600",
"value" : {
"name" : "FTBFConfigNim_v19",
"assigned" : "2017-12-02T00:31:05.339-0600"
}
},
{
"event" : "addConfiguration",
"timestamp" : "2017-12-02T00:57:22.128-0600",
"value" : {
"name" : "FTBFConfigNim_v20",
"assigned" : "2017-12-02T00:57:22.128-0600"
}
},
{
"event" : "addConfiguration",
"timestamp" : "2017-12-02T10:57:56.662-0600",
"value" : {
"name" : "FTBFConfigNim_v21",
"assigned" : "2017-12-02T10:57:56.662-0600"
}
},
{
"event" : "addConfiguration",
"timestamp" : "2017-12-02T11:08:12.823-0600",
"value" : {
"name" : "FTBFConfigNim_v22",
"assigned" : "2017-12-02T11:08:12.823-0600"
}
},
{
"event" : "addConfiguration",
"timestamp" : "2017-12-02T11:12:34.368-0600",
"value" : {
"name" : "FTBFConfigNim_v23",
"assigned" : "2017-12-02T11:12:34.368-0600"
}
},
{
"event" : "addConfiguration",
"timestamp" : "2017-12-02T11:18:37.188-0600",
"value" : {
"name" : "FTBFConfigNim_v24",
"assigned" : "2017-12-02T11:18:37.188-0600"
}
},
{
"event" : "addConfiguration",
"timestamp" : "2017-12-02T11:27:00.403-0600",
"value" : {
"name" : "FTBFConfigNim_v25",
"assigned" : "2017-12-02T11:27:00.402-0600"
}
},
{
"event" : "addConfiguration",
"timestamp" : "2017-12-02T11:38:31.441-0600",
"value" : {
"name" : "FTBFConfigNim_v26",
"assigned" : "2017-12-02T11:38:31.441-0600"
}
},
{
"event" : "addConfiguration",
"timestamp" : "2017-12-02T11:49:02.541-0600",
"value" : {
"name" : "FTBFConfigNim_v27",
"assigned" : "2017-12-02T11:49:02.541-0600"
}
},
{
"event" : "addConfiguration",
"timestamp" : "2017-12-02T11:55:03.947-0600",
"value" : {
"name" : "FTBFConfigNim_v28",
"assigned" : "2017-12-02T11:55:03.947-0600"
}
},
{
"event" : "addConfiguration",
"timestamp" : "2017-12-02T12:06:20.815-0600",
"value" : {
"name" : "FTBFConfigNim_v29",
"assigned" : "2017-12-02T12:06:20.815-0600"
}
},
{
"event" : "addConfiguration",
"timestamp" : "2017-12-02T12:24:09.440-0600",
"value" : {
"name" : "FTBFConfig_v71",
"assigned" : "2017-12-02T12:24:09.440-0600"
}
},
{
"event" : "addConfiguration",
"timestamp" : "2017-12-02T12:43:30.194-0600",
"value" : {
"name" : "FTBFConfig_v72",
"assigned" : "2017-12-02T12:43:30.194-0600"
}
},
{
"event" : "addConfiguration",
"timestamp" : "2017-12-02T13:55:29.748-0600",
"value" : {
"name" : "FTBFConfig_v73",
"assigned" : "2017-12-02T13:55:29.748-0600"
}
},
{
"event" : "addConfiguration",
"timestamp" : "2017-12-02T14:09:02.025-0600",
"value" : {
"name" : "FTBFConfig_v74",
"assigned" : "2017-12-02T14:09:02.025-0600"
}
},
{
"event" : "addConfiguration",
"timestamp" : "2017-12-02T14:12:12.884-0600",
"value" : {
"name" : "FTBFConfig_v75",
"assigned" : "2017-12-02T14:12:12.884-0600"
}
},
{
"event" : "addConfiguration",
"timestamp" : "2017-12-02T19:05:48.015-0600",
"value" : {
"name" : "FTBFConfig_v76",
"assigned" : "2017-12-02T19:05:48.015-0600"
}
},
{
"event" : "addConfiguration",
"timestamp" : "2017-12-02T19:12:07.800-0600",
"value" : {
"name" : "FTBFConfig_v77",
"assigned" : "2017-12-02T19:12:07.800-0600"
}
},
{
"event" : "addConfiguration",
"timestamp" : "2017-12-03T14:03:42.985-0600",
"value" : {
"name" : "FTBFConfig_v78",
"assigned" : "2017-12-03T14:03:42.985-0600"
}
},
{
"event" : "addConfiguration",
"timestamp" : "2017-12-03T14:09:01.145-0600",
"value" : {
"name" : "FTBFConfig_v79",
"assigned" : "2017-12-03T14:09:01.144-0600"
}
},
{
"event" : "addConfiguration",
"timestamp" : "2017-12-03T14:11:04.902-0600",
"value" : {
"name" : "FTBFConfig_v80",
"assigned" : "2017-12-03T14:11:04.901-0600"
}
},
{
"event" : "addConfiguration",
"timestamp" : "2017-12-03T14:22:27.929-0600",
"value" : {
"name" : "FTBFConfig_v81",
"assigned" : "2017-12-03T14:22:27.929-0600"
}
},
{
"event" : "addConfiguration",
"timestamp" : "2017-12-03T14:40:32.679-0600",
"value" : {
"name" : "FTBFConfig_v82",
"assigned" : "2017-12-03T14:40:32.679-0600"
}
},
{
"event" : "addConfiguration",
"timestamp" : "2017-12-03T14:44:59.968-0600",
"value" : {
"name" : "FTBFConfig_v83",
"assigned" : "2017-12-03T14:44:59.968-0600"
}
},
{
"event" : "addConfiguration",
"timestamp" : "2017-12-04T14:51:25.443-0600",
"value" : {
"name" : "FTBFConfig_v84",
"assigned" : "2017-12-04T14:51:25.443-0600"
}
},
{
"event" : "addConfiguration",
"timestamp" : "2017-12-04T14:55:38.564-0600",
"value" : {
"name" : "FTBFConfig_v85",
"assigned" : "2017-12-04T14:55:38.564-0600"
}
},
{
"event" : "addConfiguration",
"timestamp" : "2017-12-04T16:51:01.513-0600",
"value" : {
"name" : "FTBFConfig_v86",
"assigned" : "2017-12-04T16:51:01.512-0600"
}
},
{
"event" : "addConfiguration",
"timestamp" : "2017-12-04T16:56:42.137-0600",
"value" : {
"name" : "FTBFConfig_v87",
"assigned" : "2017-12-04T16:56:42.137-0600"
}
},
{
"event" : "addConfiguration",
"timestamp" : "2017-12-04T17:01:06.825-0600",
"value" : {
"name" : "FTBFConfig_v88",
"assigned" : "2017-12-04T17:01:06.825-0600"
}
},
{
"event" : "addConfiguration",
"timestamp" : "2017-12-04T17:03:51.885-0600",
"value" : {
"name" : "FTBFConfig_v89",
"assigned" : "2017-12-04T17:03:51.885-0600"
}
},
{
"event" : "addConfiguration",
"timestamp" : "2017-12-04T17:07:11.519-0600",
"value" : {
"name" : "FTBFConfig_v90",
"assigned" : "2017-12-04T17:07:11.519-0600"
}
},
{
"event" : "addConfiguration",
"timestamp" : "2017-12-04T17:09:20.616-0600",
"value" : {
"name" : "FTBFConfig_v91",
"assigned" : "2017-12-04T17:09:20.616-0600"
}
},
{
"event" : "addConfiguration",
"timestamp" : "2017-12-04T17:11:33.071-0600",
"value" : {
"name" : "FTBFConfig_v92",
"assigned" : "2017-12-04T17:11:33.071-0600"
}
},
{
"event" : "addConfiguration",
"timestamp" : "2017-12-04T21:05:15.699-0600",
"value" : {
"name" : "FTBFConfig_v93",
"assigned" : "2017-12-04T21:05:15.699-0600"
}
},
{
"event" : "addConfiguration",
"timestamp" : "2017-12-04T21:17:06.526-0600",
"value" : {
"name" : "FTBFConfig_v94",
"assigned" : "2017-12-04T21:17:06.526-0600"
}
},
{
"event" : "addConfiguration",
"timestamp" : "2017-12-04T21:41:12.277-0600",
"value" : {
"name" : "FTBFConfig_v95",
"assigned" : "2017-12-04T21:41:12.277-0600"
}
},
{
"event" : "addConfiguration",
"timestamp" : "2017-12-04T22:38:56.876-0600",
"value" : {
"name" : "FTBFConfig_v96",
"assigned" : "2017-12-04T22:38:56.876-0600"
}
},
{
"event" : "addConfiguration",
"timestamp" : "2017-12-04T23:01:07.362-0600",
"value" : {
"name" : "FTBFConfig_v97",
"assigned" : "2017-12-04T23:01:07.362-0600"
}
},
{
"event" : "addConfiguration",
"timestamp" : "2017-12-07T11:07:41.360-0600",
"value" : {
"name" : "FTBFConfig_v98",
"assigned" : "2017-12-07T11:07:41.360-0600"
}
},
{
"event" : "addConfiguration",
"timestamp" : "2017-12-07T11:49:54.051-0600",
"value" : {
"name" : "FTBFConfig_v99",
"assigned" : "2017-12-07T11:49:54.050-0600"
}
},
{
"event" : "addConfiguration",
"timestamp" : "2017-12-07T11:58:20.776-0600",
"value" : {
"name" : "FTBFConfig_v100",
"assigned" : "2017-12-07T11:58:20.776-0600"
}
},
{
"event" : "addConfiguration",
"timestamp" : "2017-12-08T13:30:42.836-0600",
"value" : {
"name" : "FTBFConfig_v101",
"assigned" : "2017-12-08T13:30:42.836-0600"
}
},
{
"event" : "addConfiguration",
"timestamp" : "2017-12-08T13:32:29.745-0600",
"value" : {
"name" : "FTBFConfig_v102",
"assigned" : "2017-12-08T13:32:29.745-0600"
}
},
{
"event" : "addConfiguration",
"timestamp" : "2017-12-12T11:02:59.499-0600",
"value" : {
"name" : "FTBFConfig_v103",
"assigned" : "2017-12-12T11:02:59.499-0600"
}
},
{
"event" : "addConfiguration",
"timestamp" : "2017-12-12T13:50:53.690-0600",
"value" : {
"name" : "FTBFConfig_v104",
"assigned" : "2017-12-12T13:50:53.689-0600"
}
},
{
"event" : "addConfiguration",
"timestamp" : "2017-12-12T15:24:59.717-0600",
"value" : {
"name" : "FTBFConfig_v105",
"assigned" : "2017-12-12T15:24:59.717-0600"
}
},
{
"event" : "addConfiguration",
"timestamp" : "2017-12-13T10:24:18.212-0600",
"value" : {
"name" : "FTBFConfig_v106",
"assigned" : "2017-12-13T10:24:18.212-0600"
}
},
{
"event" : "addConfiguration",
"timestamp" : "2017-12-13T10:26:57.002-0600",
"value" : {
"name" : "FTBFConfig_v107",
"assigned" : "2017-12-13T10:26:57.002-0600"
}
},
{
"event" : "addConfiguration",
"timestamp" : "2018-02-01T21:14:20.211-0600",
"value" : {
"name" : "FTBFConfig_v108",
"assigned" : "2018-02-01T21:14:20.211-0600"
}
},
{
"event" : "addConfiguration",
"timestamp" : "2018-02-01T21:20:57.289-0600",
"value" : {
"name" : "FTBFConfig_v109",
"assigned" : "2018-02-01T21:20:57.289-0600"
}
},
{
"event" : "addConfiguration",
"timestamp" : "2018-02-02T11:25:28.237-0600",
"value" : {
"name" : "FTBFConfig_v110",
"assigned" : "2018-02-02T11:25:28.237-0600"
}
},
{
"event" : "addConfiguration",
"timestamp" : "2018-02-02T11:37:07.062-0600",
"value" : {
"name" : "FTBFConfig_v111",
"assigned" : "2018-02-02T11:37:07.061-0600"
}
},
{
"event" : "addConfiguration",
"timestamp" : "2018-02-02T11:47:09.487-0600",
"value" : {
"name" : "FTBFConfig_v112",
"assigned" : "2018-02-02T11:47:09.486-0600"
}
},
{
"event" : "addConfiguration",
"timestamp" : "2018-02-02T11:53:30.742-0600",
"value" : {
"name" : "FTBFConfig_v113",
"assigned" : "2018-02-02T11:53:30.742-0600"
}
},
{
"event" : "addConfiguration",
"timestamp" : "2018-02-02T12:00:46.790-0600",
"value" : {
"name" : "FTBFConfig_v114",
"assigned" : "2018-02-02T12:00:46.790-0600"
}
},
{
"event" : "addConfiguration",
"timestamp" : "2018-02-02T12:27:08.286-0600",
"value" : {
"name" : "FTBFConfig_v115",
"assigned" : "2018-02-02T12:27:08.286-0600"
}
},
{
"event" : "addConfiguration",
"timestamp" : "2018-02-02T14:28:47.767-0600",
"value" : {
"name" : "FTBFConfig_v116",
"assigned" : "2018-02-02T14:28:47.767-0600"
}
},
{
"event" : "addConfiguration",
"timestamp" : "2018-02-02T14:30:14.114-0600",
"value" : {
"name" : "FTBFConfig_v117",
"assigned" : "2018-02-02T14:30:14.113-0600"
}
},
{
"event" : "addConfiguration",
"timestamp" : "2018-02-02T14:33:55.300-0600",
"value" : {
"name" : "FTBFConfig_v118",
"assigned" : "2018-02-02T14:33:55.300-0600"
}
},
{
"event" : "addConfiguration",
"timestamp" : "2018-02-02T14:36:21.884-0600",
"value" : {
"name" : "FTBFConfig_v119",
"assigned" : "2018-02-02T14:36:21.884-0600"
}
},
{
"event" : "addConfiguration",
"timestamp" : "2018-02-02T14:38:35.245-0600",
"value" : {
"name" : "FTBFConfig_v120",
"assigned" : "2018-02-02T14:38:35.244-0600"
}
},
{
"event" : "addConfiguration",
"timestamp" : "2018-02-02T14:41:44.574-0600",
"value" : {
"name" : "FTBFConfig_v121",
"assigned" : "2018-02-02T14:41:44.574-0600"
}
},
{
"event" : "addConfiguration",
"timestamp" : "2018-02-02T14:50:18.529-0600",
"value" : {
"name" : "FTBFConfig_v122",
"assigned" : "2018-02-02T14:50:18.529-0600"
}
},
{
"event" : "addConfiguration",
"timestamp" : "2018-02-02T14:52:51.416-0600",
"value" : {
"name" : "FTBFConfig_v123",
"assigned" : "2018-02-02T14:52:51.415-0600"
}
},
{
"event" : "addConfiguration",
"timestamp" : "2018-02-02T14:59:44.720-0600",
"value" : {
"name" : "FTBFConfig_v124",
"assigned" : "2018-02-02T14:59:44.720-0600"
}
},
{
"event" : "addConfiguration",
"timestamp" : "2018-02-02T15:04:02.810-0600",
"value" : {
"name" : "FTBFConfig_v125",
"assigned" : "2018-02-02T15:04:02.809-0600"
}
},
{
"event" : "addConfiguration",
"timestamp" : "2018-02-02T15:50:06.016-0600",
"value" : {
"name" : "FTBFConfig_v126",
"assigned" : "2018-02-02T15:50:06.016-0600"
}
},
{
"event" : "addConfiguration",
"timestamp" : "2018-02-02T15:51:25.463-0600",
"value" : {
"name" : "FTBFConfig_v127",
"assigned" : "2018-02-02T15:51:25.463-0600"
}
},
{
"event" : "addConfiguration",
"timestamp" : "2018-02-02T15:52:30.624-0600",
"value" : {
"name" : "FTBFConfig_v128",
"assigned" : "2018-02-02T15:52:30.624-0600"
}
},
{
"event" : "addConfiguration",
"timestamp" : "2018-02-02T16:02:39.512-0600",
"value" : {
"name" : "FTBFConfig_v129",
"assigned" : "2018-02-02T16:02:39.512-0600"
}
},
{
"event" : "addConfiguration",
"timestamp" : "2018-02-02T16:08:39.001-0600",
"value" : {
"name" : "FTBFConfig_v130",
"assigned" : "2018-02-02T16:08:39.001-0600"
}
},
{
"event" : "addConfiguration",
"timestamp" : "2018-02-02T16:11:24.764-0600",
"value" : {
"name" : "FTBFConfig_v131",
"assigned" : "2018-02-02T16:11:24.764-0600"
}
},
{
"event" : "addConfiguration",
"timestamp" : "2018-02-02T16:12:52.620-0600",
"value" : {
"name" : "FTBFConfig_v132",
"assigned" : "2018-02-02T16:12:52.619-0600"
}
},
{
"event" : "addConfiguration",
"timestamp" : "2018-02-02T16:14:23.177-0600",
"value" : {
"name" : "FTBFConfig_v133",
"assigned" : "2018-02-02T16:14:23.177-0600"
}
},
{
"event" : "addConfiguration",
"timestamp" : "2018-02-02T16:26:16.094-0600",
"value" : {
"name" : "FTBFConfig_v134",
"assigned" : "2018-02-02T16:26:16.093-0600"
}
},
{
"event" : "addConfiguration",
"timestamp" : "2018-02-02T16:27:03.186-0600",
"value" : {
"name" : "FTBFConfig_v135",
"assigned" : "2018-02-02T16:27:03.186-0600"
}
},
{
"event" : "addConfiguration",
"timestamp" : "2018-02-02T16:29:24.500-0600",
"value" : {
"name" : "FTBFConfig_v136",
"assigned" : "2018-02-02T16:29:24.499-0600"
}
},
{
"event" : "addConfiguration",
"timestamp" : "2018-02-02T16:31:34.996-0600",
"value" : {
"name" : "FTBFConfig_v137",
"assigned" : "2018-02-02T16:31:34.996-0600"
}
},
{
"event" : "addConfiguration",
"timestamp" : "2018-02-02T16:34:07.728-0600",
"value" : {
"name" : "FTBFConfig_v138",
"assigned" : "2018-02-02T16:34:07.727-0600"
}
},
{
"event" : "addConfiguration",
"timestamp" : "2018-02-02T17:39:23.742-0600",
"value" : {
"name" : "FTBFConfig_v139",
"assigned" : "2018-02-02T17:39:23.741-0600"
}
},
{
"event" : "addConfiguration",
"timestamp" : "2018-02-02T17:42:45.903-0600",
"value" : {
"name" : "FTBFConfig_v140",
"assigned" : "2018-02-02T17:42:45.903-0600"
}
},
{
"event" : "addConfiguration",
"timestamp" : "2018-02-02T17:47:31.054-0600",
"value" : {
"name" : "FTBFConfig_v141",
"assigned" : "2018-02-02T17:47:31.054-0600"
}
},
{
"event" : "addConfiguration",
"timestamp" : "2018-02-02T17:53:54.994-0600",
"value" : {
"name" : "FTBFConfig_v142",
"assigned" : "2018-02-02T17:53:54.994-0600"
}
}
],
"created" : "2017-11-08T15:56:02.326-0600"
},
"_id" : {
"$oid" : "30f6bcd3392945cf97a478d7"
},
"collection" : "ARTDAQAggregatorSourceConfiguration",
"aliases" : {
"active" : [

],
"history" : [

]
},
"runs" : [

],
"attachments" : [

],
"configtype" : "notprovided"
}